
//	Action Half-Life 2, Weapons, Sniper Rifle, Polymer Base
//	Texture @ AHL2 Team
//	Shaders @ Reverend V92
//	Update: 2017/04/05

VertexLitGeneric
{

	$basetexture models/jessev92/ahl2/weapons/sniper/base_d
	$bumpmap models/jessev92/ahl2/weapons/sniper/base_b
	$lightwarptexture dev/identitylightwarp

	$nocull 0
	$halflambert 1
	$ambientocclusion 1
	$alphatest 0

	$phong 0
	$phongexponent 30
	$phongboost 4
	$phongfresnelranges "[ 1 1 1 ]"
	
	$rimlight 1
	$rimlightexponent 4
	$rimlightboost 0.75

	$detail detail/metal_detail_01
	$detailscale 4
	$detailblendfactor 1
	$detailblendmode 0

}
