VertexLitGeneric
{
	"$baseTexture" "models/jessev92/halo/reach/weapons/srs99/sniper_diffuse"
	"$bumpmap" "models/jessev92/halo/reach/weapons/srs99/sniper_normal"

	"$envmaptint"	"[0.01 0.01 0.01]"

	"$phong" "1"
	"$phongboost" "25"
	"$phongexponent" "85"
	"$phongexponenttexture" "models/jessev92/halo/reach/common/halosp"
	"$phongalbedotint" "1"
	"$phongfresnelranges"	"[1 1 1]"


	"$rimlight" "1"
	"$rimlightexponent" "50"
	"$rimlightboost" "0.05"
}
