// Created by Crowbar 0.29.0.0
version 1
nodes
  0 "Uspbody" -1
  1 "slidelock" 0
  2 "trigger" 0
  3 "Slide" -1
  4 "bullet" -1
  5 "magazine" -1
  6 "L_Armdummy" -1
  7 "L_Upperarm" 6
  8 "L_Forearm" 7
  9 "L_Wrist" 8
  10 "L_Thumb1" 9
  11 "L_Thumb2" 10
  12 "L_Thumb3" 11
  13 "L_Index1" 9
  14 "L_Index2" 13
  15 "L_Index3" 14
  16 "L_Mid1" 9
  17 "L_Mid2" 16
  18 "L_Mid3" 17
  19 "L_Ring1" 9
  20 "L_Ring2" 19
  21 "L_Ring3" 20
  22 "L_Pinky1" 9
  23 "L_Pinky2" 22
  24 "L_Pinky3" 23
  25 "R_Armdummy" -1
  26 "R_Upperarm" 25
  27 "R_Forearm" 26
  28 "R_Wrist" 27
  29 "R_Thumb1" 28
  30 "R_Thumb2" 29
  31 "R_Thumb3" 30
  32 "R_Index1" 28
  33 "R_Index2" 32
  34 "R_Index3" 33
  35 "R_Mid1" 28
  36 "R_Mid2" 35
  37 "R_Mid3" 36
  38 "R_Ring1" 28
  39 "R_Ring2" 38
  40 "R_Ring3" 39
  41 "R_Pinky1" 28
  42 "R_Pinky2" 41
  43 "R_Pinky3" 42
end
skeleton
  time 0
    0 2.896063 -11.364355 -3.646526 0.000000 0.000000 3.141522
    1 0.521396 0.046753 0.770672 0.000000 0.000000 0.000000
    2 -0.005094 -0.078348 0.408860 0.000000 0.000000 0.000000
    3 2.900607 -11.370662 -2.232954 0.000000 0.000000 3.141522
    4 2.897019 -9.679855 -2.458778 0.000000 0.000000 3.141522
    5 2.898540 -9.035817 -4.655078 0.000000 0.000000 3.141522
    6 3.249405 9.814375 0.374368 -3.141592 1.483530 3.141498
    7 -0.023288 0.041601 0.000000 0.004740 0.009998 -0.815304
    8 11.072352 -0.043444 0.000000 0.000000 0.000000 -1.058062
    9 8.108974 0.000000 0.000000 0.089918 -0.272638 0.294020
    10 0.758958 -0.993292 -0.533611 0.205838 0.381949 -0.048703
    11 1.920298 0.000000 0.000000 0.000000 0.000000 0.591214
    12 0.858253 0.000000 0.000000 0.000000 0.000000 -0.069433
    13 2.931400 -0.842323 0.160553 -0.023245 0.243344 -0.104598
    14 1.836085 0.000000 0.000000 0.000000 0.671952 0.000000
    15 0.853993 0.000000 0.000000 0.002756 0.113413 0.024347
    16 2.964056 -0.072899 0.178523 0.000000 0.602139 -0.014689
    17 1.814736 0.000000 0.000000 -3.119857 1.274091 -3.141592
    18 0.982324 0.000000 0.000000 0.000000 0.794125 0.021736
    19 2.910363 0.632510 0.212797 -0.154527 0.688166 -0.043470
    20 1.751858 0.000001 -0.000001 -3.141592 1.108284 3.105025
    21 0.853992 0.000000 0.000000 0.000000 0.479966 0.000000
    22 2.899447 1.342926 0.078013 -0.336556 0.539470 -0.201904
    23 1.152892 0.000001 0.000000 0.168291 1.526324 0.224718
    24 0.748463 0.000000 0.000000 0.000000 1.099557 -0.057080
    25 -14.419725 4.488078 -1.399192 0.000000 1.170500 -0.000053
    26 -0.023287 0.041601 -0.000001 -0.199581 -0.716379 -0.558375
    27 11.072353 -0.043444 0.000000 0.000000 0.000000 -0.526484
    28 8.108975 0.000000 0.000000 3.280237 0.597816 0.430799
    29 0.788881 0.969696 -0.533611 -2.942718 0.181050 0.583005
    30 1.920301 0.000001 0.000000 0.000000 0.000000 0.395089
    31 0.858249 0.000000 0.000000 0.000000 0.000000 -0.069433
    32 2.955715 0.752580 0.160552 -3.141592 0.153540 -0.015796
    33 1.836087 0.000000 0.000000 0.000000 -1.210872 0.000000
    34 0.853994 0.000000 0.000001 -0.002756 -0.113413 0.024347
    35 2.964904 -0.017483 0.178523 -3.141592 0.078540 -0.015797
    36 1.814736 0.000000 0.000000 3.008255 -1.522979 -3.029193
    37 0.982325 0.000000 0.000000 0.000000 -0.095993 0.021736
    38 2.889732 -0.720928 0.212797 3.134936 0.435757 -0.054674
    39 1.751860 0.000001 0.000000 -3.141592 -1.430696 3.105023
    40 0.853992 0.000000 0.000000 0.000000 -0.043633 0.000000
    41 2.857167 -1.430682 0.078012 3.141592 0.763473 -0.015797
    42 1.152893 0.000000 0.000001 -0.017837 -1.140112 0.072801
    43 0.748464 0.000000 -0.000001 0.000000 -0.314159 -0.057080
  time 1
    0 2.896063 -10.680740 -3.689496 -0.037221 0.000000 3.141522
    1 0.521396 0.046753 0.770672 0.000000 0.000000 0.000000
    2 -0.005094 -0.359607 0.365890 -0.717157 0.000000 0.000000
    3 2.900607 -10.737830 -2.275924 -0.037221 0.000000 3.141522
    4 2.897019 -9.043117 -2.439246 -0.037197 0.000000 3.141522
    5 2.898540 -8.313138 -4.612108 -0.037221 0.000000 3.141522
    6 3.249405 9.814375 0.374368 -3.141592 1.483530 3.141498
    7 -0.023288 0.041601 0.000000 0.005950 0.010885 -0.752857
    8 11.072352 -0.043444 0.000000 0.000000 0.000000 -1.205110
    9 8.108974 0.000000 0.000000 0.089935 -0.277252 0.415747
    10 0.758958 -0.993292 -0.533611 0.205838 0.381949 -0.048703
    11 1.920298 0.000000 0.000000 0.000000 0.000000 0.591214
    12 0.858253 0.000000 0.000000 0.000000 0.000000 -0.069433
    13 2.931400 -0.842323 0.160553 -0.020225 0.187124 -0.103424
    14 1.836085 0.000000 0.000000 0.000000 1.385016 0.000000
    15 0.853993 0.000000 0.000000 0.005105 1.005023 0.028338
    16 2.964056 -0.072899 0.178523 0.000000 0.602139 -0.014689
    17 1.814736 0.000000 0.000000 -3.119857 1.274091 -3.141592
    18 0.982324 0.000000 0.000000 0.000000 0.794125 0.021736
    19 2.910363 0.632510 0.212797 -0.154527 0.688166 -0.043470
    20 1.751858 0.000001 -0.000001 -3.141592 1.108284 3.105025
    21 0.853992 0.000000 0.000000 0.000000 0.479966 0.000000
    22 2.899447 1.342926 0.078013 -0.336556 0.539470 -0.201904
    23 1.152892 0.000001 0.000000 0.168291 1.526324 0.224718
    24 0.748463 0.000000 0.000000 0.000000 1.099557 -0.057080
    25 -14.419725 4.488078 -1.399192 0.000000 1.170500 -0.000053
    26 -0.023287 0.041601 -0.000001 -0.266091 -0.726478 -0.440196
    27 11.072353 -0.043444 0.000000 0.000000 0.000000 -0.680080
    28 8.108975 0.000000 0.000000 3.300437 0.633104 0.530495
    29 0.788881 0.969696 -0.533611 -2.942718 0.181050 0.583005
    30 1.920301 0.000001 0.000000 0.000000 0.000000 0.395089
    31 0.858249 0.000000 0.000000 0.000000 0.000000 -0.069433
    32 2.955715 0.752580 0.160552 -3.141592 0.153540 -0.015796
    33 1.836087 0.000000 0.000000 0.000000 -1.210872 0.000000
    34 0.853994 0.000000 0.000001 -0.002756 -0.113413 0.024347
    35 2.964904 -0.017483 0.178523 -3.141592 0.078540 -0.015797
    36 1.814736 0.000000 0.000000 3.008255 -1.522979 -3.029193
    37 0.982325 0.000000 0.000000 0.000000 -0.095993 0.021736
    38 2.889732 -0.720928 0.212797 3.134936 0.435757 -0.054674
    39 1.751860 0.000001 0.000000 -3.141592 -1.430696 3.105023
    40 0.853992 0.000000 0.000000 0.000000 -0.043633 0.000000
    41 2.857167 -1.430682 0.078012 3.141592 0.763473 -0.015797
    42 1.152893 0.000000 0.000001 -0.017837 -1.140112 0.072801
    43 0.748464 0.000000 -0.000001 0.000000 -0.314159 -0.057080
  time 2
    0 2.896063 -9.766650 -3.748091 -0.055514 0.000000 3.141522
    1 0.521396 0.046753 0.770672 0.000000 0.000000 0.000000
    2 -0.005094 -0.359607 0.365890 -0.717157 0.000000 0.000000
    3 2.900607 -9.175282 -2.299362 -0.055514 0.000000 3.141522
    4 2.897019 -8.726701 -2.275179 -0.089477 0.000000 3.141522
    5 2.898540 -7.383422 -4.623827 -0.055514 0.000000 3.141522
    6 3.249405 9.814375 0.374368 -3.141592 1.483530 3.141498
    7 -0.023288 0.041601 0.000000 0.007113 0.011353 -0.674865
    8 11.072352 -0.043444 0.000000 0.000000 0.000000 -1.366079
    9 8.108974 0.000000 0.000000 0.090140 -0.279781 0.516806
    10 0.758958 -0.993292 -0.533611 0.205838 0.381949 -0.048703
    11 1.920298 0.000000 0.000000 0.000000 0.000000 0.591214
    12 0.858253 0.000000 0.000000 0.000000 0.000000 -0.069433
    13 2.931400 -0.842323 0.160553 -0.020225 0.187124 -0.103424
    14 1.836085 0.000000 0.000000 0.000000 1.385016 0.000000
    15 0.853993 0.000000 0.000000 0.005105 1.005023 0.028338
    16 2.964056 -0.072899 0.178523 0.000000 0.602139 -0.014689
    17 1.814736 0.000000 0.000000 -3.119857 1.274091 -3.141592
    18 0.982324 0.000000 0.000000 0.000000 0.794125 0.021736
    19 2.910363 0.632510 0.212797 -0.154527 0.688166 -0.043470
    20 1.751858 0.000001 -0.000001 -3.141592 1.108284 3.105025
    21 0.853992 0.000000 0.000000 0.000000 0.479966 0.000000
    22 2.899447 1.342926 0.078013 -0.336556 0.539470 -0.201904
    23 1.152892 0.000001 0.000000 0.168291 1.526324 0.224718
    24 0.748463 0.000000 0.000000 0.000000 1.099557 -0.057080
    25 -14.419725 4.488078 -1.399192 0.000000 1.170500 -0.000053
    26 -0.023287 0.041601 -0.000001 -0.332004 -0.734748 -0.306379
    27 11.072353 -0.043444 0.000000 0.000000 0.000000 -0.822238
    28 8.108975 0.000000 0.000000 3.282235 0.668392 0.577401
    29 0.788881 0.969696 -0.533611 -2.942718 0.181050 0.583005
    30 1.920301 0.000001 0.000000 0.000000 0.000000 0.395089
    31 0.858249 0.000000 0.000000 0.000000 0.000000 -0.069433
    32 2.955715 0.752580 0.160552 -3.141592 0.153540 -0.015796
    33 1.836087 0.000000 0.000000 0.000000 -1.210872 0.000000
    34 0.853994 0.000000 0.000001 -0.002756 -0.113413 0.024347
    35 2.964904 -0.017483 0.178523 -3.141592 0.078540 -0.015797
    36 1.814736 0.000000 0.000000 3.008255 -1.522979 -3.029193
    37 0.982325 0.000000 0.000000 0.000000 -0.095993 0.021736
    38 2.889732 -0.720928 0.212797 3.134936 0.435757 -0.054674
    39 1.751860 0.000001 0.000000 -3.141592 -1.430696 3.105023
    40 0.853992 0.000000 0.000000 0.000000 -0.043633 0.000000
    41 2.857167 -1.430682 0.078012 3.141592 0.763473 -0.015797
    42 1.152893 0.000000 0.000001 -0.017837 -1.140112 0.072801
    43 0.748464 0.000000 -0.000001 0.000000 -0.314159 -0.057080
  time 3
    0 2.896063 -9.766650 -3.709028 0.111504 0.000000 3.141522
    1 0.521396 0.046753 0.770672 0.000000 0.000000 0.000000
    2 -0.005094 -0.359607 0.365890 -0.717157 0.000000 0.000000
    3 2.900607 -8.378383 -2.443898 0.111504 0.000000 3.141522
    4 2.897019 -8.464975 -2.212677 0.043567 0.000000 3.141522
    5 2.898540 -7.563115 -4.971494 0.111504 0.000000 3.141522
    6 3.249405 9.814375 0.374368 -3.141592 1.483530 3.141498
    7 -0.023288 0.041601 0.000000 0.004129 0.007050 -0.659795
    8 11.072352 -0.043444 0.000000 0.000000 0.000000 -1.279506
    9 8.108974 0.000000 0.000000 0.089713 -0.259587 0.248904
    10 0.758958 -0.993292 -0.533611 0.205838 0.381949 -0.048703
    11 1.920298 0.000000 0.000000 0.000000 0.000000 0.591214
    12 0.858253 0.000000 0.000000 0.000000 0.000000 -0.069433
    13 2.931400 -0.842323 0.160553 -0.020225 0.187124 -0.103424
    14 1.836085 0.000000 0.000000 0.000000 1.385016 0.000000
    15 0.853993 0.000000 0.000000 0.005105 1.005023 0.028338
    16 2.964056 -0.072899 0.178523 0.000000 0.602139 -0.014689
    17 1.814736 0.000000 0.000000 -3.119857 1.274091 -3.141592
    18 0.982324 0.000000 0.000000 0.000000 0.794125 0.021736
    19 2.910363 0.632510 0.212797 -0.154527 0.688166 -0.043470
    20 1.751858 0.000001 -0.000001 -3.141592 1.108284 3.105025
    21 0.853992 0.000000 0.000000 0.000000 0.479966 0.000000
    22 2.899447 1.342926 0.078013 -0.336556 0.539470 -0.201904
    23 1.152892 0.000001 0.000000 0.168291 1.526324 0.224718
    24 0.748463 0.000000 0.000000 0.000000 1.099557 -0.057080
    25 -14.419725 4.488078 -1.399192 0.000000 1.170500 -0.000053
    26 -0.023287 0.041601 -0.000001 -0.279915 -0.706343 -0.332481
    27 11.072353 -0.043444 0.000000 0.000000 0.000000 -0.741831
    28 8.108975 0.000000 0.000000 3.081906 0.579227 0.311930
    29 0.788881 0.969696 -0.533611 -2.942718 0.181050 0.583005
    30 1.920301 0.000001 0.000000 0.000000 0.000000 0.395089
    31 0.858249 0.000000 0.000000 0.000000 0.000000 -0.069433
    32 2.955715 0.752580 0.160552 -3.141592 0.153540 -0.015796
    33 1.836087 0.000000 0.000000 0.000000 -1.210872 0.000000
    34 0.853994 0.000000 0.000001 -0.002756 -0.113413 0.024347
    35 2.964904 -0.017483 0.178523 -3.141592 0.078540 -0.015797
    36 1.814736 0.000000 0.000000 3.008255 -1.522979 -3.029193
    37 0.982325 0.000000 0.000000 0.000000 -0.095993 0.021736
    38 2.889732 -0.720928 0.212797 3.134936 0.435757 -0.054674
    39 1.751860 0.000001 0.000000 -3.141592 -1.430696 3.105023
    40 0.853992 0.000000 0.000000 0.000000 -0.043633 0.000000
    41 2.857167 -1.430682 0.078012 3.141592 0.763473 -0.015797
    42 1.152893 0.000000 0.000001 -0.017837 -1.140112 0.072801
    43 0.748464 0.000000 -0.000001 0.000000 -0.314159 -0.057080
  time 4
    0 2.896063 -9.895560 -3.701215 0.112774 0.000000 3.141522
    1 0.521396 0.046753 0.770672 0.000000 0.000000 0.000000
    2 -0.005094 -0.359607 0.365890 -0.717157 0.000000 0.000000
    3 2.900607 -9.069810 -2.373583 0.112774 0.000000 3.141522
    4 2.897019 -9.156402 -2.142362 0.044885 0.000000 3.141522
    5 2.898540 -7.692026 -4.967587 0.112774 0.000000 3.141522
    6 3.249405 9.814375 0.374368 -3.141592 1.483530 3.141498
    7 -0.023288 0.041601 0.000000 0.004033 0.007038 -0.671238
    8 11.072352 -0.043444 0.000000 0.000000 0.000000 -1.257839
    9 8.108974 0.000000 0.000000 0.089662 -0.259467 0.237430
    10 0.758958 -0.993292 -0.533611 0.205838 0.381949 -0.048703
    11 1.920298 0.000000 0.000000 0.000000 0.000000 0.591214
    12 0.858253 0.000000 0.000000 0.000000 0.000000 -0.069433
    13 2.931400 -0.842323 0.160553 -0.020225 0.187124 -0.103424
    14 1.836085 0.000000 0.000000 0.000000 1.385016 0.000000
    15 0.853993 0.000000 0.000000 0.005105 1.005023 0.028338
    16 2.964056 -0.072899 0.178523 0.000000 0.602139 -0.014689
    17 1.814736 0.000000 0.000000 -3.119857 1.274091 -3.141592
    18 0.982324 0.000000 0.000000 0.000000 0.794125 0.021736
    19 2.910363 0.632510 0.212797 -0.154527 0.688166 -0.043470
    20 1.751858 0.000001 -0.000001 -3.141592 1.108284 3.105025
    21 0.853992 0.000000 0.000000 0.000000 0.479966 0.000000
    22 2.899447 1.342926 0.078013 -0.336556 0.539470 -0.201904
    23 1.152892 0.000001 0.000000 0.168291 1.526324 0.224718
    24 0.748463 0.000000 0.000000 0.000000 1.099557 -0.057080
    25 -14.419725 4.488078 -1.399192 0.000000 1.170500 -0.000053
    26 -0.023287 0.041601 -0.000001 -0.271591 -0.705476 -0.350885
    27 11.072353 -0.043444 0.000000 0.000000 0.000000 -0.722289
    28 8.108975 0.000000 0.000000 3.086956 0.576057 0.307873
    29 0.788881 0.969696 -0.533611 -2.942718 0.181050 0.583005
    30 1.920301 0.000001 0.000000 0.000000 0.000000 0.395089
    31 0.858249 0.000000 0.000000 0.000000 0.000000 -0.069433
    32 2.955715 0.752580 0.160552 -3.141592 0.153540 -0.015796
    33 1.836087 0.000000 0.000000 0.000000 -1.210872 0.000000
    34 0.853994 0.000000 0.000001 -0.002756 -0.113413 0.024347
    35 2.964904 -0.017483 0.178523 -3.141592 0.078540 -0.015797
    36 1.814736 0.000000 0.000000 3.008255 -1.522979 -3.029193
    37 0.982325 0.000000 0.000000 0.000000 -0.095993 0.021736
    38 2.889732 -0.720928 0.212797 3.134936 0.435757 -0.054674
    39 1.751860 0.000001 0.000000 -3.141592 -1.430696 3.105023
    40 0.853992 0.000000 0.000000 0.000000 -0.043633 0.000000
    41 2.857167 -1.430682 0.078012 3.141592 0.763473 -0.015797
    42 1.152893 0.000000 0.000001 -0.017837 -1.140112 0.072801
    43 0.748464 0.000000 -0.000001 0.000000 -0.314159 -0.057080
  time 5
    0 2.896063 -10.028376 -3.693402 0.107972 0.000000 3.141522
    1 0.521396 0.046753 0.770672 0.000000 0.000000 0.000000
    2 -0.005094 -0.359607 0.365890 -0.717157 0.000000 0.000000
    3 2.900607 -9.882335 -2.287643 0.107972 0.000000 3.141522
    4 2.897019 -9.968927 -2.060328 0.040089 0.000000 3.141522
    5 2.898540 -7.820936 -4.948056 0.107972 0.000000 3.141522
    6 3.249405 9.814375 0.374368 -3.141592 1.483530 3.141498
    7 -0.023288 0.041601 0.000000 0.004045 0.007194 -0.683633
    8 11.072352 -0.043444 0.000000 0.000000 0.000000 -1.238387
    9 8.108974 0.000000 0.000000 0.089713 -0.259994 0.235125
    10 0.758958 -0.993292 -0.533611 0.205838 0.381949 -0.048703
    11 1.920298 0.000000 0.000000 0.000000 0.000000 0.591214
    12 0.858253 0.000000 0.000000 0.000000 0.000000 -0.069433
    13 2.931400 -0.842323 0.160553 -0.020225 0.187124 -0.103424
    14 1.836085 0.000000 0.000000 0.000000 1.385016 0.000000
    15 0.853993 0.000000 0.000000 0.005093 1.005023 0.028338
    16 2.964056 -0.072899 0.178523 0.000000 0.602139 -0.014689
    17 1.814736 0.000000 0.000000 -3.119857 1.274091 -3.141592
    18 0.982324 0.000000 0.000000 0.000000 0.794125 0.021736
    19 2.910363 0.632510 0.212797 -0.154527 0.688166 -0.043470
    20 1.751858 0.000001 -0.000001 -3.141592 1.108284 3.105025
    21 0.853992 0.000000 0.000000 0.000000 0.479966 0.000000
    22 2.899447 1.342926 0.078013 -0.336556 0.539470 -0.201904
    23 1.152892 0.000001 0.000000 0.168291 1.526324 0.224718
    24 0.748463 0.000000 0.000000 0.000000 1.099557 -0.057080
    25 -14.419725 4.488078 -1.399192 0.000000 1.170500 -0.000053
    26 -0.023287 0.041601 -0.000001 -0.264895 -0.705537 -0.368807
    27 11.072353 -0.043444 0.000000 0.000000 0.000000 -0.705405
    28 8.108975 0.000000 0.000000 3.098691 0.576388 0.312866
    29 0.788881 0.969696 -0.533611 -2.942718 0.181050 0.583005
    30 1.920301 0.000001 0.000000 0.000000 0.000000 0.395089
    31 0.858249 0.000000 0.000000 0.000000 0.000000 -0.069433
    32 2.955715 0.752580 0.160552 -3.141592 0.153540 -0.015796
    33 1.836087 0.000000 0.000000 0.000000 -1.210872 0.000000
    34 0.853994 0.000000 0.000001 -0.002756 -0.113413 0.024347
    35 2.964904 -0.017483 0.178523 -3.141592 0.078540 -0.015797
    36 1.814736 0.000000 0.000000 3.008255 -1.522979 -3.029193
    37 0.982325 0.000000 0.000000 0.000000 -0.095993 0.021736
    38 2.889732 -0.720928 0.212797 3.134936 0.435757 -0.054674
    39 1.751860 0.000001 0.000000 -3.141592 -1.430696 3.105023
    40 0.853992 0.000000 0.000000 0.000000 -0.043633 0.000000
    41 2.857167 -1.430682 0.078012 3.141592 0.763473 -0.015797
    42 1.152893 0.000000 0.000001 -0.017837 -1.140112 0.072801
    43 0.748464 0.000000 -0.000001 0.000000 -0.314159 -0.057080
  time 6
    0 2.896063 -10.169006 -3.689496 0.098290 0.000000 3.141522
    1 0.521396 0.046753 0.770672 0.000000 0.000000 0.000000
    2 -0.005094 -0.359607 0.369797 -0.717157 0.000000 0.000000
    3 2.900607 -10.034684 -2.279830 0.098290 0.000000 3.141522
    4 2.897019 -10.125182 -2.052516 0.030424 0.000000 3.141522
    5 2.898540 -7.949846 -4.920711 0.098290 0.000000 3.141522
    6 3.249405 9.814375 0.374368 -3.141592 1.483530 3.141498
    7 -0.023288 0.041601 0.000000 0.004129 0.007458 -0.696621
    8 11.072352 -0.043444 0.000000 0.000000 0.000000 -1.220773
    9 8.108974 0.000000 0.000000 0.089798 -0.261145 0.240150
    10 0.758958 -0.993292 -0.533611 0.205838 0.381949 -0.048703
    11 1.920298 0.000000 0.000000 0.000000 0.000000 0.591214
    12 0.858253 0.000000 0.000000 0.000000 0.000000 -0.069433
    13 2.931400 -0.842323 0.160553 -0.020225 0.187124 -0.103424
    14 1.836085 0.000000 0.000000 0.000000 1.385016 0.000000
    15 0.853993 0.000000 0.000000 0.005105 1.005050 0.028338
    16 2.964056 -0.072899 0.178523 0.000000 0.602139 -0.014689
    17 1.814736 0.000000 0.000000 -3.119857 1.274091 -3.141592
    18 0.982324 0.000000 0.000000 0.000000 0.794125 0.021736
    19 2.910363 0.632510 0.212797 -0.154527 0.688166 -0.043470
    20 1.751858 0.000001 -0.000001 -3.141592 1.108284 3.105025
    21 0.853992 0.000000 0.000000 0.000000 0.479966 0.000000
    22 2.899447 1.342926 0.078013 -0.336556 0.539470 -0.201904
    23 1.152892 0.000001 0.000000 0.168291 1.526324 0.224718
    24 0.748463 0.000000 0.000000 0.000000 1.099557 -0.057080
    25 -14.419725 4.488078 -1.399192 0.000000 1.170500 -0.000053
    26 -0.023287 0.041601 -0.000001 -0.258797 -0.706560 -0.387451
    27 11.072353 -0.043444 0.000000 0.000000 0.000000 -0.688733
    28 8.108975 0.000000 0.000000 3.115694 0.579416 0.324147
    29 0.788881 0.969696 -0.533611 -2.942718 0.181050 0.583005
    30 1.920301 0.000001 0.000000 0.000000 0.000000 0.395089
    31 0.858249 0.000000 0.000000 0.000000 0.000000 -0.069433
    32 2.955715 0.752580 0.160552 -3.141592 0.153540 -0.015796
    33 1.836087 0.000000 0.000000 0.000000 -1.210872 0.000000
    34 0.853994 0.000000 0.000001 -0.002756 -0.113413 0.024347
    35 2.964904 -0.017483 0.178523 -3.141592 0.078540 -0.015797
    36 1.814736 0.000000 0.000000 3.008255 -1.522979 -3.029193
    37 0.982325 0.000000 0.000000 0.000000 -0.095993 0.021736
    38 2.889732 -0.720928 0.212797 3.134936 0.435757 -0.054674
    39 1.751860 0.000001 0.000000 -3.141592 -1.430696 3.105023
    40 0.853992 0.000000 0.000000 0.000000 -0.043633 0.000000
    41 2.857167 -1.430682 0.078012 3.141592 0.763473 -0.015797
    42 1.152893 0.000000 0.000001 -0.017837 -1.140112 0.072801
    43 0.748464 0.000000 -0.000001 0.000000 -0.314159 -0.057080
  time 7
    0 2.896063 -10.313541 -3.681683 0.084997 0.000000 3.141522
    1 0.521396 0.046753 0.770672 0.000000 0.000000 0.000000
    2 -0.005094 -0.359607 0.365890 -0.717157 0.000000 0.000000
    3 2.900607 -10.198751 -2.272018 0.084997 0.000000 3.141522
    4 2.897019 -10.289249 -2.044703 0.017061 0.000000 3.141522
    5 2.898540 -8.078756 -4.885554 0.084997 0.000000 3.141522
    6 3.249405 9.814375 0.374368 -3.141592 1.483530 3.141498
    7 -0.023288 0.041601 0.000000 0.004248 0.007781 -0.710413
    8 11.072352 -0.043444 0.000000 0.000000 0.000000 -1.203841
    9 8.108974 0.000000 0.000000 0.089935 -0.262739 0.250276
    10 0.758958 -0.993292 -0.533611 0.205838 0.381949 -0.048703
    11 1.920298 0.000000 0.000000 0.000000 0.000000 0.591214
    12 0.858253 0.000000 0.000000 0.000000 0.000000 -0.069433
    13 2.931400 -0.842323 0.160553 -0.020225 0.187124 -0.103424
    14 1.836085 0.000000 0.000000 0.000000 1.385016 0.000000
    15 0.853993 0.000000 0.000000 0.005105 1.005023 0.028338
    16 2.964056 -0.072899 0.178523 0.000000 0.602139 -0.014689
    17 1.814736 0.000000 0.000000 -3.119857 1.274091 -3.141592
    18 0.982324 0.000000 0.000000 0.000000 0.794125 0.021736
    19 2.910363 0.632510 0.212797 -0.154527 0.688166 -0.043470
    20 1.751858 0.000001 -0.000001 -3.141592 1.108284 3.105025
    21 0.853992 0.000000 0.000000 0.000000 0.479966 0.000000
    22 2.899447 1.342926 0.078013 -0.336556 0.539470 -0.201904
    23 1.152892 0.000001 0.000000 0.168291 1.526324 0.224718
    24 0.748463 0.000000 0.000000 0.000000 1.099557 -0.057080
    25 -14.419725 4.488078 -1.399192 0.000000 1.170500 -0.000053
    26 -0.023287 0.041601 -0.000001 -0.253680 -0.708047 -0.405554
    27 11.072353 -0.043444 0.000000 0.000000 0.000000 -0.673918
    28 8.108975 0.000000 0.000000 3.136984 0.584051 0.341224
    29 0.788881 0.969696 -0.533611 -2.942718 0.181050 0.583005
    30 1.920301 0.000001 0.000000 0.000000 0.000000 0.395089
    31 0.858249 0.000000 0.000000 0.000000 0.000000 -0.069433
    32 2.955715 0.752580 0.160552 -3.141592 0.153540 -0.015796
    33 1.836087 0.000000 0.000000 0.000000 -1.210872 0.000000
    34 0.853994 0.000000 0.000001 -0.002756 -0.113413 0.024347
    35 2.964904 -0.017483 0.178523 -3.141592 0.078540 -0.015797
    36 1.814736 0.000000 0.000000 3.008255 -1.522979 -3.029193
    37 0.982325 0.000000 0.000000 0.000000 -0.095993 0.021736
    38 2.889732 -0.720928 0.212797 3.134936 0.435757 -0.054674
    39 1.751860 0.000001 0.000000 -3.141592 -1.430696 3.105023
    40 0.853992 0.000000 0.000000 0.000000 -0.043633 0.000000
    41 2.857167 -1.430682 0.078012 3.141592 0.763473 -0.015797
    42 1.152893 0.000000 0.000001 -0.017837 -1.140112 0.072801
    43 0.748464 0.000000 -0.000001 0.000000 -0.314159 -0.057080
  time 8
    0 2.896063 -10.458077 -3.677777 0.069243 0.000000 3.141522
    1 0.521396 0.046753 0.770672 0.000000 0.000000 0.000000
    2 -0.005094 -0.355700 0.369797 -0.717157 0.000000 0.000000
    3 2.900607 -10.362819 -2.268111 0.069243 0.000000 3.141522
    4 2.897019 -10.461129 -2.040796 0.001355 0.000000 3.141522
    5 2.898540 -8.203760 -4.842584 0.069243 0.000000 3.141522
    6 3.249405 9.814375 0.374368 -3.141592 1.483530 3.141498
    7 -0.023288 0.041601 0.000000 0.004404 0.008213 -0.724442
    8 11.072352 -0.043444 0.000000 0.000000 0.000000 -1.188045
    9 8.108974 0.000000 0.000000 0.090055 -0.264584 0.264132
    10 0.758958 -0.993292 -0.533611 0.205838 0.381949 -0.048703
    11 1.920298 0.000000 0.000000 0.000000 0.000000 0.591214
    12 0.858253 0.000000 0.000000 0.000000 0.000000 -0.069433
    13 2.931400 -0.842323 0.160553 -0.020225 0.187124 -0.103424
    14 1.836085 0.000000 0.000000 0.000000 1.385016 0.000000
    15 0.853993 0.000000 0.000000 0.005093 1.005023 0.028338
    16 2.964056 -0.072899 0.178523 0.000000 0.602139 -0.014689
    17 1.814736 0.000000 0.000000 -3.119857 1.274091 -3.141592
    18 0.982324 0.000000 0.000000 0.000000 0.794125 0.021736
    19 2.910363 0.632510 0.212797 -0.154527 0.688166 -0.043470
    20 1.751858 0.000001 -0.000001 -3.141592 1.108284 3.105025
    21 0.853992 0.000000 0.000000 0.000000 0.479966 0.000000
    22 2.899447 1.342926 0.078013 -0.336556 0.539470 -0.201904
    23 1.152892 0.000001 0.000000 0.168291 1.526324 0.224718
    24 0.748463 0.000000 0.000000 0.000000 1.099557 -0.057080
    25 -14.419725 4.488078 -1.399192 0.000000 1.170500 -0.000053
    26 -0.023287 0.041601 -0.000001 -0.249011 -0.709905 -0.423717
    27 11.072353 -0.043444 0.000000 0.000000 0.000000 -0.659651
    28 8.108975 0.000000 0.000000 3.161180 0.589538 0.361912
    29 0.788881 0.969696 -0.533611 -2.942718 0.181050 0.583005
    30 1.920301 0.000001 0.000000 0.000000 0.000000 0.395089
    31 0.858249 0.000000 0.000000 0.000000 0.000000 -0.069433
    32 2.955715 0.752580 0.160552 -3.141592 0.153540 -0.015796
    33 1.836087 0.000000 0.000000 0.000000 -1.210872 0.000000
    34 0.853994 0.000000 0.000001 -0.002756 -0.113413 0.024347
    35 2.964904 -0.017483 0.178523 -3.141592 0.078540 -0.015797
    36 1.814736 0.000000 0.000000 3.008255 -1.522979 -3.029193
    37 0.982325 0.000000 0.000000 0.000000 -0.095993 0.021736
    38 2.889732 -0.720928 0.212797 3.134936 0.435757 -0.054674
    39 1.751860 0.000001 0.000000 -3.141592 -1.430696 3.105023
    40 0.853992 0.000000 0.000000 0.000000 -0.043633 0.000000
    41 2.857167 -1.430682 0.078012 3.141592 0.763473 -0.015797
    42 1.152893 0.000000 0.000001 -0.017837 -1.140112 0.072801
    43 0.748464 0.000000 -0.000001 0.000000 -0.314159 -0.057080
  time 9
    0 2.896063 -10.602613 -3.673870 0.052260 0.000000 3.141522
    1 0.521396 0.046753 0.770672 0.000000 0.000000 0.000000
    2 -0.005094 -0.355700 0.365890 -0.717179 0.000000 0.000000
    3 2.900607 -10.530792 -2.260299 0.052260 0.000000 3.141522
    4 2.897019 -10.633010 -2.032984 -0.015560 0.000000 3.141522
    5 2.898540 -8.324857 -4.799614 0.052260 0.000000 3.141522
    6 3.249405 9.814375 0.374368 -3.141592 1.483530 3.141498
    7 -0.023288 0.041601 0.000000 0.004596 0.008644 -0.738530
    8 11.072352 -0.043444 0.000000 0.000000 0.000000 -1.172628
    9 8.108974 0.000000 0.000000 0.090123 -0.266586 0.279724
    10 0.758958 -0.993292 -0.533611 0.205838 0.381949 -0.048703
    11 1.920298 0.000000 0.000000 0.000000 0.000000 0.591214
    12 0.858253 0.000000 0.000000 0.000000 0.000000 -0.069433
    13 2.931400 -0.842323 0.160553 -0.020225 0.187124 -0.103424
    14 1.836085 0.000000 0.000000 0.000000 1.385016 0.000000
    15 0.853993 0.000000 0.000000 0.005105 1.005050 0.028338
    16 2.964056 -0.072899 0.178523 0.000000 0.602139 -0.014689
    17 1.814736 0.000000 0.000000 -3.119857 1.274091 -3.141592
    18 0.982324 0.000000 0.000000 0.000000 0.794125 0.021736
    19 2.910363 0.632510 0.212797 -0.154527 0.688166 -0.043470
    20 1.751858 0.000001 -0.000001 -3.141592 1.108284 3.105025
    21 0.853992 0.000000 0.000000 0.000000 0.479966 0.000000
    22 2.899447 1.342926 0.078013 -0.336556 0.539470 -0.201904
    23 1.152892 0.000001 0.000000 0.168291 1.526324 0.224718
    24 0.748463 0.000000 0.000000 0.000000 1.099557 -0.057080
    25 -14.419725 4.488078 -1.399192 0.000000 1.170500 -0.000053
    26 -0.023287 0.041601 -0.000001 -0.244459 -0.712012 -0.441940
    27 11.072353 -0.043444 0.000000 0.000000 0.000000 -0.645554
    28 8.108975 0.000000 0.000000 3.186939 0.595026 0.384473
    29 0.788881 0.969696 -0.533611 -2.942718 0.181050 0.583005
    30 1.920301 0.000001 0.000000 0.000000 0.000000 0.395089
    31 0.858249 0.000000 0.000000 0.000000 0.000000 -0.069433
    32 2.955715 0.752580 0.160552 -3.141592 0.153540 -0.015796
    33 1.836087 0.000000 0.000000 0.000000 -1.210872 0.000000
    34 0.853994 0.000000 0.000001 -0.002756 -0.113413 0.024347
    35 2.964904 -0.017483 0.178523 -3.141592 0.078540 -0.015797
    36 1.814736 0.000000 0.000000 3.008255 -1.522979 -3.029193
    37 0.982325 0.000000 0.000000 0.000000 -0.095993 0.021736
    38 2.889732 -0.720928 0.212797 3.134936 0.435757 -0.054674
    39 1.751860 0.000001 0.000000 -3.141592 -1.430696 3.105023
    40 0.853992 0.000000 0.000000 0.000000 -0.043633 0.000000
    41 2.857167 -1.430682 0.078012 3.141592 0.763473 -0.015797
    42 1.152893 0.000000 0.000001 -0.017837 -1.140112 0.072801
    43 0.748464 0.000000 -0.000001 0.000000 -0.314159 -0.057080
  time 10
    0 2.896063 -10.739336 -3.666058 0.035276 0.000000 3.141522
    1 0.521396 0.046753 0.770672 0.000000 0.000000 0.000000
    2 -0.005094 -0.340075 0.373703 -0.679819 0.000000 0.000000
    3 2.900607 -10.694860 -2.256392 0.035276 0.000000 3.141522
    4 2.897019 -10.797077 -2.029077 -0.032584 0.000000 3.141522
    5 2.898540 -8.445955 -4.756644 0.035276 0.000000 3.141522
    6 3.249405 9.814375 0.374368 -3.141592 1.483530 3.141498
    7 -0.023288 0.041601 0.000000 0.004752 0.009100 -0.752500
    8 11.072352 -0.043444 0.000000 0.000000 0.000000 -1.157382
    9 8.108974 0.000000 0.000000 0.090140 -0.268587 0.295315
    10 0.758958 -0.993292 -0.533611 0.205838 0.381949 -0.048703
    11 1.920298 0.000000 0.000000 0.000000 0.000000 0.591214
    12 0.858253 0.000000 0.000000 0.000000 0.000000 -0.069433
    13 2.931400 -0.842323 0.160553 -0.020560 0.193656 -0.103543
    14 1.836085 0.000000 0.000000 0.000000 1.302379 0.000000
    15 0.853993 0.000000 0.000000 0.004410 0.901701 0.027487
    16 2.964056 -0.072899 0.178523 0.000000 0.602139 -0.014689
    17 1.814736 0.000000 0.000000 -3.119857 1.274091 -3.141592
    18 0.982324 0.000000 0.000000 0.000000 0.794125 0.021736
    19 2.910363 0.632510 0.212797 -0.154527 0.688166 -0.043470
    20 1.751858 0.000001 -0.000001 -3.141592 1.108284 3.105025
    21 0.853992 0.000000 0.000000 0.000000 0.479966 0.000000
    22 2.899447 1.342926 0.078013 -0.336556 0.539470 -0.201904
    23 1.152892 0.000001 0.000000 0.168291 1.526324 0.224718
    24 0.748463 0.000000 0.000000 0.000000 1.099557 -0.057080
    25 -14.419725 4.488078 -1.399192 0.000000 1.170500 -0.000053
    26 -0.023287 0.041601 -0.000001 -0.239856 -0.714087 -0.459982
    27 11.072353 -0.043444 0.000000 0.000000 0.000000 -0.631414
    28 8.108975 0.000000 0.000000 3.212879 0.599992 0.407123
    29 0.788881 0.969696 -0.533611 -2.942718 0.181050 0.583005
    30 1.920301 0.000001 0.000000 0.000000 0.000000 0.395089
    31 0.858249 0.000000 0.000000 0.000000 0.000000 -0.069433
    32 2.955715 0.752580 0.160552 -3.141592 0.153540 -0.015796
    33 1.836087 0.000000 0.000000 0.000000 -1.210872 0.000000
    34 0.853994 0.000000 0.000001 -0.002756 -0.113413 0.024347
    35 2.964904 -0.017483 0.178523 -3.141592 0.078540 -0.015797
    36 1.814736 0.000000 0.000000 3.008255 -1.522979 -3.029193
    37 0.982325 0.000000 0.000000 0.000000 -0.095993 0.021736
    38 2.889732 -0.720928 0.212797 3.134936 0.435757 -0.054674
    39 1.751860 0.000001 0.000000 -3.141592 -1.430696 3.105023
    40 0.853992 0.000000 0.000000 0.000000 -0.043633 0.000000
    41 2.857167 -1.430682 0.078012 3.141592 0.763473 -0.015797
    42 1.152893 0.000000 0.000001 -0.017837 -1.140112 0.072801
    43 0.748464 0.000000 -0.000001 0.000000 -0.314159 -0.057080
  time 11
    0 2.896063 -10.872152 -3.662151 0.019523 0.000000 3.141522
    1 0.521396 0.046753 0.770672 0.000000 0.000000 0.000000
    2 -0.005094 -0.312730 0.377609 -0.597635 0.000000 0.000000
    3 2.900607 -10.847208 -2.248580 0.019523 0.000000 3.141522
    4 2.897019 -10.957238 -2.029077 -0.048290 0.000000 3.141522
    5 2.898540 -8.563146 -4.717580 0.019523 0.000000 3.141522
    6 3.249405 9.814375 0.374368 -3.141592 1.483530 3.141498
    7 -0.023288 0.041601 0.000000 0.004896 0.009495 -0.765935
    8 11.072352 -0.043444 0.000000 0.000000 0.000000 -1.142060
    9 8.108974 0.000000 0.000000 0.090140 -0.270433 0.309171
    10 0.758958 -0.993292 -0.533611 0.205838 0.381949 -0.048703
    11 1.920298 0.000000 0.000000 0.000000 0.000000 0.591214
    12 0.858253 0.000000 0.000000 0.000000 0.000000 -0.069433
    13 2.931400 -0.842323 0.160553 -0.020944 0.200607 -0.103675
    14 1.836085 0.000000 0.000000 0.000000 1.214169 0.000000
    15 0.853993 0.000000 0.000000 0.003895 0.791413 0.026804
    16 2.964056 -0.072899 0.178523 0.000000 0.602139 -0.014689
    17 1.814736 0.000000 0.000000 -3.119857 1.274091 -3.141592
    18 0.982324 0.000000 0.000000 0.000000 0.794125 0.021736
    19 2.910363 0.632510 0.212797 -0.154527 0.688166 -0.043470
    20 1.751858 0.000001 -0.000001 -3.141592 1.108284 3.105025
    21 0.853992 0.000000 0.000000 0.000000 0.479966 0.000000
    22 2.899447 1.342926 0.078013 -0.336556 0.539470 -0.201904
    23 1.152892 0.000001 0.000000 0.168291 1.526324 0.224718
    24 0.748463 0.000000 0.000000 0.000000 1.099557 -0.057080
    25 -14.419725 4.488078 -1.399192 0.000000 1.170500 -0.000053
    26 -0.023287 0.041601 -0.000001 -0.234722 -0.716008 -0.478386
    27 11.072353 -0.043444 0.000000 0.000000 0.000000 -0.616092
    28 8.108975 0.000000 0.000000 3.237330 0.603776 0.427366
    29 0.788881 0.969696 -0.533611 -2.942718 0.181050 0.583005
    30 1.920301 0.000001 0.000000 0.000000 0.000000 0.395089
    31 0.858249 0.000000 0.000000 0.000000 0.000000 -0.069433
    32 2.955715 0.752580 0.160552 -3.141592 0.153540 -0.015796
    33 1.836087 0.000000 0.000000 0.000000 -1.210872 0.000000
    34 0.853994 0.000000 0.000001 -0.002756 -0.113413 0.024347
    35 2.964904 -0.017483 0.178523 -3.141592 0.078540 -0.015797
    36 1.814736 0.000000 0.000000 3.008255 -1.522979 -3.029193
    37 0.982325 0.000000 0.000000 0.000000 -0.095993 0.021736
    38 2.889732 -0.720928 0.212797 3.134936 0.435757 -0.054674
    39 1.751860 0.000001 0.000000 -3.141592 -1.430696 3.105023
    40 0.853992 0.000000 0.000000 0.000000 -0.043633 0.000000
    41 2.857167 -1.430682 0.078012 3.141592 0.763473 -0.015797
    42 1.152893 0.000000 0.000001 -0.017837 -1.140112 0.072801
    43 0.748464 0.000000 -0.000001 0.000000 -0.314159 -0.057080
  time 12
    0 2.896063 -10.997156 -3.658245 0.006151 0.000000 3.141522
    1 0.521396 0.046753 0.770672 0.000000 0.000000 0.000000
    2 -0.005094 -0.265854 0.385422 -0.485575 0.000000 0.000000
    3 2.900607 -10.991744 -2.244673 0.006151 0.000000 3.141522
    4 2.897019 -11.101774 -2.025171 -0.061616 0.000000 3.141522
    5 2.898540 -8.672524 -4.682423 0.006151 0.000000 3.141522
    6 3.249405 9.814375 0.374368 -3.141592 1.483530 3.141498
    7 -0.023288 0.041601 0.000000 0.004979 0.009855 -0.778596
    8 11.072352 -0.043444 0.000000 0.000000 0.000000 -1.126586
    9 8.108974 0.000000 0.000000 0.090072 -0.272027 0.319609
    10 0.758958 -0.993292 -0.533611 0.205838 0.381949 -0.048703
    11 1.920298 0.000000 0.000000 0.000000 0.000000 0.591214
    12 0.858253 0.000000 0.000000 0.000000 0.000000 -0.069433
    13 2.931400 -0.842323 0.160553 -0.021315 0.207858 -0.103831
    14 1.836085 0.000000 0.000000 0.000000 1.122267 0.000000
    15 0.853993 0.000000 0.000000 0.003511 0.676472 0.026229
    16 2.964056 -0.072899 0.178523 0.000000 0.602139 -0.014689
    17 1.814736 0.000000 0.000000 -3.119857 1.274091 -3.141592
    18 0.982324 0.000000 0.000000 0.000000 0.794125 0.021736
    19 2.910363 0.632510 0.212797 -0.154527 0.688166 -0.043470
    20 1.751858 0.000001 -0.000001 -3.141592 1.108284 3.105025
    21 0.853992 0.000000 0.000000 0.000000 0.479966 0.000000
    22 2.899447 1.342926 0.078013 -0.336556 0.539470 -0.201904
    23 1.152892 0.000001 0.000000 0.168291 1.526324 0.224718
    24 0.748463 0.000000 0.000000 0.000000 1.099557 -0.057080
    25 -14.419725 4.488078 -1.399192 0.000000 1.170500 -0.000053
    26 -0.023287 0.041601 -0.000001 -0.229189 -0.717525 -0.496188
    27 11.072353 -0.043444 0.000000 0.000000 0.000000 -0.600349
    28 8.108975 0.000000 0.000000 3.258620 0.606189 0.443729
    29 0.788881 0.969696 -0.533611 -2.942718 0.181050 0.583005
    30 1.920301 0.000001 0.000000 0.000000 0.000000 0.395089
    31 0.858249 0.000000 0.000000 0.000000 0.000000 -0.069433
    32 2.955715 0.752580 0.160552 -3.141592 0.153540 -0.015796
    33 1.836087 0.000000 0.000000 0.000000 -1.210872 0.000000
    34 0.853994 0.000000 0.000001 -0.002756 -0.113413 0.024347
    35 2.964904 -0.017483 0.178523 -3.141592 0.078540 -0.015797
    36 1.814736 0.000000 0.000000 3.008255 -1.522979 -3.029193
    37 0.982325 0.000000 0.000000 0.000000 -0.095993 0.021736
    38 2.889732 -0.720928 0.212797 3.134936 0.435757 -0.054674
    39 1.751860 0.000001 0.000000 -3.141592 -1.430696 3.105023
    40 0.853992 0.000000 0.000000 0.000000 -0.043633 0.000000
    41 2.857167 -1.430682 0.078012 3.141592 0.763473 -0.015797
    42 1.152893 0.000000 0.000001 -0.017837 -1.140112 0.072801
    43 0.748464 0.000000 -0.000001 0.000000 -0.314159 -0.057080
  time 13
    0 2.896063 -11.110441 -3.654339 -0.003413 0.000000 3.141522
    1 0.521396 0.046753 0.770672 0.000000 0.000000 0.000000
    2 -0.005094 -0.215071 0.389328 -0.358568 0.000000 0.000000
    3 2.900607 -11.116748 -2.240767 -0.003413 0.000000 3.141522
    4 2.897019 -11.230684 -2.021265 -0.071318 0.000000 3.141522
    5 2.898540 -8.774090 -4.655078 -0.003413 0.000000 3.141522
    6 3.249405 9.814375 0.374368 -3.141592 1.483530 3.141498
    7 -0.023288 0.041601 0.000000 0.005027 0.010094 -0.790456
    8 11.072352 -0.043444 0.000000 0.000000 0.000000 -1.109843
    9 8.108974 0.000000 0.000000 0.089986 -0.273129 0.324348
    10 0.758958 -0.993292 -0.533611 0.205838 0.381949 -0.048703
    11 1.920298 0.000000 0.000000 0.000000 0.000000 0.591214
    12 0.858253 0.000000 0.000000 0.000000 0.000000 -0.069433
    13 2.931400 -0.842323 0.160553 -0.021711 0.215240 -0.103999
    14 1.836085 0.000000 0.000000 0.000000 1.028484 0.000000
    15 0.853993 0.000000 0.000000 0.003211 0.559218 0.025725
    16 2.964056 -0.072899 0.178523 0.000000 0.602139 -0.014689
    17 1.814736 0.000000 0.000000 -3.119857 1.274091 -3.141592
    18 0.982324 0.000000 0.000000 0.000000 0.794125 0.021736
    19 2.910363 0.632510 0.212797 -0.154527 0.688166 -0.043470
    20 1.751858 0.000001 -0.000001 -3.141592 1.108284 3.105025
    21 0.853992 0.000000 0.000000 0.000000 0.479966 0.000000
    22 2.899447 1.342926 0.078013 -0.336556 0.539470 -0.201904
    23 1.152892 0.000001 0.000000 0.168291 1.526324 0.224718
    24 0.748463 0.000000 0.000000 0.000000 1.099557 -0.057080
    25 -14.419725 4.488078 -1.399192 0.000000 1.170500 -0.000053
    26 -0.023287 0.041601 -0.000001 -0.223058 -0.718548 -0.513208
    27 11.072353 -0.043444 0.000000 0.000000 0.000000 -0.583719
    28 8.108975 0.000000 0.000000 3.275078 0.606946 0.454073
    29 0.788881 0.969696 -0.533611 -2.942718 0.181050 0.583005
    30 1.920301 0.000001 0.000000 0.000000 0.000000 0.395089
    31 0.858249 0.000000 0.000000 0.000000 0.000000 -0.069433
    32 2.955715 0.752580 0.160552 -3.141592 0.153540 -0.015796
    33 1.836087 0.000000 0.000000 0.000000 -1.210872 0.000000
    34 0.853994 0.000000 0.000001 -0.002756 -0.113413 0.024347
    35 2.964904 -0.017483 0.178523 -3.141592 0.078540 -0.015797
    36 1.814736 0.000000 0.000000 3.008255 -1.522979 -3.029193
    37 0.982325 0.000000 0.000000 0.000000 -0.095993 0.021736
    38 2.889732 -0.720928 0.212797 3.134936 0.435757 -0.054674
    39 1.751860 0.000001 0.000000 -3.141592 -1.430696 3.105023
    40 0.853992 0.000000 0.000000 0.000000 -0.043633 0.000000
    41 2.857167 -1.430682 0.078012 3.141592 0.763473 -0.015797
    42 1.152893 0.000000 0.000001 -0.017837 -1.140112 0.072801
    43 0.748464 0.000000 -0.000001 0.000000 -0.314159 -0.057080
  time 14
    0 2.896063 -11.200287 -3.650432 -0.007897 0.000000 3.141522
    1 0.521396 0.046753 0.770672 0.000000 0.000000 0.000000
    2 -0.005094 -0.168194 0.397141 -0.231582 0.000000 0.000000
    3 2.900607 -11.214407 -2.236860 -0.007897 0.000000 3.141522
    4 2.897019 -11.328343 -2.017358 -0.075821 0.000000 3.141522
    5 2.898540 -8.863936 -4.639452 -0.007897 0.000000 3.141522
    6 3.249405 9.814375 0.374368 -3.141592 1.483530 3.141498
    7 -0.023288 0.041601 0.000000 0.005003 0.010214 -0.799670
    8 11.072352 -0.043444 0.000000 0.000000 0.000000 -1.094767
    9 8.108974 0.000000 0.000000 0.089935 -0.273609 0.322975
    10 0.758958 -0.993292 -0.533611 0.205838 0.381949 -0.048703
    11 1.920298 0.000000 0.000000 0.000000 0.000000 0.591214
    12 0.858253 0.000000 0.000000 0.000000 0.000000 -0.069433
    13 2.931400 -0.842323 0.160553 -0.022118 0.222647 -0.104155
    14 1.836085 0.000000 0.000000 0.000000 0.934702 0.000000
    15 0.853993 0.000000 0.000000 0.003020 0.441964 0.025330
    16 2.964056 -0.072899 0.178523 0.000000 0.602139 -0.014689
    17 1.814736 0.000000 0.000000 -3.119857 1.274091 -3.141592
    18 0.982324 0.000000 0.000000 0.000000 0.794125 0.021736
    19 2.910363 0.632510 0.212797 -0.154527 0.688166 -0.043470
    20 1.751858 0.000001 -0.000001 -3.141592 1.108284 3.105025
    21 0.853992 0.000000 0.000000 0.000000 0.479966 0.000000
    22 2.899447 1.342926 0.078013 -0.336556 0.539470 -0.201904
    23 1.152892 0.000001 0.000000 0.168291 1.526324 0.224718
    24 0.748463 0.000000 0.000000 0.000000 1.099557 -0.057080
    25 -14.419725 4.488078 -1.399192 0.000000 1.170500 -0.000053
    26 -0.023287 0.041601 -0.000001 -0.216678 -0.718795 -0.528123
    27 11.072353 -0.043444 0.000000 0.000000 0.000000 -0.567299
    28 8.108975 0.000000 0.000000 3.284125 0.606047 0.456080
    29 0.788881 0.969696 -0.533611 -2.942718 0.181050 0.583005
    30 1.920301 0.000001 0.000000 0.000000 0.000000 0.395089
    31 0.858249 0.000000 0.000000 0.000000 0.000000 -0.069433
    32 2.955715 0.752580 0.160552 -3.141592 0.153540 -0.015796
    33 1.836087 0.000000 0.000000 0.000000 -1.210872 0.000000
    34 0.853994 0.000000 0.000001 -0.002756 -0.113413 0.024347
    35 2.964904 -0.017483 0.178523 -3.141592 0.078540 -0.015797
    36 1.814736 0.000000 0.000000 3.008255 -1.522979 -3.029193
    37 0.982325 0.000000 0.000000 0.000000 -0.095993 0.021736
    38 2.889732 -0.720928 0.212797 3.134936 0.435757 -0.054674
    39 1.751860 0.000001 0.000000 -3.141592 -1.430696 3.105023
    40 0.853992 0.000000 0.000000 0.000000 -0.043633 0.000000
    41 2.857167 -1.430682 0.078012 3.141592 0.763473 -0.015797
    42 1.152893 0.000000 0.000001 -0.017837 -1.140112 0.072801
    43 0.748464 0.000000 -0.000001 0.000000 -0.314159 -0.057080
  time 15
    0 2.896063 -11.266695 -3.646526 -0.007897 0.000000 3.141522
    1 0.521396 0.046753 0.770672 0.000000 0.000000 0.000000
    2 -0.005094 -0.121318 0.408860 -0.119523 0.000000 0.000000
    3 2.900607 -11.280815 -2.232954 -0.007897 0.000000 3.141522
    4 2.897019 -11.394752 -2.017358 -0.075748 0.000000 3.141522
    5 2.898540 -8.926438 -4.639452 -0.007897 0.000000 3.141522
    6 3.249405 9.814375 0.374368 -3.141592 1.483530 3.141498
    7 -0.023288 0.041601 0.000000 0.004955 0.010214 -0.805971
    8 11.072352 -0.043444 0.000000 0.000000 0.000000 -1.082172
    9 8.108974 0.000000 0.000000 0.089918 -0.273573 0.316682
    10 0.758958 -0.993292 -0.533611 0.205838 0.381949 -0.048703
    11 1.920298 0.000000 0.000000 0.000000 0.000000 0.591214
    12 0.858253 0.000000 0.000000 0.000000 0.000000 -0.069433
    13 2.931400 -0.842323 0.160553 -0.022526 0.229885 -0.104298
    14 1.836085 0.000000 0.000000 0.000000 0.842776 0.000000
    15 0.853993 0.000000 0.000000 0.002888 0.327023 0.024946
    16 2.964056 -0.072899 0.178523 0.000000 0.602139 -0.014689
    17 1.814736 0.000000 0.000000 -3.119857 1.274091 -3.141592
    18 0.982324 0.000000 0.000000 0.000000 0.794125 0.021736
    19 2.910363 0.632510 0.212797 -0.154527 0.688166 -0.043470
    20 1.751858 0.000001 -0.000001 -3.141592 1.108284 3.105025
    21 0.853992 0.000000 0.000000 0.000000 0.479966 0.000000
    22 2.899447 1.342926 0.078013 -0.336556 0.539470 -0.201904
    23 1.152892 0.000001 0.000000 0.168291 1.526324 0.224718
    24 0.748463 0.000000 0.000000 0.000000 1.099557 -0.057080
    25 -14.419725 4.488078 -1.399192 0.000000 1.170500 -0.000053
    26 -0.023287 0.041601 -0.000001 -0.211278 -0.718393 -0.538949
    27 11.072353 -0.043444 0.000000 0.000000 0.000000 -0.554130
    28 8.108975 0.000000 0.000000 3.286486 0.604060 0.452111
    29 0.788881 0.969696 -0.533611 -2.942718 0.181050 0.583005
    30 1.920301 0.000001 0.000000 0.000000 0.000000 0.395089
    31 0.858249 0.000000 0.000000 0.000000 0.000000 -0.069433
    32 2.955715 0.752580 0.160552 -3.141592 0.153540 -0.015796
    33 1.836087 0.000000 0.000000 0.000000 -1.210872 0.000000
    34 0.853994 0.000000 0.000001 -0.002756 -0.113413 0.024347
    35 2.964904 -0.017483 0.178523 -3.141592 0.078540 -0.015797
    36 1.814736 0.000000 0.000000 3.008255 -1.522979 -3.029193
    37 0.982325 0.000000 0.000000 0.000000 -0.095993 0.021736
    38 2.889732 -0.720928 0.212797 3.134936 0.435757 -0.054674
    39 1.751860 0.000001 0.000000 -3.141592 -1.430696 3.105023
    40 0.853992 0.000000 0.000000 0.000000 -0.043633 0.000000
    41 2.857167 -1.430682 0.078012 3.141592 0.763473 -0.015797
    42 1.152893 0.000000 0.000001 -0.017837 -1.140112 0.072801
    43 0.748464 0.000000 -0.000001 0.000000 -0.314159 -0.057080
  time 16
    0 2.896063 -11.309665 -3.646526 -0.005278 0.000000 3.141522
    1 0.521396 0.046753 0.770672 0.000000 0.000000 0.000000
    2 -0.005094 -0.090067 0.408860 -0.037338 0.000000 0.000000
    3 2.900607 -11.319879 -2.232954 -0.005278 0.000000 3.141522
    4 2.897019 -11.433815 -2.013452 -0.073112 0.000000 3.141522
    5 2.898540 -8.973315 -4.643359 -0.005278 0.000000 3.141522
    6 3.249405 9.814375 0.374368 -3.141592 1.483530 3.141498
    7 -0.023288 0.041601 0.000000 0.004872 0.010142 -0.810162
    8 11.072352 -0.043444 0.000000 0.000000 0.000000 -1.072001
    9 8.108974 0.000000 0.000000 0.089918 -0.273297 0.308057
    10 0.758958 -0.993292 -0.533611 0.205838 0.381949 -0.048703
    11 1.920298 0.000000 0.000000 0.000000 0.000000 0.591214
    12 0.858253 0.000000 0.000000 0.000000 0.000000 -0.069433
    13 2.931400 -0.842323 0.160553 -0.022897 0.236836 -0.104454
    14 1.836085 0.000000 0.000000 0.000000 0.754566 0.000000
    15 0.853993 0.000000 0.000000 0.002804 0.216735 0.024635
    16 2.964056 -0.072899 0.178523 0.000000 0.602139 -0.014689
    17 1.814736 0.000000 0.000000 -3.119857 1.274091 -3.141592
    18 0.982324 0.000000 0.000000 0.000000 0.794125 0.021736
    19 2.910363 0.632510 0.212797 -0.154527 0.688166 -0.043470
    20 1.751858 0.000001 -0.000001 -3.141592 1.108284 3.105025
    21 0.853992 0.000000 0.000000 0.000000 0.479966 0.000000
    22 2.899447 1.342926 0.078013 -0.336556 0.539470 -0.201904
    23 1.152892 0.000001 0.000000 0.168291 1.526324 0.224718
    24 0.748463 0.000000 0.000000 0.000000 1.099557 -0.057080
    25 -14.419725 4.488078 -1.399192 0.000000 1.170500 -0.000053
    26 -0.023287 0.041601 -0.000001 -0.206576 -0.717587 -0.547068
    27 11.072353 -0.043444 0.000000 0.000000 0.000000 -0.543072
    28 8.108975 0.000000 0.000000 3.284815 0.601695 0.444576
    29 0.788881 0.969696 -0.533611 -2.942718 0.181050 0.583005
    30 1.920301 0.000001 0.000000 0.000000 0.000000 0.395089
    31 0.858249 0.000000 0.000000 0.000000 0.000000 -0.069433
    32 2.955715 0.752580 0.160552 -3.141592 0.153540 -0.015796
    33 1.836087 0.000000 0.000000 0.000000 -1.210872 0.000000
    34 0.853994 0.000000 0.000001 -0.002756 -0.113413 0.024347
    35 2.964904 -0.017483 0.178523 -3.141592 0.078540 -0.015797
    36 1.814736 0.000000 0.000000 3.008255 -1.522979 -3.029193
    37 0.982325 0.000000 0.000000 0.000000 -0.095993 0.021736
    38 2.889732 -0.720928 0.212797 3.134936 0.435757 -0.054674
    39 1.751860 0.000001 0.000000 -3.141592 -1.430696 3.105023
    40 0.853992 0.000000 0.000000 0.000000 -0.043633 0.000000
    41 2.857167 -1.430682 0.078012 3.141592 0.763473 -0.015797
    42 1.152893 0.000000 0.000001 -0.017837 -1.140112 0.072801
    43 0.748464 0.000000 -0.000001 0.000000 -0.314159 -0.057080
  time 17
    0 2.896063 -11.340916 -3.646526 -0.001944 0.000000 3.141522
    1 0.521396 0.046753 0.770672 0.000000 0.000000 0.000000
    2 -0.005094 -0.078348 0.408860 0.000000 0.000000 0.000000
    3 2.900607 -11.347224 -2.232954 -0.001944 0.000000 3.141522
    4 2.897019 -11.461160 -2.013452 -0.069817 0.000000 3.141522
    5 2.898540 -9.008472 -4.651172 -0.001944 0.000000 3.141522
    6 3.249405 9.814375 0.374368 -3.141592 1.483530 3.141498
    7 -0.023288 0.041601 0.000000 0.004788 0.010058 -0.812986
    8 11.072352 -0.043444 0.000000 0.000000 0.000000 -1.064028
    9 8.108974 0.000000 0.000000 0.089935 -0.272890 0.299666
    10 0.758958 -0.993292 -0.533611 0.205838 0.381949 -0.048703
    11 1.920298 0.000000 0.000000 0.000000 0.000000 0.591214
    12 0.858253 0.000000 0.000000 0.000000 0.000000 -0.069433
    13 2.931400 -0.842323 0.160553 -0.023245 0.243344 -0.104598
    14 1.836085 0.000000 0.000000 0.000000 0.671952 0.000000
    15 0.853993 0.000000 0.000000 0.002756 0.113413 0.024347
    16 2.964056 -0.072899 0.178523 0.000000 0.602139 -0.014689
    17 1.814736 0.000000 0.000000 -3.119857 1.274091 -3.141592
    18 0.982324 0.000000 0.000000 0.000000 0.794125 0.021736
    19 2.910363 0.632510 0.212797 -0.154527 0.688166 -0.043470
    20 1.751858 0.000001 -0.000001 -3.141592 1.108284 3.105025
    21 0.853992 0.000000 0.000000 0.000000 0.479966 0.000000
    22 2.899447 1.342926 0.078013 -0.336556 0.539470 -0.201904
    23 1.152892 0.000001 0.000000 0.168291 1.526324 0.224718
    24 0.748463 0.000000 0.000000 0.000000 1.099557 -0.057080
    25 -14.419725 4.488078 -1.399192 0.000000 1.170500 -0.000053
    26 -0.023287 0.041601 -0.000001 -0.202854 -0.716844 -0.552962
    27 11.072353 -0.043444 0.000000 0.000000 0.000000 -0.534335
    28 8.108975 0.000000 0.000000 3.281872 0.599377 0.436729
    29 0.788881 0.969696 -0.533611 -2.942718 0.181050 0.583005
    30 1.920301 0.000001 0.000000 0.000000 0.000000 0.395089
    31 0.858249 0.000000 0.000000 0.000000 0.000000 -0.069433
    32 2.955715 0.752580 0.160552 -3.141592 0.153540 -0.015796
    33 1.836087 0.000000 0.000000 0.000000 -1.210872 0.000000
    34 0.853994 0.000000 0.000001 -0.002756 -0.113413 0.024347
    35 2.964904 -0.017483 0.178523 -3.141592 0.078540 -0.015797
    36 1.814736 0.000000 0.000000 3.008255 -1.522979 -3.029193
    37 0.982325 0.000000 0.000000 0.000000 -0.095993 0.021736
    38 2.889732 -0.720928 0.212797 3.134936 0.435757 -0.054674
    39 1.751860 0.000001 0.000000 -3.141592 -1.430696 3.105023
    40 0.853992 0.000000 0.000000 0.000000 -0.043633 0.000000
    41 2.857167 -1.430682 0.078012 3.141592 0.763473 -0.015797
    42 1.152893 0.000000 0.000001 -0.017837 -1.140112 0.072801
    43 0.748464 0.000000 -0.000001 0.000000 -0.314159 -0.057080
  time 18
    0 2.896063 -11.364355 -3.646526 0.000000 0.000000 3.141522
    1 0.521396 0.046753 0.770672 0.000000 0.000000 0.000000
    2 -0.005094 -0.078348 0.408860 0.000000 0.000000 0.000000
    3 2.900607 -11.370662 -2.232954 0.000000 0.000000 3.141522
    4 2.897019 -11.480692 -2.009545 -0.067840 0.000000 3.141522
    5 2.898540 -9.035817 -4.655078 0.000000 0.000000 3.141522
    6 3.249405 9.814375 0.374368 -3.141592 1.483530 3.141498
    7 -0.023288 0.041601 0.000000 0.004740 0.009998 -0.815304
    8 11.072352 -0.043444 0.000000 0.000000 0.000000 -1.058062
    9 8.108974 0.000000 0.000000 0.089918 -0.272638 0.294020
    10 0.758958 -0.993292 -0.533611 0.205838 0.381949 -0.048703
    11 1.920298 0.000000 0.000000 0.000000 0.000000 0.591214
    12 0.858253 0.000000 0.000000 0.000000 0.000000 -0.069433
    13 2.931400 -0.842323 0.160553 -0.023245 0.243344 -0.104598
    14 1.836085 0.000000 0.000000 0.000000 0.671952 0.000000
    15 0.853993 0.000000 0.000000 0.002756 0.113413 0.024347
    16 2.964056 -0.072899 0.178523 0.000000 0.602139 -0.014689
    17 1.814736 0.000000 0.000000 -3.119857 1.274091 -3.141592
    18 0.982324 0.000000 0.000000 0.000000 0.794125 0.021736
    19 2.910363 0.632510 0.212797 -0.154527 0.688166 -0.043470
    20 1.751858 0.000001 -0.000001 -3.141592 1.108284 3.105025
    21 0.853992 0.000000 0.000000 0.000000 0.479966 0.000000
    22 2.899447 1.342926 0.078013 -0.336556 0.539470 -0.201904
    23 1.152892 0.000001 0.000000 0.168291 1.526324 0.224718
    24 0.748463 0.000000 0.000000 0.000000 1.099557 -0.057080
    25 -14.419725 4.488078 -1.399192 0.000000 1.170500 -0.000053
    26 -0.023287 0.041601 -0.000001 -0.199581 -0.716379 -0.558375
    27 11.072353 -0.043444 0.000000 0.000000 0.000000 -0.526484
    28 8.108975 0.000000 0.000000 3.280237 0.597816 0.430799
    29 0.788881 0.969696 -0.533611 -2.942718 0.181050 0.583005
    30 1.920301 0.000001 0.000000 0.000000 0.000000 0.395089
    31 0.858249 0.000000 0.000000 0.000000 0.000000 -0.069433
    32 2.955715 0.752580 0.160552 -3.141592 0.153540 -0.015796
    33 1.836087 0.000000 0.000000 0.000000 -1.210872 0.000000
    34 0.853994 0.000000 0.000001 -0.002756 -0.113413 0.024347
    35 2.964904 -0.017483 0.178523 -3.141592 0.078540 -0.015797
    36 1.814736 0.000000 0.000000 3.008255 -1.522979 -3.029193
    37 0.982325 0.000000 0.000000 0.000000 -0.095993 0.021736
    38 2.889732 -0.720928 0.212797 3.134936 0.435757 -0.054674
    39 1.751860 0.000001 0.000000 -3.141592 -1.430696 3.105023
    40 0.853992 0.000000 0.000000 0.000000 -0.043633 0.000000
    41 2.857167 -1.430682 0.078012 3.141592 0.763473 -0.015797
    42 1.152893 0.000000 0.000001 -0.017837 -1.140112 0.072801
    43 0.748464 0.000000 -0.000001 0.000000 -0.314159 -0.057080
end
