// Created by Crowbar 0.29.0.0
version 1
nodes
  0 "SphereGizmo03" -1
  1 "Dummy04" 0
  2 "Bone24" 1
  3 "Bone25" 2
  4 "Bone26" 3
  5 "Bone43" 4
  6 "Bone44" 5
  7 "Bone45" 6
  8 "Bone39" 4
  9 "Bone40" 8
  10 "Bone41" 9
  11 "Bone35" 4
  12 "Bone36" 11
  13 "Bone37" 12
  14 "Bone31" 4
  15 "Bone32" 14
  16 "Bone33" 15
  17 "Bone27" 4
  18 "Bone28" 17
  19 "Bone29" 18
  20 "Dummy02" 0
  21 "Bone01" 20
  22 "Bone02" 21
  23 "Bone03" 22
  24 "Bone04" 23
  25 "Bone05" 24
  26 "Bone06" 25
  27 "MAGAZINE" -1
  28 "TRIGGER" -1
  29 "BOLT" -1
  30 "grip.bmp" -1
  31 "MAGREL" -1
end
skeleton
  time 0
    0 -1.989509 14.281685 -5.615254 0.000000 0.000000 0.000000
    1 -8.615340 -21.343084 -8.055201 0.000000 0.680679 0.000000
    2 -0.003386 0.018329 -0.000003 -0.385916 -1.022377 -0.648770
    3 8.473193 0.000062 -0.000003 3.141593 0.000081 -0.445155
    4 8.737795 -0.003408 0.000745 -2.541817 -0.287225 -0.703837
    5 2.259234 1.146023 -0.312235 0.269549 -0.502231 0.044692
    6 1.066370 -0.000056 -0.000002 -0.043119 -1.557759 -0.000036
    7 0.658296 -0.000094 -0.000001 0.000000 0.026061 -0.006518
    8 2.530145 0.481245 -0.312234 0.108114 -0.536673 0.183733
    9 1.343065 -0.000036 0.000000 -3.141500 -1.424653 -3.177050
    10 0.743737 0.000000 0.000001 0.000000 -0.069813 -0.029659
    11 2.580955 -0.110261 -0.312234 0.055923 -0.547488 0.110338
    12 1.424856 0.000000 0.000001 -3.141320 -1.342476 3.116226
    13 0.982676 -0.000001 0.000000 0.000000 0.043602 -0.016613
    14 2.530147 -0.790516 -0.312234 -0.001626 -0.280973 0.094020
    15 1.365153 0.000000 -0.000001 -3.141315 -1.253096 3.130227
    16 0.751931 0.000001 0.000001 0.000000 -0.006339 -0.008912
    17 0.457619 -1.069485 0.220611 -0.194024 -0.027152 -0.839784
    18 1.214085 0.000001 0.000002 0.000000 0.000000 -0.003689
    19 0.888922 0.000000 0.000001 0.000000 0.000000 -0.037117
    20 16.118168 -16.989117 3.911339 0.481518 1.195551 0.000000
    21 -0.003387 0.018329 0.000000 0.676845 0.523046 -0.496376
    22 8.473088 0.000002 0.000001 0.000000 0.000000 -1.621139
    23 8.737238 -0.000002 0.000000 -0.539397 -1.278199 0.937448
    24 2.529456 -0.793546 0.238412 0.002179 -0.139984 -0.174591
    25 1.365153 0.000000 0.000000 0.000000 1.178818 -0.011175
    26 0.751934 0.000001 0.000000 0.000000 0.708637 -0.008912
    27 3.294326 -13.371811 -6.606368 -1.570796 0.000000 -0.000209
    28 3.304193 -9.700829 -5.264525 -1.570796 0.000000 -0.000209
    29 2.991724 -17.419350 -2.425861 -1.570796 0.000000 -0.000104
    30 3.279716 -21.379809 -3.218882 -1.570796 0.000000 -0.000209
    31 3.282111 -11.489306 -5.166672 -1.897866 0.000000 -0.000209
  time 1
    0 -1.989509 14.281685 -5.615254 0.000000 0.000000 0.000000
    1 -8.615340 -21.343084 -8.055201 0.000000 0.680679 0.000000
    2 -0.003386 0.018329 -0.000003 -0.385916 -1.022377 -0.648770
    3 8.473193 0.000062 -0.000003 3.141593 0.000081 -0.445155
    4 8.737795 -0.003408 0.000745 -2.541817 -0.287225 -0.703837
    5 2.259234 1.146023 -0.312235 0.269549 -0.502231 0.044692
    6 1.066370 -0.000056 -0.000002 -0.043119 -1.557759 -0.000036
    7 0.658296 -0.000094 -0.000001 0.000000 0.026061 -0.006518
    8 2.530145 0.481245 -0.312234 0.108114 -0.536673 0.183733
    9 1.343065 -0.000036 0.000000 -3.141500 -1.424653 -3.177050
    10 0.743737 0.000000 0.000001 0.000000 -0.069813 -0.029659
    11 2.580955 -0.110261 -0.312234 0.055923 -0.547488 0.110338
    12 1.424856 0.000000 0.000001 -3.141320 -1.342476 3.116226
    13 0.982676 -0.000001 0.000000 0.000000 0.043602 -0.016613
    14 2.530147 -0.790516 -0.312234 -0.001626 -0.280973 0.094020
    15 1.365153 0.000000 -0.000001 -3.141315 -1.253096 3.130227
    16 0.751931 0.000001 0.000001 0.000000 -0.006339 -0.008912
    17 0.457619 -1.069485 0.220611 -0.194024 -0.027152 -0.839784
    18 1.214085 0.000001 0.000002 0.000000 0.000000 -0.003689
    19 0.888922 0.000000 0.000001 0.000000 0.000000 -0.037117
    20 16.118168 -16.989117 3.911339 0.481518 1.195551 0.000000
    21 -0.003387 0.018329 0.000000 0.676845 0.523046 -0.496376
    22 8.473088 0.000002 0.000001 0.000000 0.000000 -1.621139
    23 8.737238 -0.000002 0.000000 -0.539397 -1.278199 0.937448
    24 2.529456 -0.793546 0.238412 0.002179 -0.139984 -0.174591
    25 1.365153 0.000000 0.000000 0.000000 1.178818 -0.011175
    26 0.751934 0.000001 0.000000 0.000000 0.708637 -0.008912
    27 3.294326 -13.371811 -6.606368 -1.570796 0.000000 -0.000209
    28 3.304193 -9.700829 -5.264525 -1.570796 0.000000 -0.000209
    29 2.991724 -17.419350 -2.425861 -1.570796 0.000000 -0.000104
    30 3.279716 -21.379809 -3.218882 -1.570796 0.000000 -0.000209
    31 3.282111 -11.489306 -5.166672 -1.897866 0.000000 -0.000209
end
