// Created by Crowbar 0.29.0.0
version 1
nodes
  0 "ValveBiped" -1
  1 "ValveBiped.weapon_bone" 0
  2 "ValveBiped.flash" 1
end
skeleton
  time 0
    0 0.000000 0.000000 0.000000 1.570676 0.000060 -0.000061
    1 1.227019 4.371634 7.456431 0.000000 0.000000 0.000000
    2 -1.124347 -1.260991 17.618429 0.000000 0.000000 0.000000
  time 1
    0 0.000000 0.000000 0.000000 1.570676 0.000060 -0.000061
    1 1.227019 4.371634 7.456431 0.000000 0.000000 0.000000
    2 -1.124347 -1.260991 17.618429 0.000000 0.000000 0.000000
end
