// Created by Crowbar 0.42.0.0
version 1
nodes
  0 "ValveBiped.Bip01_R_Hand" -1
  1 "ValveBiped.Weapon_bone" 0
end
skeleton
  time 0
    0 1.783728 -5.776746 -3.330455 -2.988847 0.080612 1.582303
    1 5.000000 -1.500000 -5.000000 0.000000 0.000000 0.000000
end
triangles
  phy
    0 0.350992 -0.530326 0.803802 -0.024570 -0.330744 -0.943401 0 0
    0 0.926197 -1.209919 0.791171 0.711284 -0.647009 -0.274689 0 0
    0 1.040181 -0.530326 0.803802 -0.591606 -0.770290 0.238024 0 0
  phy
    0 1.040181 -0.530326 0.803802 -0.591606 -0.770290 0.238024 0 0
    0 0.563435 8.941040 0.706167 -0.135997 0.224129 0.965024 0 0
    0 0.350992 -0.530326 0.803802 -0.024570 -0.330744 -0.943401 0 0
  phy
    0 1.412594 1.599532 -0.092310 -0.135997 0.224129 0.965024 0 0
    0 0.563435 8.941040 0.706167 -0.135997 0.224129 0.965024 0 0
    0 1.040181 -0.530326 0.803802 -0.591606 -0.770290 0.238024 0 0
  phy
    0 1.494942 -0.029635 -0.291068 0.572373 -0.097368 0.814192 0 0
    0 1.412594 1.599532 -0.092310 -0.135997 0.224129 0.965024 0 0
    0 1.040181 -0.530326 0.803802 -0.591606 -0.770290 0.238024 0 0
  phy
    0 1.040181 -0.530326 0.803802 -0.591606 -0.770290 0.238024 0 0
    0 0.926197 -1.209919 0.791171 0.711284 -0.647009 -0.274689 0 0
    0 1.494942 -0.029635 -0.291068 0.572373 -0.097368 0.814192 0 0
  phy
    0 0.832406 8.940441 -0.324212 -0.135997 0.224129 0.965024 0 0
    0 1.121156 -2.765043 -4.376356 0.190250 -0.316233 0.929409 0 0
    0 0.362991 -2.530185 -4.400588 -0.392172 0.357882 -0.847421 0 0
  phy
    0 0.362991 -2.530185 -4.400588 -0.392172 0.357882 -0.847421 0 0
    0 1.121156 -2.765043 -4.376356 0.190250 -0.316233 0.929409 0 0
    0 0.855661 -4.188319 -4.452329 0.282762 -0.253755 -0.925016 0 0
  phy
    0 0.832406 8.940441 -0.324212 -0.135997 0.224129 0.965024 0 0
    0 1.487593 1.599512 -0.719572 0.012525 -0.912001 0.409998 0 0
    0 1.121156 -2.765043 -4.376356 0.190250 -0.316233 0.929409 0 0
  phy
    0 1.121156 -2.765043 -4.376356 0.190250 -0.316233 0.929409 0 0
    0 1.487593 1.599512 -0.719572 0.012525 -0.912001 0.409998 0 0
    0 1.494942 -0.029635 -0.291068 0.572373 -0.097368 0.814192 0 0
  phy
    0 1.494942 -0.029635 -0.291068 0.572373 -0.097368 0.814192 0 0
    0 0.855661 -4.188319 -4.452329 0.282762 -0.253755 -0.925016 0 0
    0 1.121156 -2.765043 -4.376356 0.190250 -0.316233 0.929409 0 0
  phy
    0 1.035093 -2.607263 -1.034160 0.185503 -0.034520 0.982037 0 0
    0 0.926197 -1.209919 0.791171 0.711284 -0.647009 -0.274689 0 0
    0 0.478091 -2.974264 -1.338692 0.471759 -0.136558 -0.871089 0 0
  phy
    0 0.478091 -2.974264 -1.338692 0.471759 -0.136558 -0.871089 0 0
    0 0.855661 -4.188319 -4.452329 0.282762 -0.253755 -0.925016 0 0
    0 1.035093 -2.607263 -1.034160 0.185503 -0.034520 0.982037 0 0
  phy
    0 1.494942 -0.029635 -0.291068 0.572373 -0.097368 0.814192 0 0
    0 0.926197 -1.209919 0.791171 0.711284 -0.647009 -0.274689 0 0
    0 1.035093 -2.607263 -1.034160 0.185503 -0.034520 0.982037 0 0
  phy
    0 1.035093 -2.607263 -1.034160 0.185503 -0.034520 0.982037 0 0
    0 0.855661 -4.188319 -4.452329 0.282762 -0.253755 -0.925016 0 0
    0 1.494942 -0.029635 -0.291068 0.572373 -0.097368 0.814192 0 0
  phy
    0 0.350992 -0.530326 0.803802 -0.024570 -0.330744 -0.943401 0 0
    0 0.478091 -2.974264 -1.338692 0.471759 -0.136558 -0.871089 0 0
    0 0.926197 -1.209919 0.791171 0.711284 -0.647009 -0.274689 0 0
  phy
    0 0.362991 -2.530185 -4.400588 -0.392172 0.357882 -0.847421 0 0
    0 0.478091 -2.974264 -1.338692 0.471759 -0.136558 -0.871089 0 0
    0 -0.125247 -0.029635 -0.504368 -0.392172 0.357882 -0.847421 0 0
  phy
    0 0.478091 -2.974264 -1.338692 0.471759 -0.136558 -0.871089 0 0
    0 0.362991 -2.530185 -4.400588 -0.392172 0.357882 -0.847421 0 0
    0 0.855661 -4.188319 -4.452329 0.282762 -0.253755 -0.925016 0 0
  phy
    0 0.478091 -2.974264 -1.338692 0.471759 -0.136558 -0.871089 0 0
    0 0.350992 -0.530326 0.803802 -0.024570 -0.330744 -0.943401 0 0
    0 -0.125247 -0.029635 -0.504368 -0.392172 0.357882 -0.847421 0 0
  phy
    0 -0.014833 1.599532 -0.092301 -0.024570 -0.330744 -0.943401 0 0
    0 -0.089805 1.599513 -0.719584 -0.392172 0.357882 -0.847421 0 0
    0 -0.125247 -0.029635 -0.504368 -0.392172 0.357882 -0.847421 0 0
  phy
    0 -0.089805 1.599513 -0.719584 -0.392172 0.357882 -0.847421 0 0
    0 -0.014833 1.599532 -0.092301 -0.024570 -0.330744 -0.943401 0 0
    0 0.563435 8.941040 0.706167 -0.135997 0.224129 0.965024 0 0
  phy
    0 0.350992 -0.530326 0.803802 -0.024570 -0.330744 -0.943401 0 0
    0 -0.014833 1.599532 -0.092301 -0.024570 -0.330744 -0.943401 0 0
    0 -0.125247 -0.029635 -0.504368 -0.392172 0.357882 -0.847421 0 0
  phy
    0 -0.014833 1.599532 -0.092301 -0.024570 -0.330744 -0.943401 0 0
    0 0.350992 -0.530326 0.803802 -0.024570 -0.330744 -0.943401 0 0
    0 0.563435 8.941040 0.706167 -0.135997 0.224129 0.965024 0 0
  phy
    0 -0.089805 1.599513 -0.719584 -0.392172 0.357882 -0.847421 0 0
    0 0.832406 8.940441 -0.324212 -0.135997 0.224129 0.965024 0 0
    0 0.362991 -2.530185 -4.400588 -0.392172 0.357882 -0.847421 0 0
  phy
    0 0.832406 8.940441 -0.324212 -0.135997 0.224129 0.965024 0 0
    0 -0.089805 1.599513 -0.719584 -0.392172 0.357882 -0.847421 0 0
    0 0.563435 8.941040 0.706167 -0.135997 0.224129 0.965024 0 0
  phy
    0 -0.089805 1.599513 -0.719584 -0.392172 0.357882 -0.847421 0 0
    0 0.362991 -2.530185 -4.400588 -0.392172 0.357882 -0.847421 0 0
    0 -0.125247 -0.029635 -0.504368 -0.392172 0.357882 -0.847421 0 0
  phy
    0 1.494942 -0.029635 -0.291068 0.572373 -0.097368 0.814192 0 0
    0 1.487593 1.599512 -0.719572 0.012525 -0.912001 0.409998 0 0
    0 1.412594 1.599532 -0.092310 -0.135997 0.224129 0.965024 0 0
  phy
    0 1.412594 1.599532 -0.092310 -0.135997 0.224129 0.965024 0 0
    0 1.487593 1.599512 -0.719572 0.012525 -0.912001 0.409998 0 0
    0 0.832406 8.940441 -0.324212 -0.135997 0.224129 0.965024 0 0
  phy
    0 0.832406 8.940441 -0.324212 -0.135997 0.224129 0.965024 0 0
    0 0.563435 8.941040 0.706167 -0.135997 0.224129 0.965024 0 0
    0 1.412594 1.599532 -0.092310 -0.135997 0.224129 0.965024 0 0
end
