"vertexlitgeneric"
{
	"$baseTexture" "models/ins1ons\v_models\EZTSG3\TS_G3"
	"$bumpmap" "models/ins1ons\v_models\EZTSG3\TS_G3_Bump"
	"$phong" "1"
	"$phongexponent" "45"
	"$phongboost"	"1"
	"$phongfresnelranges"	"[1 8 6]"

}

