// Created by Crowbar 0.42.0.0

$ModelName "weapons\w_bow.mdl"

$BodyGroup "studio"
{
	studio "w_bow_reference.smd"
}


$SurfaceProp "wood"

$Contents "solid"

$MaxEyeDeflection 90

$CDMaterials "models\weapons\"

$Attachment "fire" "ValveBiped.Weapon_bone" 0 0 -25 rotate 0 0 0

$CBox 0 0 0 0 0 0

$BBox -6.476 -6.181 -21.44 25.316 8.28 25.484

$DefineBone "ValveBiped.Bip01_L_Hand" "" 1.783728 -5.776746 -3.330455 4.618842 90.659397 -171.248212 0 0 0 0 0 0
$DefineBone "ValveBiped.Weapon_bone1" "ValveBiped.Bip01_L_Hand" 4.999995 -1.500003 -5.000006 0.000115 0 -0.000516 0 0 0 0 0 0
$DefineBone "ValveBiped.Bip01_R_Hand" "" 1.038623 -22.427092 3.072364 0 0 89.999983 0 0 0 0 0 0
$DefineBone "ValveBiped.Weapon_bone" "ValveBiped.Bip01_R_Hand" -0.002033 0.03773 -0.109838 0 0 0 0 0 0 0 0 0


$Sequence "idle" {
	"w_bow_anims\idle.smd"
	activity "ACT_VM_IDLE" 1
	fadein 0.2
	fadeout 0.2
	fps 30
	loop
}

$CollisionModel "w_bow_physics.smd"
{
	$mass 1
	$inertia 1
	$damping 0
	$rotdamping 0
	$rootbone " "
	$concave

}
