
//	Action Half-Life 2, Weapons, Assault Rifle, Parts
//	Texture @ AHL2 Team
//	Shaders @ Reverend V92
//	Update: 2017/04/04

VertexLitGeneric
{

	$basetexture models/jessev92/ahl2/weapons/ar/misc_d
	$bumpmap models/jessev92/ahl2/weapons/ar/misc_b
	$lightwarptexture dev/identitylightwarp

	$nocull 0
	$halflambert 1
	$ambientocclusion 1
	$alphatest 0

	$phong 1
	$phongexponent 90
	$phongboost 0.1
	$phongfresnelranges "[ 0.1 0.1 0.1 ]"
	
	$rimlight 1
	$rimlightexponent 5
	$rimlightboost 0.1

	$detail detail/metal_detail_01
	$detailscale 8
	$detailblendfactor 1
	$detailblendmode 0

}
