// Created by Crowbar 0.42.0.0
version 1
nodes
  0 "ValveBiped" -1
  1 "ValveBiped.Bip01_R_Hand" 0
  2 "ValveBiped.Weapon_bone" 1
end
skeleton
  time 0
    0 0.000000 0.000000 0.000000 1.570796 0.000000 0.000000
    1 -0.419435 -0.877406 -4.785369 0.000000 0.000000 0.000000
    2 0.826860 3.839869 4.785367 0.000000 0.000000 0.000000
end
triangles
  phy
    0 1.127531 4.087271 -5.311274 -0.858696 -0.304768 0.412017 0 0
    0 0.517383 -1.308618 10.021379 0.889447 0.417568 -0.185796 0 0
    0 -0.444435 3.936961 -5.261913 -0.156178 0.986661 -0.045916 0 0
  phy
    0 1.127531 4.087271 -5.311274 -0.858696 -0.304768 0.412017 0 0
    0 -0.444435 3.936961 -5.261913 -0.156178 0.986661 -0.045916 0 0
    0 0.917558 5.990796 -4.734643 0.945295 0.324495 -0.033460 0 0
  phy
    0 0.516037 0.745220 10.587796 0.945295 0.324495 -0.033460 0 0
    0 0.517383 -1.308618 10.021379 0.889447 0.417568 -0.185796 0 0
    0 1.127531 4.087271 -5.311274 -0.858696 -0.304768 0.412017 0 0
  phy
    0 1.127531 4.087271 -5.311274 -0.858696 -0.304768 0.412017 0 0
    0 0.917558 5.990796 -4.734643 0.945295 0.324495 -0.033460 0 0
    0 0.516037 0.745220 10.587796 0.945295 0.324495 -0.033460 0 0
  phy
    0 -0.654407 5.840486 -4.685282 0.945295 0.324495 -0.033460 0 0
    0 -0.444435 3.936961 -5.261913 -0.156178 0.986661 -0.045916 0 0
    0 0.517383 -1.308618 10.021379 0.889447 0.417568 -0.185796 0 0
  phy
    0 -0.444435 3.936961 -5.261913 -0.156178 0.986661 -0.045916 0 0
    0 -0.654407 5.840486 -4.685282 0.945295 0.324495 -0.033460 0 0
    0 0.917558 5.990796 -4.734643 0.945295 0.324495 -0.033460 0 0
  phy
    0 0.516037 0.745220 10.587796 0.945295 0.324495 -0.033460 0 0
    0 -0.654407 5.840486 -4.685282 0.945295 0.324495 -0.033460 0 0
    0 0.517383 -1.308618 10.021379 0.889447 0.417568 -0.185796 0 0
  phy
    0 -0.654407 5.840486 -4.685282 0.945295 0.324495 -0.033460 0 0
    0 0.516037 0.745220 10.587796 0.945295 0.324495 -0.033460 0 0
    0 0.917558 5.990796 -4.734643 0.945295 0.324495 -0.033460 0 0
end
