
VertexLitGeneric
{

	$baseTexture models/jessev92/dods/weapons/tnt/w_tnt_red
	//$bumpmap models/jessev92/dods/weapons/colt/v_colt_b
	$bumpmap dev/bump_normal

	$halflambert 1
	$ambientocclusion 1
	$nocull 1
	$selfillum 0
	$additive 1

	$phong 1
	$phongexponent 69
	$phongboost 0.1
 	$phongfresnelranges "[ 8 4 8 ]"
	$phongalbedotint 1
	
	$detail detail/metal_detail_01
	$detailscale 24
	$detailblendfactor 0.95
	$detailblendmode 0
	
	"Proxies"	
	{	
		"Sine"
		{
			"sineperiod" "1.5"
			"sinemin"	"0.5"
			"sinemax"	"1"
			"resultVar" "$alpha"
		}
	}
}
