// Created by Crowbar 0.42.0.0
version 1
nodes
  0 "ValveBiped" -1
  1 "ValveBiped.Bip01_R_Hand" 0
  2 "ValveBiped.Weapon_bone" 1
end
skeleton
  time 0
    0 0.000000 0.000000 0.000000 1.570796 0.000000 0.000000
    1 -2.061918 2.795734 -2.550701 2.948327 0.083962 -1.058440
    2 1.666326 -0.388110 7.928801 -0.013156 -0.013070 -0.386975
end
triangles
  phy
    0 1.436432 9.856221 0.635363 -0.028126 -0.992067 0.122523 0 0
    0 1.729603 9.856812 -0.071628 0.003284 -0.921121 0.389263 0 0
    0 -0.498597 9.856939 -0.071748 -0.998941 0.045316 -0.007914 0 0
  phy
    0 1.729603 9.856812 -0.071628 0.003284 -0.921121 0.389263 0 0
    0 1.437415 9.834988 -0.778690 -0.998941 0.045316 -0.007914 0 0
    0 -0.498597 9.856939 -0.071748 -0.998941 0.045316 -0.007914 0 0
  phy
    0 2.351492 -14.037248 -0.419622 0.843085 -0.486750 0.228655 0 0
    0 1.437415 9.834988 -0.778690 -0.998941 0.045316 -0.007914 0 0
    0 1.729603 9.856812 -0.071628 0.003284 -0.921121 0.389263 0 0
  phy
    0 1.729603 9.856812 -0.071628 0.003284 -0.921121 0.389263 0 0
    0 1.436432 9.856221 0.635363 -0.028126 -0.992067 0.122523 0 0
    0 2.350507 -14.016016 0.994432 -0.999958 -0.004210 0.008125 0 0
  phy
    0 2.350507 -14.016016 0.994432 -0.999958 -0.004210 0.008125 0 0
    0 2.351492 -14.037248 -0.419622 0.843085 -0.486750 0.228655 0 0
    0 1.729603 9.856812 -0.071628 0.003284 -0.921121 0.389263 0 0
  phy
    0 -2.497131 9.780413 -0.071989 -0.992916 0.112580 -0.038006 0 0
    0 -2.204944 9.802236 0.635073 0.005412 0.946912 -0.321446 0 0
    0 -0.498597 9.856939 -0.071748 -0.998941 0.045316 -0.007914 0 0
  phy
    0 -2.204944 9.802236 0.635073 0.005412 0.946912 -0.321446 0 0
    0 -1.498559 9.833689 0.928019 -0.000419 -0.993884 -0.110425 0 0
    0 -0.498597 9.856939 -0.071748 -0.998941 0.045316 -0.007914 0 0
  phy
    0 -2.204944 9.802236 0.635073 0.005412 0.946912 -0.321446 0 0
    0 -2.497131 9.780413 -0.071989 -0.992916 0.112580 -0.038006 0 0
    0 -1.583056 -14.091825 0.287082 0.999530 -0.030651 -0.000141 0 0
  phy
    0 -2.204944 9.802236 0.635073 0.005412 0.946912 -0.321446 0 0
    0 -1.583056 -14.091825 0.287082 0.999530 -0.030651 -0.000141 0 0
    0 -1.290869 -14.070001 0.994143 0.998894 -0.046530 0.006690 0 0
  phy
    0 -2.204944 9.802236 0.635073 0.005412 0.946912 -0.321446 0 0
    0 -1.290869 -14.070001 0.994143 0.998894 -0.046530 0.006690 0 0
    0 -1.498559 9.833689 0.928019 -0.000419 -0.993884 -0.110425 0 0
  phy
    0 1.436432 9.856221 0.635363 -0.028126 -0.992067 0.122523 0 0
    0 1.643714 -14.038683 1.287207 0.998894 -0.046530 0.006690 0 0
    0 2.350507 -14.016016 0.994432 -0.999958 -0.004210 0.008125 0 0
  phy
    0 2.350507 -14.016016 0.994432 -0.999958 -0.004210 0.008125 0 0
    0 1.643714 -14.038683 1.287207 0.998894 -0.046530 0.006690 0 0
    0 2.351492 -14.037248 -0.419622 0.843085 -0.486750 0.228655 0 0
  phy
    0 -2.497131 9.780413 -0.071989 -0.992916 0.112580 -0.038006 0 0
    0 -1.497168 9.803663 -1.071755 -0.998941 0.045316 -0.007914 0 0
    0 -1.289886 -14.091234 -0.419912 0.999999 0.000999 -0.000057 0 0
  phy
    0 -1.583056 -14.091825 0.287082 0.999530 -0.030651 -0.000141 0 0
    0 -2.497131 9.780413 -0.071989 -0.992916 0.112580 -0.038006 0 0
    0 -1.289886 -14.091234 -0.419912 0.999999 0.000999 -0.000057 0 0
  phy
    0 -1.497168 9.803663 -1.071755 -0.998941 0.045316 -0.007914 0 0
    0 -2.497131 9.780413 -0.071989 -0.992916 0.112580 -0.038006 0 0
    0 -0.498597 9.856939 -0.071748 -0.998941 0.045316 -0.007914 0 0
  phy
    0 1.645106 -14.068699 -0.712568 0.999710 0.022718 0.007930 0 0
    0 -1.497168 9.803663 -1.071755 -0.998941 0.045316 -0.007914 0 0
    0 1.437415 9.834988 -0.778690 -0.998941 0.045316 -0.007914 0 0
  phy
    0 2.351492 -14.037248 -0.419622 0.843085 -0.486750 0.228655 0 0
    0 1.645106 -14.068699 -0.712568 0.999710 0.022718 0.007930 0 0
    0 1.437415 9.834988 -0.778690 -0.998941 0.045316 -0.007914 0 0
  phy
    0 -1.497168 9.803663 -1.071755 -0.998941 0.045316 -0.007914 0 0
    0 1.645106 -14.068699 -0.712568 0.999710 0.022718 0.007930 0 0
    0 -1.289886 -14.091234 -0.419912 0.999999 0.000999 -0.000057 0 0
  phy
    0 2.351492 -14.037248 -0.419622 0.843085 -0.486750 0.228655 0 0
    0 0.645143 -14.091953 0.287199 0.998894 -0.046530 0.006690 0 0
    0 1.645106 -14.068699 -0.712568 0.999710 0.022718 0.007930 0 0
  phy
    0 1.645106 -14.068699 -0.712568 0.999710 0.022718 0.007930 0 0
    0 0.645143 -14.091953 0.287199 0.998894 -0.046530 0.006690 0 0
    0 -1.289886 -14.091234 -0.419912 0.999999 0.000999 -0.000057 0 0
  phy
    0 -1.498559 9.833689 0.928019 -0.000419 -0.993884 -0.110425 0 0
    0 1.436432 9.856221 0.635363 -0.028126 -0.992067 0.122523 0 0
    0 -0.498597 9.856939 -0.071748 -0.998941 0.045316 -0.007914 0 0
  phy
    0 -1.498559 9.833689 0.928019 -0.000419 -0.993884 -0.110425 0 0
    0 1.643714 -14.038683 1.287207 0.998894 -0.046530 0.006690 0 0
    0 1.436432 9.856221 0.635363 -0.028126 -0.992067 0.122523 0 0
  phy
    0 1.437415 9.834988 -0.778690 -0.998941 0.045316 -0.007914 0 0
    0 -1.497168 9.803663 -1.071755 -0.998941 0.045316 -0.007914 0 0
    0 -0.498597 9.856939 -0.071748 -0.998941 0.045316 -0.007914 0 0
  phy
    0 -1.289886 -14.091234 -0.419912 0.999999 0.000999 -0.000057 0 0
    0 0.645143 -14.091953 0.287199 0.998894 -0.046530 0.006690 0 0
    0 -1.583056 -14.091825 0.287082 0.999530 -0.030651 -0.000141 0 0
  phy
    0 -1.583056 -14.091825 0.287082 0.999530 -0.030651 -0.000141 0 0
    0 0.645143 -14.091953 0.287199 0.998894 -0.046530 0.006690 0 0
    0 -1.290869 -14.070001 0.994143 0.998894 -0.046530 0.006690 0 0
  phy
    0 1.643714 -14.038683 1.287207 0.998894 -0.046530 0.006690 0 0
    0 0.645143 -14.091953 0.287199 0.998894 -0.046530 0.006690 0 0
    0 2.351492 -14.037248 -0.419622 0.843085 -0.486750 0.228655 0 0
  phy
    0 -1.290869 -14.070001 0.994143 0.998894 -0.046530 0.006690 0 0
    0 1.643714 -14.038683 1.287207 0.998894 -0.046530 0.006690 0 0
    0 -1.498559 9.833689 0.928019 -0.000419 -0.993884 -0.110425 0 0
  phy
    0 -1.290869 -14.070001 0.994143 0.998894 -0.046530 0.006690 0 0
    0 0.645143 -14.091953 0.287199 0.998894 -0.046530 0.006690 0 0
    0 1.643714 -14.038683 1.287207 0.998894 -0.046530 0.006690 0 0
end
