
VertexLitGeneric
{

	$baseTexture				models/jessev92/hl2/weapons/f2000/f2000_d
	$bumpmap					models/jessev92/hl2/weapons/f2000/f2000_b

	$halflambert				1
	$ambientocclusion			1
	$nocull						1

	$phong						1
	$phongexponent				1.77
	$phongalbedotint			1
	$phongalbedoboost			1
	$phongboost					0.75
 	$phongfresnelranges			"[ 1 1 1 ]"
 	$phongexponenttexture		models/jessev92/hl2/weapons/f2000/wpn_fn2000_x
	
	$rimlight					1
	$rimlightexponent			34.5
	$rimlightboost				0.2
	
	$detail						detail/metal_detail_01
	$detailscale				24
	$detailblendfactor			0.95
	$detailblendmode			0
	
}
