
// .vmt file generated by MAYA. Remove this line if you edit this file! -- theo 
// Okay -- V92

VertexLitGeneric
{
	
	$baseTexture models/jessev92/sin/weapons/hand/hands_d
	$bumpmap dev/bump_normal
	$lightwarptexture dev/identitylightwarp

	$halflambert 1
	$ambientocclusion 1
	$ambientocclcolor "{ 255 255 255 }"
	$selfillum 0
	$translucent 0
	$alpha 1
	$color "{ 255 255 255 }"

}
