
//	Action Half-Life 2, Items, Police Evidence Bag
//	Texture @ AHL2 Team
//	Shaders @ Reverend V92
//	Update: 2017/04/10

VertexLitGeneric
{

	$basetexture models/jessev92/ahl2/ammo/bag_d
	$bumpmap dev/bump_normal
	$lightwarptexture dev/identitylightwarp

	$nocull 0
	$halflambert 1
	$ambientocclusion 1
	$translucent 1

	$phong 1
	$phongexponent 30
	$phongboost 0.5
	$phongfresnelranges "[ 0.5 0.5 0.5 ]"
	
	$rimlight 1
	$rimlightexponent 4
	$rimlightboost 0.2

	//$detail detail/metal_detail_01
	//$detailscale 8
	//$detailblendfactor 1
	//$detailblendmode 0

}
