// Created by Crowbar 0.29.0.0
version 1
nodes
  0 "Body" -1
  1 "Hammer" 0
  2 "Detach" -1
  3 "Trigger" -1
  4 "Slide_lock" -1
  5 "Mag" -1
  6 "L_Armdummy" -1
  7 "L_Upperarm" 6
  8 "L_Forearm" 7
  9 "L_Wrist" 8
  10 "L_Thumb1" 9
  11 "L_Thumb2" 10
  12 "L_Thumb3" 11
  13 "L_Index1" 9
  14 "L_Index2" 13
  15 "L_Index3" 14
  16 "L_Mid1" 9
  17 "L_Mid2" 16
  18 "L_Mid3" 17
  19 "L_Ring1" 9
  20 "L_Ring2" 19
  21 "L_Ring3" 20
  22 "L_Pinky1" 9
  23 "L_Pinky2" 22
  24 "L_Pinky3" 23
  25 "R_Armdummy" -1
  26 "R_Upperarm" 25
  27 "R_Forearm" 26
  28 "R_Wrist" 27
  29 "R_Thumb1" 28
  30 "R_Thumb2" 29
  31 "R_Thumb3" 30
  32 "R_Index1" 28
  33 "R_Index2" 32
  34 "R_Index3" 33
  35 "R_Mid1" 28
  36 "R_Mid2" 35
  37 "R_Mid3" 36
  38 "R_Ring1" 28
  39 "R_Ring2" 38
  40 "R_Ring3" 39
  41 "R_Pinky1" 28
  42 "R_Pinky2" 41
  43 "R_Pinky3" 42
end
skeleton
  time 0
    0 2.639594 -10.941124 -12.387764 1.047838 0.143971 -0.082624
    1 0.000007 1.897310 0.730167 -1.062906 0.000000 0.000000
    2 2.369483 -13.003689 -13.098222 1.047838 0.143971 -0.082624
    3 2.572367 -11.070038 -12.776500 1.047838 0.143971 -0.082624
    4 1.998172 -12.055574 -12.913759 1.047838 0.143971 -0.082624
    5 2.639594 -10.941124 -12.387764 1.047838 0.143971 -0.082624
    6 3.396785 7.779389 1.548835 -3.141592 1.454463 -3.141592
    7 -0.023288 0.041601 -0.000001 -0.000196 -0.077261 -0.945296
    8 11.072353 -0.043445 0.000000 0.000000 0.000000 -0.001809
    9 8.108975 0.000000 0.000000 0.142485 -0.053873 0.312107
    10 0.758957 -0.993292 -0.533611 0.392406 0.687057 0.046279
    11 1.920299 0.000000 0.000000 0.000000 0.000000 0.882317
    12 0.858255 0.000000 0.000000 0.000000 0.000000 -0.069433
    13 2.931401 -0.842323 0.160553 -0.041260 0.291433 0.100517
    14 1.836086 0.000000 0.000000 0.000000 1.303315 0.000000
    15 0.853993 0.000000 0.000000 0.002756 0.113413 0.024347
    16 2.964058 -0.072899 0.178523 0.260482 1.290585 0.792160
    17 1.814737 0.000000 0.000000 -3.114505 1.333979 -3.136047
    18 0.982325 0.000000 0.000000 0.000000 0.062784 0.021736
    19 2.910364 0.632510 0.212797 0.525413 1.456608 1.079301
    20 1.751858 0.000000 0.000000 3.141589 1.501719 3.105026
    21 0.853993 0.000000 0.000000 0.000000 0.043633 0.000000
    22 2.899449 1.342927 0.078012 -2.409389 1.401894 -1.952022
    23 1.152892 0.000000 -0.000003 0.009195 0.623335 0.061976
    24 0.748462 0.000000 0.000000 0.000000 0.904936 -0.057080
    25 -7.722618 3.877546 0.545471 -3.141592 1.545689 -3.141732
    26 -0.023288 0.041601 0.000000 -0.219443 -0.598985 -0.490140
    27 11.072354 -0.043445 0.000001 0.000000 0.000000 -0.730894
    28 8.108975 0.000001 0.000000 -1.697224 0.593553 1.458004
    29 0.788882 0.969696 -0.533611 -2.647566 0.437954 0.465033
    30 1.920301 0.000001 0.000000 0.000000 0.000000 1.171019
    31 0.858249 0.000000 0.000000 0.000000 0.000000 -0.088906
    32 2.955714 0.752580 0.160552 -3.141592 1.050291 -0.015797
    33 1.836086 0.000000 0.000000 0.000000 -0.235620 0.000000
    34 0.853994 0.000000 0.000000 -0.002756 -0.113413 0.024347
    35 2.964905 -0.017483 0.178523 -3.141592 1.039020 -0.015797
    36 1.814736 -0.000001 0.000000 0.006645 -0.296634 -0.022729
    37 0.982325 0.000000 0.000000 0.000000 -0.095993 0.021736
    38 2.889732 -0.720928 0.212797 3.131715 0.913559 -0.059684
    39 1.751859 0.000001 0.000000 -0.156462 -0.620449 -0.008613
    40 0.853991 0.000000 0.000004 0.000000 -0.043633 0.000000
    41 2.857166 -1.430681 0.078012 3.141592 1.198598 -0.015797
    42 1.152892 0.000000 0.000001 -0.007510 -0.130685 0.057571
    43 0.748464 0.000000 -0.000001 0.000000 -0.314159 -0.057080
  time 1
    0 2.635688 -11.081753 -11.774464 0.984872 0.136888 -0.080601
    1 0.000007 1.897310 0.730167 -1.062906 0.000000 0.000000
    2 2.385108 -13.183382 -12.359918 0.984872 0.136888 -0.080601
    3 2.572367 -11.226293 -12.159294 0.984872 0.136888 -0.080601
    4 2.013797 -12.219642 -12.237957 0.984872 0.136888 -0.080601
    5 2.635688 -11.081753 -11.774464 0.984872 0.136888 -0.080601
    6 3.396785 7.779389 1.548835 -3.141592 1.454463 -3.141592
    7 -0.023288 0.041601 -0.000001 -0.000196 -0.073794 -0.961883
    8 11.072353 -0.043445 0.000000 0.000000 0.000000 -0.001766
    9 8.108975 0.000000 0.000000 0.136540 -0.059876 0.265745
    10 0.758957 -0.993292 -0.533611 0.392406 0.687057 0.046279
    11 1.920299 0.000000 0.000000 0.000000 0.000000 0.882317
    12 0.858255 0.000000 0.000000 0.000000 0.000000 -0.069433
    13 2.931401 -0.842323 0.160553 0.077459 0.274445 -0.014056
    14 1.836086 0.000000 0.000000 0.000000 -0.165761 0.000000
    15 0.853993 0.000000 0.000000 0.002756 0.113413 0.024347
    16 2.964058 -0.072899 0.178523 0.260482 1.290585 0.792160
    17 1.814737 0.000000 0.000000 -3.114505 1.333979 -3.136047
    18 0.982325 0.000000 0.000000 0.000000 0.062784 0.021736
    19 2.910364 0.632510 0.212797 0.525413 1.456608 1.079301
    20 1.751858 0.000000 0.000000 3.141589 1.501719 3.105026
    21 0.853993 0.000000 0.000000 0.000000 0.043633 0.000000
    22 2.899449 1.342927 0.078012 -2.409389 1.401894 -1.952022
    23 1.152892 0.000000 -0.000003 0.009195 0.623335 0.061976
    24 0.748462 0.000000 0.000000 0.000000 0.904936 -0.057080
    25 -7.722618 3.877546 0.545471 -3.141592 1.545689 -3.141732
    26 -0.023288 0.041601 0.000000 -0.243284 -0.598140 -0.467873
    27 11.072354 -0.043445 0.000001 0.000000 0.000000 -0.806705
    28 8.108975 0.000001 0.000000 -1.719055 0.619248 1.455276
    29 0.788882 0.969696 -0.533611 -2.647566 0.437954 0.465033
    30 1.920301 0.000001 0.000000 0.000000 0.000000 1.171019
    31 0.858249 0.000000 0.000000 0.000000 0.000000 -0.088906
    32 2.955714 0.752580 0.160552 -3.141592 1.050291 -0.015797
    33 1.836086 0.000000 0.000000 0.000000 -0.235620 0.000000
    34 0.853994 0.000000 0.000000 -0.002756 -0.113413 0.024347
    35 2.964905 -0.017483 0.178523 -3.141592 1.039020 -0.015797
    36 1.814736 -0.000001 0.000000 0.006645 -0.296634 -0.022729
    37 0.982325 0.000000 0.000000 0.000000 -0.095993 0.021736
    38 2.889732 -0.720928 0.212797 3.131715 0.913559 -0.059684
    39 1.751859 0.000001 0.000000 -0.156462 -0.620449 -0.008613
    40 0.853991 0.000000 0.000004 0.000000 -0.043633 0.000000
    41 2.857166 -1.430681 0.078012 3.141592 1.198598 -0.015797
    42 1.152892 0.000000 0.000001 -0.007510 -0.130685 0.057571
    43 0.748464 0.000000 -0.000001 0.000000 -0.314159 -0.057080
  time 2
    0 2.635688 -11.245821 -11.083037 0.913880 0.128978 -0.078471
    1 0.000007 1.897310 0.730167 -1.062906 0.000000 0.000000
    2 2.412453 -13.382607 -11.516143 0.913880 0.128978 -0.078471
    3 2.576273 -11.429424 -11.456147 0.913880 0.128978 -0.078471
    4 2.029423 -12.430586 -11.464496 0.913880 0.128978 -0.078471
    5 2.635688 -11.245821 -11.083037 0.913880 0.128978 -0.078471
    6 3.396785 7.779389 1.548835 -3.141592 1.454463 -3.141592
    7 -0.023288 0.041601 -0.000001 -0.007794 -0.069313 -0.872322
    8 11.072353 -0.043445 0.000000 0.000000 0.000000 -0.260497
    9 8.108975 0.000000 0.000000 0.131087 -0.066842 0.363968
    10 0.758957 -0.993292 -0.533611 0.392406 0.687057 0.046279
    11 1.920299 0.000000 0.000000 0.000000 0.000000 0.882317
    12 0.858255 0.000000 0.000000 0.000000 0.000000 -0.069433
    13 2.931401 -0.842323 0.160553 0.077459 0.274445 -0.014056
    14 1.836086 0.000000 0.000000 0.000000 -0.165761 0.000000
    15 0.853993 0.000000 0.000000 0.002756 0.113413 0.024347
    16 2.964058 -0.072899 0.178523 0.260482 1.290585 0.792160
    17 1.814737 0.000000 0.000000 -3.114505 1.333979 -3.136047
    18 0.982325 0.000000 0.000000 0.000000 0.062784 0.021736
    19 2.910364 0.632510 0.212797 0.525413 1.456608 1.079301
    20 1.751858 0.000000 0.000000 3.141589 1.501719 3.105026
    21 0.853993 0.000000 0.000000 0.000000 0.043633 0.000000
    22 2.899449 1.342927 0.078012 -2.409389 1.401894 -1.952022
    23 1.152892 0.000000 -0.000003 0.009195 0.623335 0.061976
    24 0.748462 0.000000 0.000000 0.000000 0.904936 -0.057080
    25 -7.722618 3.877546 0.545471 -3.141592 1.545689 -3.141732
    26 -0.023288 0.041601 0.000000 -0.265397 -0.596992 -0.452784
    27 11.072354 -0.043445 0.000001 0.000000 0.000000 -0.876525
    28 8.108975 0.000001 0.000000 -1.745605 0.645748 1.442819
    29 0.788882 0.969696 -0.533611 -2.647566 0.437954 0.465033
    30 1.920301 0.000001 0.000000 0.000000 0.000000 1.171019
    31 0.858249 0.000000 0.000000 0.000000 0.000000 -0.088906
    32 2.955714 0.752580 0.160552 -3.141592 1.050291 -0.015797
    33 1.836086 0.000000 0.000000 0.000000 -0.235620 0.000000
    34 0.853994 0.000000 0.000000 -0.002756 -0.113413 0.024347
    35 2.964905 -0.017483 0.178523 -3.141592 1.039020 -0.015797
    36 1.814736 -0.000001 0.000000 0.006645 -0.296634 -0.022729
    37 0.982325 0.000000 0.000000 0.000000 -0.095993 0.021736
    38 2.889732 -0.720928 0.212797 3.131715 0.913559 -0.059684
    39 1.751859 0.000001 0.000000 -0.156462 -0.620449 -0.008613
    40 0.853991 0.000000 0.000004 0.000000 -0.043633 0.000000
    41 2.857166 -1.430681 0.078012 3.141592 1.198598 -0.015797
    42 1.152892 0.000000 0.000001 -0.007510 -0.130685 0.057571
    43 0.748464 0.000000 -0.000001 0.000000 -0.314159 -0.057080
  time 3
    0 2.635688 -11.433326 -10.336920 0.837164 0.120481 -0.076234
    1 0.000007 1.897310 0.730167 -1.062906 0.000000 0.000000
    2 2.443704 -13.601364 -10.605959 0.837164 0.120481 -0.076234
    3 2.576273 -11.644274 -10.694405 0.837164 0.120481 -0.076234
    4 2.041142 -12.641530 -10.632439 0.837164 0.120481 -0.076234
    5 2.635688 -11.433326 -10.336920 0.837164 0.120481 -0.076234
    6 3.396785 7.779389 1.548835 -3.141592 1.454463 -3.141592
    7 -0.023288 0.041601 -0.000001 -0.011618 -0.064199 -0.827859
    8 11.072353 -0.043445 0.000000 0.000000 0.000000 -0.419270
    9 8.108975 0.000000 0.000000 0.126485 -0.074393 0.401337
    10 0.758957 -0.993292 -0.533611 0.392406 0.687057 0.046279
    11 1.920299 0.000000 0.000000 0.000000 0.000000 0.882317
    12 0.858255 0.000000 0.000000 0.000000 0.000000 -0.069433
    13 2.931401 -0.842323 0.160553 0.077459 0.274445 -0.014056
    14 1.836086 0.000000 0.000000 0.000000 -0.165761 0.000000
    15 0.853993 0.000000 0.000000 0.002756 0.113413 0.024347
    16 2.964058 -0.072899 0.178523 0.260482 1.290585 0.792160
    17 1.814737 0.000000 0.000000 -3.114505 1.333979 -3.136047
    18 0.982325 0.000000 0.000000 0.000000 0.062784 0.021736
    19 2.910364 0.632510 0.212797 0.525413 1.456608 1.079301
    20 1.751858 0.000000 0.000000 3.141589 1.501719 3.105026
    21 0.853993 0.000000 0.000000 0.000000 0.043633 0.000000
    22 2.899449 1.342927 0.078012 -2.409389 1.401894 -1.952022
    23 1.152892 0.000000 -0.000003 0.009195 0.623335 0.061976
    24 0.748462 0.000000 0.000000 0.000000 0.904936 -0.057080
    25 -7.722618 3.877546 0.545471 -3.141592 1.545689 -3.141732
    26 -0.023288 0.041601 0.000000 -0.284788 -0.595663 -0.445510
    27 11.072354 -0.043445 0.000001 0.000000 0.000000 -0.937446
    28 8.108975 0.000001 0.000000 -1.776778 0.671697 1.419629
    29 0.788882 0.969696 -0.533611 -2.647566 0.437954 0.465033
    30 1.920301 0.000001 0.000000 0.000000 0.000000 1.171019
    31 0.858249 0.000000 0.000000 0.000000 0.000000 -0.088906
    32 2.955714 0.752580 0.160552 -3.141592 1.050291 -0.015797
    33 1.836086 0.000000 0.000000 0.000000 -0.235620 0.000000
    34 0.853994 0.000000 0.000000 -0.002756 -0.113413 0.024347
    35 2.964905 -0.017483 0.178523 -3.141592 1.039020 -0.015797
    36 1.814736 -0.000001 0.000000 0.006645 -0.296634 -0.022729
    37 0.982325 0.000000 0.000000 0.000000 -0.095993 0.021736
    38 2.889732 -0.720928 0.212797 3.131715 0.913559 -0.059684
    39 1.751859 0.000001 0.000000 -0.156462 -0.620449 -0.008613
    40 0.853991 0.000000 0.000004 0.000000 -0.043633 0.000000
    41 2.857166 -1.430681 0.078012 3.141592 1.198598 -0.015797
    42 1.152892 0.000000 0.000001 -0.007510 -0.130685 0.057571
    43 0.748464 0.000000 -0.000001 0.000000 -0.314159 -0.057080
  time 4
    0 2.635688 -11.628645 -9.555646 0.756962 0.111601 -0.073838
    1 0.000007 1.897310 0.730167 -1.062906 0.000000 0.000000
    2 2.467142 -13.812307 -9.644992 0.756962 0.111601 -0.073838
    3 2.584086 -11.866938 -9.893600 0.756962 0.111601 -0.073838
    4 2.060674 -12.872005 -9.749600 0.756962 0.111601 -0.073838
    5 2.635688 -11.628645 -9.555646 0.756962 0.111601 -0.073838
    6 3.396785 7.779389 1.548835 -3.141592 1.454463 -3.141592
    7 -0.023288 0.041601 -0.000001 -0.013307 -0.058911 -0.808528
    8 11.072353 -0.043445 0.000000 0.000000 0.000000 -0.522693
    9 8.108975 0.000000 0.000000 0.123118 -0.082321 0.404846
    10 0.758957 -0.993292 -0.533611 0.392406 0.687057 0.046279
    11 1.920299 0.000000 0.000000 0.000000 0.000000 0.882317
    12 0.858255 0.000000 0.000000 0.000000 0.000000 -0.069433
    13 2.931401 -0.842323 0.160553 0.077459 0.274445 -0.014056
    14 1.836086 0.000000 0.000000 0.000000 -0.165761 0.000000
    15 0.853993 0.000000 0.000000 0.002756 0.113413 0.024347
    16 2.964058 -0.072899 0.178523 0.260482 1.290585 0.792160
    17 1.814737 0.000000 0.000000 -3.114505 1.333979 -3.136047
    18 0.982325 0.000000 0.000000 0.000000 0.062784 0.021736
    19 2.910364 0.632510 0.212797 0.525413 1.456608 1.079301
    20 1.751858 0.000000 0.000000 3.141589 1.501719 3.105026
    21 0.853993 0.000000 0.000000 0.000000 0.043633 0.000000
    22 2.899449 1.342927 0.078012 -2.409389 1.401894 -1.952022
    23 1.152892 0.000000 -0.000003 0.009195 0.623335 0.061976
    24 0.748462 0.000000 0.000000 0.000000 0.904936 -0.057080
    25 -7.722618 3.877546 0.545471 -3.141592 1.545689 -3.141732
    26 -0.023288 0.041601 0.000000 -0.301561 -0.594002 -0.444491
    27 11.072354 -0.043445 0.000001 0.000000 0.000000 -0.990538
    28 8.108975 0.000001 0.000000 -1.812099 0.695741 1.387536
    29 0.788882 0.969696 -0.533611 -2.647566 0.437954 0.465033
    30 1.920301 0.000001 0.000000 0.000000 0.000000 1.171019
    31 0.858249 0.000000 0.000000 0.000000 0.000000 -0.088906
    32 2.955714 0.752580 0.160552 -3.141592 1.050291 -0.015797
    33 1.836086 0.000000 0.000000 0.000000 -0.235620 0.000000
    34 0.853994 0.000000 0.000000 -0.002756 -0.113413 0.024347
    35 2.964905 -0.017483 0.178523 -3.141592 1.039020 -0.015797
    36 1.814736 -0.000001 0.000000 0.006645 -0.296634 -0.022729
    37 0.982325 0.000000 0.000000 0.000000 -0.095993 0.021736
    38 2.889732 -0.720928 0.212797 3.131715 0.913559 -0.059684
    39 1.751859 0.000001 0.000000 -0.156462 -0.620449 -0.008613
    40 0.853991 0.000000 0.000004 0.000000 -0.043633 0.000000
    41 2.857166 -1.430681 0.078012 3.141592 1.198598 -0.015797
    42 1.152892 0.000000 0.000001 -0.007510 -0.130685 0.057571
    43 0.748464 0.000000 -0.000001 0.000000 -0.314159 -0.057080
  time 5
    0 2.635688 -11.812244 -8.770466 0.675705 0.102444 -0.071176
    1 0.000007 1.897310 0.730167 -1.062906 0.000000 0.000000
    2 2.494487 -13.999813 -8.684025 0.675705 0.102444 -0.071176
    3 2.587992 -12.070069 -9.088888 0.675705 0.102444 -0.071176
    4 2.068486 -13.067324 -8.862854 0.675705 0.102444 -0.071176
    5 2.635688 -11.812244 -8.770466 0.675705 0.102444 -0.071176
    6 3.396785 7.779389 1.548835 -3.141592 1.454463 -3.141592
    7 -0.023288 0.041601 -0.000001 -0.013955 -0.053702 -0.801385
    8 11.072353 -0.043445 0.000000 0.000000 0.000000 -0.598788
    9 8.108975 0.000000 0.000000 0.121044 -0.090290 0.391873
    10 0.758957 -0.993292 -0.533611 0.392406 0.687057 0.046279
    11 1.920299 0.000000 0.000000 0.000000 0.000000 0.882317
    12 0.858255 0.000000 0.000000 0.000000 0.000000 -0.069433
    13 2.931401 -0.842323 0.160553 0.077459 0.274445 -0.014056
    14 1.836086 0.000000 0.000000 0.000000 -0.165761 0.000000
    15 0.853993 0.000000 0.000000 0.002756 0.113413 0.024347
    16 2.964058 -0.072899 0.178523 0.260482 1.290585 0.792160
    17 1.814737 0.000000 0.000000 -3.114505 1.333979 -3.136047
    18 0.982325 0.000000 0.000000 0.000000 0.062784 0.021736
    19 2.910364 0.632510 0.212797 0.525413 1.456608 1.079301
    20 1.751858 0.000000 0.000000 3.141589 1.501719 3.105026
    21 0.853993 0.000000 0.000000 0.000000 0.043633 0.000000
    22 2.899449 1.342927 0.078012 -2.409389 1.401894 -1.952022
    23 1.152892 0.000000 -0.000003 0.009195 0.623335 0.061976
    24 0.748462 0.000000 0.000000 0.000000 0.904936 -0.057080
    25 -7.722618 3.877546 0.545471 -3.141592 1.545689 -3.141732
    26 -0.023288 0.041601 0.000000 -0.315476 -0.592114 -0.448961
    27 11.072354 -0.043445 0.000001 0.000000 0.000000 -1.035058
    28 8.108975 0.000001 0.000000 -1.850661 0.717119 1.347186
    29 0.788882 0.969696 -0.533611 -2.647566 0.437954 0.465033
    30 1.920301 0.000001 0.000000 0.000000 0.000000 1.171019
    31 0.858249 0.000000 0.000000 0.000000 0.000000 -0.088906
    32 2.955714 0.752580 0.160552 -3.141592 1.050291 -0.015797
    33 1.836086 0.000000 0.000000 0.000000 -0.235620 0.000000
    34 0.853994 0.000000 0.000000 -0.002756 -0.113413 0.024347
    35 2.964905 -0.017483 0.178523 -3.141592 1.039020 -0.015797
    36 1.814736 -0.000001 0.000000 0.006645 -0.296634 -0.022729
    37 0.982325 0.000000 0.000000 0.000000 -0.095993 0.021736
    38 2.889732 -0.720928 0.212797 3.131715 0.913559 -0.059684
    39 1.751859 0.000001 0.000000 -0.156462 -0.620449 -0.008613
    40 0.853991 0.000000 0.000004 0.000000 -0.043633 0.000000
    41 2.857166 -1.430681 0.078012 3.141592 1.198598 -0.015797
    42 1.152892 0.000000 0.000001 -0.007510 -0.130685 0.057571
    43 0.748464 0.000000 -0.000001 0.000000 -0.314159 -0.057080
  time 6
    0 2.635688 -11.972405 -8.004818 0.595727 0.093336 -0.068300
    1 0.000007 1.897310 0.730167 -1.062906 0.000000 0.000000
    2 2.517925 -14.152162 -7.746496 0.595727 0.093336 -0.068300
    3 2.591899 -12.269294 -8.295895 0.595727 0.093336 -0.068300
    4 2.084112 -13.250923 -7.995640 0.595727 0.093336 -0.068300
    5 2.635688 -11.972405 -8.004818 0.595727 0.093336 -0.068300
    6 3.396785 7.779389 1.548835 -3.141592 1.454463 -3.141592
    7 -0.023288 0.041601 -0.000001 -0.013919 -0.048683 -0.801098
    8 11.072353 -0.043445 0.000000 0.000000 0.000000 -0.657299
    9 8.108975 0.000000 0.000000 0.120373 -0.098030 0.369391
    10 0.758957 -0.993292 -0.533611 0.392406 0.687057 0.046279
    11 1.920299 0.000000 0.000000 0.000000 0.000000 0.882317
    12 0.858255 0.000000 0.000000 0.000000 0.000000 -0.069433
    13 2.931401 -0.842323 0.160553 0.077459 0.274445 -0.014056
    14 1.836086 0.000000 0.000000 0.000000 -0.165761 0.000000
    15 0.853993 0.000000 0.000000 0.002756 0.113413 0.024347
    16 2.964058 -0.072899 0.178523 0.260482 1.290585 0.792160
    17 1.814737 0.000000 0.000000 -3.114505 1.333979 -3.136047
    18 0.982325 0.000000 0.000000 0.000000 0.062784 0.021736
    19 2.910364 0.632510 0.212797 0.525413 1.456608 1.079301
    20 1.751858 0.000000 0.000000 3.141589 1.501719 3.105026
    21 0.853993 0.000000 0.000000 0.000000 0.043633 0.000000
    22 2.899449 1.342927 0.078012 -2.409389 1.401894 -1.952022
    23 1.152892 0.000000 -0.000003 0.009195 0.623335 0.061976
    24 0.748462 0.000000 0.000000 0.000000 0.904936 -0.057080
    25 -7.722618 3.877546 0.545471 -3.141592 1.545689 -3.141732
    26 -0.023288 0.041601 0.000000 -0.326720 -0.590106 -0.457039
    27 11.072354 -0.043445 0.000001 0.000000 0.000000 -1.072133
    28 8.108975 0.000001 0.000000 -1.891344 0.735194 1.300770
    29 0.788882 0.969696 -0.533611 -2.647566 0.437954 0.465033
    30 1.920301 0.000001 0.000000 0.000000 0.000000 1.171019
    31 0.858249 0.000000 0.000000 0.000000 0.000000 -0.088906
    32 2.955714 0.752580 0.160552 -3.141592 1.050291 -0.015797
    33 1.836086 0.000000 0.000000 0.000000 -0.235620 0.000000
    34 0.853994 0.000000 0.000000 -0.002756 -0.113413 0.024347
    35 2.964905 -0.017483 0.178523 -3.141592 1.039020 -0.015797
    36 1.814736 -0.000001 0.000000 0.006645 -0.296634 -0.022729
    37 0.982325 0.000000 0.000000 0.000000 -0.095993 0.021736
    38 2.889732 -0.720928 0.212797 3.131715 0.913559 -0.059684
    39 1.751859 0.000001 0.000000 -0.156462 -0.620449 -0.008613
    40 0.853991 0.000000 0.000004 0.000000 -0.043633 0.000000
    41 2.857166 -1.430681 0.078012 3.141592 1.198598 -0.015797
    42 1.152892 0.000000 0.000001 -0.007510 -0.130685 0.057571
    43 0.748464 0.000000 -0.000001 0.000000 -0.314159 -0.057080
  time 7
    0 2.639594 -12.101316 -7.286046 0.519362 0.084372 -0.065159
    1 0.000007 1.897310 0.730167 -1.062906 0.000000 0.000000
    2 2.537457 -14.257634 -6.859751 0.519362 0.084372 -0.065159
    3 2.595805 -12.413829 -7.557591 0.519362 0.084372 -0.065159
    4 2.095831 -13.375927 -7.183115 0.519362 0.084372 -0.065159
    5 2.639594 -12.101316 -7.286046 0.519362 0.084372 -0.065159
    6 3.396785 7.779389 1.548835 -3.141592 1.454463 -3.141592
    7 -0.023288 0.041601 -0.000001 -0.013499 -0.043964 -0.803567
    8 11.072353 -0.043445 0.000000 0.000000 0.000000 -0.705416
    9 8.108975 0.000000 0.000000 0.120972 -0.105330 0.342640
    10 0.758957 -0.993292 -0.533611 0.392406 0.687057 0.046279
    11 1.920299 0.000000 0.000000 0.000000 0.000000 0.882317
    12 0.858255 0.000000 0.000000 0.000000 0.000000 -0.069433
    13 2.931401 -0.842323 0.160553 0.077459 0.274445 -0.014056
    14 1.836086 0.000000 0.000000 0.000000 -0.165761 0.000000
    15 0.853993 0.000000 0.000000 0.002756 0.113413 0.024347
    16 2.964058 -0.072899 0.178523 0.260482 1.290585 0.792160
    17 1.814737 0.000000 0.000000 -3.114505 1.333979 -3.136047
    18 0.982325 0.000000 0.000000 0.000000 0.062784 0.021736
    19 2.910364 0.632510 0.212797 0.525413 1.456608 1.079301
    20 1.751858 0.000000 0.000000 3.141589 1.501719 3.105026
    21 0.853993 0.000000 0.000000 0.000000 0.043633 0.000000
    22 2.899449 1.342927 0.078012 -2.409389 1.401894 -1.952022
    23 1.152892 0.000000 -0.000003 0.009195 0.623335 0.061976
    24 0.748462 0.000000 0.000000 0.000000 0.904936 -0.057080
    25 -7.722618 3.877546 0.545471 -3.141592 1.545689 -3.141732
    26 -0.023288 0.041601 0.000000 -0.335894 -0.588097 -0.466555
    27 11.072354 -0.043445 0.000001 0.000000 0.000000 -1.102890
    28 8.108975 0.000001 0.000000 -1.932765 0.749714 1.250691
    29 0.788882 0.969696 -0.533611 -2.647566 0.437954 0.465033
    30 1.920301 0.000001 0.000000 0.000000 0.000000 1.171019
    31 0.858249 0.000000 0.000000 0.000000 0.000000 -0.088906
    32 2.955714 0.752580 0.160552 -3.141592 1.050291 -0.015797
    33 1.836086 0.000000 0.000000 0.000000 -0.235620 0.000000
    34 0.853994 0.000000 0.000000 -0.002756 -0.113413 0.024347
    35 2.964905 -0.017483 0.178523 -3.141592 1.039020 -0.015797
    36 1.814736 -0.000001 0.000000 0.006645 -0.296634 -0.022729
    37 0.982325 0.000000 0.000000 0.000000 -0.095993 0.021736
    38 2.889732 -0.720928 0.212797 3.131715 0.913559 -0.059684
    39 1.751859 0.000001 0.000000 -0.156462 -0.620449 -0.008613
    40 0.853991 0.000000 0.000004 0.000000 -0.043633 0.000000
    41 2.857166 -1.430681 0.078012 3.141592 1.198598 -0.015797
    42 1.152892 0.000000 0.000001 -0.007510 -0.130685 0.057571
    43 0.748464 0.000000 -0.000001 0.000000 -0.314159 -0.057080
  time 8
    0 2.639594 -12.187256 -6.637588 0.449073 0.075779 -0.061591
    1 0.000007 1.897310 0.730167 -1.062906 0.000000 0.000000
    2 2.556988 -14.308416 -6.058945 0.449073 0.075779 -0.061591
    3 2.603618 -12.519301 -6.881789 0.449073 0.075779 -0.061591
    4 2.111457 -13.446242 -6.448718 0.449073 0.075779 -0.061591
    5 2.639594 -12.187256 -6.637588 0.449073 0.075779 -0.061591
    6 3.396785 7.779389 1.548835 -3.141592 1.454463 -3.141592
    7 -0.023288 0.041601 -0.000001 -0.012960 -0.039769 -0.806335
    8 11.072353 -0.043445 0.000000 0.000000 0.000000 -0.745824
    9 8.108975 0.000000 0.000000 0.122626 -0.112065 0.314507
    10 0.758957 -0.993292 -0.533611 0.392406 0.687057 0.046279
    11 1.920299 0.000000 0.000000 0.000000 0.000000 0.882317
    12 0.858255 0.000000 0.000000 0.000000 0.000000 -0.069433
    13 2.931401 -0.842323 0.160553 0.077459 0.274445 -0.014056
    14 1.836086 0.000000 0.000000 0.000000 -0.165761 0.000000
    15 0.853993 0.000000 0.000000 0.002756 0.113413 0.024347
    16 2.964058 -0.072899 0.178523 0.260482 1.290585 0.792160
    17 1.814737 0.000000 0.000000 -3.114505 1.333979 -3.136047
    18 0.982325 0.000000 0.000000 0.000000 0.062784 0.021736
    19 2.910364 0.632510 0.212797 0.525413 1.456608 1.079301
    20 1.751858 0.000000 0.000000 3.141589 1.501719 3.105026
    21 0.853993 0.000000 0.000000 0.000000 0.043633 0.000000
    22 2.899449 1.342927 0.078012 -2.409389 1.401894 -1.952022
    23 1.152892 0.000000 -0.000003 0.009195 0.623335 0.061976
    24 0.748462 0.000000 0.000000 0.000000 0.904936 -0.057080
    25 -7.722618 3.877546 0.545471 -3.141592 1.545689 -3.141732
    26 -0.023288 0.041601 0.000000 -0.343921 -0.586210 -0.474489
    27 11.072354 -0.043445 0.000001 0.000000 0.000000 -1.130177
    28 8.108975 0.000001 0.000000 -1.973353 0.761143 1.200362
    29 0.788882 0.969696 -0.533611 -2.647566 0.437954 0.465033
    30 1.920301 0.000001 0.000000 0.000000 0.000000 1.171019
    31 0.858249 0.000000 0.000000 0.000000 0.000000 -0.088906
    32 2.955714 0.752580 0.160552 -3.141592 1.050291 -0.015797
    33 1.836086 0.000000 0.000000 0.000000 -0.235620 0.000000
    34 0.853994 0.000000 0.000000 -0.002756 -0.113413 0.024347
    35 2.964905 -0.017483 0.178523 -3.141592 1.039020 -0.015797
    36 1.814736 -0.000001 0.000000 0.006645 -0.296634 -0.022729
    37 0.982325 0.000000 0.000000 0.000000 -0.095993 0.021736
    38 2.889732 -0.720928 0.212797 3.131715 0.913559 -0.059684
    39 1.751859 0.000001 0.000000 -0.156462 -0.620449 -0.008613
    40 0.853991 0.000000 0.000004 0.000000 -0.043633 0.000000
    41 2.857166 -1.430681 0.078012 3.141592 1.198598 -0.015797
    42 1.152892 0.000000 0.000001 -0.007510 -0.130685 0.057571
    43 0.748464 0.000000 -0.000001 0.000000 -0.314159 -0.057080
  time 9
    0 2.639594 -12.195068 -6.082884 0.387131 0.067761 -0.057651
    1 0.000007 1.897310 0.730167 -1.062906 0.000000 0.000000
    2 2.564801 -14.277165 -5.379237 0.387131 0.067761 -0.057651
    3 2.603618 -12.542739 -6.307553 0.387131 0.067761 -0.057651
    4 2.123176 -13.454054 -5.823699 0.387131 0.067761 -0.057651
    5 2.639594 -12.195068 -6.082884 0.387131 0.067761 -0.057651
    6 3.396785 7.779389 1.548835 -3.141592 1.454463 -3.141592
    7 -0.023288 0.041601 -0.000001 -0.012408 -0.036159 -0.805244
    8 11.072353 -0.043445 0.000000 0.000000 0.000000 -0.785842
    9 8.108975 0.000000 0.000000 0.125047 -0.118257 0.290354
    10 0.758957 -0.993292 -0.533611 0.392406 0.687057 0.046279
    11 1.920299 0.000000 0.000000 0.000000 0.000000 0.882317
    12 0.858255 0.000000 0.000000 0.000000 0.000000 -0.069433
    13 2.931401 -0.842323 0.160553 0.077459 0.274445 -0.014056
    14 1.836086 0.000000 0.000000 0.000000 -0.165761 0.000000
    15 0.853993 0.000000 0.000000 0.002756 0.113413 0.024347
    16 2.964058 -0.072899 0.178523 0.260482 1.290585 0.792160
    17 1.814737 0.000000 0.000000 -3.114505 1.333979 -3.136047
    18 0.982325 0.000000 0.000000 0.000000 0.062784 0.021736
    19 2.910364 0.632510 0.212797 0.525413 1.456608 1.079301
    20 1.751858 0.000000 0.000000 3.141589 1.501719 3.105026
    21 0.853993 0.000000 0.000000 0.000000 0.043633 0.000000
    22 2.899449 1.342927 0.078012 -2.409389 1.401894 -1.952022
    23 1.152892 0.000000 -0.000003 0.009195 0.623335 0.061976
    24 0.748462 0.000000 0.000000 0.000000 0.904936 -0.057080
    25 -7.722618 3.877546 0.545471 -3.141592 1.545689 -3.141732
    26 -0.023288 0.041601 0.000000 -0.351469 -0.584775 -0.478539
    27 11.072354 -0.043445 0.000001 0.000000 0.000000 -1.154973
    28 8.108975 0.000001 0.000000 -2.011962 0.769948 1.151935
    29 0.788882 0.969696 -0.533611 -2.647566 0.437954 0.465033
    30 1.920301 0.000001 0.000000 0.000000 0.000000 1.171019
    31 0.858249 0.000000 0.000000 0.000000 0.000000 -0.088906
    32 2.955714 0.752580 0.160552 -3.141592 1.050291 -0.015797
    33 1.836086 0.000000 0.000000 0.000000 -0.235620 0.000000
    34 0.853994 0.000000 0.000000 -0.002756 -0.113413 0.024347
    35 2.964905 -0.017483 0.178523 -3.141592 1.039020 -0.015797
    36 1.814736 -0.000001 0.000000 0.006645 -0.296634 -0.022729
    37 0.982325 0.000000 0.000000 0.000000 -0.095993 0.021736
    38 2.889732 -0.720928 0.212797 3.131715 0.913559 -0.059684
    39 1.751859 0.000001 0.000000 -0.156462 -0.620449 -0.008613
    40 0.853991 0.000000 0.000004 0.000000 -0.043633 0.000000
    41 2.857166 -1.430681 0.078012 3.141592 1.198598 -0.015797
    42 1.152892 0.000000 0.000001 -0.007510 -0.130685 0.057571
    43 0.748464 0.000000 -0.000001 0.000000 -0.314159 -0.057080
  time 10
    0 2.639594 -12.144286 -5.614120 0.331201 0.059803 -0.052752
    1 0.000007 1.897310 0.730167 -1.062906 0.000000 0.000000
    2 2.580427 -14.183413 -4.797188 0.331201 0.059803 -0.052752
    3 2.607524 -12.495863 -5.823163 0.331201 0.059803 -0.052752
    4 2.127082 -13.379833 -5.288526 0.331201 0.059803 -0.052752
    5 2.639594 -12.144286 -5.614120 0.331201 0.059803 -0.052752
    6 3.396785 7.779389 1.548835 -3.141592 1.454463 -3.141592
    7 -0.023288 0.041601 -0.000001 -0.012001 -0.032945 -0.797538
    8 11.072353 -0.043445 0.000000 0.000000 0.000000 -0.831187
    9 8.108975 0.000000 0.000000 0.128271 -0.124616 0.270667
    10 0.758957 -0.993292 -0.533611 0.392406 0.687057 0.046279
    11 1.920299 0.000000 0.000000 0.000000 0.000000 0.882317
    12 0.858255 0.000000 0.000000 0.000000 0.000000 -0.069433
    13 2.931401 -0.842323 0.160553 0.077459 0.274445 -0.014056
    14 1.836086 0.000000 0.000000 0.000000 -0.165761 0.000000
    15 0.853993 0.000000 0.000000 0.002756 0.113413 0.024347
    16 2.964058 -0.072899 0.178523 0.260482 1.290585 0.792160
    17 1.814737 0.000000 0.000000 -3.114505 1.333979 -3.136047
    18 0.982325 0.000000 0.000000 0.000000 0.062784 0.021736
    19 2.910364 0.632510 0.212797 0.525413 1.456608 1.079301
    20 1.751858 0.000000 0.000000 3.141589 1.501719 3.105026
    21 0.853993 0.000000 0.000000 0.000000 0.043633 0.000000
    22 2.899449 1.342927 0.078012 -2.409389 1.401894 -1.952022
    23 1.152892 0.000000 -0.000003 0.009195 0.623335 0.061976
    24 0.748462 0.000000 0.000000 0.000000 0.904936 -0.057080
    25 -7.722618 3.877546 0.545471 -3.141592 1.545689 -3.141732
    26 -0.023288 0.041601 0.000000 -0.360232 -0.583703 -0.475304
    27 11.072354 -0.043445 0.000001 0.000000 0.000000 -1.182379
    28 8.108975 0.000001 0.000000 -2.050810 0.777314 1.104585
    29 0.788882 0.969696 -0.533611 -2.647566 0.437954 0.465033
    30 1.920301 0.000001 0.000000 0.000000 0.000000 1.171019
    31 0.858249 0.000000 0.000000 0.000000 0.000000 -0.088906
    32 2.955714 0.752580 0.160552 -3.141592 1.050291 -0.015797
    33 1.836086 0.000000 0.000000 0.000000 -0.235620 0.000000
    34 0.853994 0.000000 0.000000 -0.002756 -0.113413 0.024347
    35 2.964905 -0.017483 0.178523 -3.141592 1.039020 -0.015797
    36 1.814736 -0.000001 0.000000 0.006645 -0.296634 -0.022729
    37 0.982325 0.000000 0.000000 0.000000 -0.095993 0.021736
    38 2.889732 -0.720928 0.212797 3.131715 0.913559 -0.059684
    39 1.751859 0.000001 0.000000 -0.156462 -0.620449 -0.008613
    40 0.853991 0.000000 0.000004 0.000000 -0.043633 0.000000
    41 2.857166 -1.430681 0.078012 3.141592 1.198598 -0.015797
    42 1.152892 0.000000 0.000001 -0.007510 -0.130685 0.057571
    43 0.748464 0.000000 -0.000001 0.000000 -0.314159 -0.057080
  time 11
    0 2.639594 -12.003656 -5.203951 0.277541 0.051522 -0.046788
    1 0.000007 1.897310 0.730167 -1.062906 0.000000 0.000000
    2 2.592146 -13.995907 -4.273734 0.277541 0.051522 -0.046788
    3 2.611431 -12.370859 -5.397369 0.277541 0.051522 -0.046788
    4 2.138801 -13.231391 -4.808043 0.277541 0.051522 -0.046788
    5 2.639594 -12.003656 -5.203951 0.277541 0.051522 -0.046788
    6 3.396785 7.779389 1.548835 -3.141592 1.454463 -3.141592
    7 -0.023288 0.041601 -0.000001 -0.011641 -0.029984 -0.783576
    8 11.072353 -0.043445 0.000000 0.000000 0.000000 -0.883505
    9 8.108975 0.000000 0.000000 0.132514 -0.131435 0.253699
    10 0.758957 -0.993292 -0.533611 0.392406 0.687057 0.046279
    11 1.920299 0.000000 0.000000 0.000000 0.000000 0.882317
    12 0.858255 0.000000 0.000000 0.000000 0.000000 -0.069433
    13 2.931401 -0.842323 0.160553 0.077459 0.274445 -0.014056
    14 1.836086 0.000000 0.000000 0.000000 -0.165761 0.000000
    15 0.853993 0.000000 0.000000 0.002756 0.113413 0.024347
    16 2.964058 -0.072899 0.178523 0.260482 1.290585 0.792160
    17 1.814737 0.000000 0.000000 -3.114505 1.333979 -3.136047
    18 0.982325 0.000000 0.000000 0.000000 0.062784 0.021736
    19 2.910364 0.632510 0.212797 0.525413 1.456608 1.079301
    20 1.751858 0.000000 0.000000 3.141589 1.501719 3.105026
    21 0.853993 0.000000 0.000000 0.000000 0.043633 0.000000
    22 2.899449 1.342927 0.078012 -2.409389 1.401894 -1.952022
    23 1.152892 0.000000 -0.000003 0.009195 0.623335 0.061976
    24 0.748462 0.000000 0.000000 0.000000 0.904936 -0.057080
    25 -7.722618 3.877546 0.545471 -3.141592 1.545689 -3.141732
    26 -0.023288 0.041601 0.000000 -0.370706 -0.582872 -0.465009
    27 11.072354 -0.043445 0.000001 0.000000 0.000000 -1.213848
    28 8.108975 0.000001 0.000000 -2.092304 0.783664 1.055548
    29 0.788882 0.969696 -0.533611 -2.647566 0.437954 0.465033
    30 1.920301 0.000001 0.000000 0.000000 0.000000 1.171019
    31 0.858249 0.000000 0.000000 0.000000 0.000000 -0.088906
    32 2.955714 0.752580 0.160552 -3.141592 1.050291 -0.015797
    33 1.836086 0.000000 0.000000 0.000000 -0.235620 0.000000
    34 0.853994 0.000000 0.000000 -0.002756 -0.113413 0.024347
    35 2.964905 -0.017483 0.178523 -3.141592 1.039020 -0.015797
    36 1.814736 -0.000001 0.000000 0.006645 -0.296634 -0.022729
    37 0.982325 0.000000 0.000000 0.000000 -0.095993 0.021736
    38 2.889732 -0.720928 0.212797 3.131715 0.913559 -0.059684
    39 1.751859 0.000001 0.000000 -0.156462 -0.620449 -0.008613
    40 0.853991 0.000000 0.000004 0.000000 -0.043633 0.000000
    41 2.857166 -1.430681 0.078012 3.141592 1.198598 -0.015797
    42 1.152892 0.000000 0.000001 -0.007510 -0.130685 0.057571
    43 0.748464 0.000000 -0.000001 0.000000 -0.314159 -0.057080
  time 12
    0 2.639594 -11.816151 -4.844565 0.226695 0.043073 -0.040079
    1 0.000007 1.897310 0.730167 -1.062906 0.000000 0.000000
    2 2.603865 -13.757618 -3.816689 0.226695 0.043073 -0.040079
    3 2.619243 -12.191166 -5.010638 0.226695 0.043073 -0.040079
    4 2.146614 -13.028260 -4.393968 0.226695 0.043073 -0.040079
    5 2.639594 -11.816151 -4.844565 0.226695 0.043073 -0.040079
    6 3.396785 7.779389 1.548835 -3.141592 1.454463 -3.141592
    7 -0.023288 0.041601 -0.000001 -0.011330 -0.027261 -0.765755
    8 11.072353 -0.043445 0.000000 0.000000 0.000000 -0.938335
    9 8.108975 0.000000 0.000000 0.137631 -0.138296 0.238159
    10 0.758957 -0.993292 -0.533611 0.392406 0.687057 0.046279
    11 1.920299 0.000000 0.000000 0.000000 0.000000 0.882317
    12 0.858255 0.000000 0.000000 0.000000 0.000000 -0.069433
    13 2.931401 -0.842323 0.160553 0.077459 0.274445 -0.014056
    14 1.836086 0.000000 0.000000 0.000000 -0.165761 0.000000
    15 0.853993 0.000000 0.000000 0.002756 0.113413 0.024347
    16 2.964058 -0.072899 0.178523 0.260482 1.290585 0.792160
    17 1.814737 0.000000 0.000000 -3.114505 1.333979 -3.136047
    18 0.982325 0.000000 0.000000 0.000000 0.062784 0.021736
    19 2.910364 0.632510 0.212797 0.525413 1.456608 1.079301
    20 1.751858 0.000000 0.000000 3.141589 1.501719 3.105026
    21 0.853993 0.000000 0.000000 0.000000 0.043633 0.000000
    22 2.899449 1.342927 0.078012 -2.409389 1.401894 -1.952022
    23 1.152892 0.000000 -0.000003 0.009195 0.623335 0.061976
    24 0.748462 0.000000 0.000000 0.000000 0.904936 -0.057080
    25 -7.722618 3.877546 0.545471 -3.141592 1.545689 -3.141732
    26 -0.023288 0.041601 0.000000 -0.382156 -0.582600 -0.449848
    27 11.072354 -0.043445 0.000001 0.000000 0.000000 -1.246445
    28 8.108975 0.000001 0.000000 -2.135036 0.788616 1.005147
    29 0.788882 0.969696 -0.533611 -2.647566 0.437954 0.465033
    30 1.920301 0.000001 0.000000 0.000000 0.000000 1.171019
    31 0.858249 0.000000 0.000000 0.000000 0.000000 -0.088906
    32 2.955714 0.752580 0.160552 -3.141592 1.050291 -0.015797
    33 1.836086 0.000000 0.000000 0.000000 -0.235620 0.000000
    34 0.853994 0.000000 0.000000 -0.002756 -0.113413 0.024347
    35 2.964905 -0.017483 0.178523 -3.141592 1.039020 -0.015797
    36 1.814736 -0.000001 0.000000 0.006645 -0.296634 -0.022729
    37 0.982325 0.000000 0.000000 0.000000 -0.095993 0.021736
    38 2.889732 -0.720928 0.212797 3.131715 0.913559 -0.059684
    39 1.751859 0.000001 0.000000 -0.156462 -0.620449 -0.008613
    40 0.853991 0.000000 0.000004 0.000000 -0.043633 0.000000
    41 2.857166 -1.430681 0.078012 3.141592 1.198598 -0.015797
    42 1.152892 0.000000 0.000001 -0.007510 -0.130685 0.057571
    43 0.748464 0.000000 -0.000001 0.000000 -0.314159 -0.057080
  time 13
    0 2.639594 -11.593488 -4.528149 0.179399 0.034707 -0.032944
    1 0.000007 1.897310 0.730167 -1.062906 0.000000 0.000000
    2 2.619490 -13.476360 -3.410427 0.179399 0.034707 -0.032944
    3 2.623150 -11.968503 -4.682503 0.179399 0.034707 -0.032944
    4 2.154427 -12.782159 -4.018956 0.179399 0.034707 -0.032944
    5 2.639594 -11.593488 -4.528149 0.179399 0.034707 -0.032944
    6 3.396785 7.779389 1.548835 -3.141592 1.454463 -3.141592
    7 -0.023288 0.041601 -0.000001 -0.010970 -0.024902 -0.745166
    8 11.072353 -0.043445 0.000000 0.000000 0.000000 -0.994464
    9 8.108975 0.000000 0.000000 0.143527 -0.144843 0.224472
    10 0.758957 -0.993292 -0.533611 0.392406 0.687057 0.046279
    11 1.920299 0.000000 0.000000 0.000000 0.000000 0.882317
    12 0.858255 0.000000 0.000000 0.000000 0.000000 -0.069433
    13 2.931401 -0.842323 0.160553 0.077459 0.274445 -0.014056
    14 1.836086 0.000000 0.000000 0.000000 -0.165761 0.000000
    15 0.853993 0.000000 0.000000 0.002756 0.113413 0.024347
    16 2.964058 -0.072899 0.178523 0.260482 1.290585 0.792160
    17 1.814737 0.000000 0.000000 -3.114505 1.333979 -3.136047
    18 0.982325 0.000000 0.000000 0.000000 0.062784 0.021736
    19 2.910364 0.632510 0.212797 0.525413 1.456608 1.079301
    20 1.751858 0.000000 0.000000 3.141589 1.501719 3.105026
    21 0.853993 0.000000 0.000000 0.000000 0.043633 0.000000
    22 2.899449 1.342927 0.078012 -2.409389 1.401894 -1.952022
    23 1.152892 0.000000 -0.000003 0.009195 0.623335 0.061976
    24 0.748462 0.000000 0.000000 0.000000 0.904936 -0.057080
    25 -7.722618 3.877546 0.545471 -3.141592 1.545689 -3.141732
    26 -0.023288 0.041601 0.000000 -0.394428 -0.582706 -0.430889
    27 11.072354 -0.043445 0.000001 0.000000 0.000000 -1.279990
    28 8.108975 0.000001 0.000000 -2.177840 0.791961 0.955320
    29 0.788882 0.969696 -0.533611 -2.647566 0.437954 0.465033
    30 1.920301 0.000001 0.000000 0.000000 0.000000 1.171019
    31 0.858249 0.000000 0.000000 0.000000 0.000000 -0.088906
    32 2.955714 0.752580 0.160552 -3.141592 1.050291 -0.015797
    33 1.836086 0.000000 0.000000 0.000000 -0.235620 0.000000
    34 0.853994 0.000000 0.000000 -0.002756 -0.113413 0.024347
    35 2.964905 -0.017483 0.178523 -3.141592 1.039020 -0.015797
    36 1.814736 -0.000001 0.000000 0.006645 -0.296634 -0.022729
    37 0.982325 0.000000 0.000000 0.000000 -0.095993 0.021736
    38 2.889732 -0.720928 0.212797 3.131715 0.913559 -0.059684
    39 1.751859 0.000001 0.000000 -0.156462 -0.620449 -0.008613
    40 0.853991 0.000000 0.000004 0.000000 -0.043633 0.000000
    41 2.857166 -1.430681 0.078012 3.141592 1.198598 -0.015797
    42 1.152892 0.000000 0.000001 -0.007510 -0.130685 0.057571
    43 0.748464 0.000000 -0.000001 0.000000 -0.314159 -0.057080
  time 14
    0 2.639594 -11.335667 -4.262516 0.136132 0.026714 -0.025702
    1 0.000007 1.897310 0.730167 -1.062906 0.000000 0.000000
    2 2.623397 -13.179476 -3.054947 0.136132 0.026714 -0.025702
    3 2.623150 -11.722402 -4.393432 0.136132 0.026714 -0.025702
    4 2.158333 -12.504807 -3.706447 0.136132 0.026714 -0.025702
    5 2.639594 -11.335667 -4.262516 0.136132 0.026714 -0.025702
    6 3.396785 7.779389 1.548835 -3.141592 1.454463 -3.141592
    7 -0.023288 0.041601 -0.000001 -0.010683 -0.022812 -0.723186
    8 11.072353 -0.043445 0.000000 0.000000 0.000000 -1.049857
    9 8.108975 0.000000 0.000000 0.149879 -0.150825 0.212623
    10 0.758957 -0.993292 -0.533611 0.392406 0.687057 0.046279
    11 1.920299 0.000000 0.000000 0.000000 0.000000 0.882317
    12 0.858255 0.000000 0.000000 0.000000 0.000000 -0.069433
    13 2.931401 -0.842323 0.160553 0.086088 0.212561 -0.011491
    14 1.836086 0.000000 0.000000 0.000000 0.156675 0.000000
    15 0.853993 0.000000 0.000000 0.002756 0.113413 0.024347
    16 2.964058 -0.072899 0.178523 0.260482 1.290585 0.792160
    17 1.814737 0.000000 0.000000 -3.114505 1.333979 -3.136047
    18 0.982325 0.000000 0.000000 0.000000 0.062784 0.021736
    19 2.910364 0.632510 0.212797 0.525413 1.456608 1.079301
    20 1.751858 0.000000 0.000000 3.141589 1.501719 3.105026
    21 0.853993 0.000000 0.000000 0.000000 0.043633 0.000000
    22 2.899449 1.342927 0.078012 -2.409389 1.401894 -1.952022
    23 1.152892 0.000000 -0.000003 0.009195 0.623335 0.061976
    24 0.748462 0.000000 0.000000 0.000000 0.904936 -0.057080
    25 -7.722618 3.877546 0.545471 -3.141592 1.545689 -3.141732
    26 -0.023288 0.041601 0.000000 -0.407024 -0.583144 -0.409520
    27 11.072354 -0.043445 0.000001 0.000000 0.000000 -1.313150
    28 8.108975 0.000001 0.000000 -2.219477 0.793950 0.907467
    29 0.788882 0.969696 -0.533611 -2.647566 0.437954 0.465033
    30 1.920301 0.000001 0.000000 0.000000 0.000000 1.171019
    31 0.858249 0.000000 0.000000 0.000000 0.000000 -0.088906
    32 2.955714 0.752580 0.160552 -3.141592 1.050291 -0.015797
    33 1.836086 0.000000 0.000000 0.000000 -0.235620 0.000000
    34 0.853994 0.000000 0.000000 -0.002756 -0.113413 0.024347
    35 2.964905 -0.017483 0.178523 -3.141592 1.039020 -0.015797
    36 1.814736 -0.000001 0.000000 0.006645 -0.296634 -0.022729
    37 0.982325 0.000000 0.000000 0.000000 -0.095993 0.021736
    38 2.889732 -0.720928 0.212797 3.131715 0.913559 -0.059684
    39 1.751859 0.000001 0.000000 -0.156462 -0.620449 -0.008613
    40 0.853991 0.000000 0.000004 0.000000 -0.043633 0.000000
    41 2.857166 -1.430681 0.078012 3.141592 1.198598 -0.015797
    42 1.152892 0.000000 0.000001 -0.007510 -0.130685 0.057571
    43 0.748464 0.000000 -0.000001 0.000000 -0.314159 -0.057080
  time 15
    0 2.639594 -11.066128 -4.032040 0.097438 0.019247 -0.018726
    1 0.000007 1.897310 0.730167 -1.062906 0.000000 0.000000
    2 2.635116 -12.866966 -2.758063 0.097438 0.019247 -0.018726
    3 2.627056 -11.460675 -4.151237 0.097438 0.019247 -0.018726
    4 2.170052 -12.223548 -3.433001 0.097438 0.019247 -0.018726
    5 2.639594 -11.066128 -4.032040 0.097438 0.019247 -0.018726
    6 3.396785 7.779389 1.548835 -3.141592 1.454463 -3.141592
    7 -0.023288 0.041601 -0.000001 -0.010383 -0.021086 -0.701662
    8 11.072353 -0.043445 0.000000 0.000000 0.000000 -1.101352
    9 8.108975 0.000000 0.000000 0.156387 -0.156034 0.201990
    10 0.758957 -0.993292 -0.533611 0.392406 0.687057 0.046279
    11 1.920299 0.000000 0.000000 0.000000 0.000000 0.882317
    12 0.858255 0.000000 0.000000 0.000000 0.000000 -0.069433
    13 2.931401 -0.842323 0.160553 0.098013 0.135663 -0.010568
    14 1.836086 0.000000 0.000000 0.000000 0.538649 0.000000
    15 0.853993 0.000000 0.000000 0.002756 0.113413 0.024347
    16 2.964058 -0.072899 0.178523 0.260482 1.290585 0.792160
    17 1.814737 0.000000 0.000000 -3.114505 1.333979 -3.136047
    18 0.982325 0.000000 0.000000 0.000000 0.062784 0.021736
    19 2.910364 0.632510 0.212797 0.525413 1.456608 1.079301
    20 1.751858 0.000000 0.000000 3.141589 1.501719 3.105026
    21 0.853993 0.000000 0.000000 0.000000 0.043633 0.000000
    22 2.899449 1.342927 0.078012 -2.409389 1.401894 -1.952022
    23 1.152892 0.000000 -0.000003 0.009195 0.623335 0.061976
    24 0.748462 0.000000 0.000000 0.000000 0.904936 -0.057080
    25 -7.722618 3.877546 0.545471 -3.141592 1.545689 -3.141732
    26 -0.023288 0.041601 0.000000 -0.419467 -0.584020 -0.387444
    27 11.072354 -0.043445 0.000001 0.000000 0.000000 -1.344204
    28 8.108975 0.000001 0.000000 -2.258563 0.794627 0.862738
    29 0.788882 0.969696 -0.533611 -2.647566 0.437954 0.465033
    30 1.920301 0.000001 0.000000 0.000000 0.000000 1.171019
    31 0.858249 0.000000 0.000000 0.000000 0.000000 -0.088906
    32 2.955714 0.752580 0.160552 -3.141592 1.050291 -0.015797
    33 1.836086 0.000000 0.000000 0.000000 -0.235620 0.000000
    34 0.853994 0.000000 0.000000 -0.002756 -0.113413 0.024347
    35 2.964905 -0.017483 0.178523 -3.141592 1.039020 -0.015797
    36 1.814736 -0.000001 0.000000 0.006645 -0.296634 -0.022729
    37 0.982325 0.000000 0.000000 0.000000 -0.095993 0.021736
    38 2.889732 -0.720928 0.212797 3.131715 0.913559 -0.059684
    39 1.751859 0.000001 0.000000 -0.156462 -0.620449 -0.008613
    40 0.853991 0.000000 0.000004 0.000000 -0.043633 0.000000
    41 2.857166 -1.430681 0.078012 3.141592 1.198598 -0.015797
    42 1.152892 0.000000 0.000001 -0.007510 -0.130685 0.057571
    43 0.748464 0.000000 -0.000001 0.000000 -0.314159 -0.057080
  time 16
    0 2.639594 -10.812214 -3.844534 0.063989 0.012644 -0.012337
    1 0.000007 1.897310 0.730167 -1.062906 0.000000 0.000000
    2 2.635116 -12.558363 -2.504149 0.063989 0.012644 -0.012337
    3 2.634869 -11.214574 -3.952012 0.063989 0.012644 -0.012337
    4 2.173958 -11.946196 -3.214244 0.063989 0.012644 -0.012337
    5 2.639594 -10.812214 -3.844534 0.063989 0.012644 -0.012337
    6 3.396785 7.779389 1.548835 -3.141592 1.454463 -3.141592
    7 -0.023288 0.041601 -0.000001 -0.010143 -0.019613 -0.681048
    8 11.072353 -0.043445 0.000000 0.000000 0.000000 -1.148993
    9 8.108975 0.000000 0.000000 0.162559 -0.160322 0.193741
    10 0.758957 -0.993292 -0.533611 0.392406 0.687057 0.046279
    11 1.920299 0.000000 0.000000 0.000000 0.000000 0.882317
    12 0.858255 0.000000 0.000000 0.000000 0.000000 -0.069433
    13 2.931401 -0.842323 0.160553 0.108523 0.060395 -0.009633
    14 1.836086 0.000000 0.000000 0.000000 0.923672 0.000000
    15 0.853993 0.000000 0.000000 0.002756 0.113413 0.024347
    16 2.964058 -0.072899 0.178523 0.260482 1.290585 0.792160
    17 1.814737 0.000000 0.000000 -3.114505 1.333979 -3.136047
    18 0.982325 0.000000 0.000000 0.000000 0.062784 0.021736
    19 2.910364 0.632510 0.212797 0.525413 1.456608 1.079301
    20 1.751858 0.000000 0.000000 3.141589 1.501719 3.105026
    21 0.853993 0.000000 0.000000 0.000000 0.043633 0.000000
    22 2.899449 1.342927 0.078012 -2.409389 1.401894 -1.952022
    23 1.152892 0.000000 -0.000003 0.009195 0.623335 0.061976
    24 0.748462 0.000000 0.000000 0.000000 0.904936 -0.057080
    25 -7.722618 3.877546 0.545471 -3.141592 1.545689 -3.141732
    26 -0.023288 0.041601 0.000000 -0.431413 -0.585077 -0.365645
    27 11.072354 -0.043445 0.000001 0.000000 0.000000 -1.373182
    28 8.108975 0.000001 0.000000 -2.293836 0.794585 0.823214
    29 0.788882 0.969696 -0.533611 -2.647566 0.437954 0.465033
    30 1.920301 0.000001 0.000000 0.000000 0.000000 1.171019
    31 0.858249 0.000000 0.000000 0.000000 0.000000 -0.088906
    32 2.955714 0.752580 0.160552 -3.141592 1.050291 -0.015797
    33 1.836086 0.000000 0.000000 0.000000 -0.235620 0.000000
    34 0.853994 0.000000 0.000000 -0.002756 -0.113413 0.024347
    35 2.964905 -0.017483 0.178523 -3.141592 1.039020 -0.015797
    36 1.814736 -0.000001 0.000000 0.006645 -0.296634 -0.022729
    37 0.982325 0.000000 0.000000 0.000000 -0.095993 0.021736
    38 2.889732 -0.720928 0.212797 3.131715 0.913559 -0.059684
    39 1.751859 0.000001 0.000000 -0.156462 -0.620449 -0.008613
    40 0.853991 0.000000 0.000004 0.000000 -0.043633 0.000000
    41 2.857166 -1.430681 0.078012 3.141592 1.198598 -0.015797
    42 1.152892 0.000000 0.000001 -0.007510 -0.130685 0.057571
    43 0.748464 0.000000 -0.000001 0.000000 -0.314159 -0.057080
  time 17
    0 2.639594 -10.570019 -3.684373 0.036168 0.007071 -0.006852
    1 0.000007 1.897310 0.730167 -1.062906 0.000000 0.000000
    2 2.635116 -12.281011 -2.304924 0.036168 0.007071 -0.006852
    3 2.638775 -10.972379 -3.780132 0.036168 0.007071 -0.006852
    4 2.173958 -11.692282 -3.022832 0.036168 0.007071 -0.006852
    5 2.639594 -10.570019 -3.684373 0.036168 0.007071 -0.006852
    6 3.396785 7.779389 1.548835 -3.141592 1.454463 -3.141592
    7 -0.023288 0.041601 -0.000001 -0.009952 -0.018521 -0.662892
    8 11.072353 -0.043445 0.000000 0.000000 0.000000 -1.190440
    9 8.108975 0.000000 0.000000 0.168096 -0.163627 0.187726
    10 0.758957 -0.993292 -0.533611 0.392406 0.687057 0.046279
    11 1.920299 0.000000 0.000000 0.000000 0.000000 0.882317
    12 0.858255 0.000000 0.000000 0.000000 0.000000 -0.069433
    13 2.931401 -0.842323 0.160553 0.112946 0.003328 -0.006002
    14 1.836086 0.000000 0.000000 0.000000 1.254985 0.000000
    15 0.853993 0.000000 0.000000 0.002756 0.113413 0.024347
    16 2.964058 -0.072899 0.178523 0.260482 1.290585 0.792160
    17 1.814737 0.000000 0.000000 -3.114505 1.333979 -3.136047
    18 0.982325 0.000000 0.000000 0.000000 0.062784 0.021736
    19 2.910364 0.632510 0.212797 0.525413 1.456608 1.079301
    20 1.751858 0.000000 0.000000 3.141589 1.501719 3.105026
    21 0.853993 0.000000 0.000000 0.000000 0.043633 0.000000
    22 2.899449 1.342927 0.078012 -2.409389 1.401894 -1.952022
    23 1.152892 0.000000 -0.000003 0.009195 0.623335 0.061976
    24 0.748462 0.000000 0.000000 0.000000 0.904936 -0.057080
    25 -7.722618 3.877546 0.545471 -3.141592 1.545689 -3.141732
    26 -0.023288 0.041601 0.000000 -0.442350 -0.586391 -0.345978
    27 11.072354 -0.043445 0.000001 0.000000 0.000000 -1.398156
    28 8.108975 0.000001 0.000000 -2.323865 0.794204 0.789936
    29 0.788882 0.969696 -0.533611 -2.647566 0.437954 0.465033
    30 1.920301 0.000001 0.000000 0.000000 0.000000 1.171019
    31 0.858249 0.000000 0.000000 0.000000 0.000000 -0.088906
    32 2.955714 0.752580 0.160552 -3.141592 1.050291 -0.015797
    33 1.836086 0.000000 0.000000 0.000000 -0.235620 0.000000
    34 0.853994 0.000000 0.000000 -0.002756 -0.113413 0.024347
    35 2.964905 -0.017483 0.178523 -3.141592 1.039020 -0.015797
    36 1.814736 -0.000001 0.000000 0.006645 -0.296634 -0.022729
    37 0.982325 0.000000 0.000000 0.000000 -0.095993 0.021736
    38 2.889732 -0.720928 0.212797 3.131715 0.913559 -0.059684
    39 1.751859 0.000001 0.000000 -0.156462 -0.620449 -0.008613
    40 0.853991 0.000000 0.000004 0.000000 -0.043633 0.000000
    41 2.857166 -1.430681 0.078012 3.141592 1.198598 -0.015797
    42 1.152892 0.000000 0.000001 -0.007510 -0.130685 0.057571
    43 0.748464 0.000000 -0.000001 0.000000 -0.314159 -0.057080
  time 18
    0 2.639594 -10.374700 -3.555463 0.014582 0.002744 -0.002699
    1 0.000007 1.897310 0.730167 -1.062906 0.000000 0.000000
    2 2.642929 -12.058348 -2.136950 0.014582 0.002744 -0.002699
    3 2.638775 -10.777061 -3.635596 0.014582 0.002744 -0.002699
    4 2.177865 -11.477432 -2.866577 0.014582 0.002744 -0.002699
    5 2.639594 -10.374700 -3.555463 0.014582 0.002744 -0.002699
    6 3.396785 7.779389 1.548835 -3.141592 1.454463 -3.141592
    7 -0.023288 0.041601 -0.000001 -0.009796 -0.017618 -0.647899
    8 11.072353 -0.043445 0.000000 0.000000 0.000000 -1.225261
    9 8.108975 0.000000 0.000000 0.172494 -0.165886 0.184824
    10 0.758957 -0.993292 -0.533611 0.392406 0.687057 0.046279
    11 1.920299 0.000000 0.000000 0.000000 0.000000 0.882317
    12 0.858255 0.000000 0.000000 0.000000 0.000000 -0.069433
    13 2.931401 -0.842323 0.160553 0.106342 -0.018832 0.003454
    14 1.836086 0.000000 0.000000 0.000000 1.475921 0.000000
    15 0.853993 0.000000 0.000000 0.002756 0.113413 0.024347
    16 2.964058 -0.072899 0.178523 0.260482 1.290585 0.792160
    17 1.814737 0.000000 0.000000 -3.114505 1.333979 -3.136047
    18 0.982325 0.000000 0.000000 0.000000 0.062784 0.021736
    19 2.910364 0.632510 0.212797 0.525413 1.456608 1.079301
    20 1.751858 0.000000 0.000000 3.141589 1.501719 3.105026
    21 0.853993 0.000000 0.000000 0.000000 0.043633 0.000000
    22 2.899449 1.342927 0.078012 -2.409389 1.401894 -1.952022
    23 1.152892 0.000000 -0.000003 0.009195 0.623335 0.061976
    24 0.748462 0.000000 0.000000 0.000000 0.904936 -0.057080
    25 -7.722618 3.877546 0.545471 -3.141592 1.545689 -3.141732
    26 -0.023288 0.041601 0.000000 -0.451866 -0.587735 -0.329607
    27 11.072354 -0.043445 0.000001 0.000000 0.000000 -1.419066
    28 8.108975 0.000001 0.000000 -2.347365 0.794204 0.764987
    29 0.788882 0.969696 -0.533611 -2.647566 0.437954 0.465033
    30 1.920301 0.000001 0.000000 0.000000 0.000000 1.171019
    31 0.858249 0.000000 0.000000 0.000000 0.000000 -0.088906
    32 2.955714 0.752580 0.160552 -3.141592 1.050291 -0.015797
    33 1.836086 0.000000 0.000000 0.000000 -0.235620 0.000000
    34 0.853994 0.000000 0.000000 -0.002756 -0.113413 0.024347
    35 2.964905 -0.017483 0.178523 -3.141592 1.039020 -0.015797
    36 1.814736 -0.000001 0.000000 0.006645 -0.296634 -0.022729
    37 0.982325 0.000000 0.000000 0.000000 -0.095993 0.021736
    38 2.889732 -0.720928 0.212797 3.131715 0.913559 -0.059684
    39 1.751859 0.000001 0.000000 -0.156462 -0.620449 -0.008613
    40 0.853991 0.000000 0.000004 0.000000 -0.043633 0.000000
    41 2.857166 -1.430681 0.078012 3.141592 1.198598 -0.015797
    42 1.152892 0.000000 0.000001 -0.007510 -0.130685 0.057571
    43 0.748464 0.000000 -0.000001 0.000000 -0.314159 -0.057080
  time 19
    0 2.639594 -10.222352 -3.442178 0.000000 0.000000 -0.000143
    1 0.000007 1.897310 0.730167 -1.062906 0.000000 0.000000
    2 2.642929 -11.878655 -2.000227 0.000000 0.000000 -0.000143
    3 2.638775 -10.624712 -3.526218 0.000000 0.000000 -0.000143
    4 2.177865 -11.321177 -2.741573 0.000000 0.000000 -0.000143
    5 2.639594 -10.222352 -3.442178 0.000000 0.000000 -0.000143
    6 3.396785 7.779389 1.548835 -3.141592 1.454463 -3.141592
    7 -0.023288 0.041601 -0.000001 -0.009652 -0.017033 -0.637580
    8 11.072353 -0.043445 0.000000 0.000000 0.000000 -1.251117
    9 8.108975 0.000000 0.000000 0.175418 -0.167078 0.184961
    10 0.758957 -0.993292 -0.533611 0.392406 0.687057 0.046279
    11 1.920299 0.000000 0.000000 0.000000 0.000000 0.882317
    12 0.858255 0.000000 0.000000 0.000000 0.000000 -0.069433
    13 2.931401 -0.842323 0.160553 0.086184 0.003659 0.020292
    14 1.836086 0.000000 0.000000 0.000000 1.557471 0.000000
    15 0.853993 0.000000 0.000000 0.002756 0.113413 0.024347
    16 2.964058 -0.072899 0.178523 0.260482 1.290585 0.792160
    17 1.814737 0.000000 0.000000 -3.114505 1.333979 -3.136047
    18 0.982325 0.000000 0.000000 0.000000 0.062784 0.021736
    19 2.910364 0.632510 0.212797 0.525413 1.456608 1.079301
    20 1.751858 0.000000 0.000000 3.141589 1.501719 3.105026
    21 0.853993 0.000000 0.000000 0.000000 0.043633 0.000000
    22 2.899449 1.342927 0.078012 -2.409389 1.401894 -1.952022
    23 1.152892 0.000000 -0.000003 0.009195 0.623335 0.061976
    24 0.748462 0.000000 0.000000 0.000000 0.904936 -0.057080
    25 -7.722618 3.877546 0.545471 -3.141592 1.545689 -3.141732
    26 -0.023288 0.041601 0.000000 -0.459482 -0.588973 -0.318102
    27 11.072354 -0.043445 0.000001 0.000000 0.000000 -1.435172
    28 8.108975 0.000001 0.000000 -2.362832 0.795093 0.750161
    29 0.788882 0.969696 -0.533611 -2.647566 0.437954 0.465033
    30 1.920301 0.000001 0.000000 0.000000 0.000000 1.171019
    31 0.858249 0.000000 0.000000 0.000000 0.000000 -0.088906
    32 2.955714 0.752580 0.160552 -3.141592 1.050291 -0.015797
    33 1.836086 0.000000 0.000000 0.000000 -0.235620 0.000000
    34 0.853994 0.000000 0.000000 -0.002756 -0.113413 0.024347
    35 2.964905 -0.017483 0.178523 -3.141592 1.039020 -0.015797
    36 1.814736 -0.000001 0.000000 0.006645 -0.296634 -0.022729
    37 0.982325 0.000000 0.000000 0.000000 -0.095993 0.021736
    38 2.889732 -0.720928 0.212797 3.131715 0.913559 -0.059684
    39 1.751859 0.000001 0.000000 -0.156462 -0.620449 -0.008613
    40 0.853991 0.000000 0.000004 0.000000 -0.043633 0.000000
    41 2.857166 -1.430681 0.078012 3.141592 1.198598 -0.015797
    42 1.152892 0.000000 0.000001 -0.007510 -0.130685 0.057571
    43 0.748464 0.000000 -0.000001 0.000000 -0.314159 -0.057080
  time 20
    0 2.639594 -10.116880 -3.367957 -0.008218 -0.001426 0.001135
    1 0.000007 1.897310 0.730167 -1.062906 0.000000 0.000000
    2 2.642929 -11.757557 -1.914287 -0.008218 -0.001426 0.001135
    3 2.638775 -10.527053 -3.444184 -0.008218 -0.001426 0.001135
    4 2.177865 -11.215705 -2.655633 -0.008218 -0.001426 0.001135
    5 2.639594 -10.116880 -3.367957 -0.008218 -0.001426 0.001135
    6 3.396785 7.779389 1.548835 -3.141592 1.454463 -3.141592
    7 -0.023288 0.041601 -0.000001 -0.009592 -0.016621 -0.630174
    8 11.072353 -0.043445 0.000000 0.000000 0.000000 -1.271039
    9 8.108975 0.000000 0.000000 0.176988 -0.167538 0.188804
    10 0.758957 -0.993292 -0.533611 0.392406 0.687057 0.046279
    11 1.920299 0.000000 0.000000 0.000000 0.000000 0.882317
    12 0.858255 0.000000 0.000000 0.000000 0.000000 -0.069433
    13 2.931401 -0.842323 0.160553 0.056618 0.060162 0.041625
    14 1.836086 0.000000 0.000000 0.000000 1.537521 0.000000
    15 0.853993 0.000000 0.000000 0.002756 0.113413 0.024347
    16 2.964058 -0.072899 0.178523 0.260482 1.290585 0.792160
    17 1.814737 0.000000 0.000000 -3.114505 1.333979 -3.136047
    18 0.982325 0.000000 0.000000 0.000000 0.062784 0.021736
    19 2.910364 0.632510 0.212797 0.525413 1.456608 1.079301
    20 1.751858 0.000000 0.000000 3.141589 1.501719 3.105026
    21 0.853993 0.000000 0.000000 0.000000 0.043633 0.000000
    22 2.899449 1.342927 0.078012 -2.409389 1.401894 -1.952022
    23 1.152892 0.000000 -0.000003 0.009195 0.623335 0.061976
    24 0.748462 0.000000 0.000000 0.000000 0.904936 -0.057080
    25 -7.722618 3.877546 0.545471 -3.141592 1.545689 -3.141732
    26 -0.023288 0.041601 0.000000 -0.465849 -0.590151 -0.309700
    27 11.072354 -0.043445 0.000001 0.000000 0.000000 -1.448074
    28 8.108975 0.000001 0.000000 -2.371650 0.797252 0.744309
    29 0.788882 0.969696 -0.533611 -2.647566 0.437954 0.465033
    30 1.920301 0.000001 0.000000 0.000000 0.000000 1.171019
    31 0.858249 0.000000 0.000000 0.000000 0.000000 -0.088906
    32 2.955714 0.752580 0.160552 -3.141592 1.050291 -0.015797
    33 1.836086 0.000000 0.000000 0.000000 -0.235620 0.000000
    34 0.853994 0.000000 0.000000 -0.002756 -0.113413 0.024347
    35 2.964905 -0.017483 0.178523 -3.141592 1.039020 -0.015797
    36 1.814736 -0.000001 0.000000 0.006645 -0.296634 -0.022729
    37 0.982325 0.000000 0.000000 0.000000 -0.095993 0.021736
    38 2.889732 -0.720928 0.212797 3.131715 0.913559 -0.059684
    39 1.751859 0.000001 0.000000 -0.156462 -0.620449 -0.008613
    40 0.853991 0.000000 0.000004 0.000000 -0.043633 0.000000
    41 2.857166 -1.430681 0.078012 3.141592 1.198598 -0.015797
    42 1.152892 0.000000 0.000001 -0.007510 -0.130685 0.057571
    43 0.748464 0.000000 -0.000001 0.000000 -0.314159 -0.057080
  time 21
    0 2.639594 -10.027034 -3.321081 -0.011033 -0.001930 0.001508
    1 0.000007 1.897310 0.730167 -1.062906 0.000000 0.000000
    2 2.642929 -11.663804 -1.859598 -0.011033 -0.001930 0.001508
    3 2.638775 -10.433300 -3.401214 -0.011033 -0.001930 0.001508
    4 2.177865 -11.121952 -2.612663 -0.011033 -0.001930 0.001508
    5 2.639594 -10.027034 -3.321081 -0.011033 -0.001930 0.001508
    6 3.396785 7.779389 1.548835 -3.141592 1.454463 -3.141592
    7 -0.023288 0.041601 -0.000001 -0.009604 -0.016368 -0.623055
    8 11.072353 -0.043445 0.000000 0.000000 0.000000 -1.288796
    9 8.108975 0.000000 0.000000 0.177576 -0.167747 0.196536
    10 0.758957 -0.993292 -0.533611 0.392406 0.687057 0.046279
    11 1.920299 0.000000 0.000000 0.000000 0.000000 0.882317
    12 0.858255 0.000000 0.000000 0.000000 0.000000 -0.069433
    13 2.931401 -0.842323 0.160553 0.022858 0.136619 0.063580
    14 1.836086 0.000000 0.000000 0.000000 1.459377 0.000000
    15 0.853993 0.000000 0.000000 0.002756 0.113413 0.024347
    16 2.964058 -0.072899 0.178523 0.260482 1.290585 0.792160
    17 1.814737 0.000000 0.000000 -3.114505 1.333979 -3.136047
    18 0.982325 0.000000 0.000000 0.000000 0.062784 0.021736
    19 2.910364 0.632510 0.212797 0.525413 1.456608 1.079301
    20 1.751858 0.000000 0.000000 3.141589 1.501719 3.105026
    21 0.853993 0.000000 0.000000 0.000000 0.043633 0.000000
    22 2.899449 1.342927 0.078012 -2.409389 1.401894 -1.952022
    23 1.152892 0.000000 -0.000003 0.009195 0.623335 0.061976
    24 0.748462 0.000000 0.000000 0.000000 0.904936 -0.057080
    25 -7.722618 3.877546 0.545471 -3.141592 1.545689 -3.141732
    26 -0.023288 0.041601 0.000000 -0.471634 -0.591359 -0.301839
    27 11.072354 -0.043445 0.000001 0.000000 0.000000 -1.459226
    28 8.108975 0.000001 0.000000 -2.376202 0.800469 0.744668
    29 0.788882 0.969696 -0.533611 -2.647566 0.437954 0.465033
    30 1.920301 0.000001 0.000000 0.000000 0.000000 1.171019
    31 0.858249 0.000000 0.000000 0.000000 0.000000 -0.088906
    32 2.955714 0.752580 0.160552 -3.141592 1.050291 -0.015797
    33 1.836086 0.000000 0.000000 0.000000 -0.235620 0.000000
    34 0.853994 0.000000 0.000000 -0.002756 -0.113413 0.024347
    35 2.964905 -0.017483 0.178523 -3.141592 1.039020 -0.015797
    36 1.814736 -0.000001 0.000000 0.006645 -0.296634 -0.022729
    37 0.982325 0.000000 0.000000 0.000000 -0.095993 0.021736
    38 2.889732 -0.720928 0.212797 3.131715 0.913559 -0.059684
    39 1.751859 0.000001 0.000000 -0.156462 -0.620449 -0.008613
    40 0.853991 0.000000 0.000004 0.000000 -0.043633 0.000000
    41 2.857166 -1.430681 0.078012 3.141592 1.198598 -0.015797
    42 1.152892 0.000000 0.000001 -0.007510 -0.130685 0.057571
    43 0.748464 0.000000 -0.000001 0.000000 -0.314159 -0.057080
  time 22
    0 2.639594 -9.941093 -3.313268 -0.008218 -0.001426 0.001135
    1 0.000007 1.897310 0.730167 -1.062906 0.000000 0.000000
    2 2.642929 -11.589583 -1.859598 -0.008218 -0.001426 0.001135
    3 2.638775 -10.347360 -3.389495 -0.008218 -0.001426 0.001135
    4 2.177865 -11.036012 -2.600944 -0.008218 -0.001426 0.001135
    5 2.639594 -9.941093 -3.313268 -0.008218 -0.001426 0.001135
    6 3.396785 7.779389 1.548835 -3.141592 1.454463 -3.141592
    7 -0.023288 0.041601 -0.000001 -0.009724 -0.016336 -0.616643
    8 11.072353 -0.043445 0.000000 0.000000 0.000000 -1.303132
    9 8.108975 0.000000 0.000000 0.177072 -0.167706 0.207428
    10 0.758957 -0.993292 -0.533611 0.392406 0.687057 0.046279
    11 1.920299 0.000000 0.000000 0.000000 0.000000 0.882317
    12 0.858255 0.000000 0.000000 0.000000 0.000000 -0.069433
    13 2.931401 -0.842323 0.160553 -0.010963 0.218616 0.083595
    14 1.836086 0.000000 0.000000 0.000000 1.366843 0.000000
    15 0.853993 0.000000 0.000000 0.002756 0.113413 0.024347
    16 2.964058 -0.072899 0.178523 0.260482 1.290585 0.792160
    17 1.814737 0.000000 0.000000 -3.114505 1.333979 -3.136047
    18 0.982325 0.000000 0.000000 0.000000 0.062784 0.021736
    19 2.910364 0.632510 0.212797 0.525413 1.456608 1.079301
    20 1.751858 0.000000 0.000000 3.141589 1.501719 3.105026
    21 0.853993 0.000000 0.000000 0.000000 0.043633 0.000000
    22 2.899449 1.342927 0.078012 -2.409389 1.401894 -1.952022
    23 1.152892 0.000000 -0.000003 0.009195 0.623335 0.061976
    24 0.748462 0.000000 0.000000 0.000000 0.904936 -0.057080
    25 -7.722618 3.877546 0.545471 -3.141592 1.545689 -3.141732
    26 -0.023288 0.041601 0.000000 -0.476905 -0.592597 -0.294276
    27 11.072354 -0.043445 0.000001 0.000000 0.000000 -1.468984
    28 8.108975 0.000001 0.000000 -2.376488 0.804914 0.751489
    29 0.788882 0.969696 -0.533611 -2.647566 0.437954 0.465033
    30 1.920301 0.000001 0.000000 0.000000 0.000000 1.171019
    31 0.858249 0.000000 0.000000 0.000000 0.000000 -0.088906
    32 2.955714 0.752580 0.160552 -3.141592 1.050291 -0.015797
    33 1.836086 0.000000 0.000000 0.000000 -0.235620 0.000000
    34 0.853994 0.000000 0.000000 -0.002756 -0.113413 0.024347
    35 2.964905 -0.017483 0.178523 -3.141592 1.039020 -0.015797
    36 1.814736 -0.000001 0.000000 0.006645 -0.296634 -0.022729
    37 0.982325 0.000000 0.000000 0.000000 -0.095993 0.021736
    38 2.889732 -0.720928 0.212797 3.131715 0.913559 -0.059684
    39 1.751859 0.000001 0.000000 -0.156462 -0.620449 -0.008613
    40 0.853991 0.000000 0.000004 0.000000 -0.043633 0.000000
    41 2.857166 -1.430681 0.078012 3.141592 1.198598 -0.015797
    42 1.152892 0.000000 0.000001 -0.007510 -0.130685 0.057571
    43 0.748464 0.000000 -0.000001 0.000000 -0.314159 -0.057080
  time 23
    0 2.639594 -9.878592 -3.336706 0.000000 0.000000 -0.000143
    1 0.000007 1.897310 0.730167 -1.062906 0.000000 0.000000
    2 2.642929 -11.538801 -1.894755 0.000000 0.000000 -0.000143
    3 2.638775 -10.296577 -3.420746 0.000000 0.000000 -0.000143
    4 2.177865 -10.981323 -2.636101 0.000000 0.000000 -0.000143
    5 2.639594 -9.878592 -3.336706 0.000000 0.000000 -0.000143
    6 3.396785 7.779389 1.548835 -3.141592 1.454463 -3.141592
    7 -0.023288 0.041601 -0.000001 -0.009904 -0.016463 -0.610675
    8 11.072353 -0.043445 0.000000 0.000000 0.000000 -1.315085
    9 8.108975 0.000000 0.000000 0.175574 -0.167413 0.221996
    10 0.758957 -0.993292 -0.533611 0.392406 0.687057 0.046279
    11 1.920299 0.000000 0.000000 0.000000 0.000000 0.882317
    12 0.858255 0.000000 0.000000 0.000000 0.000000 -0.069433
    13 2.931401 -0.842323 0.160553 -0.041260 0.291433 0.100517
    14 1.836086 0.000000 0.000000 0.000000 1.303315 0.000000
    15 0.853993 0.000000 0.000000 0.002756 0.113413 0.024347
    16 2.964058 -0.072899 0.178523 0.260482 1.290585 0.792160
    17 1.814737 0.000000 0.000000 -3.114505 1.333979 -3.136047
    18 0.982325 0.000000 0.000000 0.000000 0.062784 0.021736
    19 2.910364 0.632510 0.212797 0.525413 1.456608 1.079301
    20 1.751858 0.000000 0.000000 3.141589 1.501719 3.105026
    21 0.853993 0.000000 0.000000 0.000000 0.043633 0.000000
    22 2.899449 1.342927 0.078012 -2.409389 1.401894 -1.952022
    23 1.152892 0.000000 -0.000003 0.009195 0.623335 0.061976
    24 0.748462 0.000000 0.000000 0.000000 0.904936 -0.057080
    25 -7.722618 3.877546 0.545471 -3.141592 1.545689 -3.141732
    26 -0.023288 0.041601 0.000000 -0.481732 -0.593866 -0.287098
    27 11.072354 -0.043445 0.000001 0.000000 0.000000 -1.477378
    28 8.108975 0.000001 0.000000 -2.372222 0.810502 0.764879
    29 0.788882 0.969696 -0.533611 -2.647566 0.437954 0.465033
    30 1.920301 0.000001 0.000000 0.000000 0.000000 1.171019
    31 0.858249 0.000000 0.000000 0.000000 0.000000 -0.088906
    32 2.955714 0.752580 0.160552 -3.141592 1.050291 -0.015797
    33 1.836086 0.000000 0.000000 0.000000 -0.235620 0.000000
    34 0.853994 0.000000 0.000000 -0.002756 -0.113413 0.024347
    35 2.964905 -0.017483 0.178523 -3.141592 1.039020 -0.015797
    36 1.814736 -0.000001 0.000000 0.006645 -0.296634 -0.022729
    37 0.982325 0.000000 0.000000 0.000000 -0.095993 0.021736
    38 2.889732 -0.720928 0.212797 3.131715 0.913559 -0.059684
    39 1.751859 0.000001 0.000000 -0.156462 -0.620449 -0.008613
    40 0.853991 0.000000 0.000004 0.000000 -0.043633 0.000000
    41 2.857166 -1.430681 0.078012 3.141592 1.198598 -0.015797
    42 1.152892 0.000000 0.000001 -0.007510 -0.130685 0.057571
    43 0.748464 0.000000 -0.000001 0.000000 -0.314159 -0.057080
end
