// Created by Crowbar 0.29.0.0
version 1
nodes
  0 "Body" -1
  1 "Hammer" 0
  2 "Detach" -1
  3 "Trigger" -1
  4 "Slide_lock" -1
  5 "Mag" -1
  6 "L_Armdummy" -1
  7 "L_Upperarm" 6
  8 "L_Forearm" 7
  9 "L_Wrist" 8
  10 "L_Thumb1" 9
  11 "L_Thumb2" 10
  12 "L_Thumb3" 11
  13 "L_Index1" 9
  14 "L_Index2" 13
  15 "L_Index3" 14
  16 "L_Mid1" 9
  17 "L_Mid2" 16
  18 "L_Mid3" 17
  19 "L_Ring1" 9
  20 "L_Ring2" 19
  21 "L_Ring3" 20
  22 "L_Pinky1" 9
  23 "L_Pinky2" 22
  24 "L_Pinky3" 23
  25 "R_Armdummy" -1
  26 "R_Upperarm" 25
  27 "R_Forearm" 26
  28 "R_Wrist" 27
  29 "R_Thumb1" 28
  30 "R_Thumb2" 29
  31 "R_Thumb3" 30
  32 "R_Index1" 28
  33 "R_Index2" 32
  34 "R_Index3" 33
  35 "R_Mid1" 28
  36 "R_Mid2" 35
  37 "R_Mid3" 36
  38 "R_Ring1" 28
  39 "R_Ring2" 38
  40 "R_Ring3" 39
  41 "R_Pinky1" 28
  42 "R_Pinky2" 41
  43 "R_Pinky3" 42
end
skeleton
  time 0
    0 2.639594 -9.878592 -3.336706 0.000000 0.000000 -0.000143
    1 0.000007 1.897310 0.730167 -1.062906 0.000000 0.000000
    2 2.642929 -11.538801 -1.894755 0.000000 0.000000 -0.000143
    3 2.638775 -10.296577 -3.420746 0.000000 0.000000 -0.000143
    4 2.177865 -10.981323 -2.636101 0.000000 0.000000 -0.000143
    5 2.639594 -9.878592 -3.336706 0.000000 0.000000 -0.000143
    6 3.396785 7.779389 1.548835 -3.141592 1.454463 -3.141592
    7 -0.023288 0.041601 -0.000001 -0.009904 -0.016463 -0.610675
    8 11.072353 -0.043445 0.000000 0.000000 0.000000 -1.315085
    9 8.108975 0.000000 0.000000 0.175574 -0.167413 0.221996
    10 0.758957 -0.993292 -0.533611 0.392406 0.687057 0.046279
    11 1.920299 0.000000 0.000000 0.000000 0.000000 0.882317
    12 0.858255 0.000000 0.000000 0.000000 0.000000 -0.069433
    13 2.931401 -0.842323 0.160553 -0.041260 0.291433 0.100517
    14 1.836086 0.000000 0.000000 0.000000 1.303315 0.000000
    15 0.853993 0.000000 0.000000 0.002756 0.113413 0.024347
    16 2.964058 -0.072899 0.178523 0.260482 1.290585 0.792160
    17 1.814737 0.000000 0.000000 -3.114505 1.333979 -3.136047
    18 0.982325 0.000000 0.000000 0.000000 0.062784 0.021736
    19 2.910364 0.632510 0.212797 0.525413 1.456608 1.079301
    20 1.751858 0.000000 0.000000 3.141589 1.501719 3.105026
    21 0.853993 0.000000 0.000000 0.000000 0.043633 0.000000
    22 2.899449 1.342927 0.078012 -2.409389 1.401894 -1.952022
    23 1.152892 0.000000 -0.000003 0.009195 0.623335 0.061976
    24 0.748462 0.000000 0.000000 0.000000 0.904936 -0.057080
    25 -7.722618 3.877546 0.545471 -3.141592 1.545689 -3.141732
    26 -0.023288 0.041601 0.000000 -0.481732 -0.593866 -0.287098
    27 11.072354 -0.043445 0.000001 0.000000 0.000000 -1.477378
    28 8.108975 0.000001 0.000000 -2.372222 0.810502 0.764879
    29 0.788882 0.969696 -0.533611 -2.647566 0.437954 0.465033
    30 1.920301 0.000001 0.000000 0.000000 0.000000 1.171019
    31 0.858249 0.000000 0.000000 0.000000 0.000000 -0.088906
    32 2.955714 0.752580 0.160552 -3.141592 1.050291 -0.015797
    33 1.836086 0.000000 0.000000 0.000000 -0.235620 0.000000
    34 0.853994 0.000000 0.000000 -0.002756 -0.113413 0.024347
    35 2.964905 -0.017483 0.178523 -3.141592 1.039020 -0.015797
    36 1.814736 -0.000001 0.000000 0.006645 -0.296634 -0.022729
    37 0.982325 0.000000 0.000000 0.000000 -0.095993 0.021736
    38 2.889732 -0.720928 0.212797 3.131715 0.913559 -0.059684
    39 1.751859 0.000001 0.000000 -0.156462 -0.620449 -0.008613
    40 0.853991 0.000000 0.000004 0.000000 -0.043633 0.000000
    41 2.857166 -1.430681 0.078012 3.141592 1.198598 -0.015797
    42 1.152892 0.000000 0.000001 -0.007510 -0.130685 0.057571
    43 0.748464 0.000000 -0.000001 0.000000 -0.314159 -0.057080
  time 1
    0 2.639594 -9.878592 -3.336706 0.000000 0.000000 -0.000143
    1 0.000007 1.897310 0.730167 -1.062906 0.000000 0.000000
    2 2.642929 -11.538801 -1.894755 0.000000 0.000000 -0.000143
    3 2.638775 -10.296577 -3.420746 0.000000 0.000000 -0.000143
    4 2.177865 -10.981323 -2.636101 0.000000 0.000000 -0.000143
    5 2.639594 -9.878592 -3.336706 0.000000 0.000000 -0.000143
    6 3.396785 7.779389 1.548835 -3.141592 1.454463 -3.141592
    7 -0.023288 0.041601 -0.000001 -0.009904 -0.016463 -0.610675
    8 11.072353 -0.043445 0.000000 0.000000 0.000000 -1.315085
    9 8.108975 0.000000 0.000000 0.175574 -0.167413 0.221996
    10 0.758957 -0.993292 -0.533611 0.392406 0.687057 0.046279
    11 1.920299 0.000000 0.000000 0.000000 0.000000 0.882317
    12 0.858255 0.000000 0.000000 0.000000 0.000000 -0.069433
    13 2.931401 -0.842323 0.160553 -0.041260 0.291433 0.100517
    14 1.836086 0.000000 0.000000 0.000000 1.303315 0.000000
    15 0.853993 0.000000 0.000000 0.002756 0.113413 0.024347
    16 2.964058 -0.072899 0.178523 0.260482 1.290585 0.792160
    17 1.814737 0.000000 0.000000 -3.114505 1.333979 -3.136047
    18 0.982325 0.000000 0.000000 0.000000 0.062784 0.021736
    19 2.910364 0.632510 0.212797 0.525413 1.456608 1.079301
    20 1.751858 0.000000 0.000000 3.141589 1.501719 3.105026
    21 0.853993 0.000000 0.000000 0.000000 0.043633 0.000000
    22 2.899449 1.342927 0.078012 -2.409389 1.401894 -1.952022
    23 1.152892 0.000000 -0.000003 0.009195 0.623335 0.061976
    24 0.748462 0.000000 0.000000 0.000000 0.904936 -0.057080
    25 -7.722618 3.877546 0.545471 -3.141592 1.545689 -3.141732
    26 -0.023288 0.041601 0.000000 -0.481732 -0.593866 -0.287098
    27 11.072354 -0.043445 0.000001 0.000000 0.000000 -1.477378
    28 8.108975 0.000001 0.000000 -2.372222 0.810502 0.764879
    29 0.788882 0.969696 -0.533611 -2.647566 0.437954 0.465033
    30 1.920301 0.000001 0.000000 0.000000 0.000000 1.171019
    31 0.858249 0.000000 0.000000 0.000000 0.000000 -0.088906
    32 2.955714 0.752580 0.160552 -3.141592 1.050291 -0.015797
    33 1.836086 0.000000 0.000000 0.000000 -0.235620 0.000000
    34 0.853994 0.000000 0.000000 -0.002756 -0.113413 0.024347
    35 2.964905 -0.017483 0.178523 -3.141592 1.039020 -0.015797
    36 1.814736 -0.000001 0.000000 0.006645 -0.296634 -0.022729
    37 0.982325 0.000000 0.000000 0.000000 -0.095993 0.021736
    38 2.889732 -0.720928 0.212797 3.131715 0.913559 -0.059684
    39 1.751859 0.000001 0.000000 -0.156462 -0.620449 -0.008613
    40 0.853991 0.000000 0.000004 0.000000 -0.043633 0.000000
    41 2.857166 -1.430681 0.078012 3.141592 1.198598 -0.015797
    42 1.152892 0.000000 0.000001 -0.007510 -0.130685 0.057571
    43 0.748464 0.000000 -0.000001 0.000000 -0.314159 -0.057080
  time 2
    0 2.639594 -9.878592 -3.336706 0.000000 0.000000 -0.000143
    1 0.000007 1.897310 0.730167 -1.062906 0.000000 0.000000
    2 2.642929 -11.538801 -1.894755 0.000000 0.000000 -0.000143
    3 2.638775 -10.296577 -3.420746 0.000000 0.000000 -0.000143
    4 2.177865 -10.981323 -2.636101 0.000000 0.000000 -0.000143
    5 2.639594 -9.878592 -3.336706 0.000000 0.000000 -0.000143
    6 3.396785 7.779389 1.548835 -3.141592 1.454463 -3.141592
    7 -0.023288 0.041601 -0.000001 -0.009904 -0.016463 -0.610675
    8 11.072353 -0.043445 0.000000 0.000000 0.000000 -1.315085
    9 8.108975 0.000000 0.000000 0.175574 -0.167413 0.221996
    10 0.758957 -0.993292 -0.533611 0.392406 0.687057 0.046279
    11 1.920299 0.000000 0.000000 0.000000 0.000000 0.882317
    12 0.858255 0.000000 0.000000 0.000000 0.000000 -0.069433
    13 2.931401 -0.842323 0.160553 -0.041260 0.291433 0.100517
    14 1.836086 0.000000 0.000000 0.000000 1.303315 0.000000
    15 0.853993 0.000000 0.000000 0.002756 0.113413 0.024347
    16 2.964058 -0.072899 0.178523 0.260482 1.290585 0.792160
    17 1.814737 0.000000 0.000000 -3.114505 1.333979 -3.136047
    18 0.982325 0.000000 0.000000 0.000000 0.062784 0.021736
    19 2.910364 0.632510 0.212797 0.525413 1.456608 1.079301
    20 1.751858 0.000000 0.000000 3.141589 1.501719 3.105026
    21 0.853993 0.000000 0.000000 0.000000 0.043633 0.000000
    22 2.899449 1.342927 0.078012 -2.409389 1.401894 -1.952022
    23 1.152892 0.000000 -0.000003 0.009195 0.623335 0.061976
    24 0.748462 0.000000 0.000000 0.000000 0.904936 -0.057080
    25 -7.722618 3.877546 0.545471 -3.141592 1.545689 -3.141732
    26 -0.023288 0.041601 0.000000 -0.481732 -0.593866 -0.287098
    27 11.072354 -0.043445 0.000001 0.000000 0.000000 -1.477378
    28 8.108975 0.000001 0.000000 -2.372222 0.810502 0.764879
    29 0.788882 0.969696 -0.533611 -2.647566 0.437954 0.465033
    30 1.920301 0.000001 0.000000 0.000000 0.000000 1.171019
    31 0.858249 0.000000 0.000000 0.000000 0.000000 -0.088906
    32 2.955714 0.752580 0.160552 -3.141592 1.050291 -0.015797
    33 1.836086 0.000000 0.000000 0.000000 -0.235620 0.000000
    34 0.853994 0.000000 0.000000 -0.002756 -0.113413 0.024347
    35 2.964905 -0.017483 0.178523 -3.141592 1.039020 -0.015797
    36 1.814736 -0.000001 0.000000 0.006645 -0.296634 -0.022729
    37 0.982325 0.000000 0.000000 0.000000 -0.095993 0.021736
    38 2.889732 -0.720928 0.212797 3.131715 0.913559 -0.059684
    39 1.751859 0.000001 0.000000 -0.156462 -0.620449 -0.008613
    40 0.853991 0.000000 0.000004 0.000000 -0.043633 0.000000
    41 2.857166 -1.430681 0.078012 3.141592 1.198598 -0.015797
    42 1.152892 0.000000 0.000001 -0.007510 -0.130685 0.057571
    43 0.748464 0.000000 -0.000001 0.000000 -0.314159 -0.057080
  time 3
    0 2.639594 -9.878592 -3.336706 0.000000 0.000000 -0.000143
    1 0.000007 1.897310 0.730167 -1.062906 0.000000 0.000000
    2 2.642929 -11.538801 -1.894755 0.000000 0.000000 -0.000143
    3 2.638775 -10.296577 -3.420746 0.000000 0.000000 -0.000143
    4 2.177865 -10.981323 -2.636101 0.000000 0.000000 -0.000143
    5 2.639594 -9.878592 -3.336706 0.000000 0.000000 -0.000143
    6 3.396785 7.779389 1.548835 -3.141592 1.454463 -3.141592
    7 -0.023288 0.041601 -0.000001 -0.009904 -0.016463 -0.610675
    8 11.072353 -0.043445 0.000000 0.000000 0.000000 -1.315085
    9 8.108975 0.000000 0.000000 0.175574 -0.167413 0.221996
    10 0.758957 -0.993292 -0.533611 0.392406 0.687057 0.046279
    11 1.920299 0.000000 0.000000 0.000000 0.000000 0.882317
    12 0.858255 0.000000 0.000000 0.000000 0.000000 -0.069433
    13 2.931401 -0.842323 0.160553 -0.041260 0.291433 0.100517
    14 1.836086 0.000000 0.000000 0.000000 1.303315 0.000000
    15 0.853993 0.000000 0.000000 0.002756 0.113413 0.024347
    16 2.964058 -0.072899 0.178523 0.260482 1.290585 0.792160
    17 1.814737 0.000000 0.000000 -3.114505 1.333979 -3.136047
    18 0.982325 0.000000 0.000000 0.000000 0.062784 0.021736
    19 2.910364 0.632510 0.212797 0.525413 1.456608 1.079301
    20 1.751858 0.000000 0.000000 3.141589 1.501719 3.105026
    21 0.853993 0.000000 0.000000 0.000000 0.043633 0.000000
    22 2.899449 1.342927 0.078012 -2.409389 1.401894 -1.952022
    23 1.152892 0.000000 -0.000003 0.009195 0.623335 0.061976
    24 0.748462 0.000000 0.000000 0.000000 0.904936 -0.057080
    25 -7.722618 3.877546 0.545471 -3.141592 1.545689 -3.141732
    26 -0.023288 0.041601 0.000000 -0.481732 -0.593866 -0.287098
    27 11.072354 -0.043445 0.000001 0.000000 0.000000 -1.477378
    28 8.108975 0.000001 0.000000 -2.372222 0.810502 0.764879
    29 0.788882 0.969696 -0.533611 -2.647566 0.437954 0.465033
    30 1.920301 0.000001 0.000000 0.000000 0.000000 1.171019
    31 0.858249 0.000000 0.000000 0.000000 0.000000 -0.088906
    32 2.955714 0.752580 0.160552 -3.141592 1.050291 -0.015797
    33 1.836086 0.000000 0.000000 0.000000 -0.235620 0.000000
    34 0.853994 0.000000 0.000000 -0.002756 -0.113413 0.024347
    35 2.964905 -0.017483 0.178523 -3.141592 1.039020 -0.015797
    36 1.814736 -0.000001 0.000000 0.006645 -0.296634 -0.022729
    37 0.982325 0.000000 0.000000 0.000000 -0.095993 0.021736
    38 2.889732 -0.720928 0.212797 3.131715 0.913559 -0.059684
    39 1.751859 0.000001 0.000000 -0.156462 -0.620449 -0.008613
    40 0.853991 0.000000 0.000004 0.000000 -0.043633 0.000000
    41 2.857166 -1.430681 0.078012 3.141592 1.198598 -0.015797
    42 1.152892 0.000000 0.000001 -0.007510 -0.130685 0.057571
    43 0.748464 0.000000 -0.000001 0.000000 -0.314159 -0.057080
  time 4
    0 2.639594 -9.878592 -3.336706 0.000000 0.000000 -0.000143
    1 0.000007 1.897310 0.730167 -1.062906 0.000000 0.000000
    2 2.642929 -11.538801 -1.894755 0.000000 0.000000 -0.000143
    3 2.638775 -10.296577 -3.420746 0.000000 0.000000 -0.000143
    4 2.177865 -10.981323 -2.636101 0.000000 0.000000 -0.000143
    5 2.639594 -9.878592 -3.336706 0.000000 0.000000 -0.000143
    6 3.396785 7.779389 1.548835 -3.141592 1.454463 -3.141592
    7 -0.023288 0.041601 -0.000001 -0.009904 -0.016463 -0.610675
    8 11.072353 -0.043445 0.000000 0.000000 0.000000 -1.315085
    9 8.108975 0.000000 0.000000 0.175574 -0.167413 0.221996
    10 0.758957 -0.993292 -0.533611 0.392406 0.687057 0.046279
    11 1.920299 0.000000 0.000000 0.000000 0.000000 0.882317
    12 0.858255 0.000000 0.000000 0.000000 0.000000 -0.069433
    13 2.931401 -0.842323 0.160553 -0.041260 0.291433 0.100517
    14 1.836086 0.000000 0.000000 0.000000 1.303315 0.000000
    15 0.853993 0.000000 0.000000 0.002756 0.113413 0.024347
    16 2.964058 -0.072899 0.178523 0.260482 1.290585 0.792160
    17 1.814737 0.000000 0.000000 -3.114505 1.333979 -3.136047
    18 0.982325 0.000000 0.000000 0.000000 0.062784 0.021736
    19 2.910364 0.632510 0.212797 0.525413 1.456608 1.079301
    20 1.751858 0.000000 0.000000 3.141589 1.501719 3.105026
    21 0.853993 0.000000 0.000000 0.000000 0.043633 0.000000
    22 2.899449 1.342927 0.078012 -2.409389 1.401894 -1.952022
    23 1.152892 0.000000 -0.000003 0.009195 0.623335 0.061976
    24 0.748462 0.000000 0.000000 0.000000 0.904936 -0.057080
    25 -7.722618 3.877546 0.545471 -3.141592 1.545689 -3.141732
    26 -0.023288 0.041601 0.000000 -0.481732 -0.593866 -0.287098
    27 11.072354 -0.043445 0.000001 0.000000 0.000000 -1.477378
    28 8.108975 0.000001 0.000000 -2.372222 0.810502 0.764879
    29 0.788882 0.969696 -0.533611 -2.647566 0.437954 0.465033
    30 1.920301 0.000001 0.000000 0.000000 0.000000 1.171019
    31 0.858249 0.000000 0.000000 0.000000 0.000000 -0.088906
    32 2.955714 0.752580 0.160552 -3.141592 1.050291 -0.015797
    33 1.836086 0.000000 0.000000 0.000000 -0.235620 0.000000
    34 0.853994 0.000000 0.000000 -0.002756 -0.113413 0.024347
    35 2.964905 -0.017483 0.178523 -3.141592 1.039020 -0.015797
    36 1.814736 -0.000001 0.000000 0.006645 -0.296634 -0.022729
    37 0.982325 0.000000 0.000000 0.000000 -0.095993 0.021736
    38 2.889732 -0.720928 0.212797 3.131715 0.913559 -0.059684
    39 1.751859 0.000001 0.000000 -0.156462 -0.620449 -0.008613
    40 0.853991 0.000000 0.000004 0.000000 -0.043633 0.000000
    41 2.857166 -1.430681 0.078012 3.141592 1.198598 -0.015797
    42 1.152892 0.000000 0.000001 -0.007510 -0.130685 0.057571
    43 0.748464 0.000000 -0.000001 0.000000 -0.314159 -0.057080
  time 5
    0 2.639594 -9.878592 -3.336706 0.000000 0.000000 -0.000143
    1 0.000007 1.897310 0.730167 -1.062906 0.000000 0.000000
    2 2.642929 -11.538801 -1.894755 0.000000 0.000000 -0.000143
    3 2.638775 -10.296577 -3.420746 0.000000 0.000000 -0.000143
    4 2.177865 -10.981323 -2.636101 0.000000 0.000000 -0.000143
    5 2.639594 -9.878592 -3.336706 0.000000 0.000000 -0.000143
    6 3.396785 7.779389 1.548835 -3.141592 1.454463 -3.141592
    7 -0.023288 0.041601 -0.000001 -0.009904 -0.016463 -0.610675
    8 11.072353 -0.043445 0.000000 0.000000 0.000000 -1.315085
    9 8.108975 0.000000 0.000000 0.175574 -0.167413 0.221996
    10 0.758957 -0.993292 -0.533611 0.392406 0.687057 0.046279
    11 1.920299 0.000000 0.000000 0.000000 0.000000 0.882317
    12 0.858255 0.000000 0.000000 0.000000 0.000000 -0.069433
    13 2.931401 -0.842323 0.160553 -0.041260 0.291433 0.100517
    14 1.836086 0.000000 0.000000 0.000000 1.303315 0.000000
    15 0.853993 0.000000 0.000000 0.002756 0.113413 0.024347
    16 2.964058 -0.072899 0.178523 0.260482 1.290585 0.792160
    17 1.814737 0.000000 0.000000 -3.114505 1.333979 -3.136047
    18 0.982325 0.000000 0.000000 0.000000 0.062784 0.021736
    19 2.910364 0.632510 0.212797 0.525413 1.456608 1.079301
    20 1.751858 0.000000 0.000000 3.141589 1.501719 3.105026
    21 0.853993 0.000000 0.000000 0.000000 0.043633 0.000000
    22 2.899449 1.342927 0.078012 -2.409389 1.401894 -1.952022
    23 1.152892 0.000000 -0.000003 0.009195 0.623335 0.061976
    24 0.748462 0.000000 0.000000 0.000000 0.904936 -0.057080
    25 -7.722618 3.877546 0.545471 -3.141592 1.545689 -3.141732
    26 -0.023288 0.041601 0.000000 -0.481732 -0.593866 -0.287098
    27 11.072354 -0.043445 0.000001 0.000000 0.000000 -1.477378
    28 8.108975 0.000001 0.000000 -2.372222 0.810502 0.764879
    29 0.788882 0.969696 -0.533611 -2.647566 0.437954 0.465033
    30 1.920301 0.000001 0.000000 0.000000 0.000000 1.171019
    31 0.858249 0.000000 0.000000 0.000000 0.000000 -0.088906
    32 2.955714 0.752580 0.160552 -3.141592 1.050291 -0.015797
    33 1.836086 0.000000 0.000000 0.000000 -0.235620 0.000000
    34 0.853994 0.000000 0.000000 -0.002756 -0.113413 0.024347
    35 2.964905 -0.017483 0.178523 -3.141592 1.039020 -0.015797
    36 1.814736 -0.000001 0.000000 0.006645 -0.296634 -0.022729
    37 0.982325 0.000000 0.000000 0.000000 -0.095993 0.021736
    38 2.889732 -0.720928 0.212797 3.131715 0.913559 -0.059684
    39 1.751859 0.000001 0.000000 -0.156462 -0.620449 -0.008613
    40 0.853991 0.000000 0.000004 0.000000 -0.043633 0.000000
    41 2.857166 -1.430681 0.078012 3.141592 1.198598 -0.015797
    42 1.152892 0.000000 0.000001 -0.007510 -0.130685 0.057571
    43 0.748464 0.000000 -0.000001 0.000000 -0.314159 -0.057080
  time 6
    0 2.639594 -9.878592 -3.336706 0.000000 0.000000 -0.000143
    1 0.000007 1.897310 0.730167 -1.062906 0.000000 0.000000
    2 2.642929 -11.538801 -1.894755 0.000000 0.000000 -0.000143
    3 2.638775 -10.296577 -3.420746 0.000000 0.000000 -0.000143
    4 2.177865 -10.981323 -2.636101 0.000000 0.000000 -0.000143
    5 2.639594 -9.878592 -3.336706 0.000000 0.000000 -0.000143
    6 3.396785 7.779389 1.548835 -3.141592 1.454463 -3.141592
    7 -0.023288 0.041601 -0.000001 -0.009904 -0.016463 -0.610675
    8 11.072353 -0.043445 0.000000 0.000000 0.000000 -1.315085
    9 8.108975 0.000000 0.000000 0.175574 -0.167413 0.221996
    10 0.758957 -0.993292 -0.533611 0.392406 0.687057 0.046279
    11 1.920299 0.000000 0.000000 0.000000 0.000000 0.882317
    12 0.858255 0.000000 0.000000 0.000000 0.000000 -0.069433
    13 2.931401 -0.842323 0.160553 -0.041260 0.291433 0.100517
    14 1.836086 0.000000 0.000000 0.000000 1.303315 0.000000
    15 0.853993 0.000000 0.000000 0.002756 0.113413 0.024347
    16 2.964058 -0.072899 0.178523 0.260482 1.290585 0.792160
    17 1.814737 0.000000 0.000000 -3.114505 1.333979 -3.136047
    18 0.982325 0.000000 0.000000 0.000000 0.062784 0.021736
    19 2.910364 0.632510 0.212797 0.525413 1.456608 1.079301
    20 1.751858 0.000000 0.000000 3.141589 1.501719 3.105026
    21 0.853993 0.000000 0.000000 0.000000 0.043633 0.000000
    22 2.899449 1.342927 0.078012 -2.409389 1.401894 -1.952022
    23 1.152892 0.000000 -0.000003 0.009195 0.623335 0.061976
    24 0.748462 0.000000 0.000000 0.000000 0.904936 -0.057080
    25 -7.722618 3.877546 0.545471 -3.141592 1.545689 -3.141732
    26 -0.023288 0.041601 0.000000 -0.481732 -0.593866 -0.287098
    27 11.072354 -0.043445 0.000001 0.000000 0.000000 -1.477378
    28 8.108975 0.000001 0.000000 -2.372222 0.810502 0.764879
    29 0.788882 0.969696 -0.533611 -2.647566 0.437954 0.465033
    30 1.920301 0.000001 0.000000 0.000000 0.000000 1.171019
    31 0.858249 0.000000 0.000000 0.000000 0.000000 -0.088906
    32 2.955714 0.752580 0.160552 -3.141592 1.050291 -0.015797
    33 1.836086 0.000000 0.000000 0.000000 -0.235620 0.000000
    34 0.853994 0.000000 0.000000 -0.002756 -0.113413 0.024347
    35 2.964905 -0.017483 0.178523 -3.141592 1.039020 -0.015797
    36 1.814736 -0.000001 0.000000 0.006645 -0.296634 -0.022729
    37 0.982325 0.000000 0.000000 0.000000 -0.095993 0.021736
    38 2.889732 -0.720928 0.212797 3.131715 0.913559 -0.059684
    39 1.751859 0.000001 0.000000 -0.156462 -0.620449 -0.008613
    40 0.853991 0.000000 0.000004 0.000000 -0.043633 0.000000
    41 2.857166 -1.430681 0.078012 3.141592 1.198598 -0.015797
    42 1.152892 0.000000 0.000001 -0.007510 -0.130685 0.057571
    43 0.748464 0.000000 -0.000001 0.000000 -0.314159 -0.057080
  time 7
    0 2.639594 -9.878592 -3.336706 0.000000 0.000000 -0.000143
    1 0.000007 1.897310 0.730167 -1.062906 0.000000 0.000000
    2 2.642929 -11.538801 -1.894755 0.000000 0.000000 -0.000143
    3 2.638775 -10.296577 -3.420746 0.000000 0.000000 -0.000143
    4 2.177865 -10.981323 -2.636101 0.000000 0.000000 -0.000143
    5 2.639594 -9.878592 -3.336706 0.000000 0.000000 -0.000143
    6 3.396785 7.779389 1.548835 -3.141592 1.454463 -3.141592
    7 -0.023288 0.041601 -0.000001 -0.009904 -0.016463 -0.610675
    8 11.072353 -0.043445 0.000000 0.000000 0.000000 -1.315085
    9 8.108975 0.000000 0.000000 0.175574 -0.167413 0.221996
    10 0.758957 -0.993292 -0.533611 0.392406 0.687057 0.046279
    11 1.920299 0.000000 0.000000 0.000000 0.000000 0.882317
    12 0.858255 0.000000 0.000000 0.000000 0.000000 -0.069433
    13 2.931401 -0.842323 0.160553 -0.041260 0.291433 0.100517
    14 1.836086 0.000000 0.000000 0.000000 1.303315 0.000000
    15 0.853993 0.000000 0.000000 0.002756 0.113413 0.024347
    16 2.964058 -0.072899 0.178523 0.260482 1.290585 0.792160
    17 1.814737 0.000000 0.000000 -3.114505 1.333979 -3.136047
    18 0.982325 0.000000 0.000000 0.000000 0.062784 0.021736
    19 2.910364 0.632510 0.212797 0.525413 1.456608 1.079301
    20 1.751858 0.000000 0.000000 3.141589 1.501719 3.105026
    21 0.853993 0.000000 0.000000 0.000000 0.043633 0.000000
    22 2.899449 1.342927 0.078012 -2.409389 1.401894 -1.952022
    23 1.152892 0.000000 -0.000003 0.009195 0.623335 0.061976
    24 0.748462 0.000000 0.000000 0.000000 0.904936 -0.057080
    25 -7.722618 3.877546 0.545471 -3.141592 1.545689 -3.141732
    26 -0.023288 0.041601 0.000000 -0.481732 -0.593866 -0.287098
    27 11.072354 -0.043445 0.000001 0.000000 0.000000 -1.477378
    28 8.108975 0.000001 0.000000 -2.372222 0.810502 0.764879
    29 0.788882 0.969696 -0.533611 -2.647566 0.437954 0.465033
    30 1.920301 0.000001 0.000000 0.000000 0.000000 1.171019
    31 0.858249 0.000000 0.000000 0.000000 0.000000 -0.088906
    32 2.955714 0.752580 0.160552 -3.141592 1.050291 -0.015797
    33 1.836086 0.000000 0.000000 0.000000 -0.235620 0.000000
    34 0.853994 0.000000 0.000000 -0.002756 -0.113413 0.024347
    35 2.964905 -0.017483 0.178523 -3.141592 1.039020 -0.015797
    36 1.814736 -0.000001 0.000000 0.006645 -0.296634 -0.022729
    37 0.982325 0.000000 0.000000 0.000000 -0.095993 0.021736
    38 2.889732 -0.720928 0.212797 3.131715 0.913559 -0.059684
    39 1.751859 0.000001 0.000000 -0.156462 -0.620449 -0.008613
    40 0.853991 0.000000 0.000004 0.000000 -0.043633 0.000000
    41 2.857166 -1.430681 0.078012 3.141592 1.198598 -0.015797
    42 1.152892 0.000000 0.000001 -0.007510 -0.130685 0.057571
    43 0.748464 0.000000 -0.000001 0.000000 -0.314159 -0.057080
  time 8
    0 2.639594 -9.878592 -3.336706 0.000000 0.000000 -0.000143
    1 0.000007 1.897310 0.730167 -1.062906 0.000000 0.000000
    2 2.642929 -11.538801 -1.894755 0.000000 0.000000 -0.000143
    3 2.638775 -10.296577 -3.420746 0.000000 0.000000 -0.000143
    4 2.177865 -10.981323 -2.636101 0.000000 0.000000 -0.000143
    5 2.639594 -9.878592 -3.336706 0.000000 0.000000 -0.000143
    6 3.396785 7.779389 1.548835 -3.141592 1.454463 -3.141592
    7 -0.023288 0.041601 -0.000001 -0.009904 -0.016463 -0.610675
    8 11.072353 -0.043445 0.000000 0.000000 0.000000 -1.315085
    9 8.108975 0.000000 0.000000 0.175574 -0.167413 0.221996
    10 0.758957 -0.993292 -0.533611 0.392406 0.687057 0.046279
    11 1.920299 0.000000 0.000000 0.000000 0.000000 0.882317
    12 0.858255 0.000000 0.000000 0.000000 0.000000 -0.069433
    13 2.931401 -0.842323 0.160553 -0.041260 0.291433 0.100517
    14 1.836086 0.000000 0.000000 0.000000 1.303315 0.000000
    15 0.853993 0.000000 0.000000 0.002756 0.113413 0.024347
    16 2.964058 -0.072899 0.178523 0.260482 1.290585 0.792160
    17 1.814737 0.000000 0.000000 -3.114505 1.333979 -3.136047
    18 0.982325 0.000000 0.000000 0.000000 0.062784 0.021736
    19 2.910364 0.632510 0.212797 0.525413 1.456608 1.079301
    20 1.751858 0.000000 0.000000 3.141589 1.501719 3.105026
    21 0.853993 0.000000 0.000000 0.000000 0.043633 0.000000
    22 2.899449 1.342927 0.078012 -2.409389 1.401894 -1.952022
    23 1.152892 0.000000 -0.000003 0.009195 0.623335 0.061976
    24 0.748462 0.000000 0.000000 0.000000 0.904936 -0.057080
    25 -7.722618 3.877546 0.545471 -3.141592 1.545689 -3.141732
    26 -0.023288 0.041601 0.000000 -0.481732 -0.593866 -0.287098
    27 11.072354 -0.043445 0.000001 0.000000 0.000000 -1.477378
    28 8.108975 0.000001 0.000000 -2.372222 0.810502 0.764879
    29 0.788882 0.969696 -0.533611 -2.647566 0.437954 0.465033
    30 1.920301 0.000001 0.000000 0.000000 0.000000 1.171019
    31 0.858249 0.000000 0.000000 0.000000 0.000000 -0.088906
    32 2.955714 0.752580 0.160552 -3.141592 1.050291 -0.015797
    33 1.836086 0.000000 0.000000 0.000000 -0.235620 0.000000
    34 0.853994 0.000000 0.000000 -0.002756 -0.113413 0.024347
    35 2.964905 -0.017483 0.178523 -3.141592 1.039020 -0.015797
    36 1.814736 -0.000001 0.000000 0.006645 -0.296634 -0.022729
    37 0.982325 0.000000 0.000000 0.000000 -0.095993 0.021736
    38 2.889732 -0.720928 0.212797 3.131715 0.913559 -0.059684
    39 1.751859 0.000001 0.000000 -0.156462 -0.620449 -0.008613
    40 0.853991 0.000000 0.000004 0.000000 -0.043633 0.000000
    41 2.857166 -1.430681 0.078012 3.141592 1.198598 -0.015797
    42 1.152892 0.000000 0.000001 -0.007510 -0.130685 0.057571
    43 0.748464 0.000000 -0.000001 0.000000 -0.314159 -0.057080
  time 9
    0 2.639594 -9.878592 -3.336706 0.000000 0.000000 -0.000143
    1 0.000007 1.897310 0.730167 -1.062906 0.000000 0.000000
    2 2.642929 -11.538801 -1.894755 0.000000 0.000000 -0.000143
    3 2.638775 -10.296577 -3.420746 0.000000 0.000000 -0.000143
    4 2.177865 -10.981323 -2.636101 0.000000 0.000000 -0.000143
    5 2.639594 -9.878592 -3.336706 0.000000 0.000000 -0.000143
    6 3.396785 7.779389 1.548835 -3.141592 1.454463 -3.141592
    7 -0.023288 0.041601 -0.000001 -0.009904 -0.016463 -0.610675
    8 11.072353 -0.043445 0.000000 0.000000 0.000000 -1.315085
    9 8.108975 0.000000 0.000000 0.175574 -0.167413 0.221996
    10 0.758957 -0.993292 -0.533611 0.392406 0.687057 0.046279
    11 1.920299 0.000000 0.000000 0.000000 0.000000 0.882317
    12 0.858255 0.000000 0.000000 0.000000 0.000000 -0.069433
    13 2.931401 -0.842323 0.160553 -0.041260 0.291433 0.100517
    14 1.836086 0.000000 0.000000 0.000000 1.303315 0.000000
    15 0.853993 0.000000 0.000000 0.002756 0.113413 0.024347
    16 2.964058 -0.072899 0.178523 0.260482 1.290585 0.792160
    17 1.814737 0.000000 0.000000 -3.114505 1.333979 -3.136047
    18 0.982325 0.000000 0.000000 0.000000 0.062784 0.021736
    19 2.910364 0.632510 0.212797 0.525413 1.456608 1.079301
    20 1.751858 0.000000 0.000000 3.141589 1.501719 3.105026
    21 0.853993 0.000000 0.000000 0.000000 0.043633 0.000000
    22 2.899449 1.342927 0.078012 -2.409389 1.401894 -1.952022
    23 1.152892 0.000000 -0.000003 0.009195 0.623335 0.061976
    24 0.748462 0.000000 0.000000 0.000000 0.904936 -0.057080
    25 -7.722618 3.877546 0.545471 -3.141592 1.545689 -3.141732
    26 -0.023288 0.041601 0.000000 -0.481732 -0.593866 -0.287098
    27 11.072354 -0.043445 0.000001 0.000000 0.000000 -1.477378
    28 8.108975 0.000001 0.000000 -2.372222 0.810502 0.764879
    29 0.788882 0.969696 -0.533611 -2.647566 0.437954 0.465033
    30 1.920301 0.000001 0.000000 0.000000 0.000000 1.171019
    31 0.858249 0.000000 0.000000 0.000000 0.000000 -0.088906
    32 2.955714 0.752580 0.160552 -3.141592 1.050291 -0.015797
    33 1.836086 0.000000 0.000000 0.000000 -0.235620 0.000000
    34 0.853994 0.000000 0.000000 -0.002756 -0.113413 0.024347
    35 2.964905 -0.017483 0.178523 -3.141592 1.039020 -0.015797
    36 1.814736 -0.000001 0.000000 0.006645 -0.296634 -0.022729
    37 0.982325 0.000000 0.000000 0.000000 -0.095993 0.021736
    38 2.889732 -0.720928 0.212797 3.131715 0.913559 -0.059684
    39 1.751859 0.000001 0.000000 -0.156462 -0.620449 -0.008613
    40 0.853991 0.000000 0.000004 0.000000 -0.043633 0.000000
    41 2.857166 -1.430681 0.078012 3.141592 1.198598 -0.015797
    42 1.152892 0.000000 0.000001 -0.007510 -0.130685 0.057571
    43 0.748464 0.000000 -0.000001 0.000000 -0.314159 -0.057080
  time 10
    0 2.639594 -9.878592 -3.336706 0.000000 0.000000 -0.000143
    1 0.000007 1.897310 0.730167 -1.062906 0.000000 0.000000
    2 2.642929 -11.538801 -1.894755 0.000000 0.000000 -0.000143
    3 2.638775 -10.296577 -3.420746 0.000000 0.000000 -0.000143
    4 2.177865 -10.981323 -2.636101 0.000000 0.000000 -0.000143
    5 2.639594 -9.878592 -3.336706 0.000000 0.000000 -0.000143
    6 3.396785 7.779389 1.548835 -3.141592 1.454463 -3.141592
    7 -0.023288 0.041601 -0.000001 -0.009904 -0.016463 -0.610675
    8 11.072353 -0.043445 0.000000 0.000000 0.000000 -1.315085
    9 8.108975 0.000000 0.000000 0.175574 -0.167413 0.221996
    10 0.758957 -0.993292 -0.533611 0.392406 0.687057 0.046279
    11 1.920299 0.000000 0.000000 0.000000 0.000000 0.882317
    12 0.858255 0.000000 0.000000 0.000000 0.000000 -0.069433
    13 2.931401 -0.842323 0.160553 -0.041260 0.291433 0.100517
    14 1.836086 0.000000 0.000000 0.000000 1.303315 0.000000
    15 0.853993 0.000000 0.000000 0.002756 0.113413 0.024347
    16 2.964058 -0.072899 0.178523 0.260482 1.290585 0.792160
    17 1.814737 0.000000 0.000000 -3.114505 1.333979 -3.136047
    18 0.982325 0.000000 0.000000 0.000000 0.062784 0.021736
    19 2.910364 0.632510 0.212797 0.525413 1.456608 1.079301
    20 1.751858 0.000000 0.000000 3.141589 1.501719 3.105026
    21 0.853993 0.000000 0.000000 0.000000 0.043633 0.000000
    22 2.899449 1.342927 0.078012 -2.409389 1.401894 -1.952022
    23 1.152892 0.000000 -0.000003 0.009195 0.623335 0.061976
    24 0.748462 0.000000 0.000000 0.000000 0.904936 -0.057080
    25 -7.722618 3.877546 0.545471 -3.141592 1.545689 -3.141732
    26 -0.023288 0.041601 0.000000 -0.481732 -0.593866 -0.287098
    27 11.072354 -0.043445 0.000001 0.000000 0.000000 -1.477378
    28 8.108975 0.000001 0.000000 -2.372222 0.810502 0.764879
    29 0.788882 0.969696 -0.533611 -2.647566 0.437954 0.465033
    30 1.920301 0.000001 0.000000 0.000000 0.000000 1.171019
    31 0.858249 0.000000 0.000000 0.000000 0.000000 -0.088906
    32 2.955714 0.752580 0.160552 -3.141592 1.050291 -0.015797
    33 1.836086 0.000000 0.000000 0.000000 -0.235620 0.000000
    34 0.853994 0.000000 0.000000 -0.002756 -0.113413 0.024347
    35 2.964905 -0.017483 0.178523 -3.141592 1.039020 -0.015797
    36 1.814736 -0.000001 0.000000 0.006645 -0.296634 -0.022729
    37 0.982325 0.000000 0.000000 0.000000 -0.095993 0.021736
    38 2.889732 -0.720928 0.212797 3.131715 0.913559 -0.059684
    39 1.751859 0.000001 0.000000 -0.156462 -0.620449 -0.008613
    40 0.853991 0.000000 0.000004 0.000000 -0.043633 0.000000
    41 2.857166 -1.430681 0.078012 3.141592 1.198598 -0.015797
    42 1.152892 0.000000 0.000001 -0.007510 -0.130685 0.057571
    43 0.748464 0.000000 -0.000001 0.000000 -0.314159 -0.057080
  time 11
    0 2.639594 -9.878592 -3.336706 0.000000 0.000000 -0.000143
    1 0.000007 1.897310 0.730167 -1.062906 0.000000 0.000000
    2 2.642929 -11.538801 -1.894755 0.000000 0.000000 -0.000143
    3 2.638775 -10.296577 -3.420746 0.000000 0.000000 -0.000143
    4 2.177865 -10.981323 -2.636101 0.000000 0.000000 -0.000143
    5 2.639594 -9.878592 -3.336706 0.000000 0.000000 -0.000143
    6 3.396785 7.779389 1.548835 -3.141592 1.454463 -3.141592
    7 -0.023288 0.041601 -0.000001 -0.009904 -0.016463 -0.610675
    8 11.072353 -0.043445 0.000000 0.000000 0.000000 -1.315085
    9 8.108975 0.000000 0.000000 0.175574 -0.167413 0.221996
    10 0.758957 -0.993292 -0.533611 0.392406 0.687057 0.046279
    11 1.920299 0.000000 0.000000 0.000000 0.000000 0.882317
    12 0.858255 0.000000 0.000000 0.000000 0.000000 -0.069433
    13 2.931401 -0.842323 0.160553 -0.041260 0.291433 0.100517
    14 1.836086 0.000000 0.000000 0.000000 1.303315 0.000000
    15 0.853993 0.000000 0.000000 0.002756 0.113413 0.024347
    16 2.964058 -0.072899 0.178523 0.260482 1.290585 0.792160
    17 1.814737 0.000000 0.000000 -3.114505 1.333979 -3.136047
    18 0.982325 0.000000 0.000000 0.000000 0.062784 0.021736
    19 2.910364 0.632510 0.212797 0.525413 1.456608 1.079301
    20 1.751858 0.000000 0.000000 3.141589 1.501719 3.105026
    21 0.853993 0.000000 0.000000 0.000000 0.043633 0.000000
    22 2.899449 1.342927 0.078012 -2.409389 1.401894 -1.952022
    23 1.152892 0.000000 -0.000003 0.009195 0.623335 0.061976
    24 0.748462 0.000000 0.000000 0.000000 0.904936 -0.057080
    25 -7.722618 3.877546 0.545471 -3.141592 1.545689 -3.141732
    26 -0.023288 0.041601 0.000000 -0.481732 -0.593866 -0.287098
    27 11.072354 -0.043445 0.000001 0.000000 0.000000 -1.477378
    28 8.108975 0.000001 0.000000 -2.372222 0.810502 0.764879
    29 0.788882 0.969696 -0.533611 -2.647566 0.437954 0.465033
    30 1.920301 0.000001 0.000000 0.000000 0.000000 1.171019
    31 0.858249 0.000000 0.000000 0.000000 0.000000 -0.088906
    32 2.955714 0.752580 0.160552 -3.141592 1.050291 -0.015797
    33 1.836086 0.000000 0.000000 0.000000 -0.235620 0.000000
    34 0.853994 0.000000 0.000000 -0.002756 -0.113413 0.024347
    35 2.964905 -0.017483 0.178523 -3.141592 1.039020 -0.015797
    36 1.814736 -0.000001 0.000000 0.006645 -0.296634 -0.022729
    37 0.982325 0.000000 0.000000 0.000000 -0.095993 0.021736
    38 2.889732 -0.720928 0.212797 3.131715 0.913559 -0.059684
    39 1.751859 0.000001 0.000000 -0.156462 -0.620449 -0.008613
    40 0.853991 0.000000 0.000004 0.000000 -0.043633 0.000000
    41 2.857166 -1.430681 0.078012 3.141592 1.198598 -0.015797
    42 1.152892 0.000000 0.000001 -0.007510 -0.130685 0.057571
    43 0.748464 0.000000 -0.000001 0.000000 -0.314159 -0.057080
  time 12
    0 2.639594 -9.878592 -3.336706 0.000000 0.000000 -0.000143
    1 0.000007 1.897310 0.730167 -1.062906 0.000000 0.000000
    2 2.642929 -11.538801 -1.894755 0.000000 0.000000 -0.000143
    3 2.638775 -10.296577 -3.420746 0.000000 0.000000 -0.000143
    4 2.177865 -10.981323 -2.636101 0.000000 0.000000 -0.000143
    5 2.639594 -9.878592 -3.336706 0.000000 0.000000 -0.000143
    6 3.396785 7.779389 1.548835 -3.141592 1.454463 -3.141592
    7 -0.023288 0.041601 -0.000001 -0.009904 -0.016463 -0.610675
    8 11.072353 -0.043445 0.000000 0.000000 0.000000 -1.315085
    9 8.108975 0.000000 0.000000 0.175574 -0.167413 0.221996
    10 0.758957 -0.993292 -0.533611 0.392406 0.687057 0.046279
    11 1.920299 0.000000 0.000000 0.000000 0.000000 0.882317
    12 0.858255 0.000000 0.000000 0.000000 0.000000 -0.069433
    13 2.931401 -0.842323 0.160553 -0.041260 0.291433 0.100517
    14 1.836086 0.000000 0.000000 0.000000 1.303315 0.000000
    15 0.853993 0.000000 0.000000 0.002756 0.113413 0.024347
    16 2.964058 -0.072899 0.178523 0.260482 1.290585 0.792160
    17 1.814737 0.000000 0.000000 -3.114505 1.333979 -3.136047
    18 0.982325 0.000000 0.000000 0.000000 0.062784 0.021736
    19 2.910364 0.632510 0.212797 0.525413 1.456608 1.079301
    20 1.751858 0.000000 0.000000 3.141589 1.501719 3.105026
    21 0.853993 0.000000 0.000000 0.000000 0.043633 0.000000
    22 2.899449 1.342927 0.078012 -2.409389 1.401894 -1.952022
    23 1.152892 0.000000 -0.000003 0.009195 0.623335 0.061976
    24 0.748462 0.000000 0.000000 0.000000 0.904936 -0.057080
    25 -7.722618 3.877546 0.545471 -3.141592 1.545689 -3.141732
    26 -0.023288 0.041601 0.000000 -0.481732 -0.593866 -0.287098
    27 11.072354 -0.043445 0.000001 0.000000 0.000000 -1.477378
    28 8.108975 0.000001 0.000000 -2.372222 0.810502 0.764879
    29 0.788882 0.969696 -0.533611 -2.647566 0.437954 0.465033
    30 1.920301 0.000001 0.000000 0.000000 0.000000 1.171019
    31 0.858249 0.000000 0.000000 0.000000 0.000000 -0.088906
    32 2.955714 0.752580 0.160552 -3.141592 1.050291 -0.015797
    33 1.836086 0.000000 0.000000 0.000000 -0.235620 0.000000
    34 0.853994 0.000000 0.000000 -0.002756 -0.113413 0.024347
    35 2.964905 -0.017483 0.178523 -3.141592 1.039020 -0.015797
    36 1.814736 -0.000001 0.000000 0.006645 -0.296634 -0.022729
    37 0.982325 0.000000 0.000000 0.000000 -0.095993 0.021736
    38 2.889732 -0.720928 0.212797 3.131715 0.913559 -0.059684
    39 1.751859 0.000001 0.000000 -0.156462 -0.620449 -0.008613
    40 0.853991 0.000000 0.000004 0.000000 -0.043633 0.000000
    41 2.857166 -1.430681 0.078012 3.141592 1.198598 -0.015797
    42 1.152892 0.000000 0.000001 -0.007510 -0.130685 0.057571
    43 0.748464 0.000000 -0.000001 0.000000 -0.314159 -0.057080
  time 13
    0 2.639594 -9.878592 -3.336706 0.000000 0.000000 -0.000143
    1 0.000007 1.897310 0.730167 -1.062906 0.000000 0.000000
    2 2.642929 -11.538801 -1.894755 0.000000 0.000000 -0.000143
    3 2.638775 -10.296577 -3.420746 0.000000 0.000000 -0.000143
    4 2.177865 -10.981323 -2.636101 0.000000 0.000000 -0.000143
    5 2.639594 -9.878592 -3.336706 0.000000 0.000000 -0.000143
    6 3.396785 7.779389 1.548835 -3.141592 1.454463 -3.141592
    7 -0.023288 0.041601 -0.000001 -0.009904 -0.016463 -0.610675
    8 11.072353 -0.043445 0.000000 0.000000 0.000000 -1.315085
    9 8.108975 0.000000 0.000000 0.175574 -0.167413 0.221996
    10 0.758957 -0.993292 -0.533611 0.392406 0.687057 0.046279
    11 1.920299 0.000000 0.000000 0.000000 0.000000 0.882317
    12 0.858255 0.000000 0.000000 0.000000 0.000000 -0.069433
    13 2.931401 -0.842323 0.160553 -0.041260 0.291433 0.100517
    14 1.836086 0.000000 0.000000 0.000000 1.303315 0.000000
    15 0.853993 0.000000 0.000000 0.002756 0.113413 0.024347
    16 2.964058 -0.072899 0.178523 0.260482 1.290585 0.792160
    17 1.814737 0.000000 0.000000 -3.114505 1.333979 -3.136047
    18 0.982325 0.000000 0.000000 0.000000 0.062784 0.021736
    19 2.910364 0.632510 0.212797 0.525413 1.456608 1.079301
    20 1.751858 0.000000 0.000000 3.141589 1.501719 3.105026
    21 0.853993 0.000000 0.000000 0.000000 0.043633 0.000000
    22 2.899449 1.342927 0.078012 -2.409389 1.401894 -1.952022
    23 1.152892 0.000000 -0.000003 0.009195 0.623335 0.061976
    24 0.748462 0.000000 0.000000 0.000000 0.904936 -0.057080
    25 -7.722618 3.877546 0.545471 -3.141592 1.545689 -3.141732
    26 -0.023288 0.041601 0.000000 -0.481732 -0.593866 -0.287098
    27 11.072354 -0.043445 0.000001 0.000000 0.000000 -1.477378
    28 8.108975 0.000001 0.000000 -2.372222 0.810502 0.764879
    29 0.788882 0.969696 -0.533611 -2.647566 0.437954 0.465033
    30 1.920301 0.000001 0.000000 0.000000 0.000000 1.171019
    31 0.858249 0.000000 0.000000 0.000000 0.000000 -0.088906
    32 2.955714 0.752580 0.160552 -3.141592 1.050291 -0.015797
    33 1.836086 0.000000 0.000000 0.000000 -0.235620 0.000000
    34 0.853994 0.000000 0.000000 -0.002756 -0.113413 0.024347
    35 2.964905 -0.017483 0.178523 -3.141592 1.039020 -0.015797
    36 1.814736 -0.000001 0.000000 0.006645 -0.296634 -0.022729
    37 0.982325 0.000000 0.000000 0.000000 -0.095993 0.021736
    38 2.889732 -0.720928 0.212797 3.131715 0.913559 -0.059684
    39 1.751859 0.000001 0.000000 -0.156462 -0.620449 -0.008613
    40 0.853991 0.000000 0.000004 0.000000 -0.043633 0.000000
    41 2.857166 -1.430681 0.078012 3.141592 1.198598 -0.015797
    42 1.152892 0.000000 0.000001 -0.007510 -0.130685 0.057571
    43 0.748464 0.000000 -0.000001 0.000000 -0.314159 -0.057080
  time 14
    0 2.639594 -9.878592 -3.336706 0.000000 0.000000 -0.000143
    1 0.000007 1.897310 0.730167 -1.062906 0.000000 0.000000
    2 2.642929 -11.538801 -1.894755 0.000000 0.000000 -0.000143
    3 2.638775 -10.296577 -3.420746 0.000000 0.000000 -0.000143
    4 2.177865 -10.981323 -2.636101 0.000000 0.000000 -0.000143
    5 2.639594 -9.878592 -3.336706 0.000000 0.000000 -0.000143
    6 3.396785 7.779389 1.548835 -3.141592 1.454463 -3.141592
    7 -0.023288 0.041601 -0.000001 -0.009904 -0.016463 -0.610675
    8 11.072353 -0.043445 0.000000 0.000000 0.000000 -1.315085
    9 8.108975 0.000000 0.000000 0.175574 -0.167413 0.221996
    10 0.758957 -0.993292 -0.533611 0.392406 0.687057 0.046279
    11 1.920299 0.000000 0.000000 0.000000 0.000000 0.882317
    12 0.858255 0.000000 0.000000 0.000000 0.000000 -0.069433
    13 2.931401 -0.842323 0.160553 -0.041260 0.291433 0.100517
    14 1.836086 0.000000 0.000000 0.000000 1.303315 0.000000
    15 0.853993 0.000000 0.000000 0.002756 0.113413 0.024347
    16 2.964058 -0.072899 0.178523 0.260482 1.290585 0.792160
    17 1.814737 0.000000 0.000000 -3.114505 1.333979 -3.136047
    18 0.982325 0.000000 0.000000 0.000000 0.062784 0.021736
    19 2.910364 0.632510 0.212797 0.525413 1.456608 1.079301
    20 1.751858 0.000000 0.000000 3.141589 1.501719 3.105026
    21 0.853993 0.000000 0.000000 0.000000 0.043633 0.000000
    22 2.899449 1.342927 0.078012 -2.409389 1.401894 -1.952022
    23 1.152892 0.000000 -0.000003 0.009195 0.623335 0.061976
    24 0.748462 0.000000 0.000000 0.000000 0.904936 -0.057080
    25 -7.722618 3.877546 0.545471 -3.141592 1.545689 -3.141732
    26 -0.023288 0.041601 0.000000 -0.481732 -0.593866 -0.287098
    27 11.072354 -0.043445 0.000001 0.000000 0.000000 -1.477378
    28 8.108975 0.000001 0.000000 -2.372222 0.810502 0.764879
    29 0.788882 0.969696 -0.533611 -2.647566 0.437954 0.465033
    30 1.920301 0.000001 0.000000 0.000000 0.000000 1.171019
    31 0.858249 0.000000 0.000000 0.000000 0.000000 -0.088906
    32 2.955714 0.752580 0.160552 -3.141592 1.050291 -0.015797
    33 1.836086 0.000000 0.000000 0.000000 -0.235620 0.000000
    34 0.853994 0.000000 0.000000 -0.002756 -0.113413 0.024347
    35 2.964905 -0.017483 0.178523 -3.141592 1.039020 -0.015797
    36 1.814736 -0.000001 0.000000 0.006645 -0.296634 -0.022729
    37 0.982325 0.000000 0.000000 0.000000 -0.095993 0.021736
    38 2.889732 -0.720928 0.212797 3.131715 0.913559 -0.059684
    39 1.751859 0.000001 0.000000 -0.156462 -0.620449 -0.008613
    40 0.853991 0.000000 0.000004 0.000000 -0.043633 0.000000
    41 2.857166 -1.430681 0.078012 3.141592 1.198598 -0.015797
    42 1.152892 0.000000 0.000001 -0.007510 -0.130685 0.057571
    43 0.748464 0.000000 -0.000001 0.000000 -0.314159 -0.057080
  time 15
    0 2.639594 -9.878592 -3.336706 0.000000 0.000000 -0.000143
    1 0.000007 1.897310 0.730167 -1.062906 0.000000 0.000000
    2 2.642929 -11.538801 -1.894755 0.000000 0.000000 -0.000143
    3 2.638775 -10.296577 -3.420746 0.000000 0.000000 -0.000143
    4 2.177865 -10.981323 -2.636101 0.000000 0.000000 -0.000143
    5 2.639594 -9.878592 -3.336706 0.000000 0.000000 -0.000143
    6 3.396785 7.779389 1.548835 -3.141592 1.454463 -3.141592
    7 -0.023288 0.041601 -0.000001 -0.009904 -0.016463 -0.610675
    8 11.072353 -0.043445 0.000000 0.000000 0.000000 -1.315085
    9 8.108975 0.000000 0.000000 0.175574 -0.167413 0.221996
    10 0.758957 -0.993292 -0.533611 0.392406 0.687057 0.046279
    11 1.920299 0.000000 0.000000 0.000000 0.000000 0.882317
    12 0.858255 0.000000 0.000000 0.000000 0.000000 -0.069433
    13 2.931401 -0.842323 0.160553 -0.041260 0.291433 0.100517
    14 1.836086 0.000000 0.000000 0.000000 1.303315 0.000000
    15 0.853993 0.000000 0.000000 0.002756 0.113413 0.024347
    16 2.964058 -0.072899 0.178523 0.260482 1.290585 0.792160
    17 1.814737 0.000000 0.000000 -3.114505 1.333979 -3.136047
    18 0.982325 0.000000 0.000000 0.000000 0.062784 0.021736
    19 2.910364 0.632510 0.212797 0.525413 1.456608 1.079301
    20 1.751858 0.000000 0.000000 3.141589 1.501719 3.105026
    21 0.853993 0.000000 0.000000 0.000000 0.043633 0.000000
    22 2.899449 1.342927 0.078012 -2.409389 1.401894 -1.952022
    23 1.152892 0.000000 -0.000003 0.009195 0.623335 0.061976
    24 0.748462 0.000000 0.000000 0.000000 0.904936 -0.057080
    25 -7.722618 3.877546 0.545471 -3.141592 1.545689 -3.141732
    26 -0.023288 0.041601 0.000000 -0.481732 -0.593866 -0.287098
    27 11.072354 -0.043445 0.000001 0.000000 0.000000 -1.477378
    28 8.108975 0.000001 0.000000 -2.372222 0.810502 0.764879
    29 0.788882 0.969696 -0.533611 -2.647566 0.437954 0.465033
    30 1.920301 0.000001 0.000000 0.000000 0.000000 1.171019
    31 0.858249 0.000000 0.000000 0.000000 0.000000 -0.088906
    32 2.955714 0.752580 0.160552 -3.141592 1.050291 -0.015797
    33 1.836086 0.000000 0.000000 0.000000 -0.235620 0.000000
    34 0.853994 0.000000 0.000000 -0.002756 -0.113413 0.024347
    35 2.964905 -0.017483 0.178523 -3.141592 1.039020 -0.015797
    36 1.814736 -0.000001 0.000000 0.006645 -0.296634 -0.022729
    37 0.982325 0.000000 0.000000 0.000000 -0.095993 0.021736
    38 2.889732 -0.720928 0.212797 3.131715 0.913559 -0.059684
    39 1.751859 0.000001 0.000000 -0.156462 -0.620449 -0.008613
    40 0.853991 0.000000 0.000004 0.000000 -0.043633 0.000000
    41 2.857166 -1.430681 0.078012 3.141592 1.198598 -0.015797
    42 1.152892 0.000000 0.000001 -0.007510 -0.130685 0.057571
    43 0.748464 0.000000 -0.000001 0.000000 -0.314159 -0.057080
  time 16
    0 2.639594 -9.878592 -3.336706 0.000000 0.000000 -0.000143
    1 0.000007 1.897310 0.730167 -1.062906 0.000000 0.000000
    2 2.642929 -11.538801 -1.894755 0.000000 0.000000 -0.000143
    3 2.638775 -10.296577 -3.420746 0.000000 0.000000 -0.000143
    4 2.177865 -10.981323 -2.636101 0.000000 0.000000 -0.000143
    5 2.639594 -9.878592 -3.336706 0.000000 0.000000 -0.000143
    6 3.396785 7.779389 1.548835 -3.141592 1.454463 -3.141592
    7 -0.023288 0.041601 -0.000001 -0.009904 -0.016463 -0.610675
    8 11.072353 -0.043445 0.000000 0.000000 0.000000 -1.315085
    9 8.108975 0.000000 0.000000 0.175574 -0.167413 0.221996
    10 0.758957 -0.993292 -0.533611 0.392406 0.687057 0.046279
    11 1.920299 0.000000 0.000000 0.000000 0.000000 0.882317
    12 0.858255 0.000000 0.000000 0.000000 0.000000 -0.069433
    13 2.931401 -0.842323 0.160553 -0.041260 0.291433 0.100517
    14 1.836086 0.000000 0.000000 0.000000 1.303315 0.000000
    15 0.853993 0.000000 0.000000 0.002756 0.113413 0.024347
    16 2.964058 -0.072899 0.178523 0.260482 1.290585 0.792160
    17 1.814737 0.000000 0.000000 -3.114505 1.333979 -3.136047
    18 0.982325 0.000000 0.000000 0.000000 0.062784 0.021736
    19 2.910364 0.632510 0.212797 0.525413 1.456608 1.079301
    20 1.751858 0.000000 0.000000 3.141589 1.501719 3.105026
    21 0.853993 0.000000 0.000000 0.000000 0.043633 0.000000
    22 2.899449 1.342927 0.078012 -2.409389 1.401894 -1.952022
    23 1.152892 0.000000 -0.000003 0.009195 0.623335 0.061976
    24 0.748462 0.000000 0.000000 0.000000 0.904936 -0.057080
    25 -7.722618 3.877546 0.545471 -3.141592 1.545689 -3.141732
    26 -0.023288 0.041601 0.000000 -0.481732 -0.593866 -0.287098
    27 11.072354 -0.043445 0.000001 0.000000 0.000000 -1.477378
    28 8.108975 0.000001 0.000000 -2.372222 0.810502 0.764879
    29 0.788882 0.969696 -0.533611 -2.647566 0.437954 0.465033
    30 1.920301 0.000001 0.000000 0.000000 0.000000 1.171019
    31 0.858249 0.000000 0.000000 0.000000 0.000000 -0.088906
    32 2.955714 0.752580 0.160552 -3.141592 1.050291 -0.015797
    33 1.836086 0.000000 0.000000 0.000000 -0.235620 0.000000
    34 0.853994 0.000000 0.000000 -0.002756 -0.113413 0.024347
    35 2.964905 -0.017483 0.178523 -3.141592 1.039020 -0.015797
    36 1.814736 -0.000001 0.000000 0.006645 -0.296634 -0.022729
    37 0.982325 0.000000 0.000000 0.000000 -0.095993 0.021736
    38 2.889732 -0.720928 0.212797 3.131715 0.913559 -0.059684
    39 1.751859 0.000001 0.000000 -0.156462 -0.620449 -0.008613
    40 0.853991 0.000000 0.000004 0.000000 -0.043633 0.000000
    41 2.857166 -1.430681 0.078012 3.141592 1.198598 -0.015797
    42 1.152892 0.000000 0.000001 -0.007510 -0.130685 0.057571
    43 0.748464 0.000000 -0.000001 0.000000 -0.314159 -0.057080
  time 17
    0 2.639594 -9.878592 -3.336706 0.000000 0.000000 -0.000143
    1 0.000007 1.897310 0.730167 -1.062906 0.000000 0.000000
    2 2.642929 -11.538801 -1.894755 0.000000 0.000000 -0.000143
    3 2.638775 -10.296577 -3.420746 0.000000 0.000000 -0.000143
    4 2.177865 -10.981323 -2.636101 0.000000 0.000000 -0.000143
    5 2.639594 -9.878592 -3.336706 0.000000 0.000000 -0.000143
    6 3.396785 7.779389 1.548835 -3.141592 1.454463 -3.141592
    7 -0.023288 0.041601 -0.000001 -0.009904 -0.016463 -0.610675
    8 11.072353 -0.043445 0.000000 0.000000 0.000000 -1.315085
    9 8.108975 0.000000 0.000000 0.175574 -0.167413 0.221996
    10 0.758957 -0.993292 -0.533611 0.392406 0.687057 0.046279
    11 1.920299 0.000000 0.000000 0.000000 0.000000 0.882317
    12 0.858255 0.000000 0.000000 0.000000 0.000000 -0.069433
    13 2.931401 -0.842323 0.160553 -0.041260 0.291433 0.100517
    14 1.836086 0.000000 0.000000 0.000000 1.303315 0.000000
    15 0.853993 0.000000 0.000000 0.002756 0.113413 0.024347
    16 2.964058 -0.072899 0.178523 0.260482 1.290585 0.792160
    17 1.814737 0.000000 0.000000 -3.114505 1.333979 -3.136047
    18 0.982325 0.000000 0.000000 0.000000 0.062784 0.021736
    19 2.910364 0.632510 0.212797 0.525413 1.456608 1.079301
    20 1.751858 0.000000 0.000000 3.141589 1.501719 3.105026
    21 0.853993 0.000000 0.000000 0.000000 0.043633 0.000000
    22 2.899449 1.342927 0.078012 -2.409389 1.401894 -1.952022
    23 1.152892 0.000000 -0.000003 0.009195 0.623335 0.061976
    24 0.748462 0.000000 0.000000 0.000000 0.904936 -0.057080
    25 -7.722618 3.877546 0.545471 -3.141592 1.545689 -3.141732
    26 -0.023288 0.041601 0.000000 -0.481732 -0.593866 -0.287098
    27 11.072354 -0.043445 0.000001 0.000000 0.000000 -1.477378
    28 8.108975 0.000001 0.000000 -2.372222 0.810502 0.764879
    29 0.788882 0.969696 -0.533611 -2.647566 0.437954 0.465033
    30 1.920301 0.000001 0.000000 0.000000 0.000000 1.171019
    31 0.858249 0.000000 0.000000 0.000000 0.000000 -0.088906
    32 2.955714 0.752580 0.160552 -3.141592 1.050291 -0.015797
    33 1.836086 0.000000 0.000000 0.000000 -0.235620 0.000000
    34 0.853994 0.000000 0.000000 -0.002756 -0.113413 0.024347
    35 2.964905 -0.017483 0.178523 -3.141592 1.039020 -0.015797
    36 1.814736 -0.000001 0.000000 0.006645 -0.296634 -0.022729
    37 0.982325 0.000000 0.000000 0.000000 -0.095993 0.021736
    38 2.889732 -0.720928 0.212797 3.131715 0.913559 -0.059684
    39 1.751859 0.000001 0.000000 -0.156462 -0.620449 -0.008613
    40 0.853991 0.000000 0.000004 0.000000 -0.043633 0.000000
    41 2.857166 -1.430681 0.078012 3.141592 1.198598 -0.015797
    42 1.152892 0.000000 0.000001 -0.007510 -0.130685 0.057571
    43 0.748464 0.000000 -0.000001 0.000000 -0.314159 -0.057080
  time 18
    0 2.639594 -9.878592 -3.336706 0.000000 0.000000 -0.000143
    1 0.000007 1.897310 0.730167 -1.062906 0.000000 0.000000
    2 2.642929 -11.538801 -1.894755 0.000000 0.000000 -0.000143
    3 2.638775 -10.296577 -3.420746 0.000000 0.000000 -0.000143
    4 2.177865 -10.981323 -2.636101 0.000000 0.000000 -0.000143
    5 2.639594 -9.878592 -3.336706 0.000000 0.000000 -0.000143
    6 3.396785 7.779389 1.548835 -3.141592 1.454463 -3.141592
    7 -0.023288 0.041601 -0.000001 -0.009904 -0.016463 -0.610675
    8 11.072353 -0.043445 0.000000 0.000000 0.000000 -1.315085
    9 8.108975 0.000000 0.000000 0.175574 -0.167413 0.221996
    10 0.758957 -0.993292 -0.533611 0.392406 0.687057 0.046279
    11 1.920299 0.000000 0.000000 0.000000 0.000000 0.882317
    12 0.858255 0.000000 0.000000 0.000000 0.000000 -0.069433
    13 2.931401 -0.842323 0.160553 -0.041260 0.291433 0.100517
    14 1.836086 0.000000 0.000000 0.000000 1.303315 0.000000
    15 0.853993 0.000000 0.000000 0.002756 0.113413 0.024347
    16 2.964058 -0.072899 0.178523 0.260482 1.290585 0.792160
    17 1.814737 0.000000 0.000000 -3.114505 1.333979 -3.136047
    18 0.982325 0.000000 0.000000 0.000000 0.062784 0.021736
    19 2.910364 0.632510 0.212797 0.525413 1.456608 1.079301
    20 1.751858 0.000000 0.000000 3.141589 1.501719 3.105026
    21 0.853993 0.000000 0.000000 0.000000 0.043633 0.000000
    22 2.899449 1.342927 0.078012 -2.409389 1.401894 -1.952022
    23 1.152892 0.000000 -0.000003 0.009195 0.623335 0.061976
    24 0.748462 0.000000 0.000000 0.000000 0.904936 -0.057080
    25 -7.722618 3.877546 0.545471 -3.141592 1.545689 -3.141732
    26 -0.023288 0.041601 0.000000 -0.481732 -0.593866 -0.287098
    27 11.072354 -0.043445 0.000001 0.000000 0.000000 -1.477378
    28 8.108975 0.000001 0.000000 -2.372222 0.810502 0.764879
    29 0.788882 0.969696 -0.533611 -2.647566 0.437954 0.465033
    30 1.920301 0.000001 0.000000 0.000000 0.000000 1.171019
    31 0.858249 0.000000 0.000000 0.000000 0.000000 -0.088906
    32 2.955714 0.752580 0.160552 -3.141592 1.050291 -0.015797
    33 1.836086 0.000000 0.000000 0.000000 -0.235620 0.000000
    34 0.853994 0.000000 0.000000 -0.002756 -0.113413 0.024347
    35 2.964905 -0.017483 0.178523 -3.141592 1.039020 -0.015797
    36 1.814736 -0.000001 0.000000 0.006645 -0.296634 -0.022729
    37 0.982325 0.000000 0.000000 0.000000 -0.095993 0.021736
    38 2.889732 -0.720928 0.212797 3.131715 0.913559 -0.059684
    39 1.751859 0.000001 0.000000 -0.156462 -0.620449 -0.008613
    40 0.853991 0.000000 0.000004 0.000000 -0.043633 0.000000
    41 2.857166 -1.430681 0.078012 3.141592 1.198598 -0.015797
    42 1.152892 0.000000 0.000001 -0.007510 -0.130685 0.057571
    43 0.748464 0.000000 -0.000001 0.000000 -0.314159 -0.057080
  time 19
    0 2.639594 -9.878592 -3.336706 0.000000 0.000000 -0.000143
    1 0.000007 1.897310 0.730167 -1.062906 0.000000 0.000000
    2 2.642929 -11.538801 -1.894755 0.000000 0.000000 -0.000143
    3 2.638775 -10.296577 -3.420746 0.000000 0.000000 -0.000143
    4 2.177865 -10.981323 -2.636101 0.000000 0.000000 -0.000143
    5 2.639594 -9.878592 -3.336706 0.000000 0.000000 -0.000143
    6 3.396785 7.779389 1.548835 -3.141592 1.454463 -3.141592
    7 -0.023288 0.041601 -0.000001 -0.009904 -0.016463 -0.610675
    8 11.072353 -0.043445 0.000000 0.000000 0.000000 -1.315085
    9 8.108975 0.000000 0.000000 0.175574 -0.167413 0.221996
    10 0.758957 -0.993292 -0.533611 0.392406 0.687057 0.046279
    11 1.920299 0.000000 0.000000 0.000000 0.000000 0.882317
    12 0.858255 0.000000 0.000000 0.000000 0.000000 -0.069433
    13 2.931401 -0.842323 0.160553 -0.041260 0.291433 0.100517
    14 1.836086 0.000000 0.000000 0.000000 1.303315 0.000000
    15 0.853993 0.000000 0.000000 0.002756 0.113413 0.024347
    16 2.964058 -0.072899 0.178523 0.260482 1.290585 0.792160
    17 1.814737 0.000000 0.000000 -3.114505 1.333979 -3.136047
    18 0.982325 0.000000 0.000000 0.000000 0.062784 0.021736
    19 2.910364 0.632510 0.212797 0.525413 1.456608 1.079301
    20 1.751858 0.000000 0.000000 3.141589 1.501719 3.105026
    21 0.853993 0.000000 0.000000 0.000000 0.043633 0.000000
    22 2.899449 1.342927 0.078012 -2.409389 1.401894 -1.952022
    23 1.152892 0.000000 -0.000003 0.009195 0.623335 0.061976
    24 0.748462 0.000000 0.000000 0.000000 0.904936 -0.057080
    25 -7.722618 3.877546 0.545471 -3.141592 1.545689 -3.141732
    26 -0.023288 0.041601 0.000000 -0.481732 -0.593866 -0.287098
    27 11.072354 -0.043445 0.000001 0.000000 0.000000 -1.477378
    28 8.108975 0.000001 0.000000 -2.372222 0.810502 0.764879
    29 0.788882 0.969696 -0.533611 -2.647566 0.437954 0.465033
    30 1.920301 0.000001 0.000000 0.000000 0.000000 1.171019
    31 0.858249 0.000000 0.000000 0.000000 0.000000 -0.088906
    32 2.955714 0.752580 0.160552 -3.141592 1.050291 -0.015797
    33 1.836086 0.000000 0.000000 0.000000 -0.235620 0.000000
    34 0.853994 0.000000 0.000000 -0.002756 -0.113413 0.024347
    35 2.964905 -0.017483 0.178523 -3.141592 1.039020 -0.015797
    36 1.814736 -0.000001 0.000000 0.006645 -0.296634 -0.022729
    37 0.982325 0.000000 0.000000 0.000000 -0.095993 0.021736
    38 2.889732 -0.720928 0.212797 3.131715 0.913559 -0.059684
    39 1.751859 0.000001 0.000000 -0.156462 -0.620449 -0.008613
    40 0.853991 0.000000 0.000004 0.000000 -0.043633 0.000000
    41 2.857166 -1.430681 0.078012 3.141592 1.198598 -0.015797
    42 1.152892 0.000000 0.000001 -0.007510 -0.130685 0.057571
    43 0.748464 0.000000 -0.000001 0.000000 -0.314159 -0.057080
  time 20
    0 2.639594 -9.878592 -3.336706 0.000000 0.000000 -0.000143
    1 0.000007 1.897310 0.730167 -1.062906 0.000000 0.000000
    2 2.642929 -11.538801 -1.894755 0.000000 0.000000 -0.000143
    3 2.638775 -10.296577 -3.420746 0.000000 0.000000 -0.000143
    4 2.177865 -10.981323 -2.636101 0.000000 0.000000 -0.000143
    5 2.639594 -9.878592 -3.336706 0.000000 0.000000 -0.000143
    6 3.396785 7.779389 1.548835 -3.141592 1.454463 -3.141592
    7 -0.023288 0.041601 -0.000001 -0.009904 -0.016463 -0.610675
    8 11.072353 -0.043445 0.000000 0.000000 0.000000 -1.315085
    9 8.108975 0.000000 0.000000 0.175574 -0.167413 0.221996
    10 0.758957 -0.993292 -0.533611 0.392406 0.687057 0.046279
    11 1.920299 0.000000 0.000000 0.000000 0.000000 0.882317
    12 0.858255 0.000000 0.000000 0.000000 0.000000 -0.069433
    13 2.931401 -0.842323 0.160553 -0.041260 0.291433 0.100517
    14 1.836086 0.000000 0.000000 0.000000 1.303315 0.000000
    15 0.853993 0.000000 0.000000 0.002756 0.113413 0.024347
    16 2.964058 -0.072899 0.178523 0.260482 1.290585 0.792160
    17 1.814737 0.000000 0.000000 -3.114505 1.333979 -3.136047
    18 0.982325 0.000000 0.000000 0.000000 0.062784 0.021736
    19 2.910364 0.632510 0.212797 0.525413 1.456608 1.079301
    20 1.751858 0.000000 0.000000 3.141589 1.501719 3.105026
    21 0.853993 0.000000 0.000000 0.000000 0.043633 0.000000
    22 2.899449 1.342927 0.078012 -2.409389 1.401894 -1.952022
    23 1.152892 0.000000 -0.000003 0.009195 0.623335 0.061976
    24 0.748462 0.000000 0.000000 0.000000 0.904936 -0.057080
    25 -7.722618 3.877546 0.545471 -3.141592 1.545689 -3.141732
    26 -0.023288 0.041601 0.000000 -0.481732 -0.593866 -0.287098
    27 11.072354 -0.043445 0.000001 0.000000 0.000000 -1.477378
    28 8.108975 0.000001 0.000000 -2.372222 0.810502 0.764879
    29 0.788882 0.969696 -0.533611 -2.647566 0.437954 0.465033
    30 1.920301 0.000001 0.000000 0.000000 0.000000 1.171019
    31 0.858249 0.000000 0.000000 0.000000 0.000000 -0.088906
    32 2.955714 0.752580 0.160552 -3.141592 1.050291 -0.015797
    33 1.836086 0.000000 0.000000 0.000000 -0.235620 0.000000
    34 0.853994 0.000000 0.000000 -0.002756 -0.113413 0.024347
    35 2.964905 -0.017483 0.178523 -3.141592 1.039020 -0.015797
    36 1.814736 -0.000001 0.000000 0.006645 -0.296634 -0.022729
    37 0.982325 0.000000 0.000000 0.000000 -0.095993 0.021736
    38 2.889732 -0.720928 0.212797 3.131715 0.913559 -0.059684
    39 1.751859 0.000001 0.000000 -0.156462 -0.620449 -0.008613
    40 0.853991 0.000000 0.000004 0.000000 -0.043633 0.000000
    41 2.857166 -1.430681 0.078012 3.141592 1.198598 -0.015797
    42 1.152892 0.000000 0.000001 -0.007510 -0.130685 0.057571
    43 0.748464 0.000000 -0.000001 0.000000 -0.314159 -0.057080
  time 21
    0 2.639594 -9.878592 -3.336706 0.000000 0.000000 -0.000143
    1 0.000007 1.897310 0.730167 -1.062906 0.000000 0.000000
    2 2.642929 -11.538801 -1.894755 0.000000 0.000000 -0.000143
    3 2.638775 -10.296577 -3.420746 0.000000 0.000000 -0.000143
    4 2.177865 -10.981323 -2.636101 0.000000 0.000000 -0.000143
    5 2.639594 -9.878592 -3.336706 0.000000 0.000000 -0.000143
    6 3.396785 7.779389 1.548835 -3.141592 1.454463 -3.141592
    7 -0.023288 0.041601 -0.000001 -0.009904 -0.016463 -0.610675
    8 11.072353 -0.043445 0.000000 0.000000 0.000000 -1.315085
    9 8.108975 0.000000 0.000000 0.175574 -0.167413 0.221996
    10 0.758957 -0.993292 -0.533611 0.392406 0.687057 0.046279
    11 1.920299 0.000000 0.000000 0.000000 0.000000 0.882317
    12 0.858255 0.000000 0.000000 0.000000 0.000000 -0.069433
    13 2.931401 -0.842323 0.160553 -0.041260 0.291433 0.100517
    14 1.836086 0.000000 0.000000 0.000000 1.303315 0.000000
    15 0.853993 0.000000 0.000000 0.002756 0.113413 0.024347
    16 2.964058 -0.072899 0.178523 0.260482 1.290585 0.792160
    17 1.814737 0.000000 0.000000 -3.114505 1.333979 -3.136047
    18 0.982325 0.000000 0.000000 0.000000 0.062784 0.021736
    19 2.910364 0.632510 0.212797 0.525413 1.456608 1.079301
    20 1.751858 0.000000 0.000000 3.141589 1.501719 3.105026
    21 0.853993 0.000000 0.000000 0.000000 0.043633 0.000000
    22 2.899449 1.342927 0.078012 -2.409389 1.401894 -1.952022
    23 1.152892 0.000000 -0.000003 0.009195 0.623335 0.061976
    24 0.748462 0.000000 0.000000 0.000000 0.904936 -0.057080
    25 -7.722618 3.877546 0.545471 -3.141592 1.545689 -3.141732
    26 -0.023288 0.041601 0.000000 -0.481732 -0.593866 -0.287098
    27 11.072354 -0.043445 0.000001 0.000000 0.000000 -1.477378
    28 8.108975 0.000001 0.000000 -2.372222 0.810502 0.764879
    29 0.788882 0.969696 -0.533611 -2.647566 0.437954 0.465033
    30 1.920301 0.000001 0.000000 0.000000 0.000000 1.171019
    31 0.858249 0.000000 0.000000 0.000000 0.000000 -0.088906
    32 2.955714 0.752580 0.160552 -3.141592 1.050291 -0.015797
    33 1.836086 0.000000 0.000000 0.000000 -0.235620 0.000000
    34 0.853994 0.000000 0.000000 -0.002756 -0.113413 0.024347
    35 2.964905 -0.017483 0.178523 -3.141592 1.039020 -0.015797
    36 1.814736 -0.000001 0.000000 0.006645 -0.296634 -0.022729
    37 0.982325 0.000000 0.000000 0.000000 -0.095993 0.021736
    38 2.889732 -0.720928 0.212797 3.131715 0.913559 -0.059684
    39 1.751859 0.000001 0.000000 -0.156462 -0.620449 -0.008613
    40 0.853991 0.000000 0.000004 0.000000 -0.043633 0.000000
    41 2.857166 -1.430681 0.078012 3.141592 1.198598 -0.015797
    42 1.152892 0.000000 0.000001 -0.007510 -0.130685 0.057571
    43 0.748464 0.000000 -0.000001 0.000000 -0.314159 -0.057080
  time 22
    0 2.639594 -9.878592 -3.336706 0.000000 0.000000 -0.000143
    1 0.000007 1.897310 0.730167 -1.062906 0.000000 0.000000
    2 2.642929 -11.538801 -1.894755 0.000000 0.000000 -0.000143
    3 2.638775 -10.296577 -3.420746 0.000000 0.000000 -0.000143
    4 2.177865 -10.981323 -2.636101 0.000000 0.000000 -0.000143
    5 2.639594 -9.878592 -3.336706 0.000000 0.000000 -0.000143
    6 3.396785 7.779389 1.548835 -3.141592 1.454463 -3.141592
    7 -0.023288 0.041601 -0.000001 -0.009904 -0.016463 -0.610675
    8 11.072353 -0.043445 0.000000 0.000000 0.000000 -1.315085
    9 8.108975 0.000000 0.000000 0.175574 -0.167413 0.221996
    10 0.758957 -0.993292 -0.533611 0.392406 0.687057 0.046279
    11 1.920299 0.000000 0.000000 0.000000 0.000000 0.882317
    12 0.858255 0.000000 0.000000 0.000000 0.000000 -0.069433
    13 2.931401 -0.842323 0.160553 -0.041260 0.291433 0.100517
    14 1.836086 0.000000 0.000000 0.000000 1.303315 0.000000
    15 0.853993 0.000000 0.000000 0.002756 0.113413 0.024347
    16 2.964058 -0.072899 0.178523 0.260482 1.290585 0.792160
    17 1.814737 0.000000 0.000000 -3.114505 1.333979 -3.136047
    18 0.982325 0.000000 0.000000 0.000000 0.062784 0.021736
    19 2.910364 0.632510 0.212797 0.525413 1.456608 1.079301
    20 1.751858 0.000000 0.000000 3.141589 1.501719 3.105026
    21 0.853993 0.000000 0.000000 0.000000 0.043633 0.000000
    22 2.899449 1.342927 0.078012 -2.409389 1.401894 -1.952022
    23 1.152892 0.000000 -0.000003 0.009195 0.623335 0.061976
    24 0.748462 0.000000 0.000000 0.000000 0.904936 -0.057080
    25 -7.722618 3.877546 0.545471 -3.141592 1.545689 -3.141732
    26 -0.023288 0.041601 0.000000 -0.481732 -0.593866 -0.287098
    27 11.072354 -0.043445 0.000001 0.000000 0.000000 -1.477378
    28 8.108975 0.000001 0.000000 -2.372222 0.810502 0.764879
    29 0.788882 0.969696 -0.533611 -2.647566 0.437954 0.465033
    30 1.920301 0.000001 0.000000 0.000000 0.000000 1.171019
    31 0.858249 0.000000 0.000000 0.000000 0.000000 -0.088906
    32 2.955714 0.752580 0.160552 -3.141592 1.050291 -0.015797
    33 1.836086 0.000000 0.000000 0.000000 -0.235620 0.000000
    34 0.853994 0.000000 0.000000 -0.002756 -0.113413 0.024347
    35 2.964905 -0.017483 0.178523 -3.141592 1.039020 -0.015797
    36 1.814736 -0.000001 0.000000 0.006645 -0.296634 -0.022729
    37 0.982325 0.000000 0.000000 0.000000 -0.095993 0.021736
    38 2.889732 -0.720928 0.212797 3.131715 0.913559 -0.059684
    39 1.751859 0.000001 0.000000 -0.156462 -0.620449 -0.008613
    40 0.853991 0.000000 0.000004 0.000000 -0.043633 0.000000
    41 2.857166 -1.430681 0.078012 3.141592 1.198598 -0.015797
    42 1.152892 0.000000 0.000001 -0.007510 -0.130685 0.057571
    43 0.748464 0.000000 -0.000001 0.000000 -0.314159 -0.057080
  time 23
    0 2.639594 -9.878592 -3.336706 0.000000 0.000000 -0.000143
    1 0.000007 1.897310 0.730167 -1.062906 0.000000 0.000000
    2 2.642929 -11.538801 -1.894755 0.000000 0.000000 -0.000143
    3 2.638775 -10.296577 -3.420746 0.000000 0.000000 -0.000143
    4 2.177865 -10.981323 -2.636101 0.000000 0.000000 -0.000143
    5 2.639594 -9.878592 -3.336706 0.000000 0.000000 -0.000143
    6 3.396785 7.779389 1.548835 -3.141592 1.454463 -3.141592
    7 -0.023288 0.041601 -0.000001 -0.009904 -0.016463 -0.610675
    8 11.072353 -0.043445 0.000000 0.000000 0.000000 -1.315085
    9 8.108975 0.000000 0.000000 0.175574 -0.167413 0.221996
    10 0.758957 -0.993292 -0.533611 0.392406 0.687057 0.046279
    11 1.920299 0.000000 0.000000 0.000000 0.000000 0.882317
    12 0.858255 0.000000 0.000000 0.000000 0.000000 -0.069433
    13 2.931401 -0.842323 0.160553 -0.041260 0.291433 0.100517
    14 1.836086 0.000000 0.000000 0.000000 1.303315 0.000000
    15 0.853993 0.000000 0.000000 0.002756 0.113413 0.024347
    16 2.964058 -0.072899 0.178523 0.260482 1.290585 0.792160
    17 1.814737 0.000000 0.000000 -3.114505 1.333979 -3.136047
    18 0.982325 0.000000 0.000000 0.000000 0.062784 0.021736
    19 2.910364 0.632510 0.212797 0.525413 1.456608 1.079301
    20 1.751858 0.000000 0.000000 3.141589 1.501719 3.105026
    21 0.853993 0.000000 0.000000 0.000000 0.043633 0.000000
    22 2.899449 1.342927 0.078012 -2.409389 1.401894 -1.952022
    23 1.152892 0.000000 -0.000003 0.009195 0.623335 0.061976
    24 0.748462 0.000000 0.000000 0.000000 0.904936 -0.057080
    25 -7.722618 3.877546 0.545471 -3.141592 1.545689 -3.141732
    26 -0.023288 0.041601 0.000000 -0.481732 -0.593866 -0.287098
    27 11.072354 -0.043445 0.000001 0.000000 0.000000 -1.477378
    28 8.108975 0.000001 0.000000 -2.372222 0.810502 0.764879
    29 0.788882 0.969696 -0.533611 -2.647566 0.437954 0.465033
    30 1.920301 0.000001 0.000000 0.000000 0.000000 1.171019
    31 0.858249 0.000000 0.000000 0.000000 0.000000 -0.088906
    32 2.955714 0.752580 0.160552 -3.141592 1.050291 -0.015797
    33 1.836086 0.000000 0.000000 0.000000 -0.235620 0.000000
    34 0.853994 0.000000 0.000000 -0.002756 -0.113413 0.024347
    35 2.964905 -0.017483 0.178523 -3.141592 1.039020 -0.015797
    36 1.814736 -0.000001 0.000000 0.006645 -0.296634 -0.022729
    37 0.982325 0.000000 0.000000 0.000000 -0.095993 0.021736
    38 2.889732 -0.720928 0.212797 3.131715 0.913559 -0.059684
    39 1.751859 0.000001 0.000000 -0.156462 -0.620449 -0.008613
    40 0.853991 0.000000 0.000004 0.000000 -0.043633 0.000000
    41 2.857166 -1.430681 0.078012 3.141592 1.198598 -0.015797
    42 1.152892 0.000000 0.000001 -0.007510 -0.130685 0.057571
    43 0.748464 0.000000 -0.000001 0.000000 -0.314159 -0.057080
  time 24
    0 2.639594 -9.878592 -3.336706 0.000000 0.000000 -0.000143
    1 0.000007 1.897310 0.730167 -1.062906 0.000000 0.000000
    2 2.642929 -11.538801 -1.894755 0.000000 0.000000 -0.000143
    3 2.638775 -10.296577 -3.420746 0.000000 0.000000 -0.000143
    4 2.177865 -10.981323 -2.636101 0.000000 0.000000 -0.000143
    5 2.639594 -9.878592 -3.336706 0.000000 0.000000 -0.000143
    6 3.396785 7.779389 1.548835 -3.141592 1.454463 -3.141592
    7 -0.023288 0.041601 -0.000001 -0.009904 -0.016463 -0.610675
    8 11.072353 -0.043445 0.000000 0.000000 0.000000 -1.315085
    9 8.108975 0.000000 0.000000 0.175574 -0.167413 0.221996
    10 0.758957 -0.993292 -0.533611 0.392406 0.687057 0.046279
    11 1.920299 0.000000 0.000000 0.000000 0.000000 0.882317
    12 0.858255 0.000000 0.000000 0.000000 0.000000 -0.069433
    13 2.931401 -0.842323 0.160553 -0.041260 0.291433 0.100517
    14 1.836086 0.000000 0.000000 0.000000 1.303315 0.000000
    15 0.853993 0.000000 0.000000 0.002756 0.113413 0.024347
    16 2.964058 -0.072899 0.178523 0.260482 1.290585 0.792160
    17 1.814737 0.000000 0.000000 -3.114505 1.333979 -3.136047
    18 0.982325 0.000000 0.000000 0.000000 0.062784 0.021736
    19 2.910364 0.632510 0.212797 0.525413 1.456608 1.079301
    20 1.751858 0.000000 0.000000 3.141589 1.501719 3.105026
    21 0.853993 0.000000 0.000000 0.000000 0.043633 0.000000
    22 2.899449 1.342927 0.078012 -2.409389 1.401894 -1.952022
    23 1.152892 0.000000 -0.000003 0.009195 0.623335 0.061976
    24 0.748462 0.000000 0.000000 0.000000 0.904936 -0.057080
    25 -7.722618 3.877546 0.545471 -3.141592 1.545689 -3.141732
    26 -0.023288 0.041601 0.000000 -0.481732 -0.593866 -0.287098
    27 11.072354 -0.043445 0.000001 0.000000 0.000000 -1.477378
    28 8.108975 0.000001 0.000000 -2.372222 0.810502 0.764879
    29 0.788882 0.969696 -0.533611 -2.647566 0.437954 0.465033
    30 1.920301 0.000001 0.000000 0.000000 0.000000 1.171019
    31 0.858249 0.000000 0.000000 0.000000 0.000000 -0.088906
    32 2.955714 0.752580 0.160552 -3.141592 1.050291 -0.015797
    33 1.836086 0.000000 0.000000 0.000000 -0.235620 0.000000
    34 0.853994 0.000000 0.000000 -0.002756 -0.113413 0.024347
    35 2.964905 -0.017483 0.178523 -3.141592 1.039020 -0.015797
    36 1.814736 -0.000001 0.000000 0.006645 -0.296634 -0.022729
    37 0.982325 0.000000 0.000000 0.000000 -0.095993 0.021736
    38 2.889732 -0.720928 0.212797 3.131715 0.913559 -0.059684
    39 1.751859 0.000001 0.000000 -0.156462 -0.620449 -0.008613
    40 0.853991 0.000000 0.000004 0.000000 -0.043633 0.000000
    41 2.857166 -1.430681 0.078012 3.141592 1.198598 -0.015797
    42 1.152892 0.000000 0.000001 -0.007510 -0.130685 0.057571
    43 0.748464 0.000000 -0.000001 0.000000 -0.314159 -0.057080
end
