// Created by Crowbar 0.29.0.0
version 1
nodes
  0 "Body" -1
  1 "Hammer" 0
  2 "Detach" -1
  3 "Trigger" -1
  4 "Slide_lock" -1
  5 "Mag" -1
  6 "L_Armdummy" -1
  7 "L_Upperarm" 6
  8 "L_Forearm" 7
  9 "L_Wrist" 8
  10 "L_Thumb1" 9
  11 "L_Thumb2" 10
  12 "L_Thumb3" 11
  13 "L_Index1" 9
  14 "L_Index2" 13
  15 "L_Index3" 14
  16 "L_Mid1" 9
  17 "L_Mid2" 16
  18 "L_Mid3" 17
  19 "L_Ring1" 9
  20 "L_Ring2" 19
  21 "L_Ring3" 20
  22 "L_Pinky1" 9
  23 "L_Pinky2" 22
  24 "L_Pinky3" 23
  25 "R_Armdummy" -1
  26 "R_Upperarm" 25
  27 "R_Forearm" 26
  28 "R_Wrist" 27
  29 "R_Thumb1" 28
  30 "R_Thumb2" 29
  31 "R_Thumb3" 30
  32 "R_Index1" 28
  33 "R_Index2" 32
  34 "R_Index3" 33
  35 "R_Mid1" 28
  36 "R_Mid2" 35
  37 "R_Mid3" 36
  38 "R_Ring1" 28
  39 "R_Ring2" 38
  40 "R_Ring3" 39
  41 "R_Pinky1" 28
  42 "R_Pinky2" 41
  43 "R_Pinky3" 42
end
skeleton
  time 0
    0 2.639594 -9.878592 -3.336706 0.000000 0.000000 -0.000143
    1 0.000007 1.897310 0.730167 0.041241 0.000000 0.000000
    2 2.642929 -11.538801 -1.894755 0.000000 0.000000 -0.000143
    3 2.638775 -10.296577 -3.420746 0.000000 0.000000 -0.000143
    4 2.177865 -10.981323 -2.636101 0.000000 0.000000 -0.000143
    5 2.639594 -9.878592 -3.336706 0.000000 0.000000 -0.000143
    6 3.396785 7.779389 1.548835 -3.141592 1.454463 -3.141592
    7 -0.023288 0.041601 -0.000001 -0.009904 -0.016463 -0.610675
    8 11.072353 -0.043445 0.000000 0.000000 0.000000 -1.315085
    9 8.108975 0.000000 0.000000 0.175574 -0.167413 0.221996
    10 0.758957 -0.993292 -0.533611 0.392406 0.687057 0.046279
    11 1.920299 0.000000 0.000000 0.000000 0.000000 0.882317
    12 0.858255 0.000000 0.000000 0.000000 0.000000 -0.069433
    13 2.931401 -0.842323 0.160553 -0.041260 0.291433 0.100517
    14 1.836086 0.000000 0.000000 0.000000 1.303315 0.000000
    15 0.853993 0.000000 0.000000 0.002756 0.113413 0.024347
    16 2.964058 -0.072899 0.178523 0.260482 1.290585 0.792160
    17 1.814737 0.000000 0.000000 -3.114505 1.333979 -3.136047
    18 0.982325 0.000000 0.000000 0.000000 0.062784 0.021736
    19 2.910364 0.632510 0.212797 0.525413 1.456608 1.079301
    20 1.751858 0.000000 0.000000 3.141589 1.501719 3.105026
    21 0.853993 0.000000 0.000000 0.000000 0.043633 0.000000
    22 2.899449 1.342927 0.078012 -2.409389 1.401894 -1.952022
    23 1.152892 0.000000 -0.000003 0.009195 0.623335 0.061976
    24 0.748462 0.000000 0.000000 0.000000 0.904936 -0.057080
    25 -7.722618 3.877546 0.545471 -3.141592 1.545689 -3.141732
    26 -0.023288 0.041601 0.000000 -0.481732 -0.593866 -0.287098
    27 11.072354 -0.043445 0.000001 0.000000 0.000000 -1.477378
    28 8.108975 0.000001 0.000000 -2.372222 0.810502 0.764879
    29 0.788882 0.969696 -0.533611 -2.647566 0.437954 0.465033
    30 1.920301 0.000001 0.000000 0.000000 0.000000 1.171019
    31 0.858249 0.000000 0.000000 0.000000 0.000000 -0.088906
    32 2.955714 0.752580 0.160552 -3.141592 1.050291 -0.015797
    33 1.836086 0.000000 0.000000 0.000000 -0.235620 0.000000
    34 0.853994 0.000000 0.000000 -0.002756 -0.113413 0.024347
    35 2.964905 -0.017483 0.178523 -3.141592 1.039020 -0.015797
    36 1.814736 -0.000001 0.000000 0.006645 -0.296634 -0.022729
    37 0.982325 0.000000 0.000000 0.000000 -0.095993 0.021736
    38 2.889732 -0.720928 0.212797 3.131715 0.913559 -0.059684
    39 1.751859 0.000001 0.000000 -0.156462 -0.620449 -0.008613
    40 0.853991 0.000000 0.000004 0.000000 -0.043633 0.000000
    41 2.857166 -1.430681 0.078012 3.141592 1.198598 -0.015797
    42 1.152892 0.000000 0.000001 -0.007510 -0.130685 0.057571
    43 0.748464 0.000000 -0.000001 0.000000 -0.314159 -0.057080
  time 1
    0 2.639594 -8.206666 -3.078886 0.036519 0.000000 -0.000143
    1 0.000007 1.897310 0.730167 -1.062906 0.000000 0.000000
    2 2.642929 -9.120758 -1.668186 0.036519 0.000000 -0.000143
    3 2.638775 -8.241827 -3.166832 0.036519 0.000000 -0.000143
    4 2.177865 -9.340648 -2.421251 0.056058 0.000000 -0.000143
    5 2.639594 -8.206666 -3.078886 0.036519 0.000000 -0.000143
    6 3.396785 7.779389 1.548835 -3.141592 1.454463 -3.141592
    7 -0.023288 0.041601 -0.000001 -0.010946 -0.014626 -0.483446
    8 11.072353 -0.043445 0.000000 0.000000 0.000000 -1.595558
    9 8.108975 0.000000 0.000000 0.176773 -0.172307 0.411545
    10 0.758957 -0.993292 -0.533611 0.392406 0.687057 0.046279
    11 1.920299 0.000000 0.000000 0.000000 0.000000 0.882317
    12 0.858255 0.000000 0.000000 0.000000 0.000000 -0.069433
    13 2.931401 -0.842323 0.160553 -0.040014 0.482784 0.091409
    14 1.836086 0.000000 0.000000 3.141496 1.534651 3.141400
    15 0.853993 0.000000 0.000000 0.004290 0.883172 0.027343
    16 2.964058 -0.072899 0.178523 0.260482 1.290585 0.792160
    17 1.814737 0.000000 0.000000 -3.114505 1.333979 -3.136047
    18 0.982325 0.000000 0.000000 0.000000 0.062784 0.021736
    19 2.910364 0.632510 0.212797 0.525413 1.456608 1.079301
    20 1.751858 0.000000 0.000000 3.141589 1.501719 3.105026
    21 0.853993 0.000000 0.000000 0.000000 0.043633 0.000000
    22 2.899449 1.342927 0.078012 -2.409389 1.401894 -1.952022
    23 1.152892 0.000000 -0.000003 0.009195 0.623335 0.061976
    24 0.748462 0.000000 0.000000 0.000000 0.904936 -0.057080
    25 -7.722618 3.877546 0.545471 -3.141592 1.545689 -3.141732
    26 -0.023288 0.041601 0.000000 -0.596882 -0.621109 -0.118450
    27 11.072354 -0.043445 0.000001 0.000000 0.000000 -1.661774
    28 8.108975 0.000001 0.000000 -2.412500 0.894064 0.840050
    29 0.788882 0.969696 -0.533611 -2.647566 0.437954 0.465033
    30 1.920301 0.000001 0.000000 0.000000 0.000000 1.171019
    31 0.858249 0.000000 0.000000 0.000000 0.000000 -0.088906
    32 2.955714 0.752580 0.160552 -3.141592 1.050291 -0.015797
    33 1.836086 0.000000 0.000000 0.000000 -0.235620 0.000000
    34 0.853994 0.000000 0.000000 -0.002756 -0.113413 0.024347
    35 2.964905 -0.017483 0.178523 -3.141592 1.039020 -0.015797
    36 1.814736 -0.000001 0.000000 0.006645 -0.296634 -0.022729
    37 0.982325 0.000000 0.000000 0.000000 -0.095993 0.021736
    38 2.889732 -0.720928 0.212797 3.131715 0.913559 -0.059684
    39 1.751859 0.000001 0.000000 -0.156462 -0.620449 -0.008613
    40 0.853991 0.000000 0.000004 0.000000 -0.043633 0.000000
    41 2.857166 -1.430681 0.078012 3.141592 1.198598 -0.015797
    42 1.152892 0.000000 0.000001 -0.007510 -0.130685 0.057571
    43 0.748464 0.000000 -0.000001 0.000000 -0.314159 -0.057080
  time 2
    0 2.639594 -7.577740 -2.891380 0.006971 0.000000 -0.000143
    1 0.000007 1.897310 0.730167 -1.062906 0.000000 0.000000
    2 2.642929 -7.851188 -1.457242 0.006971 0.000000 -0.000143
    3 2.638775 -7.401958 -2.983233 0.006971 0.000000 -0.000143
    4 2.177865 -8.684378 -2.198588 0.046848 0.000000 -0.000143
    5 2.639594 -7.577740 -2.891380 0.006971 0.000000 -0.000143
    6 3.396785 7.779389 1.548835 -3.141592 1.454463 -3.141592
    7 -0.023288 0.041601 -0.000001 -0.011486 -0.014388 -0.439954
    8 11.072353 -0.043445 0.000000 0.000000 0.000000 -1.680488
    9 8.108975 0.000000 0.000000 0.175586 -0.169212 0.423819
    10 0.758957 -0.993292 -0.533611 0.392406 0.687057 0.046279
    11 1.920299 0.000000 0.000000 0.000000 0.000000 0.882317
    12 0.858255 0.000000 0.000000 0.000000 0.000000 -0.069433
    13 2.931401 -0.842323 0.160553 -0.039990 0.503191 0.090402
    14 1.836086 0.000000 0.000000 -3.141496 1.502282 3.141400
    15 0.853993 0.000000 0.000000 0.004781 0.965210 0.027954
    16 2.964058 -0.072899 0.178523 0.260482 1.290585 0.792160
    17 1.814737 0.000000 0.000000 -3.114505 1.333979 -3.136047
    18 0.982325 0.000000 0.000000 0.000000 0.062784 0.021736
    19 2.910364 0.632510 0.212797 0.525413 1.456608 1.079301
    20 1.751858 0.000000 0.000000 3.141589 1.501719 3.105026
    21 0.853993 0.000000 0.000000 0.000000 0.043633 0.000000
    22 2.899449 1.342927 0.078012 -2.409389 1.401894 -1.952022
    23 1.152892 0.000000 -0.000003 0.009195 0.623335 0.061976
    24 0.748462 0.000000 0.000000 0.000000 0.904936 -0.057080
    25 -7.722618 3.877546 0.545471 -3.141592 1.545689 -3.141732
    26 -0.023288 0.041601 0.000000 -0.634364 -0.630366 -0.050761
    27 11.072354 -0.043445 0.000001 0.000000 0.000000 -1.710981
    28 8.108975 0.000001 0.000000 -2.498490 0.913282 0.762438
    29 0.788882 0.969696 -0.533611 -2.647566 0.437954 0.465033
    30 1.920301 0.000001 0.000000 0.000000 0.000000 1.171019
    31 0.858249 0.000000 0.000000 0.000000 0.000000 -0.088906
    32 2.955714 0.752580 0.160552 -3.141592 1.050291 -0.015797
    33 1.836086 0.000000 0.000000 0.000000 -0.235620 0.000000
    34 0.853994 0.000000 0.000000 -0.002756 -0.113413 0.024347
    35 2.964905 -0.017483 0.178523 -3.141592 1.039020 -0.015797
    36 1.814736 -0.000001 0.000000 0.006645 -0.296634 -0.022729
    37 0.982325 0.000000 0.000000 0.000000 -0.095993 0.021736
    38 2.889732 -0.720928 0.212797 3.131715 0.913559 -0.059684
    39 1.751859 0.000001 0.000000 -0.156462 -0.620449 -0.008613
    40 0.853991 0.000000 0.000004 0.000000 -0.043633 0.000000
    41 2.857166 -1.430681 0.078012 3.141592 1.198598 -0.015797
    42 1.152892 0.000000 0.000001 -0.007510 -0.130685 0.057571
    43 0.748464 0.000000 -0.000001 0.000000 -0.314159 -0.057080
  time 3
    0 2.639594 -7.659774 -2.782002 -0.057050 0.000000 -0.000143
    1 0.000007 1.897310 0.730167 -1.062906 0.000000 0.000000
    2 2.642929 -7.819937 -1.332238 -0.057050 0.000000 -0.000143
    3 2.638775 -7.468366 -2.885573 -0.057050 0.000000 -0.000143
    4 2.177865 -8.719535 -2.018895 -0.017108 0.000000 -0.000143
    5 2.639594 -7.659774 -2.782002 -0.057050 0.000000 -0.000143
    6 3.396785 7.779389 1.548835 -3.141592 1.454463 -3.141592
    7 -0.023288 0.041601 -0.000001 -0.011797 -0.015148 -0.447504
    8 11.072353 -0.043445 0.000000 0.000000 0.000000 -1.649868
    9 8.108975 0.000000 0.000000 0.172926 -0.161932 0.337506
    10 0.758957 -0.993292 -0.533611 0.392406 0.687057 0.046279
    11 1.920299 0.000000 0.000000 0.000000 0.000000 0.882317
    12 0.858255 0.000000 0.000000 0.000000 0.000000 -0.069433
    13 2.931401 -0.842323 0.160553 -0.039990 0.505753 0.090246
    14 1.836086 0.000000 0.000000 -3.141496 1.498247 3.141400
    15 0.853993 0.000000 0.000000 0.004853 0.975550 0.028050
    16 2.964058 -0.072899 0.178523 0.260482 1.290585 0.792160
    17 1.814737 0.000000 0.000000 -3.114505 1.333979 -3.136047
    18 0.982325 0.000000 0.000000 0.000000 0.062784 0.021736
    19 2.910364 0.632510 0.212797 0.525413 1.456608 1.079301
    20 1.751858 0.000000 0.000000 3.141589 1.501719 3.105026
    21 0.853993 0.000000 0.000000 0.000000 0.043633 0.000000
    22 2.899449 1.342927 0.078012 -2.409389 1.401894 -1.952022
    23 1.152892 0.000000 -0.000003 0.009195 0.623335 0.061976
    24 0.748462 0.000000 0.000000 0.000000 0.904936 -0.057080
    25 -7.722618 3.877546 0.545471 -3.141592 1.545689 -3.141732
    26 -0.023288 0.041601 0.000000 -0.614476 -0.625594 -0.063681
    27 11.072354 -0.043445 0.000001 0.000000 0.000000 -1.684850
    28 8.108975 0.000001 0.000000 -2.569369 0.883947 0.643794
    29 0.788882 0.969696 -0.533611 -2.647566 0.437954 0.465033
    30 1.920301 0.000001 0.000000 0.000000 0.000000 1.171019
    31 0.858249 0.000000 0.000000 0.000000 0.000000 -0.088906
    32 2.955714 0.752580 0.160552 -3.141592 1.050291 -0.015797
    33 1.836086 0.000000 0.000000 0.000000 -0.235620 0.000000
    34 0.853994 0.000000 0.000000 -0.002756 -0.113413 0.024347
    35 2.964905 -0.017483 0.178523 -3.141592 1.039020 -0.015797
    36 1.814736 -0.000001 0.000000 0.006645 -0.296634 -0.022729
    37 0.982325 0.000000 0.000000 0.000000 -0.095993 0.021736
    38 2.889732 -0.720928 0.212797 3.131715 0.913559 -0.059684
    39 1.751859 0.000001 0.000000 -0.156462 -0.620449 -0.008613
    40 0.853991 0.000000 0.000004 0.000000 -0.043633 0.000000
    41 2.857166 -1.430681 0.078012 3.141592 1.198598 -0.015797
    42 1.152892 0.000000 0.000001 -0.007510 -0.130685 0.057571
    43 0.748464 0.000000 -0.000001 0.000000 -0.314159 -0.057080
  time 4
    0 2.639594 -7.745714 -2.731219 -0.093057 0.000000 -0.000143
    1 0.000007 1.897310 0.730167 -1.062906 0.000000 0.000000
    2 2.642929 -7.859001 -1.277549 -0.093057 0.000000 -0.000143
    3 2.638775 -7.644152 -2.838697 -0.093057 0.000000 -0.000143
    4 2.177865 -8.782037 -1.932955 -0.053212 0.000000 -0.000143
    5 2.639594 -7.745714 -2.731219 -0.093057 0.000000 -0.000143
    6 3.396785 7.779389 1.548835 -3.141592 1.454463 -3.141592
    7 -0.023288 0.041601 -0.000001 -0.011953 -0.015608 -0.455774
    8 11.072353 -0.043445 0.000000 0.000000 0.000000 -1.624272
    9 8.108975 0.000000 0.000000 0.171200 -0.157916 0.284566
    10 0.758957 -0.993292 -0.533611 0.392406 0.687057 0.046279
    11 1.920299 0.000000 0.000000 0.000000 0.000000 0.882317
    12 0.858255 0.000000 0.000000 0.000000 0.000000 -0.069433
    13 2.931401 -0.842323 0.160553 -0.040002 0.498068 0.090654
    14 1.836086 0.000000 0.000000 3.141496 1.510397 3.141400
    15 0.853993 0.000000 0.000000 0.004662 0.944740 0.027811
    16 2.964058 -0.072899 0.178523 0.260482 1.290585 0.792160
    17 1.814737 0.000000 0.000000 -3.114505 1.333979 -3.136047
    18 0.982325 0.000000 0.000000 0.000000 0.062784 0.021736
    19 2.910364 0.632510 0.212797 0.525413 1.456608 1.079301
    20 1.751858 0.000000 0.000000 3.141589 1.501719 3.105026
    21 0.853993 0.000000 0.000000 0.000000 0.043633 0.000000
    22 2.899449 1.342927 0.078012 -2.409389 1.401894 -1.952022
    23 1.152892 0.000000 -0.000003 0.009195 0.623335 0.061976
    24 0.748462 0.000000 0.000000 0.000000 0.904936 -0.057080
    25 -7.722618 3.877546 0.545471 -3.141592 1.545689 -3.141732
    26 -0.023288 0.041601 0.000000 -0.599723 -0.622045 -0.077199
    27 11.072354 -0.043445 0.000001 0.000000 0.000000 -1.664740
    28 8.108975 0.000001 0.000000 -2.600733 0.864051 0.582085
    29 0.788882 0.969696 -0.533611 -2.647566 0.437954 0.465033
    30 1.920301 0.000001 0.000000 0.000000 0.000000 1.171019
    31 0.858249 0.000000 0.000000 0.000000 0.000000 -0.088906
    32 2.955714 0.752580 0.160552 -3.141592 1.050291 -0.015797
    33 1.836086 0.000000 0.000000 0.000000 -0.235620 0.000000
    34 0.853994 0.000000 0.000000 -0.002756 -0.113413 0.024347
    35 2.964905 -0.017483 0.178523 -3.141592 1.039020 -0.015797
    36 1.814736 -0.000001 0.000000 0.006645 -0.296634 -0.022729
    37 0.982325 0.000000 0.000000 0.000000 -0.095993 0.021736
    38 2.889732 -0.720928 0.212797 3.131715 0.913559 -0.059684
    39 1.751859 0.000001 0.000000 -0.156462 -0.620449 -0.008613
    40 0.853991 0.000000 0.000004 0.000000 -0.043633 0.000000
    41 2.857166 -1.430681 0.078012 3.141592 1.198598 -0.015797
    42 1.152892 0.000000 0.000001 -0.007510 -0.130685 0.057571
    43 0.748464 0.000000 -0.000001 0.000000 -0.314159 -0.057080
  time 5
    0 2.639594 -7.913688 -2.742938 -0.109047 0.000000 -0.000143
    1 0.000007 1.897310 0.730167 -1.062906 0.000000 0.000000
    2 2.642929 -7.995724 -1.281455 -0.109047 0.000000 -0.000143
    3 2.638775 -7.901973 -2.830884 -0.109047 0.000000 -0.000143
    4 2.177865 -8.938292 -1.925142 -0.069137 0.000000 -0.000143
    5 2.639594 -7.913688 -2.742938 -0.109047 0.000000 -0.000143
    6 3.396785 7.779389 1.548835 -3.141592 1.454463 -3.141592
    7 -0.023288 0.041601 -0.000001 -0.011953 -0.015988 -0.468058
    8 11.072353 -0.043445 0.000000 0.000000 0.000000 -1.594172
    9 8.108975 0.000000 0.000000 0.170349 -0.156076 0.251071
    10 0.758957 -0.993292 -0.533611 0.392406 0.687057 0.046279
    11 1.920299 0.000000 0.000000 0.000000 0.000000 0.882317
    12 0.858255 0.000000 0.000000 0.000000 0.000000 -0.069433
    13 2.931401 -0.842323 0.160553 -0.040014 0.487895 0.091133
    14 1.836086 0.000000 0.000000 3.141496 1.526582 3.141400
    15 0.853993 0.000000 0.000000 0.004422 0.903668 0.027511
    16 2.964058 -0.072899 0.178523 0.260482 1.290585 0.792160
    17 1.814737 0.000000 0.000000 -3.114505 1.333979 -3.136047
    18 0.982325 0.000000 0.000000 0.000000 0.062784 0.021736
    19 2.910364 0.632510 0.212797 0.525413 1.456608 1.079301
    20 1.751858 0.000000 0.000000 3.141589 1.501719 3.105026
    21 0.853993 0.000000 0.000000 0.000000 0.043633 0.000000
    22 2.899449 1.342927 0.078012 -2.409389 1.401894 -1.952022
    23 1.152892 0.000000 -0.000003 0.009195 0.623335 0.061976
    24 0.748462 0.000000 0.000000 0.000000 0.904936 -0.057080
    25 -7.722618 3.877546 0.545471 -3.141592 1.545689 -3.141732
    26 -0.023288 0.041601 0.000000 -0.584679 -0.618466 -0.096543
    27 11.072354 -0.043445 0.000001 0.000000 0.000000 -1.643445
    28 8.108975 0.000001 0.000000 -2.603951 0.850674 0.558499
    29 0.788882 0.969696 -0.533611 -2.647566 0.437954 0.465033
    30 1.920301 0.000001 0.000000 0.000000 0.000000 1.171019
    31 0.858249 0.000000 0.000000 0.000000 0.000000 -0.088906
    32 2.955714 0.752580 0.160552 -3.141592 1.050291 -0.015797
    33 1.836086 0.000000 0.000000 0.000000 -0.235620 0.000000
    34 0.853994 0.000000 0.000000 -0.002756 -0.113413 0.024347
    35 2.964905 -0.017483 0.178523 -3.141592 1.039020 -0.015797
    36 1.814736 -0.000001 0.000000 0.006645 -0.296634 -0.022729
    37 0.982325 0.000000 0.000000 0.000000 -0.095993 0.021736
    38 2.889732 -0.720928 0.212797 3.131715 0.913559 -0.059684
    39 1.751859 0.000001 0.000000 -0.156462 -0.620449 -0.008613
    40 0.853991 0.000000 0.000004 0.000000 -0.043633 0.000000
    41 2.857166 -1.430681 0.078012 3.141592 1.198598 -0.015797
    42 1.152892 0.000000 0.000001 -0.007510 -0.130685 0.057571
    43 0.748464 0.000000 -0.000001 0.000000 -0.314159 -0.057080
  time 6
    0 2.639594 -8.128538 -2.797627 -0.109015 0.000000 -0.000143
    1 0.000007 1.897310 0.730167 -1.062906 0.000000 0.000000
    2 2.642929 -8.214480 -1.340051 -0.109015 0.000000 -0.000143
    3 2.638775 -8.179325 -2.881667 -0.109015 0.000000 -0.000143
    4 2.177865 -9.157048 -1.979831 -0.069073 0.000000 -0.000143
    5 2.639594 -8.128538 -2.797627 -0.109015 0.000000 -0.000143
    6 3.396785 7.779389 1.548835 -3.141592 1.454463 -3.141592
    7 -0.023288 0.041601 -0.000001 -0.011845 -0.016241 -0.483398
    8 11.072353 -0.043445 0.000000 0.000000 0.000000 -1.560347
    9 8.108975 0.000000 0.000000 0.170313 -0.155929 0.232675
    10 0.758957 -0.993292 -0.533611 0.392406 0.687057 0.046279
    11 1.920299 0.000000 0.000000 0.000000 0.000000 0.882317
    12 0.858255 0.000000 0.000000 0.000000 0.000000 -0.069433
    13 2.931401 -0.842323 0.160553 -0.040014 0.482784 0.091409
    14 1.836086 0.000000 0.000000 -3.141496 1.534651 3.141400
    15 0.853993 0.000000 0.000000 0.004290 0.883172 0.027343
    16 2.964058 -0.072899 0.178523 0.260482 1.290585 0.792160
    17 1.814737 0.000000 0.000000 -3.114505 1.333979 -3.136047
    18 0.982325 0.000000 0.000000 0.000000 0.062784 0.021736
    19 2.910364 0.632510 0.212797 0.525413 1.456608 1.079301
    20 1.751858 0.000000 0.000000 3.141589 1.501719 3.105026
    21 0.853993 0.000000 0.000000 0.000000 0.043633 0.000000
    22 2.899449 1.342927 0.078012 -2.409389 1.401894 -1.952022
    23 1.152892 0.000000 -0.000003 0.009195 0.623335 0.061976
    24 0.748462 0.000000 0.000000 0.000000 0.904936 -0.057080
    25 -7.722618 3.877546 0.545471 -3.141592 1.545689 -3.141732
    26 -0.023288 0.041601 0.000000 -0.569737 -0.614887 -0.119289
    27 11.072354 -0.043445 0.000001 0.000000 0.000000 -1.621704
    28 8.108975 0.000001 0.000000 -2.587721 0.842843 0.562520
    29 0.788882 0.969696 -0.533611 -2.647566 0.437954 0.465033
    30 1.920301 0.000001 0.000000 0.000000 0.000000 1.171019
    31 0.858249 0.000000 0.000000 0.000000 0.000000 -0.088906
    32 2.955714 0.752580 0.160552 -3.141592 1.050291 -0.015797
    33 1.836086 0.000000 0.000000 0.000000 -0.235620 0.000000
    34 0.853994 0.000000 0.000000 -0.002756 -0.113413 0.024347
    35 2.964905 -0.017483 0.178523 -3.141592 1.039020 -0.015797
    36 1.814736 -0.000001 0.000000 0.006645 -0.296634 -0.022729
    37 0.982325 0.000000 0.000000 0.000000 -0.095993 0.021736
    38 2.889732 -0.720928 0.212797 3.131715 0.913559 -0.059684
    39 1.751859 0.000001 0.000000 -0.156462 -0.620449 -0.008613
    40 0.853991 0.000000 0.000004 0.000000 -0.043633 0.000000
    41 2.857166 -1.430681 0.078012 3.141592 1.198598 -0.015797
    42 1.152892 0.000000 0.000001 -0.007510 -0.130685 0.057571
    43 0.748464 0.000000 -0.000001 0.000000 -0.314159 -0.057080
  time 7
    0 2.639594 -8.390265 -2.887474 -0.097183 0.000000 -0.000143
    1 0.000007 1.897310 0.730167 -1.062906 0.000000 0.000000
    2 2.642929 -8.495739 -1.425991 -0.097183 0.000000 -0.000143
    3 2.638775 -8.433239 -2.967607 -0.097183 0.000000 -0.000143
    4 2.177865 -9.414869 -2.081397 -0.057273 0.000000 -0.000143
    5 2.639594 -8.390265 -2.887474 -0.097183 0.000000 -0.000143
    6 3.396785 7.779389 1.548835 -3.141592 1.454463 -3.141592
    7 -0.023288 0.041601 -0.000001 -0.011665 -0.016383 -0.500632
    8 11.072353 -0.043445 0.000000 0.000000 0.000000 -1.524530
    9 8.108975 0.000000 0.000000 0.170876 -0.157038 0.225672
    10 0.758957 -0.993292 -0.533611 0.392406 0.687057 0.046279
    11 1.920299 0.000000 0.000000 0.000000 0.000000 0.882317
    12 0.858255 0.000000 0.000000 0.000000 0.000000 -0.069433
    13 2.931401 -0.842323 0.160553 -0.040014 0.482784 0.091409
    14 1.836086 0.000000 0.000000 3.141496 1.534651 3.141400
    15 0.853993 0.000000 0.000000 0.004302 0.883145 0.027343
    16 2.964058 -0.072899 0.178523 0.260482 1.290585 0.792160
    17 1.814737 0.000000 0.000000 -3.114505 1.333979 -3.136047
    18 0.982325 0.000000 0.000000 0.000000 0.062784 0.021736
    19 2.910364 0.632510 0.212797 0.525413 1.456608 1.079301
    20 1.751858 0.000000 0.000000 3.141589 1.501719 3.105026
    21 0.853993 0.000000 0.000000 0.000000 0.043633 0.000000
    22 2.899449 1.342927 0.078012 -2.409389 1.401894 -1.952022
    23 1.152892 0.000000 -0.000003 0.009195 0.623335 0.061976
    24 0.748462 0.000000 0.000000 0.000000 0.904936 -0.057080
    25 -7.722618 3.877546 0.545471 -3.141592 1.545689 -3.141732
    26 -0.023288 0.041601 0.000000 -0.555395 -0.611338 -0.143786
    27 11.072354 -0.043445 0.000001 0.000000 0.000000 -1.600349
    28 8.108975 0.000001 0.000000 -2.558477 0.838610 0.586357
    29 0.788882 0.969696 -0.533611 -2.647566 0.437954 0.465033
    30 1.920301 0.000001 0.000000 0.000000 0.000000 1.171019
    31 0.858249 0.000000 0.000000 0.000000 0.000000 -0.088906
    32 2.955714 0.752580 0.160552 -3.141592 1.050291 -0.015797
    33 1.836086 0.000000 0.000000 0.000000 -0.235620 0.000000
    34 0.853994 0.000000 0.000000 -0.002756 -0.113413 0.024347
    35 2.964905 -0.017483 0.178523 -3.141592 1.039020 -0.015797
    36 1.814736 -0.000001 0.000000 0.006645 -0.296634 -0.022729
    37 0.982325 0.000000 0.000000 0.000000 -0.095993 0.021736
    38 2.889732 -0.720928 0.212797 3.131715 0.913559 -0.059684
    39 1.751859 0.000001 0.000000 -0.156462 -0.620449 -0.008613
    40 0.853991 0.000000 0.000004 0.000000 -0.043633 0.000000
    41 2.857166 -1.430681 0.078012 3.141592 1.198598 -0.015797
    42 1.152892 0.000000 0.000001 -0.007510 -0.130685 0.057571
    43 0.748464 0.000000 -0.000001 0.000000 -0.314159 -0.057080
  time 8
    0 2.639594 -8.659804 -2.989040 -0.077804 0.000000 -0.000143
    1 0.000007 1.897310 0.730167 -1.062906 0.000000 0.000000
    2 2.642929 -8.796529 -1.531463 -0.077804 0.000000 -0.000143
    3 2.638775 -8.714498 -3.073079 -0.077804 0.000000 -0.000143
    4 2.177865 -9.707846 -2.210307 -0.037894 0.000000 -0.000143
    5 2.639594 -8.659804 -2.989040 -0.077804 0.000000 -0.000143
    6 3.396785 7.779389 1.548835 -3.141592 1.454463 -3.141592
    7 -0.023288 0.041601 -0.000001 -0.011450 -0.016542 -0.518921
    8 11.072353 -0.043445 0.000000 0.000000 0.000000 -1.487760
    9 8.108975 0.000000 0.000000 0.171775 -0.158941 0.226371
    10 0.758957 -0.993292 -0.533611 0.392406 0.687057 0.046279
    11 1.920299 0.000000 0.000000 0.000000 0.000000 0.882317
    12 0.858255 0.000000 0.000000 0.000000 0.000000 -0.069433
    13 2.931401 -0.842323 0.160553 -0.040074 0.460906 0.092463
    14 1.836086 0.000000 0.000000 3.141496 1.569442 3.141304
    15 0.853993 0.000000 0.000000 0.003907 0.795135 0.026816
    16 2.964058 -0.072899 0.178523 0.260482 1.290585 0.792160
    17 1.814737 0.000000 0.000000 -3.114505 1.333979 -3.136047
    18 0.982325 0.000000 0.000000 0.000000 0.062784 0.021736
    19 2.910364 0.632510 0.212797 0.525413 1.456608 1.079301
    20 1.751858 0.000000 0.000000 3.141589 1.501719 3.105026
    21 0.853993 0.000000 0.000000 0.000000 0.043633 0.000000
    22 2.899449 1.342927 0.078012 -2.409389 1.401894 -1.952022
    23 1.152892 0.000000 -0.000003 0.009195 0.623335 0.061976
    24 0.748462 0.000000 0.000000 0.000000 0.904936 -0.057080
    25 -7.722618 3.877546 0.545471 -3.141592 1.545689 -3.141732
    26 -0.023288 0.041601 0.000000 -0.541566 -0.608016 -0.169049
    27 11.072354 -0.043445 0.000001 0.000000 0.000000 -1.578875
    28 8.108975 0.000001 0.000000 -2.521512 0.835858 0.622040
    29 0.788882 0.969696 -0.533611 -2.647566 0.437954 0.465033
    30 1.920301 0.000001 0.000000 0.000000 0.000000 1.171019
    31 0.858249 0.000000 0.000000 0.000000 0.000000 -0.088906
    32 2.955714 0.752580 0.160552 -3.141592 1.050291 -0.015797
    33 1.836086 0.000000 0.000000 0.000000 -0.235620 0.000000
    34 0.853994 0.000000 0.000000 -0.002756 -0.113413 0.024347
    35 2.964905 -0.017483 0.178523 -3.141592 1.039020 -0.015797
    36 1.814736 -0.000001 0.000000 0.006645 -0.296634 -0.022729
    37 0.982325 0.000000 0.000000 0.000000 -0.095993 0.021736
    38 2.889732 -0.720928 0.212797 3.131715 0.913559 -0.059684
    39 1.751859 0.000001 0.000000 -0.156462 -0.620449 -0.008613
    40 0.853991 0.000000 0.000004 0.000000 -0.043633 0.000000
    41 2.857166 -1.430681 0.078012 3.141592 1.198598 -0.015797
    42 1.152892 0.000000 0.000001 -0.007510 -0.130685 0.057571
    43 0.748464 0.000000 -0.000001 0.000000 -0.314159 -0.057080
  time 9
    0 2.639594 -8.937157 -3.102324 -0.055067 0.000000 -0.000143
    1 0.000007 1.897310 0.730167 -1.062906 0.000000 0.000000
    2 2.642929 -9.093413 -1.648654 -0.055067 0.000000 -0.000143
    3 2.638775 -8.995756 -3.182457 -0.055067 0.000000 -0.000143
    4 2.177865 -9.996918 -2.339217 -0.015222 0.000000 -0.000143
    5 2.639594 -8.937157 -3.102324 -0.055067 0.000000 -0.000143
    6 3.396785 7.779389 1.548835 -3.141592 1.454463 -3.141592
    7 -0.023288 0.041601 -0.000001 -0.011162 -0.016621 -0.537233
    8 11.072353 -0.043445 0.000000 0.000000 0.000000 -1.451727
    9 8.108975 0.000000 0.000000 0.172830 -0.161263 0.231065
    10 0.758957 -0.993292 -0.533611 0.392406 0.687057 0.046279
    11 1.920299 0.000000 0.000000 0.000000 0.000000 0.882317
    12 0.858255 0.000000 0.000000 0.000000 0.000000 -0.069433
    13 2.931401 -0.842323 0.160553 -0.040133 0.437937 0.093602
    14 1.836086 0.000000 0.000000 0.000000 1.535683 0.000000
    15 0.853993 0.000000 0.000000 0.003583 0.702730 0.026324
    16 2.964058 -0.072899 0.178523 0.260482 1.290585 0.792160
    17 1.814737 0.000000 0.000000 -3.114505 1.333979 -3.136047
    18 0.982325 0.000000 0.000000 0.000000 0.062784 0.021736
    19 2.910364 0.632510 0.212797 0.525413 1.456608 1.079301
    20 1.751858 0.000000 0.000000 3.141589 1.501719 3.105026
    21 0.853993 0.000000 0.000000 0.000000 0.043633 0.000000
    22 2.899449 1.342927 0.078012 -2.409389 1.401894 -1.952022
    23 1.152892 0.000000 -0.000003 0.009195 0.623335 0.061976
    24 0.748462 0.000000 0.000000 0.000000 0.904936 -0.057080
    25 -7.722618 3.877546 0.545471 -3.141592 1.545689 -3.141732
    26 -0.023288 0.041601 0.000000 -0.528593 -0.604905 -0.193809
    27 11.072354 -0.043445 0.000001 0.000000 0.000000 -1.558083
    28 8.108975 0.000001 0.000000 -2.482188 0.833022 0.662605
    29 0.788882 0.969696 -0.533611 -2.647566 0.437954 0.465033
    30 1.920301 0.000001 0.000000 0.000000 0.000000 1.171019
    31 0.858249 0.000000 0.000000 0.000000 0.000000 -0.088906
    32 2.955714 0.752580 0.160552 -3.141592 1.050291 -0.015797
    33 1.836086 0.000000 0.000000 0.000000 -0.235620 0.000000
    34 0.853994 0.000000 0.000000 -0.002756 -0.113413 0.024347
    35 2.964905 -0.017483 0.178523 -3.141592 1.039020 -0.015797
    36 1.814736 -0.000001 0.000000 0.006645 -0.296634 -0.022729
    37 0.982325 0.000000 0.000000 0.000000 -0.095993 0.021736
    38 2.889732 -0.720928 0.212797 3.131715 0.913559 -0.059684
    39 1.751859 0.000001 0.000000 -0.156462 -0.620449 -0.008613
    40 0.853991 0.000000 0.000004 0.000000 -0.043633 0.000000
    41 2.857166 -1.430681 0.078012 3.141592 1.198598 -0.015797
    42 1.152892 0.000000 0.000001 -0.007510 -0.130685 0.057571
    43 0.748464 0.000000 -0.000001 0.000000 -0.314159 -0.057080
  time 10
    0 2.639594 -9.187164 -3.207796 -0.033162 0.000000 -0.000143
    1 0.000007 1.897310 0.730167 -1.062906 0.000000 0.000000
    2 2.642929 -9.374672 -1.754126 -0.033162 0.000000 -0.000143
    3 2.638775 -9.277015 -3.291836 -0.033162 0.000000 -0.000143
    4 2.177865 -10.258644 -2.472034 0.006652 0.000000 -0.000143
    5 2.639594 -9.187164 -3.207796 -0.033162 0.000000 -0.000143
    6 3.396785 7.779389 1.548835 -3.141592 1.454463 -3.141592
    7 -0.023288 0.041601 -0.000001 -0.010898 -0.016653 -0.554731
    8 11.072353 -0.043445 0.000000 0.000000 0.000000 -1.417512
    9 8.108975 0.000000 0.000000 0.173789 -0.163543 0.235865
    10 0.758957 -0.993292 -0.533611 0.392406 0.687057 0.046279
    11 1.920299 0.000000 0.000000 0.000000 0.000000 0.882317
    12 0.858255 0.000000 0.000000 0.000000 0.000000 -0.069433
    13 2.931401 -0.842323 0.160553 -0.040241 0.414147 0.094716
    14 1.836086 0.000000 0.000000 0.000000 1.497934 0.000000
    15 0.853993 0.000000 0.000000 0.003307 0.607010 0.025929
    16 2.964058 -0.072899 0.178523 0.260482 1.290585 0.792160
    17 1.814737 0.000000 0.000000 -3.114505 1.333979 -3.136047
    18 0.982325 0.000000 0.000000 0.000000 0.062784 0.021736
    19 2.910364 0.632510 0.212797 0.525413 1.456608 1.079301
    20 1.751858 0.000000 0.000000 3.141589 1.501719 3.105026
    21 0.853993 0.000000 0.000000 0.000000 0.043633 0.000000
    22 2.899449 1.342927 0.078012 -2.409389 1.401894 -1.952022
    23 1.152892 0.000000 -0.000003 0.009195 0.623335 0.061976
    24 0.748462 0.000000 0.000000 0.000000 0.904936 -0.057080
    25 -7.722618 3.877546 0.545471 -3.141592 1.545689 -3.141732
    26 -0.023288 0.041601 0.000000 -0.516749 -0.602081 -0.216736
    27 11.072354 -0.043445 0.000001 0.000000 0.000000 -1.538567
    28 8.108975 0.000001 0.000000 -2.445676 0.829424 0.700800
    29 0.788882 0.969696 -0.533611 -2.647566 0.437954 0.465033
    30 1.920301 0.000001 0.000000 0.000000 0.000000 1.171019
    31 0.858249 0.000000 0.000000 0.000000 0.000000 -0.088906
    32 2.955714 0.752580 0.160552 -3.141592 1.050291 -0.015797
    33 1.836086 0.000000 0.000000 0.000000 -0.235620 0.000000
    34 0.853994 0.000000 0.000000 -0.002756 -0.113413 0.024347
    35 2.964905 -0.017483 0.178523 -3.141592 1.039020 -0.015797
    36 1.814736 -0.000001 0.000000 0.006645 -0.296634 -0.022729
    37 0.982325 0.000000 0.000000 0.000000 -0.095993 0.021736
    38 2.889732 -0.720928 0.212797 3.131715 0.913559 -0.059684
    39 1.751859 0.000001 0.000000 -0.156462 -0.620449 -0.008613
    40 0.853991 0.000000 0.000004 0.000000 -0.043633 0.000000
    41 2.857166 -1.430681 0.078012 3.141592 1.198598 -0.015797
    42 1.152892 0.000000 0.000001 -0.007510 -0.130685 0.057571
    43 0.748464 0.000000 -0.000001 0.000000 -0.314159 -0.057080
  time 11
    0 2.639594 -9.390295 -3.285924 -0.016245 0.000000 -0.000143
    1 0.000007 1.897310 0.730167 -1.062906 0.000000 0.000000
    2 2.642929 -9.616867 -1.840066 -0.016245 0.000000 -0.000143
    3 2.638775 -9.527022 -3.369963 -0.016245 0.000000 -0.000143
    4 2.177865 -10.481307 -2.569693 0.023440 0.000000 -0.000143
    5 2.639594 -9.390295 -3.285924 -0.016245 0.000000 -0.000143
    6 3.396785 7.779389 1.548835 -3.141592 1.454463 -3.141592
    7 -0.023288 0.041601 -0.000001 -0.010695 -0.016732 -0.569843
    8 11.072353 -0.043445 0.000000 0.000000 0.000000 -1.387758
    9 8.108975 0.000000 0.000000 0.174496 -0.165300 0.237855
    10 0.758957 -0.993292 -0.533611 0.392406 0.687057 0.046279
    11 1.920299 0.000000 0.000000 0.000000 0.000000 0.882317
    12 0.858255 0.000000 0.000000 0.000000 0.000000 -0.069433
    13 2.931401 -0.842323 0.160553 -0.040385 0.389756 0.095915
    14 1.836086 0.000000 0.000000 0.000000 1.459288 0.000000
    15 0.853993 0.000000 0.000000 0.003128 0.508975 0.025533
    16 2.964058 -0.072899 0.178523 0.260482 1.290585 0.792160
    17 1.814737 0.000000 0.000000 -3.114505 1.333979 -3.136047
    18 0.982325 0.000000 0.000000 0.000000 0.062784 0.021736
    19 2.910364 0.632510 0.212797 0.525413 1.456608 1.079301
    20 1.751858 0.000000 0.000000 3.141589 1.501719 3.105026
    21 0.853993 0.000000 0.000000 0.000000 0.043633 0.000000
    22 2.899449 1.342927 0.078012 -2.409389 1.401894 -1.952022
    23 1.152892 0.000000 -0.000003 0.009195 0.623335 0.061976
    24 0.748462 0.000000 0.000000 0.000000 0.904936 -0.057080
    25 -7.722618 3.877546 0.545471 -3.141592 1.545689 -3.141732
    26 -0.023288 0.041601 0.000000 -0.506480 -0.599665 -0.236271
    27 11.072354 -0.043445 0.000001 0.000000 0.000000 -1.521127
    28 8.108975 0.000001 0.000000 -2.417362 0.825021 0.729376
    29 0.788882 0.969696 -0.533611 -2.647566 0.437954 0.465033
    30 1.920301 0.000001 0.000000 0.000000 0.000000 1.171019
    31 0.858249 0.000000 0.000000 0.000000 0.000000 -0.088906
    32 2.955714 0.752580 0.160552 -3.141592 1.050291 -0.015797
    33 1.836086 0.000000 0.000000 0.000000 -0.235620 0.000000
    34 0.853994 0.000000 0.000000 -0.002756 -0.113413 0.024347
    35 2.964905 -0.017483 0.178523 -3.141592 1.039020 -0.015797
    36 1.814736 -0.000001 0.000000 0.006645 -0.296634 -0.022729
    37 0.982325 0.000000 0.000000 0.000000 -0.095993 0.021736
    38 2.889732 -0.720928 0.212797 3.131715 0.913559 -0.059684
    39 1.751859 0.000001 0.000000 -0.156462 -0.620449 -0.008613
    40 0.853991 0.000000 0.000004 0.000000 -0.043633 0.000000
    41 2.857166 -1.430681 0.078012 3.141592 1.198598 -0.015797
    42 1.152892 0.000000 0.000001 -0.007510 -0.130685 0.057571
    43 0.748464 0.000000 -0.000001 0.000000 -0.314159 -0.057080
  time 12
    0 2.639594 -9.550457 -3.336706 -0.008634 0.000000 -0.000143
    1 0.000007 1.897310 0.730167 -1.062906 0.000000 0.000000
    2 2.642929 -9.777028 -1.890849 -0.008634 0.000000 -0.000143
    3 2.638775 -9.741873 -3.420746 -0.008634 0.000000 -0.000143
    4 2.177865 -10.641469 -2.624382 0.031051 0.000000 -0.000143
    5 2.639594 -9.550457 -3.336706 -0.008634 0.000000 -0.000143
    6 3.396785 7.779389 1.548835 -3.141592 1.454463 -3.141592
    7 -0.023288 0.041601 -0.000001 -0.010527 -0.016811 -0.581360
    8 11.072353 -0.043445 0.000000 0.000000 0.000000 -1.364328
    9 8.108975 0.000000 0.000000 0.174783 -0.166095 0.233465
    10 0.758957 -0.993292 -0.533611 0.392406 0.687057 0.046279
    11 1.920299 0.000000 0.000000 0.000000 0.000000 0.882317
    12 0.858255 0.000000 0.000000 0.000000 0.000000 -0.069433
    13 2.931401 -0.842323 0.160553 -0.040589 0.365059 0.097053
    14 1.836086 0.000000 0.000000 0.000000 1.420059 0.000000
    15 0.853993 0.000000 0.000000 0.002984 0.409545 0.025222
    16 2.964058 -0.072899 0.178523 0.260482 1.290585 0.792160
    17 1.814737 0.000000 0.000000 -3.114505 1.333979 -3.136047
    18 0.982325 0.000000 0.000000 0.000000 0.062784 0.021736
    19 2.910364 0.632510 0.212797 0.525413 1.456608 1.079301
    20 1.751858 0.000000 0.000000 3.141589 1.501719 3.105026
    21 0.853993 0.000000 0.000000 0.000000 0.043633 0.000000
    22 2.899449 1.342927 0.078012 -2.409389 1.401894 -1.952022
    23 1.152892 0.000000 -0.000003 0.009195 0.623335 0.061976
    24 0.748462 0.000000 0.000000 0.000000 0.904936 -0.057080
    25 -7.722618 3.877546 0.545471 -3.141592 1.545689 -3.141732
    26 -0.023288 0.041601 0.000000 -0.498162 -0.597747 -0.250868
    27 11.072354 -0.043445 0.000001 0.000000 0.000000 -1.506682
    28 8.108975 0.000001 0.000000 -2.402157 0.820280 0.741330
    29 0.788882 0.969696 -0.533611 -2.647566 0.437954 0.465033
    30 1.920301 0.000001 0.000000 0.000000 0.000000 1.171019
    31 0.858249 0.000000 0.000000 0.000000 0.000000 -0.088906
    32 2.955714 0.752580 0.160552 -3.141592 1.050291 -0.015797
    33 1.836086 0.000000 0.000000 0.000000 -0.235620 0.000000
    34 0.853994 0.000000 0.000000 -0.002756 -0.113413 0.024347
    35 2.964905 -0.017483 0.178523 -3.141592 1.039020 -0.015797
    36 1.814736 -0.000001 0.000000 0.006645 -0.296634 -0.022729
    37 0.982325 0.000000 0.000000 0.000000 -0.095993 0.021736
    38 2.889732 -0.720928 0.212797 3.131715 0.913559 -0.059684
    39 1.751859 0.000001 0.000000 -0.156462 -0.620449 -0.008613
    40 0.853991 0.000000 0.000004 0.000000 -0.043633 0.000000
    41 2.857166 -1.430681 0.078012 3.141592 1.198598 -0.015797
    42 1.152892 0.000000 0.000001 -0.007510 -0.130685 0.057571
    43 0.748464 0.000000 -0.000001 0.000000 -0.314159 -0.057080
  time 13
    0 2.639594 -9.659835 -3.364051 -0.007131 0.000000 -0.000143
    1 0.000007 1.897310 0.730167 -1.062906 0.000000 0.000000
    2 2.642929 -9.898126 -1.914287 -0.007131 0.000000 -0.000143
    3 2.638775 -9.905940 -3.444184 -0.007131 0.000000 -0.000143
    4 2.177865 -10.750847 -2.651727 0.032554 0.000000 -0.000143
    5 2.639594 -9.659835 -3.364051 -0.007131 0.000000 -0.000143
    6 3.396785 7.779389 1.548835 -3.141592 1.454463 -3.141592
    7 -0.023288 0.041601 -0.000001 -0.010395 -0.016843 -0.590325
    8 11.072353 -0.043445 0.000000 0.000000 0.000000 -1.345488
    9 8.108975 0.000000 0.000000 0.174867 -0.166220 0.225034
    10 0.758957 -0.993292 -0.533611 0.392406 0.687057 0.046279
    11 1.920299 0.000000 0.000000 0.000000 0.000000 0.882317
    12 0.858255 0.000000 0.000000 0.000000 0.000000 -0.069433
    13 2.931401 -0.842323 0.160553 -0.040793 0.340264 0.098252
    14 1.836086 0.000000 0.000000 0.000000 1.380696 0.000000
    15 0.853993 0.000000 0.000000 0.002864 0.309852 0.024886
    16 2.964058 -0.072899 0.178523 0.260482 1.290585 0.792160
    17 1.814737 0.000000 0.000000 -3.114505 1.333979 -3.136047
    18 0.982325 0.000000 0.000000 0.000000 0.062784 0.021736
    19 2.910364 0.632510 0.212797 0.525413 1.456608 1.079301
    20 1.751858 0.000000 0.000000 3.141589 1.501719 3.105026
    21 0.853993 0.000000 0.000000 0.000000 0.043633 0.000000
    22 2.899449 1.342927 0.078012 -2.409389 1.401894 -1.952022
    23 1.152892 0.000000 -0.000003 0.009195 0.623335 0.061976
    24 0.748462 0.000000 0.000000 0.000000 0.904936 -0.057080
    25 -7.722618 3.877546 0.545471 -3.141592 1.545689 -3.141732
    26 -0.023288 0.041601 0.000000 -0.491590 -0.596222 -0.261666
    27 11.072354 -0.043445 0.000001 0.000000 0.000000 -1.494966
    28 8.108975 0.000001 0.000000 -2.395626 0.815962 0.742586
    29 0.788882 0.969696 -0.533611 -2.647566 0.437954 0.465033
    30 1.920301 0.000001 0.000000 0.000000 0.000000 1.171019
    31 0.858249 0.000000 0.000000 0.000000 0.000000 -0.088906
    32 2.955714 0.752580 0.160552 -3.141592 1.050291 -0.015797
    33 1.836086 0.000000 0.000000 0.000000 -0.235620 0.000000
    34 0.853994 0.000000 0.000000 -0.002756 -0.113413 0.024347
    35 2.964905 -0.017483 0.178523 -3.141592 1.039020 -0.015797
    36 1.814736 -0.000001 0.000000 0.006645 -0.296634 -0.022729
    37 0.982325 0.000000 0.000000 0.000000 -0.095993 0.021736
    38 2.889732 -0.720928 0.212797 3.131715 0.913559 -0.059684
    39 1.751859 0.000001 0.000000 -0.156462 -0.620449 -0.008613
    40 0.853991 0.000000 0.000004 0.000000 -0.043633 0.000000
    41 2.857166 -1.430681 0.078012 3.141592 1.198598 -0.015797
    42 1.152892 0.000000 0.000001 -0.007510 -0.130685 0.057571
    43 0.748464 0.000000 -0.000001 0.000000 -0.314159 -0.057080
  time 14
    0 2.639594 -9.753588 -3.379676 -0.005756 0.000000 -0.000143
    1 0.000007 1.897310 0.730167 -1.062906 0.000000 0.000000
    2 2.642929 -9.991878 -1.933819 -0.005756 0.000000 -0.000143
    3 2.638775 -10.081727 -3.463716 -0.005756 0.000000 -0.000143
    4 2.177865 -10.848506 -2.675165 0.033929 0.000000 -0.000143
    5 2.639594 -9.753588 -3.379676 -0.005756 0.000000 -0.000143
    6 3.396785 7.779389 1.548835 -3.141592 1.454463 -3.141592
    7 -0.023288 0.041601 -0.000001 -0.010287 -0.016938 -0.597803
    8 11.072353 -0.043445 0.000000 0.000000 0.000000 -1.329983
    9 8.108975 0.000000 0.000000 0.174939 -0.166367 0.218411
    10 0.758957 -0.993292 -0.533611 0.392406 0.687057 0.046279
    11 1.920299 0.000000 0.000000 0.000000 0.000000 0.882317
    12 0.858255 0.000000 0.000000 0.000000 0.000000 -0.069433
    13 2.931401 -0.842323 0.160553 -0.041008 0.315640 0.099390
    14 1.836086 0.000000 0.000000 0.000000 1.341692 0.000000
    15 0.853993 0.000000 0.000000 0.002792 0.210791 0.024611
    16 2.964058 -0.072899 0.178523 0.260482 1.290585 0.792160
    17 1.814737 0.000000 0.000000 -3.114505 1.333979 -3.136047
    18 0.982325 0.000000 0.000000 0.000000 0.062784 0.021736
    19 2.910364 0.632510 0.212797 0.525413 1.456608 1.079301
    20 1.751858 0.000000 0.000000 3.141589 1.501719 3.105026
    21 0.853993 0.000000 0.000000 0.000000 0.043633 0.000000
    22 2.899449 1.342927 0.078012 -2.409389 1.401894 -1.952022
    23 1.152892 0.000000 -0.000003 0.009195 0.623335 0.061976
    24 0.748462 0.000000 0.000000 0.000000 0.904936 -0.057080
    25 -7.722618 3.877546 0.545471 -3.141592 1.545689 -3.141732
    26 -0.023288 0.041601 0.000000 -0.486096 -0.594953 -0.270846
    27 11.072354 -0.043445 0.000001 0.000000 0.000000 -1.485090
    28 8.108975 0.000001 0.000000 -2.389978 0.812449 0.743950
    29 0.788882 0.969696 -0.533611 -2.647566 0.437954 0.465033
    30 1.920301 0.000001 0.000000 0.000000 0.000000 1.171019
    31 0.858249 0.000000 0.000000 0.000000 0.000000 -0.088906
    32 2.955714 0.752580 0.160552 -3.141592 1.050291 -0.015797
    33 1.836086 0.000000 0.000000 0.000000 -0.235620 0.000000
    34 0.853994 0.000000 0.000000 -0.002756 -0.113413 0.024347
    35 2.964905 -0.017483 0.178523 -3.141592 1.039020 -0.015797
    36 1.814736 -0.000001 0.000000 0.006645 -0.296634 -0.022729
    37 0.982325 0.000000 0.000000 0.000000 -0.095993 0.021736
    38 2.889732 -0.720928 0.212797 3.131715 0.913559 -0.059684
    39 1.751859 0.000001 0.000000 -0.156462 -0.620449 -0.008613
    40 0.853991 0.000000 0.000004 0.000000 -0.043633 0.000000
    41 2.857166 -1.430681 0.078012 3.141592 1.198598 -0.015797
    42 1.152892 0.000000 0.000001 -0.007510 -0.130685 0.057571
    43 0.748464 0.000000 -0.000001 0.000000 -0.314159 -0.057080
  time 15
    0 2.639594 -9.823902 -3.395302 -0.004605 0.000000 -0.000143
    1 0.000007 1.897310 0.730167 -1.062906 0.000000 0.000000
    2 2.642929 -10.062193 -1.953351 -0.004605 0.000000 -0.000143
    3 2.638775 -10.241888 -3.475435 -0.004605 0.000000 -0.000143
    4 2.177865 -10.930540 -2.686884 0.035144 0.000000 -0.000143
    5 2.639594 -9.823902 -3.395302 -0.004605 0.000000 -0.000143
    6 3.396785 7.779389 1.548835 -3.141592 1.454463 -3.141592
    7 -0.023288 0.041601 -0.000001 -0.010191 -0.016938 -0.604023
    8 11.072353 -0.043445 0.000000 0.000000 0.000000 -1.317467
    9 8.108975 0.000000 0.000000 0.175023 -0.166492 0.213322
    10 0.758957 -0.993292 -0.533611 0.392406 0.687057 0.046279
    11 1.920299 0.000000 0.000000 0.000000 0.000000 0.882317
    12 0.858255 0.000000 0.000000 0.000000 0.000000 -0.069433
    13 2.931401 -0.842323 0.160553 -0.041260 0.291433 0.100517
    14 1.836086 0.000000 0.000000 0.000000 1.303315 0.000000
    15 0.853993 0.000000 0.000000 0.002756 0.113413 0.024347
    16 2.964058 -0.072899 0.178523 0.260482 1.290585 0.792160
    17 1.814737 0.000000 0.000000 -3.114505 1.333979 -3.136047
    18 0.982325 0.000000 0.000000 0.000000 0.062784 0.021736
    19 2.910364 0.632510 0.212797 0.525413 1.456608 1.079301
    20 1.751858 0.000000 0.000000 3.141589 1.501719 3.105026
    21 0.853993 0.000000 0.000000 0.000000 0.043633 0.000000
    22 2.899449 1.342927 0.078012 -2.409389 1.401894 -1.952022
    23 1.152892 0.000000 -0.000003 0.009195 0.623335 0.061976
    24 0.748462 0.000000 0.000000 0.000000 0.904936 -0.057080
    25 -7.722618 3.877546 0.545471 -3.141592 1.545689 -3.141732
    26 -0.023288 0.041601 0.000000 -0.481766 -0.593972 -0.278433
    27 11.072354 -0.043445 0.000001 0.000000 0.000000 -1.477141
    28 8.108975 0.000001 0.000000 -2.385235 0.809613 0.745458
    29 0.788882 0.969696 -0.533611 -2.647566 0.437954 0.465033
    30 1.920301 0.000001 0.000000 0.000000 0.000000 1.171019
    31 0.858249 0.000000 0.000000 0.000000 0.000000 -0.088906
    32 2.955714 0.752580 0.160552 -3.141592 1.050291 -0.015797
    33 1.836086 0.000000 0.000000 0.000000 -0.235620 0.000000
    34 0.853994 0.000000 0.000000 -0.002756 -0.113413 0.024347
    35 2.964905 -0.017483 0.178523 -3.141592 1.039020 -0.015797
    36 1.814736 -0.000001 0.000000 0.006645 -0.296634 -0.022729
    37 0.982325 0.000000 0.000000 0.000000 -0.095993 0.021736
    38 2.889732 -0.720928 0.212797 3.131715 0.913559 -0.059684
    39 1.751859 0.000001 0.000000 -0.156462 -0.620449 -0.008613
    40 0.853991 0.000000 0.000004 0.000000 -0.043633 0.000000
    41 2.857166 -1.430681 0.078012 3.141592 1.198598 -0.015797
    42 1.152892 0.000000 0.000001 -0.007510 -0.130685 0.057571
    43 0.748464 0.000000 -0.000001 0.000000 -0.314159 -0.057080
  time 16
    0 2.639594 -9.886404 -3.399208 -0.003518 0.000000 -0.000143
    1 0.000007 1.897310 0.730167 -1.062906 0.000000 0.000000
    2 2.642929 -10.124695 -1.957257 -0.003518 0.000000 -0.000143
    3 2.638775 -10.300483 -3.483248 -0.003518 0.000000 -0.000143
    4 2.177865 -10.993042 -2.694697 0.036296 0.000000 -0.000143
    5 2.639594 -9.886404 -3.399208 -0.003518 0.000000 -0.000143
    6 3.396785 7.779389 1.548835 -3.141592 1.454463 -3.141592
    7 -0.023288 0.041601 -0.000001 -0.010107 -0.016938 -0.608961
    8 11.072353 -0.043445 0.000000 0.000000 0.000000 -1.307982
    9 8.108975 0.000000 0.000000 0.175119 -0.166618 0.209752
    10 0.758957 -0.993292 -0.533611 0.392406 0.687057 0.046279
    11 1.920299 0.000000 0.000000 0.000000 0.000000 0.882317
    12 0.858255 0.000000 0.000000 0.000000 0.000000 -0.069433
    13 2.931401 -0.842323 0.160553 -0.041260 0.291433 0.100517
    14 1.836086 0.000000 0.000000 0.000000 1.303315 0.000000
    15 0.853993 0.000000 0.000000 0.002756 0.113413 0.024347
    16 2.964058 -0.072899 0.178523 0.260482 1.290585 0.792160
    17 1.814737 0.000000 0.000000 -3.114505 1.333979 -3.136047
    18 0.982325 0.000000 0.000000 0.000000 0.062784 0.021736
    19 2.910364 0.632510 0.212797 0.525413 1.456608 1.079301
    20 1.751858 0.000000 0.000000 3.141589 1.501719 3.105026
    21 0.853993 0.000000 0.000000 0.000000 0.043633 0.000000
    22 2.899449 1.342927 0.078012 -2.409389 1.401894 -1.952022
    23 1.152892 0.000000 -0.000003 0.009195 0.623335 0.061976
    24 0.748462 0.000000 0.000000 0.000000 0.904936 -0.057080
    25 -7.722618 3.877546 0.545471 -3.141592 1.545689 -3.141732
    26 -0.023288 0.041601 0.000000 -0.478497 -0.593232 -0.284413
    27 11.072354 -0.043445 0.000001 0.000000 0.000000 -1.471149
    28 8.108975 0.000001 0.000000 -2.381279 0.807581 0.747181
    29 0.788882 0.969696 -0.533611 -2.647566 0.437954 0.465033
    30 1.920301 0.000001 0.000000 0.000000 0.000000 1.171019
    31 0.858249 0.000000 0.000000 0.000000 0.000000 -0.088906
    32 2.955714 0.752580 0.160552 -3.141592 1.050291 -0.015797
    33 1.836086 0.000000 0.000000 0.000000 -0.235620 0.000000
    34 0.853994 0.000000 0.000000 -0.002756 -0.113413 0.024347
    35 2.964905 -0.017483 0.178523 -3.141592 1.039020 -0.015797
    36 1.814736 -0.000001 0.000000 0.006645 -0.296634 -0.022729
    37 0.982325 0.000000 0.000000 0.000000 -0.095993 0.021736
    38 2.889732 -0.720928 0.212797 3.131715 0.913559 -0.059684
    39 1.751859 0.000001 0.000000 -0.156462 -0.620449 -0.008613
    40 0.853991 0.000000 0.000004 0.000000 -0.043633 0.000000
    41 2.857166 -1.430681 0.078012 3.141592 1.198598 -0.015797
    42 1.152892 0.000000 0.000001 -0.007510 -0.130685 0.057571
    43 0.748464 0.000000 -0.000001 0.000000 -0.314159 -0.057080
  time 17
    0 2.639594 -9.933281 -3.407021 -0.002526 0.000000 -0.000143
    1 0.000007 1.897310 0.730167 -1.062906 0.000000 0.000000
    2 2.642929 -10.175478 -1.965070 -0.002526 0.000000 -0.000143
    3 2.638775 -10.339547 -3.487154 -0.002526 0.000000 -0.000143
    4 2.177865 -11.032105 -2.698603 0.037255 0.000000 -0.000143
    5 2.639594 -9.933281 -3.407021 -0.002526 0.000000 -0.000143
    6 3.396785 7.779389 1.548835 -3.141592 1.454463 -3.141592
    7 -0.023288 0.041601 -0.000001 -0.010060 -0.016938 -0.612532
    8 11.072353 -0.043445 0.000000 0.000000 0.000000 -1.301529
    9 8.108975 0.000000 0.000000 0.175203 -0.166764 0.207823
    10 0.758957 -0.993292 -0.533611 0.392406 0.687057 0.046279
    11 1.920299 0.000000 0.000000 0.000000 0.000000 0.882317
    12 0.858255 0.000000 0.000000 0.000000 0.000000 -0.069433
    13 2.931401 -0.842323 0.160553 -0.041260 0.291433 0.100517
    14 1.836086 0.000000 0.000000 0.000000 1.303315 0.000000
    15 0.853993 0.000000 0.000000 0.002756 0.113413 0.024347
    16 2.964058 -0.072899 0.178523 0.260482 1.290585 0.792160
    17 1.814737 0.000000 0.000000 -3.114505 1.333979 -3.136047
    18 0.982325 0.000000 0.000000 0.000000 0.062784 0.021736
    19 2.910364 0.632510 0.212797 0.525413 1.456608 1.079301
    20 1.751858 0.000000 0.000000 3.141589 1.501719 3.105026
    21 0.853993 0.000000 0.000000 0.000000 0.043633 0.000000
    22 2.899449 1.342927 0.078012 -2.409389 1.401894 -1.952022
    23 1.152892 0.000000 -0.000003 0.009195 0.623335 0.061976
    24 0.748462 0.000000 0.000000 0.000000 0.904936 -0.057080
    25 -7.722618 3.877546 0.545471 -3.141592 1.545689 -3.141732
    26 -0.023288 0.041601 0.000000 -0.476289 -0.592703 -0.288775
    27 11.072354 -0.043445 0.000001 0.000000 0.000000 -1.467145
    28 8.108975 0.000001 0.000000 -2.378085 0.806184 0.749227
    29 0.788882 0.969696 -0.533611 -2.647566 0.437954 0.465033
    30 1.920301 0.000001 0.000000 0.000000 0.000000 1.171019
    31 0.858249 0.000000 0.000000 0.000000 0.000000 -0.088906
    32 2.955714 0.752580 0.160552 -3.141592 1.050291 -0.015797
    33 1.836086 0.000000 0.000000 0.000000 -0.235620 0.000000
    34 0.853994 0.000000 0.000000 -0.002756 -0.113413 0.024347
    35 2.964905 -0.017483 0.178523 -3.141592 1.039020 -0.015797
    36 1.814736 -0.000001 0.000000 0.006645 -0.296634 -0.022729
    37 0.982325 0.000000 0.000000 0.000000 -0.095993 0.021736
    38 2.889732 -0.720928 0.212797 3.131715 0.913559 -0.059684
    39 1.751859 0.000001 0.000000 -0.156462 -0.620449 -0.008613
    40 0.853991 0.000000 0.000004 0.000000 -0.043633 0.000000
    41 2.857166 -1.430681 0.078012 3.141592 1.198598 -0.015797
    42 1.152892 0.000000 0.000001 -0.007510 -0.130685 0.057571
    43 0.748464 0.000000 -0.000001 0.000000 -0.314159 -0.057080
  time 18
    0 2.639594 -9.952813 -3.399208 -0.001791 0.000000 -0.000143
    1 0.000007 1.897310 0.730167 -1.062906 0.000000 0.000000
    2 2.642929 -10.191103 -1.957257 -0.001791 0.000000 -0.000143
    3 2.638775 -10.366892 -3.483248 -0.001791 0.000000 -0.000143
    4 2.177865 -11.059450 -2.698603 0.037990 0.000000 -0.000143
    5 2.639594 -9.952813 -3.399208 -0.001791 0.000000 -0.000143
    6 3.396785 7.779389 1.548835 -3.141592 1.454463 -3.141592
    7 -0.023288 0.041601 -0.000001 -0.010012 -0.016906 -0.614809
    8 11.072353 -0.043445 0.000000 0.000000 0.000000 -1.298021
    9 8.108975 0.000000 0.000000 0.175287 -0.166890 0.207428
    10 0.758957 -0.993292 -0.533611 0.392406 0.687057 0.046279
    11 1.920299 0.000000 0.000000 0.000000 0.000000 0.882317
    12 0.858255 0.000000 0.000000 0.000000 0.000000 -0.069433
    13 2.931401 -0.842323 0.160553 -0.041260 0.291433 0.100517
    14 1.836086 0.000000 0.000000 0.000000 1.303315 0.000000
    15 0.853993 0.000000 0.000000 0.002756 0.113413 0.024347
    16 2.964058 -0.072899 0.178523 0.260482 1.290585 0.792160
    17 1.814737 0.000000 0.000000 -3.114505 1.333979 -3.136047
    18 0.982325 0.000000 0.000000 0.000000 0.062784 0.021736
    19 2.910364 0.632510 0.212797 0.525413 1.456608 1.079301
    20 1.751858 0.000000 0.000000 3.141589 1.501719 3.105026
    21 0.853993 0.000000 0.000000 0.000000 0.043633 0.000000
    22 2.899449 1.342927 0.078012 -2.409389 1.401894 -1.952022
    23 1.152892 0.000000 -0.000003 0.009195 0.623335 0.061976
    24 0.748462 0.000000 0.000000 0.000000 0.904936 -0.057080
    25 -7.722618 3.877546 0.545471 -3.141592 1.545689 -3.141732
    26 -0.023288 0.041601 0.000000 -0.475228 -0.592446 -0.291592
    27 11.072354 -0.043445 0.000001 0.000000 0.000000 -1.465158
    28 8.108975 0.000001 0.000000 -2.375583 0.805549 0.751597
    29 0.788882 0.969696 -0.533611 -2.647566 0.437954 0.465033
    30 1.920301 0.000001 0.000000 0.000000 0.000000 1.171019
    31 0.858249 0.000000 0.000000 0.000000 0.000000 -0.088906
    32 2.955714 0.752580 0.160552 -3.141592 1.050291 -0.015797
    33 1.836086 0.000000 0.000000 0.000000 -0.235620 0.000000
    34 0.853994 0.000000 0.000000 -0.002756 -0.113413 0.024347
    35 2.964905 -0.017483 0.178523 -3.141592 1.039020 -0.015797
    36 1.814736 -0.000001 0.000000 0.006645 -0.296634 -0.022729
    37 0.982325 0.000000 0.000000 0.000000 -0.095993 0.021736
    38 2.889732 -0.720928 0.212797 3.131715 0.913559 -0.059684
    39 1.751859 0.000001 0.000000 -0.156462 -0.620449 -0.008613
    40 0.853991 0.000000 0.000004 0.000000 -0.043633 0.000000
    41 2.857166 -1.430681 0.078012 3.141592 1.198598 -0.015797
    42 1.152892 0.000000 0.000001 -0.007510 -0.130685 0.057571
    43 0.748464 0.000000 -0.000001 0.000000 -0.314159 -0.057080
  time 19
    0 2.639594 -9.968438 -3.395302 -0.001055 0.000000 -0.000143
    1 0.000007 1.897310 0.730167 -1.062906 0.000000 0.000000
    2 2.642929 -10.210635 -1.953351 -0.001055 0.000000 -0.000143
    3 2.638775 -10.370798 -3.475435 -0.001055 0.000000 -0.000143
    4 2.177865 -11.063356 -2.694697 0.038726 0.000000 -0.000143
    5 2.639594 -9.968438 -3.395302 -0.001055 0.000000 -0.000143
    6 3.396785 7.779389 1.548835 -3.141592 1.454463 -3.141592
    7 -0.023288 0.041601 -0.000001 -0.009964 -0.016827 -0.615756
    8 11.072353 -0.043445 0.000000 0.000000 0.000000 -1.297718
    9 8.108975 0.000000 0.000000 0.175359 -0.167015 0.208689
    10 0.758957 -0.993292 -0.533611 0.392406 0.687057 0.046279
    11 1.920299 0.000000 0.000000 0.000000 0.000000 0.882317
    12 0.858255 0.000000 0.000000 0.000000 0.000000 -0.069433
    13 2.931401 -0.842323 0.160553 -0.041260 0.291433 0.100517
    14 1.836086 0.000000 0.000000 0.000000 1.303315 0.000000
    15 0.853993 0.000000 0.000000 0.002756 0.113413 0.024347
    16 2.964058 -0.072899 0.178523 0.260482 1.290585 0.792160
    17 1.814737 0.000000 0.000000 -3.114505 1.333979 -3.136047
    18 0.982325 0.000000 0.000000 0.000000 0.062784 0.021736
    19 2.910364 0.632510 0.212797 0.525413 1.456608 1.079301
    20 1.751858 0.000000 0.000000 3.141589 1.501719 3.105026
    21 0.853993 0.000000 0.000000 0.000000 0.043633 0.000000
    22 2.899449 1.342927 0.078012 -2.409389 1.401894 -1.952022
    23 1.152892 0.000000 -0.000003 0.009195 0.623335 0.061976
    24 0.748462 0.000000 0.000000 0.000000 0.904936 -0.057080
    25 -7.722618 3.877546 0.545471 -3.141592 1.545689 -3.141732
    26 -0.023288 0.041601 0.000000 -0.475211 -0.592431 -0.292802
    27 11.072354 -0.043445 0.000001 0.000000 0.000000 -1.465188
    28 8.108975 0.000001 0.000000 -2.373700 0.805676 0.754289
    29 0.788882 0.969696 -0.533611 -2.647566 0.437954 0.465033
    30 1.920301 0.000001 0.000000 0.000000 0.000000 1.171019
    31 0.858249 0.000000 0.000000 0.000000 0.000000 -0.088906
    32 2.955714 0.752580 0.160552 -3.141592 1.050291 -0.015797
    33 1.836086 0.000000 0.000000 0.000000 -0.235620 0.000000
    34 0.853994 0.000000 0.000000 -0.002756 -0.113413 0.024347
    35 2.964905 -0.017483 0.178523 -3.141592 1.039020 -0.015797
    36 1.814736 -0.000001 0.000000 0.006645 -0.296634 -0.022729
    37 0.982325 0.000000 0.000000 0.000000 -0.095993 0.021736
    38 2.889732 -0.720928 0.212797 3.131715 0.913559 -0.059684
    39 1.751859 0.000001 0.000000 -0.156462 -0.620449 -0.008613
    40 0.853991 0.000000 0.000004 0.000000 -0.043633 0.000000
    41 2.857166 -1.430681 0.078012 3.141592 1.198598 -0.015797
    42 1.152892 0.000000 0.000001 -0.007510 -0.130685 0.057571
    43 0.748464 0.000000 -0.000001 0.000000 -0.314159 -0.057080
  time 20
    0 2.639594 -9.948906 -3.379676 -0.000608 0.000000 -0.000143
    1 0.000007 1.897310 0.730167 -1.062906 0.000000 0.000000
    2 2.642929 -10.191103 -1.937725 -0.000608 0.000000 -0.000143
    3 2.638775 -10.366892 -3.463716 -0.000608 0.000000 -0.000143
    4 2.177865 -11.059450 -2.679072 0.039238 0.000000 -0.000143
    5 2.639594 -9.948906 -3.379676 -0.000608 0.000000 -0.000143
    6 3.396785 7.779389 1.548835 -3.141592 1.454463 -3.141592
    7 -0.023288 0.041601 -0.000001 -0.009928 -0.016732 -0.615397
    8 11.072353 -0.043445 0.000000 0.000000 0.000000 -1.300403
    9 8.108975 0.000000 0.000000 0.175430 -0.167162 0.211499
    10 0.758957 -0.993292 -0.533611 0.392406 0.687057 0.046279
    11 1.920299 0.000000 0.000000 0.000000 0.000000 0.882317
    12 0.858255 0.000000 0.000000 0.000000 0.000000 -0.069433
    13 2.931401 -0.842323 0.160553 -0.041260 0.291433 0.100517
    14 1.836086 0.000000 0.000000 0.000000 1.303315 0.000000
    15 0.853993 0.000000 0.000000 0.002756 0.113413 0.024347
    16 2.964058 -0.072899 0.178523 0.260482 1.290585 0.792160
    17 1.814737 0.000000 0.000000 -3.114505 1.333979 -3.136047
    18 0.982325 0.000000 0.000000 0.000000 0.062784 0.021736
    19 2.910364 0.632510 0.212797 0.525413 1.456608 1.079301
    20 1.751858 0.000000 0.000000 3.141589 1.501719 3.105026
    21 0.853993 0.000000 0.000000 0.000000 0.043633 0.000000
    22 2.899449 1.342927 0.078012 -2.409389 1.401894 -1.952022
    23 1.152892 0.000000 -0.000003 0.009195 0.623335 0.061976
    24 0.748462 0.000000 0.000000 0.000000 0.904936 -0.057080
    25 -7.722618 3.877546 0.545471 -3.141592 1.545689 -3.141732
    26 -0.023288 0.041601 0.000000 -0.476289 -0.592673 -0.292479
    27 11.072354 -0.043445 0.000001 0.000000 0.000000 -1.467234
    28 8.108975 0.000001 0.000000 -2.372532 0.806565 0.757448
    29 0.788882 0.969696 -0.533611 -2.647566 0.437954 0.465033
    30 1.920301 0.000001 0.000000 0.000000 0.000000 1.171019
    31 0.858249 0.000000 0.000000 0.000000 0.000000 -0.088906
    32 2.955714 0.752580 0.160552 -3.141592 1.050291 -0.015797
    33 1.836086 0.000000 0.000000 0.000000 -0.235620 0.000000
    34 0.853994 0.000000 0.000000 -0.002756 -0.113413 0.024347
    35 2.964905 -0.017483 0.178523 -3.141592 1.039020 -0.015797
    36 1.814736 -0.000001 0.000000 0.006645 -0.296634 -0.022729
    37 0.982325 0.000000 0.000000 0.000000 -0.095993 0.021736
    38 2.889732 -0.720928 0.212797 3.131715 0.913559 -0.059684
    39 1.751859 0.000001 0.000000 -0.156462 -0.620449 -0.008613
    40 0.853991 0.000000 0.000004 0.000000 -0.043633 0.000000
    41 2.857166 -1.430681 0.078012 3.141592 1.198598 -0.015797
    42 1.152892 0.000000 0.000001 -0.007510 -0.130685 0.057571
    43 0.748464 0.000000 -0.000001 0.000000 -0.314159 -0.057080
  time 21
    0 2.639594 -9.933281 -3.364051 -0.000224 0.000000 -0.000143
    1 0.000007 1.897310 0.730167 -1.062906 0.000000 0.000000
    2 2.642929 -10.175478 -1.922100 -0.000224 0.000000 -0.000143
    3 2.638775 -10.339547 -3.444184 -0.000224 0.000000 -0.000143
    4 2.177865 -11.032105 -2.663446 0.039557 0.000000 -0.000143
    5 2.639594 -9.933281 -3.364051 -0.000224 0.000000 -0.000143
    6 3.396785 7.779389 1.548835 -3.141592 1.454463 -3.141592
    7 -0.023288 0.041601 -0.000001 -0.009904 -0.016621 -0.613683
    8 11.072353 -0.043445 0.000000 0.000000 0.000000 -1.306207
    9 8.108975 0.000000 0.000000 0.175490 -0.167287 0.215950
    10 0.758957 -0.993292 -0.533611 0.392406 0.687057 0.046279
    11 1.920299 0.000000 0.000000 0.000000 0.000000 0.882317
    12 0.858255 0.000000 0.000000 0.000000 0.000000 -0.069433
    13 2.931401 -0.842323 0.160553 -0.041260 0.291433 0.100517
    14 1.836086 0.000000 0.000000 0.000000 1.303315 0.000000
    15 0.853993 0.000000 0.000000 0.002756 0.113413 0.024347
    16 2.964058 -0.072899 0.178523 0.260482 1.290585 0.792160
    17 1.814737 0.000000 0.000000 -3.114505 1.333979 -3.136047
    18 0.982325 0.000000 0.000000 0.000000 0.062784 0.021736
    19 2.910364 0.632510 0.212797 0.525413 1.456608 1.079301
    20 1.751858 0.000000 0.000000 3.141589 1.501719 3.105026
    21 0.853993 0.000000 0.000000 0.000000 0.043633 0.000000
    22 2.899449 1.342927 0.078012 -2.409389 1.401894 -1.952022
    23 1.152892 0.000000 -0.000003 0.009195 0.623335 0.061976
    24 0.748462 0.000000 0.000000 0.000000 0.904936 -0.057080
    25 -7.722618 3.877546 0.545471 -3.141592 1.545689 -3.141732
    26 -0.023288 0.041601 0.000000 -0.478463 -0.593141 -0.290549
    27 11.072354 -0.043445 0.000001 0.000000 0.000000 -1.471298
    28 8.108975 0.000001 0.000000 -2.372079 0.808174 0.760966
    29 0.788882 0.969696 -0.533611 -2.647566 0.437954 0.465033
    30 1.920301 0.000001 0.000000 0.000000 0.000000 1.171019
    31 0.858249 0.000000 0.000000 0.000000 0.000000 -0.088906
    32 2.955714 0.752580 0.160552 -3.141592 1.050291 -0.015797
    33 1.836086 0.000000 0.000000 0.000000 -0.235620 0.000000
    34 0.853994 0.000000 0.000000 -0.002756 -0.113413 0.024347
    35 2.964905 -0.017483 0.178523 -3.141592 1.039020 -0.015797
    36 1.814736 -0.000001 0.000000 0.006645 -0.296634 -0.022729
    37 0.982325 0.000000 0.000000 0.000000 -0.095993 0.021736
    38 2.889732 -0.720928 0.212797 3.131715 0.913559 -0.059684
    39 1.751859 0.000001 0.000000 -0.156462 -0.620449 -0.008613
    40 0.853991 0.000000 0.000004 0.000000 -0.043633 0.000000
    41 2.857166 -1.430681 0.078012 3.141592 1.198598 -0.015797
    42 1.152892 0.000000 0.000001 -0.007510 -0.130685 0.057571
    43 0.748464 0.000000 -0.000001 0.000000 -0.314159 -0.057080
  time 22
    0 2.639594 -9.878592 -3.336706 0.000000 0.000000 -0.000143
    1 0.000007 1.897310 0.730167 -1.062906 0.000000 0.000000
    2 2.642929 -10.124695 -1.894755 0.000000 0.000000 -0.000143
    3 2.638775 -10.296577 -3.420746 0.000000 0.000000 -0.000143
    4 2.177865 -10.981323 -2.636101 0.039781 0.000000 -0.000143
    5 2.639594 -9.878592 -3.336706 0.000000 0.000000 -0.000143
    6 3.396785 7.779389 1.548835 -3.141592 1.454463 -3.141592
    7 -0.023288 0.041601 -0.000001 -0.009904 -0.016463 -0.610675
    8 11.072353 -0.043445 0.000000 0.000000 0.000000 -1.315085
    9 8.108975 0.000000 0.000000 0.175574 -0.167413 0.221996
    10 0.758957 -0.993292 -0.533611 0.392406 0.687057 0.046279
    11 1.920299 0.000000 0.000000 0.000000 0.000000 0.882317
    12 0.858255 0.000000 0.000000 0.000000 0.000000 -0.069433
    13 2.931401 -0.842323 0.160553 -0.041260 0.291433 0.100517
    14 1.836086 0.000000 0.000000 0.000000 1.303315 0.000000
    15 0.853993 0.000000 0.000000 0.002756 0.113413 0.024347
    16 2.964058 -0.072899 0.178523 0.260482 1.290585 0.792160
    17 1.814737 0.000000 0.000000 -3.114505 1.333979 -3.136047
    18 0.982325 0.000000 0.000000 0.000000 0.062784 0.021736
    19 2.910364 0.632510 0.212797 0.525413 1.456608 1.079301
    20 1.751858 0.000000 0.000000 3.141589 1.501719 3.105026
    21 0.853993 0.000000 0.000000 0.000000 0.043633 0.000000
    22 2.899449 1.342927 0.078012 -2.409389 1.401894 -1.952022
    23 1.152892 0.000000 -0.000003 0.009195 0.623335 0.061976
    24 0.748462 0.000000 0.000000 0.000000 0.904936 -0.057080
    25 -7.722618 3.877546 0.545471 -3.141592 1.545689 -3.141732
    26 -0.023288 0.041601 0.000000 -0.481732 -0.593866 -0.287098
    27 11.072354 -0.043445 0.000001 0.000000 0.000000 -1.477378
    28 8.108975 0.000001 0.000000 -2.372222 0.810502 0.764879
    29 0.788882 0.969696 -0.533611 -2.647566 0.437954 0.465033
    30 1.920301 0.000001 0.000000 0.000000 0.000000 1.171019
    31 0.858249 0.000000 0.000000 0.000000 0.000000 -0.088906
    32 2.955714 0.752580 0.160552 -3.141592 1.050291 -0.015797
    33 1.836086 0.000000 0.000000 0.000000 -0.235620 0.000000
    34 0.853994 0.000000 0.000000 -0.002756 -0.113413 0.024347
    35 2.964905 -0.017483 0.178523 -3.141592 1.039020 -0.015797
    36 1.814736 -0.000001 0.000000 0.006645 -0.296634 -0.022729
    37 0.982325 0.000000 0.000000 0.000000 -0.095993 0.021736
    38 2.889732 -0.720928 0.212797 3.131715 0.913559 -0.059684
    39 1.751859 0.000001 0.000000 -0.156462 -0.620449 -0.008613
    40 0.853991 0.000000 0.000004 0.000000 -0.043633 0.000000
    41 2.857166 -1.430681 0.078012 3.141592 1.198598 -0.015797
    42 1.152892 0.000000 0.000001 -0.007510 -0.130685 0.057571
    43 0.748464 0.000000 -0.000001 0.000000 -0.314159 -0.057080
end
