
VertexLitGeneric
{

	$baseTexture				models/jessev92/hl2/weapons/hk53/gucci_d
	$bumpmap					models/jessev92/hl2/weapons/hk53/gucci_b

	$halflambert				1
	$ambientocclusion			1

	$phong						1
	$phongexponent				32
	$phongboost					1
 	$phongfresnelranges			"[ 1 6 12 ]"
	$phongalbedotint			1
	
	$detail						detail/metal_detail_01
	$detailscale				24
	$detailblendfactor			0.95
	$detailblendmode			0
	
}
