
VertexLitGeneric
{

	$baseTexture				models/jessev92/hl2/weapons/lr300/f4_d
	$bumpmap					models/jessev92/hl2/weapons/lr300/f4_b

	$halflambert				1
	$ambientocclusion			1

	$detail						detail/metal_detail_01
	$detailscale				24
	$detailblendfactor			0.95
	$detailblendmode			0
	
}
