
VertexLitGeneric
{

	$baseTexture				models/jessev92/hl2/weapons/lr300/v_irifle_d
	$bumpmap					dev/bump_normal

	$halflambert				1
	$ambientocclusion			1

	$detail						detail/metal_detail_01
	$detailscale				24
	$detailblendfactor			0.95
	$detailblendmode			0
	
}
