version 1
nodes
  0 "L_Armdummy"  -1
  1 "L_Upperarm"   0
  2 "L_Forearm"   1
  3 "L_Wrist"   2
  4 "L_Thumb1"   3
  5 "L_Thumb2"   4
  6 "L_Thumb3"   5
  7 "L_Index1"   3
  8 "L_Index2"   7
  9 "L_Index3"   8
 10 "L_Mid1"   3
 11 "L_Mid2"  10
 12 "L_Mid3"  11
 13 "L_Ring1"   3
 14 "L_Ring2"  13
 15 "L_Ring3"  14
 16 "L_Pinky1"   3
 17 "L_Pinky2"  16
 18 "L_Pinky3"  17
 19 "R_Armdummy"  -1
 20 "R_Upperarm"  19
 21 "R_Forearm"  20
 22 "R_Wrist"  21
 23 "R_Thumb1"  22
 24 "R_Thumb2"  23
 25 "R_Thumb3"  24
 26 "R_Index1"  22
 27 "R_Index2"  26
 28 "R_Index3"  27
 29 "R_Mid1"  22
 30 "R_Mid2"  29
 31 "R_Mid3"  30
 32 "R_Ring1"  22
 33 "R_Ring2"  32
 34 "R_Ring3"  33
 35 "R_Pinky1"  22
 36 "R_Pinky2"  35
 37 "R_Pinky3"  36
 38 "a_g3sg1"  -1
 39 "a_trigger"  -1
 40 "a_magrel"  -1
 41 "a_clip"  -1
 42 "a_charger"  -1
 43 "SMDImport"  -1
 44 "Plane001"  -1
end
skeleton
time 0
  0 4.856782 7.575070 1.504075 -0.000000 1.570451 0.000000
  1 -0.023288 0.041601 0.000000 0.045132 0.078677 -0.497194
  2 11.072355 -0.043442 0.000000 0.000000 0.000000 -1.258768
  3 8.108976 0.000000 0.000000 0.046468 -0.077897 0.200374
  4 0.758959 -0.993292 -0.533611 0.450967 0.475232 -0.090834
  5 1.920300 -0.000000 0.000001 0.000004 0.000003 0.398793
  6 0.858253 0.000000 -0.000000 0.000000 -0.000000 -0.069433
  7 2.931402 -0.842323 0.160553 0.000099 0.244346 -0.014674
  8 1.836085 0.000000 0.000000 0.000684 0.976596 0.000448
  9 0.853992 0.000000 -0.000004 0.002756 0.113413 0.024347
 10 2.964060 -0.072899 0.178523 -0.018769 1.060521 -0.035630
 11 1.814737 0.000000 0.000001 0.554051 1.915642 0.623808
 12 0.982327 0.000000 0.000000 -0.000000 0.095993 0.021736
 13 2.910365 0.632510 0.212797 -0.261503 1.212730 -0.292339
 14 1.751858 -0.000000 0.000000 0.745650 1.940428 0.754635
 15 0.853991 0.000000 -0.000000 -0.000000 0.043633 -0.000000
 16 2.899449 1.342928 0.078013 -0.707016 1.171529 -0.762778
 17 1.152892 -0.000002 -0.000001 -0.614257 1.271614 -0.532564
 18 0.748463 0.000000 -0.000000 0.000000 0.314159 -0.057080
 19 -9.816048 -15.513170 -3.467444 0.128511 0.710181 0.744711
 20 -0.023289 0.041604 -0.000001 -0.308491 -0.319685 -0.005018
 21 11.072351 -0.043442 0.000002 -0.000000 -0.000000 -1.907740
 22 8.108978 0.000000 0.000002 -2.811458 0.084448 0.238274
 23 0.788884 0.969694 -0.533611 -3.132821 0.340246 0.309719
 24 1.920300 0.000002 -0.000001 -0.292276 0.215845 -0.150686
 25 0.858252 -0.000000 0.000001 -0.205563 -0.121344 -0.126518
 26 2.955717 0.752578 0.160552 -2.856344 0.190721 -0.189367
 27 1.836084 0.000003 0.000000 0.996010 -1.679517 -0.667124
 28 0.853993 0.000000 -0.000001 -0.002756 -0.113413 0.024347
 29 2.964905 -0.017483 0.178523 -2.812254 0.390716 -0.212804
 30 1.814734 -0.000003 0.000001 0.273591 -1.892299 -0.149845
 31 0.982326 0.000000 0.000000 0.049934 0.058895 0.016840
 32 2.889733 -0.720928 0.212797 -2.783004 0.751236 -0.182249
 33 1.751861 0.000000 -0.000001 0.104685 -1.912553 -0.038124
 34 0.853992 0.000002 0.000001 -0.022357 0.324473 0.012037
 35 2.857169 -1.430683 0.078012 -2.644982 1.197109 0.252190
 36 1.152892 -0.000001 0.000000 0.378771 -1.131337 -0.271524
 37 0.748462 0.000002 -0.000001 0.100505 -0.078938 -0.017161
 38 2.700229 -12.028279 -4.323343 1.591277 0.000000 -0.000024
 39 2.702677 -10.204004 -4.950229 1.591277 0.000000 -0.000024
 40 2.696953 -12.434542 -5.132008 1.591277 0.000000 -0.000024
 41 2.704425 -13.824457 -6.344637 1.591277 0.000000 -0.000024
 42 2.486642 -21.176926 -2.426956 1.591277 -0.000000 -0.000088
 43 0.000000 0.000000 0.000000 0.000000 -0.000000 0.000000
 44 2.694111 -4.246094 -1.192952 1.570796 0.000000 3.141593
time 1
  0 4.856782 7.575070 1.504075 -0.000000 1.570451 0.000000
  1 -0.023288 0.041601 0.000000 0.040386 0.077215 -0.520127
  2 11.072356 -0.043441 -0.000000 0.000000 0.000000 -1.158567
  3 8.108977 -0.000001 -0.000000 0.048541 -0.071209 0.094830
  4 0.758958 -0.993292 -0.533611 0.450967 0.475232 -0.090834
  5 1.920300 0.000001 0.000000 0.000004 0.000003 0.398793
  6 0.858253 0.000000 -0.000000 -0.000000 -0.000000 -0.069433
  7 2.931400 -0.842322 0.160553 0.000099 0.244346 -0.014674
  8 1.836087 0.000001 0.000000 0.000684 0.976596 0.000448
  9 0.853993 0.000000 -0.000004 0.002756 0.113413 0.024347
 10 2.964060 -0.072899 0.178523 -0.018769 1.060521 -0.035630
 11 1.814737 0.000000 0.000000 0.554052 1.915642 0.623809
 12 0.982327 0.000000 0.000000 -0.000000 0.095993 0.021736
 13 2.910364 0.632510 0.212796 -0.261503 1.212730 -0.292339
 14 1.751858 -0.000000 0.000000 0.745649 1.940428 0.754635
 15 0.853992 -0.000000 -0.000000 0.000000 0.043633 0.000000
 16 2.899450 1.342928 0.078013 -0.707016 1.171529 -0.762778
 17 1.152892 -0.000002 0.000001 -0.614257 1.271614 -0.532564
 18 0.748464 -0.000000 0.000001 0.000000 0.314159 -0.057080
 19 -9.816048 -15.513170 -3.467444 0.128511 0.710181 0.744711
 20 -0.023289 0.041604 -0.000001 -0.288593 -0.301731 -0.027807
 21 11.072347 -0.043441 0.000003 -0.000000 -0.000000 -1.902418
 22 8.108974 -0.000001 0.000000 -2.803885 0.052251 0.242394
 23 0.788882 0.969697 -0.533610 -3.132821 0.340246 0.309719
 24 1.920300 0.000001 0.000000 -0.292276 0.215845 -0.150686
 25 0.858255 -0.000000 0.000000 -0.205563 -0.121344 -0.126518
 26 2.955715 0.752580 0.160552 -2.856344 0.190721 -0.189367
 27 1.836086 0.000002 0.000000 0.996010 -1.679517 -0.667124
 28 0.853993 0.000004 0.000001 -0.002756 -0.113413 0.024347
 29 2.964905 -0.017482 0.178523 -2.812254 0.390716 -0.212804
 30 1.814735 -0.000002 0.000002 0.273591 -1.892299 -0.149845
 31 0.982325 -0.000003 0.000001 0.049934 0.058895 0.016840
 32 2.889732 -0.720927 0.212796 -2.783004 0.751236 -0.182249
 33 1.751860 -0.000001 -0.000002 0.104685 -1.912553 -0.038124
 34 0.853992 0.000002 0.000001 -0.022357 0.324473 0.012037
 35 2.857167 -1.430682 0.078012 -2.644982 1.197109 0.252190
 36 1.152892 -0.000001 -0.000001 0.378771 -1.131337 -0.271524
 37 0.748462 0.000002 -0.000001 0.100505 -0.078938 -0.017161
 38 2.700229 -12.274380 -4.631946 1.563079 -0.000671 -0.001599
 39 2.702677 -10.469637 -5.317428 1.563079 -0.000671 -0.001599
 40 2.696953 -12.700175 -5.428892 1.563079 -0.000671 -0.001599
 41 2.700518 -14.129153 -6.610270 1.563079 -0.000671 -0.001599
 42 2.467110 -21.364431 -2.493364 1.563098 -0.000671 -0.001662
 43 0.000000 0.000000 0.000000 0.000000 -0.000000 0.000000
 44 2.694111 -4.246094 -1.192952 1.570796 0.000000 3.141593
time 2
  0 4.856782 7.575070 1.504075 -0.000000 1.570451 0.000000
  1 -0.023288 0.041601 0.000000 0.036791 0.076052 -0.540543
  2 11.072352 -0.043442 0.000000 0.000000 0.000000 -1.078806
  3 8.108976 -0.000002 -0.000000 0.049728 -0.061441 0.028004
  4 0.758957 -0.993292 -0.533611 0.450967 0.475232 -0.090834
  5 1.920300 0.000000 0.000000 0.000004 0.000003 0.398793
  6 0.858252 0.000000 0.000000 0.000000 0.000000 -0.069433
  7 2.931400 -0.842325 0.160553 0.000099 0.244346 -0.014674
  8 1.836085 -0.000001 0.000000 0.000684 0.976596 0.000448
  9 0.853993 -0.000000 -0.000004 0.002756 0.113413 0.024347
 10 2.964058 -0.072901 0.178523 -0.018769 1.060521 -0.035630
 11 1.814737 -0.000000 0.000000 0.554051 1.915642 0.623808
 12 0.982325 0.000000 0.000000 -0.000000 0.095993 0.021736
 13 2.910364 0.632508 0.212797 -0.261503 1.212730 -0.292339
 14 1.751858 0.000000 -0.000002 0.745650 1.940428 0.754635
 15 0.853992 0.000001 0.000000 -0.000000 0.043633 -0.000000
 16 2.899450 1.342928 0.078013 -0.707016 1.171529 -0.762778
 17 1.152893 -0.000002 0.000000 -0.614257 1.271614 -0.532564
 18 0.748465 0.000000 0.000000 -0.000000 0.314159 -0.057080
 19 -9.816048 -15.513170 -3.467444 0.128511 0.710181 0.744711
 20 -0.023289 0.041604 -0.000001 -0.265676 -0.279772 -0.041174
 21 11.072349 -0.043443 0.000003 0.000000 0.000000 -1.901439
 22 8.108976 -0.000002 0.000002 -2.782609 0.031380 0.240506
 23 0.788883 0.969697 -0.533611 -3.132821 0.340246 0.309719
 24 1.920300 0.000000 0.000000 -0.292276 0.215845 -0.150686
 25 0.858250 0.000000 0.000002 -0.205563 -0.121344 -0.126518
 26 2.955712 0.752579 0.160550 -2.856344 0.190721 -0.189367
 27 1.836083 0.000000 0.000001 0.996010 -1.679517 -0.667124
 28 0.853994 0.000004 -0.000001 -0.002756 -0.113413 0.024347
 29 2.964905 -0.017482 0.178521 -2.812254 0.390716 -0.212804
 30 1.814733 0.000001 0.000002 0.273591 -1.892299 -0.149845
 31 0.982324 -0.000006 -0.000002 0.049934 0.058895 0.016840
 32 2.889730 -0.720926 0.212796 -2.783004 0.751236 -0.182249
 33 1.751860 0.000000 -0.000001 0.104685 -1.912553 -0.038124
 34 0.853992 0.000004 0.000001 -0.022357 0.324473 0.012037
 35 2.857167 -1.430683 0.078012 -2.644982 1.197109 0.252190
 36 1.152893 0.000002 0.000001 0.378771 -1.131337 -0.271524
 37 0.748462 0.000000 -0.000002 0.100505 -0.078938 -0.017161
 38 2.661165 -12.489231 -4.956175 1.555353 -0.002157 -0.008317
 39 2.675332 -10.684487 -5.645563 1.555353 -0.002157 -0.008317
 40 2.661796 -12.918931 -5.745308 1.555353 -0.002157 -0.008317
 41 2.649736 -14.351817 -6.907154 1.555353 -0.002157 -0.008317
 42 2.369451 -21.555843 -2.731653 1.555375 -0.002157 -0.008363
 43 0.000000 0.000000 0.000000 0.000000 -0.000000 0.000000
 44 2.694111 -4.246094 -1.192952 1.570796 0.000000 3.141593
time 3
  0 4.856782 7.575070 1.504075 -0.000000 1.570451 0.000000
  1 -0.023288 0.041601 0.000000 0.034358 0.075154 -0.555335
  2 11.072351 -0.043445 0.000000 0.000000 -0.000000 -1.024502
  3 8.108976 0.000001 0.000000 0.050543 -0.048366 0.001785
  4 0.758958 -0.993292 -0.533611 0.450967 0.475232 -0.090834
  5 1.920300 0.000000 -0.000000 0.000004 0.000003 0.398793
  6 0.858253 -0.000000 0.000000 0.000000 -0.000000 -0.069433
  7 2.931401 -0.842323 0.160552 0.000099 0.244346 -0.014674
  8 1.836088 0.000000 0.000000 0.000684 0.976596 0.000448
  9 0.853993 0.000000 -0.000002 0.002756 0.113413 0.024347
 10 2.964059 -0.072899 0.178523 -0.018769 1.060521 -0.035630
 11 1.814737 0.000000 0.000000 0.554052 1.915642 0.623808
 12 0.982325 0.000000 -0.000000 -0.000000 0.095993 0.021736
 13 2.910364 0.632510 0.212797 -0.261503 1.212730 -0.292339
 14 1.751858 0.000000 0.000001 0.745650 1.940428 0.754635
 15 0.853992 0.000000 0.000000 -0.000000 0.043633 -0.000000
 16 2.899451 1.342927 0.078012 -0.707016 1.171529 -0.762778
 17 1.152892 -0.000003 -0.000001 -0.614257 1.271614 -0.532564
 18 0.748463 0.000000 0.000000 0.000000 0.314159 -0.057080
 19 -9.816048 -15.513170 -3.467444 0.128511 0.710181 0.744711
 20 -0.023289 0.041604 -0.000001 -0.239558 -0.253654 -0.045337
 21 11.072351 -0.043443 0.000002 0.000000 0.000000 -1.904121
 22 8.108974 -0.000001 -0.000001 -2.746909 0.022554 0.233210
 23 0.788883 0.969696 -0.533610 -3.132821 0.340246 0.309719
 24 1.920300 0.000000 -0.000001 -0.292276 0.215845 -0.150686
 25 0.858252 -0.000000 0.000000 -0.205563 -0.121344 -0.126518
 26 2.955716 0.752582 0.160551 -2.856344 0.190721 -0.189367
 27 1.836086 0.000001 0.000000 0.996010 -1.679517 -0.667125
 28 0.853993 0.000000 0.000001 -0.002756 -0.113413 0.024347
 29 2.964904 -0.017482 0.178522 -2.812254 0.390716 -0.212804
 30 1.814735 -0.000001 0.000000 0.273591 -1.892299 -0.149845
 31 0.982325 -0.000002 0.000001 0.049934 0.058895 0.016840
 32 2.889731 -0.720927 0.212798 -2.783004 0.751236 -0.182249
 33 1.751860 0.000000 -0.000001 0.104685 -1.912553 -0.038124
 34 0.853993 0.000003 0.000002 -0.022357 0.324473 0.012037
 35 2.857169 -1.430682 0.078012 -2.644982 1.197109 0.252190
 36 1.152893 0.000000 -0.000001 0.378771 -1.131337 -0.271524
 37 0.748463 0.000002 -0.000000 0.100505 -0.078938 -0.017161
 38 2.590851 -12.653298 -5.276497 1.568128 -0.004434 -0.020125
 39 2.628456 -10.844648 -5.942447 1.568128 -0.004434 -0.020125
 40 2.587575 -13.075186 -6.069537 1.568128 -0.004434 -0.020125
 41 2.567702 -14.496352 -7.250915 1.568128 -0.004434 -0.020125
 42 2.185852 -21.751162 -3.169166 1.568172 -0.004434 -0.020192
 43 0.000000 0.000000 0.000000 0.000000 -0.000000 0.000000
 44 2.694111 -4.246094 -1.192952 1.570796 0.000000 3.141593
time 4
  0 4.856782 7.575070 1.504075 -0.000000 1.570451 0.000000
  1 -0.023288 0.041601 0.000000 0.033087 0.074398 -0.562895
  2 11.072355 -0.043443 0.000000 0.000000 -0.000000 -0.998775
  3 8.108976 -0.000001 0.000000 0.051945 -0.031984 0.017585
  4 0.758958 -0.993292 -0.533611 0.450967 0.475232 -0.090834
  5 1.920300 0.000000 0.000000 0.000004 0.000003 0.398793
  6 0.858252 -0.000000 -0.000000 -0.000000 0.000000 -0.069433
  7 2.931402 -0.842323 0.160553 0.000099 0.244346 -0.014674
  8 1.836086 -0.000000 0.000001 0.000684 0.976596 0.000448
  9 0.853993 0.000000 -0.000003 0.002756 0.113413 0.024347
 10 2.964059 -0.072899 0.178523 -0.018769 1.060521 -0.035630
 11 1.814737 0.000000 0.000000 0.554052 1.915642 0.623808
 12 0.982324 0.000000 -0.000000 -0.000000 0.095993 0.021736
 13 2.910363 0.632509 0.212797 -0.261503 1.212730 -0.292339
 14 1.751858 0.000002 -0.000001 0.745649 1.940428 0.754635
 15 0.853992 0.000000 0.000000 -0.000000 0.043633 -0.000000
 16 2.899449 1.342929 0.078013 -0.707016 1.171529 -0.762778
 17 1.152892 -0.000003 0.000001 -0.614257 1.271614 -0.532564
 18 0.748463 -0.000000 -0.000000 0.000000 0.314159 -0.057080
 19 -9.816048 -15.513170 -3.467444 0.128511 0.710181 0.744711
 20 -0.023289 0.041604 -0.000001 -0.210118 -0.223480 -0.040662
 21 11.072349 -0.043442 0.000003 0.000000 0.000000 -1.908762
 22 8.108975 0.000000 -0.000001 -2.695853 0.026275 0.220592
 23 0.788883 0.969694 -0.533611 -3.132821 0.340246 0.309719
 24 1.920301 0.000002 -0.000002 -0.292276 0.215845 -0.150686
 25 0.858252 0.000000 0.000001 -0.205563 -0.121344 -0.126518
 26 2.955715 0.752580 0.160553 -2.856344 0.190721 -0.189367
 27 1.836085 0.000000 0.000000 0.996010 -1.679517 -0.667125
 28 0.853993 0.000000 0.000002 -0.002756 -0.113413 0.024347
 29 2.964907 -0.017484 0.178524 -2.812254 0.390716 -0.212804
 30 1.814734 -0.000001 0.000002 0.273590 -1.892299 -0.149844
 31 0.982326 -0.000001 -0.000000 0.049934 0.058895 0.016840
 32 2.889732 -0.720930 0.212797 -2.783004 0.751236 -0.182249
 33 1.751860 -0.000001 0.000001 0.104685 -1.912553 -0.038124
 34 0.853993 0.000005 0.000001 -0.022357 0.324473 0.012037
 35 2.857170 -1.430684 0.078013 -2.644982 1.197109 0.252190
 36 1.152893 -0.000001 -0.000003 0.378771 -1.131337 -0.271524
 37 0.748464 0.000002 -0.000001 0.100505 -0.078938 -0.017161
 38 2.485379 -12.793928 -5.592913 1.601362 -0.007514 -0.037129
 39 2.554235 -10.961839 -6.204174 1.601362 -0.007514 -0.037129
 40 2.474290 -13.184564 -6.401578 1.601362 -0.007514 -0.037129
 41 2.434885 -14.558854 -7.633739 1.601362 -0.007514 -0.037129
 42 1.920219 -21.938667 -3.790279 1.601327 -0.007514 -0.037149
 43 0.000000 0.000000 0.000000 0.000000 -0.000000 0.000000
 44 2.694111 -4.246094 -1.192952 1.570796 0.000000 3.141593
time 5
  0 4.856782 7.575070 1.504075 -0.000000 1.570451 0.000000
  1 -0.023288 0.041601 0.000000 0.033507 0.074195 -0.560809
  2 11.072353 -0.043442 -0.000000 0.000000 -0.000000 -1.012879
  3 8.108978 0.000000 0.000000 0.056080 -0.011282 0.096257
  4 0.758958 -0.993291 -0.533611 0.450967 0.475232 -0.090834
  5 1.920300 0.000000 -0.000001 0.000004 0.000003 0.398814
  6 0.858253 -0.000000 0.000001 0.000000 -0.000000 -0.069433
  7 2.931402 -0.842323 0.160553 0.000099 0.244346 -0.014674
  8 1.836085 0.000000 0.000001 0.000684 0.976596 0.000448
  9 0.853993 -0.000000 -0.000004 0.002756 0.113413 0.024347
 10 2.964060 -0.072900 0.178523 -0.018769 1.060521 -0.035630
 11 1.814738 -0.000000 -0.000002 0.554051 1.915642 0.623808
 12 0.982325 -0.000000 -0.000000 0.000000 0.095993 0.021736
 13 2.910365 0.632510 0.212797 -0.261503 1.212730 -0.292339
 14 1.751858 -0.000000 0.000001 0.745650 1.940428 0.754635
 15 0.853993 0.000000 -0.000000 -0.000000 0.043633 0.000000
 16 2.899451 1.342927 0.078013 -0.707016 1.171529 -0.762778
 17 1.152892 -0.000002 -0.000001 -0.614257 1.271614 -0.532564
 18 0.748462 0.000000 0.000000 -0.000000 0.314159 -0.057080
 19 -9.816048 -15.513170 -3.467444 0.128511 0.710181 0.744711
 20 -0.023289 0.041604 -0.000001 -0.173614 -0.185273 -0.021891
 21 11.072351 -0.043441 0.000004 -0.000000 0.000000 -1.916553
 22 8.108974 0.000000 0.000000 -2.617060 0.048279 0.202480
 23 0.788881 0.969696 -0.533611 -3.132821 0.340246 0.309719
 24 1.920299 0.000000 -0.000001 -0.292276 0.215845 -0.150686
 25 0.858252 -0.000000 0.000002 -0.205563 -0.121344 -0.126518
 26 2.955713 0.752580 0.160553 -2.856344 0.190721 -0.189367
 27 1.836086 0.000002 0.000001 0.996009 -1.679517 -0.667123
 28 0.853994 0.000004 -0.000002 -0.002756 -0.113413 0.024347
 29 2.964905 -0.017484 0.178523 -2.812254 0.390716 -0.212804
 30 1.814734 0.000000 0.000000 0.273590 -1.892299 -0.149844
 31 0.982325 -0.000001 -0.000001 0.049934 0.058895 0.016840
 32 2.889730 -0.720929 0.212798 -2.783004 0.751236 -0.182249
 33 1.751859 0.000000 -0.000002 0.104685 -1.912553 -0.038124
 34 0.853991 0.000003 0.000001 -0.022357 0.324473 0.012037
 35 2.857168 -1.430682 0.078012 -2.644982 1.197109 0.252190
 36 1.152893 0.000000 -0.000001 0.378771 -1.131337 -0.271524
 37 0.748465 0.000004 -0.000000 0.100505 -0.078938 -0.017161
 38 2.317405 -12.875961 -5.936673 1.667001 -0.011937 -0.061743
 39 2.444857 -11.016529 -6.426837 1.667001 -0.011937 -0.061743
 40 2.310223 -13.215815 -6.772683 1.667001 -0.011937 -0.061743
 41 2.251286 -14.511978 -8.090784 1.667001 -0.011937 -0.061743
 42 1.521769 -22.110546 -4.743433 1.666959 -0.011937 -0.061823
 43 0.000000 0.000000 0.000000 0.000000 -0.000000 0.000000
 44 2.694111 -4.246094 -1.192952 1.570796 0.000000 3.141593
time 6
  0 4.856782 7.575070 1.504075 -0.000000 1.570451 0.000000
  1 -0.023288 0.041601 0.000000 0.035149 0.074434 -0.555271
  2 11.072357 -0.043443 0.000000 -0.000000 -0.000000 -1.055332
  3 8.108977 0.000000 -0.000000 0.065524 0.012163 0.228391
  4 0.758958 -0.993292 -0.533611 0.450967 0.475232 -0.090834
  5 1.920300 0.000001 -0.000000 0.000004 0.000003 0.398793
  6 0.858252 0.000000 0.000000 -0.000000 0.000000 -0.069433
  7 2.931403 -0.842322 0.160553 0.000099 0.244346 -0.014674
  8 1.836088 0.000000 0.000001 0.000684 0.976596 0.000448
  9 0.853993 0.000001 -0.000001 0.002756 0.113413 0.024347
 10 2.964059 -0.072898 0.178523 -0.018769 1.060521 -0.035630
 11 1.814738 0.000000 0.000001 0.554052 1.915642 0.623809
 12 0.982325 0.000000 -0.000000 -0.000000 0.095993 0.021736
 13 2.910365 0.632510 0.212796 -0.261503 1.212730 -0.292339
 14 1.751858 0.000000 0.000000 0.745649 1.940428 0.754635
 15 0.853992 0.000001 0.000000 -0.000000 0.043633 0.000000
 16 2.899451 1.342928 0.078013 -0.707016 1.171529 -0.762778
 17 1.152892 -0.000002 0.000000 -0.614257 1.271614 -0.532564
 18 0.748463 0.000000 0.000000 0.000000 0.314159 -0.057080
 19 -9.816048 -15.513170 -3.467444 0.128511 0.710181 0.744711
 20 -0.023289 0.041604 -0.000001 -0.132006 -0.141433 0.010175
 21 11.072351 -0.043441 0.000001 -0.000000 -0.000000 -1.921832
 22 8.108974 0.000000 0.000001 -2.512123 0.087091 0.180506
 23 0.788884 0.969696 -0.533611 -3.132821 0.340246 0.309719
 24 1.920302 0.000001 0.000000 -0.292276 0.215845 -0.150686
 25 0.858252 0.000000 -0.000001 -0.205563 -0.121344 -0.126518
 26 2.955718 0.752580 0.160552 -2.856344 0.190721 -0.189367
 27 1.836082 0.000001 0.000000 0.996010 -1.679517 -0.667124
 28 0.853994 -0.000002 0.000002 -0.002756 -0.113413 0.024347
 29 2.964906 -0.017481 0.178524 -2.812254 0.390716 -0.212804
 30 1.814735 -0.000002 0.000002 0.273590 -1.892299 -0.149844
 31 0.982325 -0.000002 0.000001 0.049934 0.058895 0.016840
 32 2.889733 -0.720928 0.212797 -2.783004 0.751236 -0.182249
 33 1.751861 -0.000003 -0.000003 0.104685 -1.912553 -0.038124
 34 0.853992 0.000002 0.000001 -0.022357 0.324473 0.012037
 35 2.857169 -1.430683 0.078012 -2.644982 1.197109 0.252190
 36 1.152892 -0.000002 0.000000 0.378771 -1.131337 -0.271524
 37 0.748463 0.000001 -0.000002 0.100505 -0.078938 -0.017161
 38 2.106461 -12.922838 -6.299966 1.761060 -0.017498 -0.093232
 39 2.288602 -11.024341 -6.606530 1.761060 -0.017498 -0.093232
 40 2.095372 -13.184564 -7.163320 1.761060 -0.017498 -0.093232
 41 2.016904 -14.344004 -8.594706 1.761060 -0.017498 -0.093232
 42 1.013941 -22.192581 -5.981752 1.761028 -0.017498 -0.093301
 43 0.000000 0.000000 0.000000 0.000000 -0.000000 0.000000
 44 2.694111 -4.246094 -1.192952 1.570796 0.000000 3.141593
time 7
  0 4.856782 7.575070 1.504075 -0.000000 1.570451 0.000000
  1 -0.023288 0.041601 0.000000 0.036719 0.074554 -0.555790
  2 11.072353 -0.043441 0.000001 -0.000000 -0.000000 -1.096765
  3 8.108976 -0.000003 0.000000 0.080025 0.034819 0.370336
  4 0.758959 -0.993293 -0.533611 0.450967 0.475232 -0.090834
  5 1.920300 -0.000000 0.000000 0.000004 0.000003 0.398793
  6 0.858253 0.000000 -0.000000 0.000000 -0.000000 -0.069433
  7 2.931401 -0.842324 0.160553 0.000099 0.244346 -0.014674
  8 1.836088 -0.000000 0.000000 0.000684 0.976596 0.000448
  9 0.853993 0.000001 -0.000002 0.002756 0.113413 0.024347
 10 2.964060 -0.072900 0.178523 -0.018769 1.060521 -0.035630
 11 1.814738 0.000001 0.000002 0.554052 1.915642 0.623809
 12 0.982325 0.000000 -0.000000 -0.000000 0.095993 0.021736
 13 2.910363 0.632510 0.212796 -0.261503 1.212730 -0.292339
 14 1.751858 0.000001 0.000001 0.745650 1.940428 0.754635
 15 0.853991 0.000000 0.000000 -0.000000 0.043633 0.000000
 16 2.899449 1.342927 0.078012 -0.707016 1.171529 -0.762778
 17 1.152892 -0.000002 -0.000001 -0.614257 1.271614 -0.532564
 18 0.748463 0.000000 0.000000 -0.000000 0.314159 -0.057080
 19 -9.816048 -15.513170 -4.647168 0.074520 0.582540 0.803252
 20 -0.023289 0.041602 0.000000 -0.054800 -0.057189 -0.034527
 21 11.072350 -0.043443 0.000001 0.000000 -0.000000 -1.985309
 22 8.108974 0.000000 0.000000 -2.488773 0.168724 0.231750
 23 0.788882 0.969696 -0.533610 -3.132821 0.340246 0.309719
 24 1.920298 0.000001 0.000000 -0.292276 0.215845 -0.150686
 25 0.858253 0.000000 0.000001 -0.205563 -0.121344 -0.126518
 26 2.955714 0.752580 0.160553 -2.856344 0.190721 -0.189367
 27 1.836085 0.000002 0.000001 0.996010 -1.679517 -0.667124
 28 0.853994 0.000004 0.000000 -0.002756 -0.113413 0.024347
 29 2.964906 -0.017482 0.178524 -2.812254 0.390716 -0.212804
 30 1.814734 -0.000001 0.000000 0.273591 -1.892299 -0.149845
 31 0.982324 -0.000004 -0.000002 0.049934 0.058895 0.016840
 32 2.889731 -0.720927 0.212798 -2.783004 0.751236 -0.182249
 33 1.751860 0.000000 -0.000001 0.104685 -1.912553 -0.038124
 34 0.853992 0.000002 0.000001 -0.022357 0.324473 0.012037
 35 2.857165 -1.430683 0.078012 -2.644982 1.197109 0.252190
 36 1.152892 0.000001 -0.000002 0.378771 -1.131337 -0.271524
 37 0.748462 0.000001 -0.000002 0.100505 -0.078938 -0.017161
 38 1.887704 -12.938463 -6.624194 1.859727 -0.023142 -0.126452
 39 2.132347 -11.028248 -6.747159 1.859727 -0.023142 -0.126452
 40 1.884428 -13.114250 -7.514893 1.859727 -0.023142 -0.126452
 41 1.794241 -14.133060 -9.047844 1.859727 -0.023142 -0.126452
 42 0.513926 -22.161329 -7.223977 1.859718 -0.023142 -0.126504
 43 0.000000 0.000000 0.000000 0.000000 -0.000000 0.000000
 44 2.694111 -4.246094 -1.192952 1.570796 0.000000 3.141593
time 8
  0 4.856782 7.575070 1.504075 -0.000000 1.570451 0.000000
  1 -0.023288 0.041601 0.000000 0.037246 0.073727 -0.562705
  2 11.072355 -0.043444 -0.000001 0.000000 -0.000000 -1.122847
  3 8.108978 0.000000 0.000000 0.096036 0.054882 0.484070
  4 0.758958 -0.993292 -0.533611 0.394331 0.487109 -0.162156
  5 1.920300 0.000000 -0.000001 0.000004 0.000003 0.398793
  6 0.858251 -0.000000 0.000000 0.000000 -0.000000 -0.069433
  7 2.931400 -0.842324 0.160553 0.000099 0.244346 -0.014674
  8 1.836087 -0.000000 0.000000 0.000684 0.976596 0.000448
  9 0.853993 -0.000001 -0.000002 0.002756 0.113413 0.024347
 10 2.964059 -0.072900 0.178523 -0.018769 1.060521 -0.035630
 11 1.814738 -0.000000 0.000000 0.554052 1.915642 0.623809
 12 0.982326 -0.000000 0.000000 0.000000 0.095993 0.021736
 13 2.910364 0.632510 0.212797 -0.261503 1.212730 -0.292339
 14 1.751858 0.000000 0.000000 0.745650 1.940428 0.754635
 15 0.853991 0.000000 0.000000 -0.000000 0.043633 -0.000000
 16 2.899448 1.342927 0.078013 -0.707016 1.171529 -0.762778
 17 1.152892 -0.000002 -0.000001 -0.614257 1.271614 -0.532564
 18 0.748465 0.000001 -0.000000 -0.000000 0.314159 -0.057080
 19 -9.816048 -15.513170 -5.733138 0.008341 0.441851 0.873653
 20 -0.023288 0.041602 -0.000001 0.029140 0.029638 -0.087701
 21 11.072350 -0.043442 0.000001 -0.000000 -0.000000 -2.039633
 22 8.108976 -0.000002 -0.000001 -2.492380 0.230079 0.267372
 23 0.788883 0.969695 -0.533610 -3.132821 0.340246 0.309719
 24 1.920298 0.000001 0.000000 -0.292276 0.215845 -0.150686
 25 0.858253 -0.000000 0.000001 -0.205563 -0.121344 -0.126518
 26 2.955715 0.752581 0.160553 -2.856344 0.190721 -0.189367
 27 1.836085 0.000000 0.000000 0.996011 -1.679518 -0.667124
 28 0.853994 0.000004 0.000001 -0.002756 -0.113413 0.024347
 29 2.964905 -0.017482 0.178523 -2.812254 0.390716 -0.212804
 30 1.814735 0.000001 0.000002 0.273591 -1.892299 -0.149845
 31 0.982327 -0.000002 0.000000 0.049934 0.058895 0.016840
 32 2.889732 -0.720926 0.212798 -2.783004 0.751236 -0.182249
 33 1.751863 -0.000004 0.000000 0.104685 -1.912553 -0.038124
 34 0.853993 0.000004 0.000002 -0.022357 0.324473 0.012037
 35 2.857166 -1.430681 0.078012 -2.644982 1.197109 0.252190
 36 1.152891 0.000000 0.000000 0.378771 -1.131337 -0.271524
 37 0.748463 0.000000 -0.000001 0.100505 -0.078938 -0.017161
 38 1.715824 -12.946276 -6.862483 1.939204 -0.027768 -0.156367
 39 2.015156 -11.039967 -6.829193 1.939204 -0.027768 -0.156367
 40 1.724267 -13.055654 -7.757088 1.939204 -0.027768 -0.156367
 41 1.634080 -13.945554 -9.375979 1.939204 -0.027768 -0.156367
 42 0.099851 -22.051952 -8.204476 1.939213 -0.027768 -0.156407
 43 0.000000 0.000000 0.000000 0.000000 -0.000000 0.000000
 44 2.694111 -4.246094 -1.192952 1.570796 0.000000 3.141593
time 9
  0 4.856782 7.575070 1.504075 -0.000000 1.570451 0.000000
  1 -0.023288 0.041601 0.000000 0.036923 0.071918 -0.570442
  2 11.072353 -0.043443 -0.000002 0.000000 0.000000 -1.139417
  3 8.108978 0.000000 -0.000000 0.110082 0.070850 0.560884
  4 0.758958 -0.993292 -0.533611 0.333557 0.496565 -0.237841
  5 1.920300 0.000000 0.000000 0.001730 0.006427 0.492184
  6 0.858253 0.000001 0.000000 0.000000 0.000000 -0.069433
  7 2.931401 -0.842323 0.160553 0.000099 0.244346 -0.014674
  8 1.836087 0.000000 -0.000001 0.000684 0.976596 0.000448
  9 0.853994 0.000001 -0.000002 0.002756 0.113413 0.024347
 10 2.964059 -0.072900 0.178524 -0.018769 1.060521 -0.035630
 11 1.814738 -0.000000 -0.000001 0.554052 1.915642 0.623809
 12 0.982326 -0.000001 0.000000 0.000000 0.095993 0.021736
 13 2.910364 0.632510 0.212797 -0.261503 1.212730 -0.292339
 14 1.751858 0.000000 0.000000 0.745649 1.940428 0.754635
 15 0.853991 0.000001 -0.000000 -0.000000 0.043633 -0.000000
 16 2.899450 1.342929 0.078013 -0.707015 1.171529 -0.762778
 17 1.152892 -0.000002 0.000000 -0.614257 1.271614 -0.532564
 18 0.748463 -0.000001 0.000000 -0.000000 0.314159 -0.057080
 19 -9.816048 -15.513170 -6.701918 -0.069646 0.297162 0.955151
 20 -0.023289 0.041602 0.000000 0.147289 0.142866 -0.081785
 21 11.072352 -0.043441 0.000003 0.000000 0.000000 -2.126398
 22 8.108978 0.000001 0.000000 -2.487061 0.246491 0.276042
 23 0.788881 0.969696 -0.533611 -3.132821 0.340246 0.309719
 24 1.920302 0.000001 0.000001 -0.292276 0.215845 -0.150686
 25 0.858252 0.000000 0.000000 -0.205563 -0.121344 -0.126518
 26 2.955713 0.752581 0.160551 -2.856344 0.190721 -0.189367
 27 1.836084 0.000000 0.000001 0.996009 -1.679517 -0.667124
 28 0.853994 0.000000 0.000000 -0.002756 -0.113413 0.024347
 29 2.964909 -0.017481 0.178523 -2.812254 0.390716 -0.212804
 30 1.814734 0.000001 0.000002 0.273591 -1.892299 -0.149845
 31 0.982326 -0.000004 0.000002 0.049934 0.058895 0.016840
 32 2.889734 -0.720926 0.212796 -2.783004 0.751236 -0.182249
 33 1.751862 -0.000002 -0.000002 0.104685 -1.912553 -0.038124
 34 0.853992 0.000002 0.000001 -0.022357 0.324473 0.012037
 35 2.857168 -1.430682 0.078011 -2.644982 1.197109 0.252190
 36 1.152892 0.000000 0.000002 0.378771 -1.131337 -0.271524
 37 0.748462 0.000000 0.000000 0.100505 -0.078938 -0.017161
 38 1.618165 -12.946276 -6.979674 1.990731 -0.031519 -0.179196
 39 1.952654 -11.051686 -6.840912 1.990731 -0.031519 -0.179196
 40 1.630514 -13.004871 -7.882092 1.990731 -0.031519 -0.179196
 41 1.540327 -13.816644 -9.532234 1.990731 -0.031519 -0.179196
 42 -0.173595 -21.938667 -8.790431 1.990723 -0.031519 -0.179253
 43 0.000000 0.000000 0.000000 0.000000 -0.000000 0.000000
 44 2.694111 -4.246094 -1.192952 1.570796 0.000000 3.141593
time 10
  0 4.856782 7.575070 1.504075 -0.000000 1.570451 0.000000
  1 -0.023288 0.041601 0.000000 0.036443 0.069844 -0.576068
  2 11.072353 -0.043443 0.000000 0.000000 -0.000000 -1.156526
  3 8.108976 -0.000001 0.000000 0.121695 0.082460 0.616978
  4 0.758957 -0.993291 -0.533611 0.271134 0.502149 -0.315222
  5 1.920301 0.000001 -0.000000 0.004043 0.012671 0.585575
  6 0.858252 0.000000 0.000000 -0.000000 0.000000 -0.069433
  7 2.931400 -0.842323 0.160553 0.000099 0.244346 -0.014674
  8 1.836085 0.000001 0.000000 0.000684 0.976596 0.000448
  9 0.853993 0.000000 -0.000001 0.002756 0.113413 0.024347
 10 2.964058 -0.072898 0.178523 -0.018769 1.060521 -0.035630
 11 1.814737 -0.000000 -0.000001 0.554052 1.915642 0.623808
 12 0.982326 0.000000 -0.000000 0.000000 0.095993 0.021736
 13 2.910364 0.632511 0.212797 -0.261503 1.212730 -0.292339
 14 1.751858 0.000000 -0.000001 0.745650 1.940428 0.754635
 15 0.853992 0.000000 -0.000000 -0.000000 0.043633 -0.000000
 16 2.899450 1.342930 0.078013 -0.707016 1.171529 -0.762778
 17 1.152891 -0.000001 0.000001 -0.614257 1.271614 -0.532564
 18 0.748463 -0.000001 -0.000001 0.000000 0.314159 -0.057080
 19 -9.816048 -15.513170 -7.569132 -0.158107 0.157160 1.046406
 20 -0.023285 0.041602 -0.000001 0.262057 0.242558 -0.075576
 21 11.072348 -0.043442 -0.000001 -0.000000 -0.000000 -2.198390
 22 8.108974 0.000000 0.000000 -2.504490 0.254186 0.267201
 23 0.788881 0.969695 -0.533611 -3.065983 0.333259 0.389358
 24 1.920301 0.000001 -0.000001 -0.092867 0.153226 -0.187681
 25 0.858252 -0.000000 0.000000 -0.125506 -0.072351 -0.107067
 26 2.955715 0.752581 0.160552 -2.966315 0.137462 -0.125118
 27 1.836087 0.000000 0.000001 0.000593 -1.086450 0.216163
 28 0.853995 0.000000 -0.000001 -0.002756 -0.113413 0.024347
 29 2.964905 -0.017483 0.178522 -2.928852 0.300077 -0.137601
 30 1.814735 0.000000 0.000000 -0.079740 -1.259021 0.154565
 31 0.982327 -0.000003 0.000000 0.049934 0.058895 0.016840
 32 2.889730 -0.720927 0.212796 -2.924345 0.576524 -0.148333
 33 1.751860 -0.000002 -0.000002 -0.011596 -1.308301 0.041444
 34 0.853992 0.000001 0.000001 -0.022357 0.324473 0.012037
 35 2.857168 -1.430681 0.078010 -2.921818 0.960770 0.045096
 36 1.152892 0.000002 -0.000002 0.064948 -0.551143 -0.055579
 37 0.748464 0.000001 -0.000004 0.060441 -0.170764 -0.035473
 38 1.555663 -12.930650 -6.987487 2.023344 -0.035151 -0.195781
 39 1.925309 -11.039967 -6.790129 2.023344 -0.035151 -0.195781
 40 1.583638 -12.957995 -7.889905 2.023344 -0.035151 -0.195781
 41 1.497357 -13.715078 -9.575204 2.023344 -0.035151 -0.195781
 42 -0.349382 -21.821476 -9.099035 2.023361 -0.035151 -0.195804
 43 0.000000 0.000000 0.000000 0.000000 -0.000000 0.000000
 44 2.694111 -4.246094 -1.192952 1.570796 0.000000 3.141593
time 11
  0 4.856782 7.575070 1.504075 -0.000000 1.570451 0.000000
  1 -0.023288 0.041601 0.000000 0.035748 0.067328 -0.578811
  2 11.072353 -0.043442 -0.000001 0.000000 -0.000000 -1.175151
  3 8.108977 0.000001 0.000000 0.130552 0.092191 0.655384
  4 0.758958 -0.993292 -0.533611 0.209843 0.503084 -0.391259
  5 1.920299 0.000001 -0.000001 0.013822 0.007530 0.585175
  6 0.858252 0.000000 -0.000001 -0.000000 0.000000 -0.069433
  7 2.931400 -0.842322 0.160553 0.000099 0.244346 -0.014674
  8 1.836087 0.000001 0.000000 0.000684 0.976596 0.000448
  9 0.853993 0.000001 -0.000005 0.002756 0.113413 0.024347
 10 2.964060 -0.072899 0.178523 -0.018769 1.060521 -0.035630
 11 1.814738 -0.000000 0.000000 0.554052 1.915642 0.623809
 12 0.982326 -0.000001 0.000000 0.000000 0.095993 0.021736
 13 2.910364 0.632510 0.212797 -0.261503 1.212730 -0.292339
 14 1.751858 0.000001 0.000001 0.745650 1.940428 0.754635
 15 0.853992 0.000000 0.000000 0.000000 0.043633 0.000000
 16 2.899448 1.342929 0.078013 -0.707016 1.171529 -0.762778
 17 1.152892 -0.000002 0.000000 -0.614257 1.271614 -0.532564
 18 0.748463 0.000000 -0.000000 0.000000 0.314159 -0.057080
 19 -9.816048 -15.513170 -8.326968 -0.254662 0.029907 1.145313
 20 -0.023285 0.041600 0.000000 0.370515 0.327784 -0.069587
 21 11.072351 -0.043443 0.000004 0.000000 0.000000 -2.258120
 22 8.108974 -0.000003 -0.000001 -2.539229 0.252190 0.245313
 23 0.788881 0.969697 -0.533612 -3.000152 0.321274 0.468078
 24 1.920299 0.000000 0.000001 0.107267 0.099007 -0.236096
 25 0.858250 0.000000 0.000001 -0.044682 -0.025048 -0.083769
 26 2.955710 0.752581 0.160553 -3.078898 0.091549 -0.055727
 27 1.836084 0.000003 0.000000 0.024835 -0.536186 0.063048
 28 0.853992 -0.000002 0.000000 -0.002756 -0.113413 0.024347
 29 2.964906 -0.017481 0.178523 -3.049477 0.218426 -0.053768
 30 1.814732 -0.000001 0.000000 0.008297 -0.637638 0.012419
 31 0.982324 -0.000001 0.000004 0.049934 0.058895 0.016840
 32 2.889729 -0.720926 0.212798 -3.059543 0.407113 -0.090998
 33 1.751860 -0.000002 0.000000 0.008052 -0.705249 -0.018075
 34 0.853993 0.000000 0.000002 -0.022357 0.324473 0.012037
 35 2.857163 -1.430681 0.078013 -3.066419 0.710202 -0.024103
 36 1.152891 -0.000001 0.000000 -0.083257 0.044251 -0.045684
 37 0.748462 0.000000 0.000000 0.021275 -0.263264 -0.050358
 38 1.536131 -12.887680 -6.917172 2.039912 -0.038435 -0.207746
 39 1.921403 -11.016529 -6.692470 2.039912 -0.038435 -0.207746
 40 1.568012 -12.911119 -7.819590 2.039912 -0.038435 -0.207746
 41 1.489544 -13.636951 -9.516609 2.039912 -0.038435 -0.207746
 42 -0.454854 -21.731630 -9.184975 2.039874 -0.038435 -0.207786
 43 0.000000 0.000000 0.000000 0.000000 -0.000000 0.000000
 44 2.694111 -4.246094 -1.192952 1.570796 0.000000 3.141593
time 12
  0 4.856782 7.575070 1.504075 -0.000000 1.570451 0.000000
  1 -0.023288 0.041601 0.000000 0.034705 0.064224 -0.578887
  2 11.072353 -0.043444 0.000000 0.000000 -0.000000 -1.194117
  3 8.108978 0.000001 0.000000 0.136892 0.101922 0.678214
  4 0.758958 -0.993292 -0.533611 0.152689 0.499177 -0.462779
  5 1.920300 -0.000000 -0.000001 0.045078 -0.019256 0.381784
  6 0.858253 0.000000 0.000000 -0.016659 -0.076210 0.177586
  7 2.931402 -0.842323 0.160553 0.000099 0.244346 -0.014674
  8 1.836085 -0.000000 -0.000000 0.000684 0.976596 0.000448
  9 0.853993 0.000000 -0.000002 0.002756 0.113413 0.024347
 10 2.964060 -0.072898 0.178523 -0.018769 1.060521 -0.035630
 11 1.814738 0.000000 0.000001 0.554052 1.915641 0.623808
 12 0.982325 0.000000 0.000000 -0.000000 0.095993 0.021736
 13 2.910364 0.632510 0.212797 -0.261503 1.212730 -0.292339
 14 1.751859 -0.000000 0.000000 0.745650 1.940428 0.754635
 15 0.853992 -0.000000 0.000000 0.000000 0.043633 0.000000
 16 2.899450 1.342928 0.078012 -0.707016 1.171529 -0.762778
 17 1.152892 -0.000002 -0.000002 -0.614257 1.271614 -0.532564
 18 0.748462 -0.000000 -0.000000 -0.000000 0.314159 -0.057080
 19 -9.816048 -15.513170 -8.975425 -0.354835 -0.077998 1.247281
 20 -0.023289 0.041602 0.000000 0.469400 0.398129 -0.063305
 21 11.072351 -0.043442 0.000002 0.000000 -0.000000 -2.306825
 22 8.108974 0.000001 0.000000 -2.584275 0.240847 0.213982
 23 0.788884 0.969697 -0.533611 -2.964725 0.312669 0.510596
 24 1.920302 0.000000 -0.000001 0.210671 0.068566 -0.242726
 25 0.858252 -0.000001 0.000000 -0.000003 -0.000012 -0.069435
 26 2.955716 0.752582 0.160553 -3.141590 0.069820 -0.015806
 27 1.836084 0.000001 -0.000001 -0.000116 -0.235666 0.000046
 28 0.853994 0.000000 0.000001 -0.002756 -0.113413 0.024347
 29 2.964906 -0.017481 0.178524 -3.117454 0.178109 -0.004452
 30 1.814733 0.000000 0.000001 0.006519 -0.296680 -0.022543
 31 0.982327 0.000000 0.000000 0.049934 0.058895 0.016840
 32 2.889733 -0.720928 0.212799 -3.134077 0.317781 -0.051173
 33 1.751860 -0.000002 0.000000 -0.000095 -0.375284 -0.036381
 34 0.853992 0.000001 0.000002 -0.022357 0.324473 0.012037
 35 2.857167 -1.430682 0.078012 -3.125569 0.571244 -0.038304
 36 1.152888 0.000001 0.000000 -0.168147 0.368641 -0.078880
 37 0.748463 0.000001 -0.000001 0.000002 -0.314102 -0.057070
 38 1.540038 -12.840804 -6.792168 2.043306 -0.041179 -0.216931
 39 1.940935 -10.969652 -6.563560 2.043306 -0.041179 -0.216931
 40 1.571919 -12.860336 -7.698493 2.043306 -0.041179 -0.216931
 41 1.489544 -13.582262 -9.395511 2.043306 -0.041179 -0.216931
 42 -0.529075 -21.661316 -9.091222 2.043332 -0.041179 -0.216975
 43 0.000000 0.000000 0.000000 0.000000 -0.000000 0.000000
 44 2.694111 -4.246094 -1.192952 1.570796 0.000000 3.141593
time 13
  0 4.856782 7.575070 1.504075 -0.000000 1.570451 0.000000
  1 -0.023288 0.041601 0.000000 0.033231 0.060496 -0.576839
  2 11.072352 -0.043443 -0.000000 0.000000 0.000000 -1.211821
  3 8.108976 0.000000 0.000000 0.141242 0.113193 0.687400
  4 0.758958 -0.993292 -0.533612 0.102510 0.490836 -0.526720
  5 1.920301 0.000000 -0.000001 0.092657 -0.044280 0.083110
  6 0.858251 0.000000 -0.000000 -0.051761 -0.146008 0.427877
  7 2.931400 -0.842323 0.160552 0.000099 0.244346 -0.014674
  8 1.836087 -0.000000 0.000001 0.000684 0.976596 0.000448
  9 0.853993 0.000000 -0.000004 0.002756 0.113413 0.024347
 10 2.964059 -0.072899 0.178522 -0.018769 1.060521 -0.035630
 11 1.814737 -0.000000 -0.000002 0.554052 1.915642 0.623808
 12 0.982325 -0.000000 0.000000 -0.000000 0.095993 0.021736
 13 2.910363 0.632510 0.212797 -0.261503 1.212730 -0.292339
 14 1.751858 0.000000 0.000000 0.745649 1.940428 0.754635
 15 0.853992 -0.000000 0.000000 0.000000 0.043633 -0.000000
 16 2.899449 1.342928 0.078012 -0.707016 1.171529 -0.762778
 17 1.152892 -0.000002 0.000000 -0.614257 1.271614 -0.532565
 18 0.748463 -0.000000 -0.000000 0.000000 0.314159 -0.057080
 19 -9.816048 -15.513170 -9.522317 -0.451010 -0.162286 1.345041
 20 -0.023289 0.041603 0.000000 0.555061 0.453464 -0.054248
 21 11.072348 -0.043446 0.000001 0.000000 0.000000 -2.346929
 22 8.108975 0.000001 -0.000001 -2.631815 0.223769 0.177674
 23 0.788881 0.969696 -0.533609 -2.954742 0.309973 0.522615
 24 1.920299 0.000000 0.000000 0.227792 0.050601 -0.202653
 25 0.858248 0.000000 0.000002 0.012748 0.006999 -0.065169
 26 2.955713 0.752578 0.160553 3.123642 0.064116 -0.004217
 27 1.836084 0.000001 -0.000001 -0.010427 -0.150505 -0.018468
 28 0.853994 0.000000 -0.000001 -0.002756 -0.113413 0.024347
 29 2.964905 -0.017483 0.178524 -3.137072 0.167251 0.010038
 30 1.814734 -0.000001 0.000001 0.003806 -0.199717 -0.032026
 31 0.982326 -0.000002 -0.000003 0.049934 0.058895 0.016840
 32 2.889730 -0.720928 0.212799 3.127624 0.292892 -0.038781
 33 1.751862 0.000000 0.000001 -0.003354 -0.281441 -0.041880
 34 0.853996 0.000002 0.000003 -0.022357 0.324473 0.012037
 35 2.857168 -1.430683 0.078014 -3.141023 0.531628 -0.040390
 36 1.152893 0.000000 -0.000001 -0.196526 0.460274 -0.094664
 37 0.748459 0.000001 -0.000001 -0.006026 -0.328615 -0.058783
 38 1.555663 -12.793928 -6.639820 2.036408 -0.043216 -0.225118
 39 1.972186 -10.914963 -6.419024 2.036408 -0.043216 -0.225118
 40 1.591451 -12.813459 -7.542238 2.036408 -0.043216 -0.225118
 41 1.505170 -13.547104 -9.235350 2.036408 -0.043216 -0.225118
 42 -0.579858 -21.606627 -8.872465 2.036384 -0.043216 -0.225149
 43 0.000000 0.000000 0.000000 0.000000 -0.000000 0.000000
 44 2.694111 -4.246094 -1.192952 1.570796 0.000000 3.141593
time 14
  0 4.856782 7.575070 1.504075 -0.000000 1.570451 0.000000
  1 -0.023288 0.041601 0.000000 0.031242 0.056218 -0.573982
  2 11.072354 -0.043441 0.000000 0.000000 -0.000000 -1.224720
  3 8.108976 -0.000000 -0.000000 0.144226 0.127396 0.683625
  4 0.758958 -0.993292 -0.533611 0.062007 0.478911 -0.580195
  5 1.920300 0.000000 -0.000000 0.118232 -0.051183 -0.076256
  6 0.858252 0.000000 -0.000000 -0.073466 -0.174388 0.543271
  7 2.931402 -0.842323 0.160553 0.000099 0.244346 -0.014674
  8 1.836085 0.000000 0.000000 0.000684 0.976596 0.000448
  9 0.853993 0.000001 -0.000004 0.002756 0.113413 0.024347
 10 2.964059 -0.072899 0.178523 -0.018769 1.060521 -0.035630
 11 1.814737 0.000000 0.000000 0.554052 1.915642 0.623809
 12 0.982326 -0.000000 -0.000000 -0.000000 0.095993 0.021736
 13 2.910364 0.632509 0.212797 -0.261503 1.212730 -0.292339
 14 1.751858 -0.000000 0.000002 0.745650 1.940428 0.754635
 15 0.853991 -0.000000 0.000000 -0.000000 0.043633 -0.000000
 16 2.899451 1.342928 0.078012 -0.707016 1.171529 -0.762778
 17 1.152893 -0.000003 -0.000001 -0.614258 1.271614 -0.532564
 18 0.748463 0.000001 -0.000000 -0.000000 0.314159 -0.057080
 19 -9.816048 -15.513170 -9.952017 -0.533281 -0.221524 1.428356
 20 -0.023287 0.041601 -0.000001 0.623300 0.494049 -0.037010
 21 11.072350 -0.043442 0.000001 -0.000000 -0.000000 -2.380051
 22 8.108974 -0.000002 0.000000 -2.674487 0.209172 0.138618
 23 0.788883 0.969698 -0.533610 -2.946617 0.307672 0.532418
 24 1.920297 0.000000 0.000000 0.235982 0.031318 -0.151765
 25 0.858248 0.000000 0.000000 0.023235 0.012680 -0.061597
 26 2.955713 0.752582 0.160553 3.108889 0.059586 0.005335
 27 1.836082 0.000001 0.000002 -0.019793 -0.080999 -0.034087
 28 0.853996 0.000000 -0.000001 -0.002756 -0.113413 0.024347
 29 2.964904 -0.017481 0.178524 3.129981 0.158598 0.022010
 30 1.814734 -0.000002 0.000001 0.000999 -0.120388 -0.039785
 31 0.982324 -0.000001 0.000002 0.049934 0.058895 0.016840
 32 2.889730 -0.720926 0.212797 3.109928 0.272723 -0.028319
 33 1.751859 -0.000002 0.000001 -0.006325 -0.204695 -0.046384
 34 0.853992 0.000003 0.000000 -0.022357 0.324473 0.012037
 35 2.857165 -1.430680 0.078012 3.129827 0.499182 -0.041516
 36 1.152892 -0.000001 0.000001 -0.222062 0.534897 -0.110473
 37 0.748463 0.000001 -0.000000 -0.010988 -0.340489 -0.060138
 38 1.575195 -12.739238 -6.487471 2.022075 -0.044355 -0.233987
 39 2.011250 -10.864180 -6.294020 2.022075 -0.044355 -0.233987
 40 1.607076 -12.770489 -7.389889 2.022075 -0.044355 -0.233987
 41 1.509076 -13.527573 -9.067376 2.022075 -0.044355 -0.233987
 42 -0.657985 -21.563656 -8.591207 2.022036 -0.044355 -0.234034
 43 0.000000 0.000000 0.000000 0.000000 -0.000000 0.000000
 44 2.694111 -4.246094 -1.192952 1.570796 0.000000 3.141593
time 15
  0 4.856782 7.575070 1.504075 -0.000000 1.570451 0.000000
  1 -0.023288 0.041601 0.000000 0.028725 0.051412 -0.570872
  2 11.072353 -0.043443 0.000000 0.000000 0.000000 -1.231113
  3 8.108977 -0.000002 0.000000 0.146408 0.145806 0.668910
  4 0.758958 -0.993293 -0.533612 0.084366 0.455949 -0.560916
  5 1.920300 -0.000000 -0.000000 0.116506 -0.050943 -0.080881
  6 0.858252 0.000001 0.000000 -0.045661 -0.136612 0.391825
  7 2.931401 -0.842324 0.160553 0.000099 0.244346 -0.014674
  8 1.836086 0.000000 -0.000001 0.000684 0.976596 0.000448
  9 0.853993 0.000001 -0.000002 0.002756 0.113413 0.024347
 10 2.964060 -0.072899 0.178522 -0.018769 1.060521 -0.035630
 11 1.814737 0.000000 0.000000 0.554052 1.915642 0.623809
 12 0.982325 -0.000001 -0.000000 -0.000000 0.095993 0.021736
 13 2.910364 0.632510 0.212797 -0.261503 1.212730 -0.292339
 14 1.751858 0.000000 -0.000001 0.745649 1.940428 0.754635
 15 0.853992 0.000000 0.000001 0.000000 0.043633 -0.000000
 16 2.899450 1.342929 0.078012 -0.707016 1.171529 -0.762778
 17 1.152892 -0.000002 0.000001 -0.614257 1.271614 -0.532564
 18 0.748463 -0.000000 0.000000 -0.000000 0.314159 -0.057080
 19 -9.816048 -15.513170 -10.280152 -0.590224 -0.256427 1.486227
 20 -0.023287 0.041603 -0.000001 0.669557 0.520038 -0.002900
 21 11.072351 -0.043445 -0.000001 0.000000 0.000000 -2.408703
 22 8.108974 0.000001 0.000000 -2.706671 0.209459 0.097760
 23 0.788881 0.969695 -0.533611 -2.940301 0.305814 0.540019
 24 1.920301 0.000001 0.000002 0.235498 0.011879 -0.092457
 25 0.858253 0.000000 0.000002 0.031384 0.017078 -0.058781
 26 2.955713 0.752580 0.160554 3.097384 0.056158 0.012813
 27 1.836084 0.000002 -0.000002 -0.027900 -0.027011 -0.046722
 28 0.853994 0.000000 -0.000001 -0.002756 -0.113413 0.024347
 29 2.964905 -0.017482 0.178525 3.117374 0.151983 0.031406
 30 1.814735 0.000000 0.000002 -0.001714 -0.058730 -0.046011
 31 0.982326 -0.000001 0.000001 0.049934 0.058895 0.016840
 32 2.889731 -0.720927 0.212798 3.096069 0.257165 -0.019966
 33 1.751860 0.000000 0.000000 -0.009009 -0.144961 -0.050026
 34 0.853993 0.000002 0.000002 -0.022357 0.324473 0.012037
 35 2.857166 -1.430682 0.078013 3.120419 0.473955 -0.042092
 36 1.152892 0.000001 0.000000 -0.243749 0.592675 -0.124867
 37 0.748465 0.000002 -0.000001 -0.014847 -0.349695 -0.061132
 38 1.583008 -12.688456 -6.354655 2.003175 -0.044355 -0.245323
 39 2.038594 -10.821210 -6.196361 2.003175 -0.044355 -0.245323
 40 1.610982 -12.743145 -7.257073 2.003175 -0.044355 -0.245323
 41 1.489544 -13.527573 -8.922841 2.003175 -0.044355 -0.245323
 42 -0.763457 -21.516779 -8.286510 2.003164 -0.044355 -0.245355
 43 0.000000 0.000000 0.000000 0.000000 -0.000000 0.000000
 44 2.694111 -4.246094 -1.192952 1.570796 0.000000 3.141593
time 16
  0 4.856782 7.575070 1.504075 -0.000000 1.570451 0.000000
  1 -0.023288 0.041601 0.000000 0.025417 0.045635 -0.573489
  2 11.072355 -0.043443 -0.000000 0.000000 0.000000 -1.227484
  3 8.108977 -0.000001 0.000000 0.148013 0.170115 0.648532
  4 0.758958 -0.993292 -0.533611 0.125942 0.437528 -0.527469
  5 1.920300 0.000000 0.000000 0.112491 -0.050296 -0.073712
  6 0.858253 0.000000 0.000000 -0.009959 -0.054889 0.106790
  7 2.931401 -0.842323 0.160553 0.000099 0.244346 -0.014674
  8 1.836087 0.000000 0.000000 0.000684 0.976596 0.000448
  9 0.853993 0.000000 -0.000005 0.002756 0.113413 0.024347
 10 2.964061 -0.072898 0.178524 -0.018769 1.060521 -0.035630
 11 1.814737 0.000000 0.000000 0.554052 1.915642 0.623809
 12 0.982326 0.000000 0.000000 0.000000 0.095993 0.021736
 13 2.910365 0.632510 0.212797 -0.261503 1.212730 -0.292339
 14 1.751858 -0.000000 -0.000002 0.745650 1.940428 0.754635
 15 0.853993 0.000000 0.000000 -0.000000 0.043633 0.000000
 16 2.899449 1.342928 0.078012 -0.707016 1.171529 -0.762778
 17 1.152892 -0.000002 0.000001 -0.614257 1.271614 -0.532564
 18 0.748465 -0.000000 -0.000000 0.000000 0.314159 -0.057080
 19 -9.816048 -15.513170 -10.498909 -0.611459 -0.268191 1.507463
 20 -0.023291 0.041601 0.000001 0.680850 0.526780 0.044431
 21 11.072350 -0.043442 0.000001 0.000000 0.000000 -2.434971
 22 8.108976 -0.000001 0.000000 -2.733837 0.230726 0.058533
 23 0.788882 0.969697 -0.533612 -2.935807 0.304484 0.545441
 24 1.920301 0.000000 -0.000001 0.226857 -0.006373 -0.027097
 25 0.858251 0.000000 0.000001 0.037233 0.020194 -0.056756
 26 2.955714 0.752582 0.160552 3.089151 0.053761 0.018158
 27 1.836083 0.000001 0.000000 -0.034118 0.011461 -0.055848
 28 0.853994 -0.000001 -0.000001 -0.002756 -0.113413 0.024347
 29 2.964905 -0.017482 0.178524 3.108325 0.147333 0.038165
 30 1.814734 -0.000001 0.000001 -0.003772 -0.014666 -0.050513
 31 0.982327 -0.000001 0.000001 0.049934 0.058895 0.016840
 32 2.889731 -0.720925 0.212797 3.086126 0.246124 -0.013865
 33 1.751860 -0.000003 -0.000001 -0.010830 -0.102367 -0.052805
 34 0.853991 0.000003 0.000002 -0.022357 0.324473 0.012037
 35 2.857167 -1.430681 0.078013 3.113775 0.455922 -0.042319
 36 1.152889 0.000000 0.000001 -0.260423 0.633828 -0.136411
 37 0.748465 0.000000 -0.000001 -0.017591 -0.356321 -0.061827
 38 1.579101 -12.688456 -6.210119 1.982591 -0.043049 -0.260910
 39 2.065939 -10.825117 -6.094795 1.982591 -0.043049 -0.260910
 40 1.595357 -12.754864 -7.116444 1.982591 -0.043049 -0.260910
 41 1.454387 -13.574449 -8.762679 1.982591 -0.043049 -0.260910
 42 -0.923618 -21.512873 -7.958375 1.982612 -0.043049 -0.260942
 43 0.000000 0.000000 0.000000 0.000000 -0.000000 0.000000
 44 2.694111 -4.246094 -1.192952 1.570796 0.000000 3.141593
time 17
  0 4.856782 7.575070 1.504075 -0.000000 1.570451 0.000000
  1 -0.023288 0.041601 0.000000 0.020851 0.037750 -0.581314
  2 11.072351 -0.043442 -0.000000 0.000000 0.000000 -1.219249
  3 8.108975 -0.000003 0.000001 0.149583 0.202953 0.630474
  4 0.758957 -0.993292 -0.533611 0.133338 0.437373 -0.546814
  5 1.920300 -0.000001 -0.000001 0.106475 -0.049169 -0.056240
  6 0.858252 -0.000000 0.000000 0.000000 0.000000 -0.069433
  7 2.931401 -0.842323 0.160553 0.000099 0.244346 -0.014674
  8 1.836084 -0.000000 -0.000001 0.000684 0.976596 0.000448
  9 0.853993 0.000000 -0.000006 0.002756 0.113413 0.024347
 10 2.964057 -0.072899 0.178522 -0.018769 1.060521 -0.035630
 11 1.814737 -0.000001 0.000000 0.554052 1.915642 0.623808
 12 0.982327 -0.000000 0.000000 0.000000 0.095993 0.021736
 13 2.910362 0.632510 0.212796 -0.261503 1.212730 -0.292339
 14 1.751858 -0.000001 0.000000 0.745650 1.940428 0.754635
 15 0.853992 0.000000 -0.000000 0.000000 0.043633 0.000000
 16 2.899448 1.342928 0.078013 -0.707016 1.171529 -0.762778
 17 1.152892 -0.000002 -0.000002 -0.614257 1.271614 -0.532564
 18 0.748462 0.000000 0.000000 0.000000 0.314159 -0.057080
 19 -9.816048 -15.513170 -10.600474 -0.598794 -0.261174 1.494645
 20 -0.023287 0.041599 0.000000 0.656785 0.514664 0.103084
 21 11.072350 -0.043442 -0.000002 -0.000000 -0.000000 -2.455577
 22 8.108975 0.000000 0.000001 -2.761754 0.272288 0.010208
 23 0.788881 0.969695 -0.533611 -2.933110 0.303669 0.548684
 24 1.920303 0.000002 -0.000001 0.210864 -0.022133 0.041841
 25 0.858250 0.000001 0.000002 0.040720 0.022076 -0.055509
 26 2.955714 0.752580 0.160551 3.084213 0.052359 0.021394
 27 1.836083 0.000000 -0.000001 -0.038132 0.034507 -0.061639
 28 0.853998 0.000001 0.000000 -0.002756 -0.113413 0.024347
 29 2.964905 -0.017484 0.178522 3.102908 0.144577 0.042240
 30 1.814732 -0.000001 0.000001 -0.005176 0.011764 -0.053291
 31 0.982325 -0.000001 -0.000002 0.049934 0.058895 0.016840
 32 2.889731 -0.720927 0.212798 3.080150 0.239522 -0.010162
 33 1.751860 -0.000002 0.000000 -0.012172 -0.076785 -0.054435
 34 0.853994 0.000001 0.000000 -0.022357 0.324473 0.012037
 35 2.857166 -1.430682 0.078012 3.109830 0.445107 -0.042391
 36 1.152893 -0.000001 -0.000001 -0.270964 0.658355 -0.143950
 37 0.748463 0.000000 0.000000 -0.019245 -0.360279 -0.062235
 38 1.575195 -12.711894 -6.038239 1.963195 -0.040208 -0.282428
 39 2.108909 -10.856367 -5.961979 1.963195 -0.040208 -0.282428
 40 1.583638 -12.801740 -6.940657 1.963195 -0.040208 -0.282428
 41 1.415323 -13.640857 -8.571267 1.963195 -0.040208 -0.282428
 42 -1.134562 -21.512873 -7.602895 1.963158 -0.040208 -0.282468
 43 0.000000 0.000000 0.000000 0.000000 -0.000000 0.000000
 44 2.694111 -4.246094 -1.192952 1.570796 0.000000 3.141593
time 18
  0 4.856782 7.575070 1.504075 -0.000000 1.570451 0.000000
  1 -0.023288 0.041601 0.000000 0.014763 0.026784 -0.585739
  2 11.072354 -0.043445 -0.000000 0.000000 0.000000 -1.217222
  3 8.108976 -0.000000 -0.000001 0.152220 0.246386 0.620158
  4 0.758957 -0.993292 -0.533611 0.142765 0.439770 -0.570809
  5 1.920300 -0.000000 -0.000000 0.098805 -0.047515 -0.029960
  6 0.858252 -0.000000 0.000000 0.000827 0.011302 -0.105093
  7 2.931400 -0.842323 0.160553 0.000099 0.244346 -0.014674
  8 1.836086 -0.000000 0.000001 0.000684 0.976596 0.000448
  9 0.853993 0.000000 -0.000003 0.002756 0.113413 0.024347
 10 2.964057 -0.072898 0.178523 -0.018769 1.060521 -0.035630
 11 1.814738 0.000000 0.000002 0.554052 1.915641 0.623809
 12 0.982327 -0.000000 -0.000000 0.000000 0.095993 0.021736
 13 2.910363 0.632510 0.212797 -0.261503 1.212730 -0.292339
 14 1.751859 0.000000 0.000001 0.745649 1.940428 0.754635
 15 0.853992 0.000000 0.000000 0.000000 0.043633 0.000000
 16 2.899449 1.342928 0.078013 -0.707016 1.171529 -0.762778
 17 1.152893 -0.000002 0.000000 -0.614257 1.271614 -0.532564
 18 0.748464 0.000000 -0.000000 0.000000 0.314159 -0.057080
 19 -9.816048 -15.513170 -10.600474 -0.563467 -0.240603 1.458966
 20 -0.023291 0.041605 0.000000 0.612611 0.489786 0.185548
 21 11.072348 -0.043442 0.000002 0.000000 0.000000 -2.462431
 22 8.108974 0.000000 0.000000 -2.790332 0.335549 -0.073311
 23 0.788882 0.969694 -0.533611 -2.932211 0.303381 0.549773
 24 1.920299 0.000000 0.000000 0.188568 -0.034178 0.111805
 25 0.858249 0.000000 0.000000 0.041907 0.022699 -0.055114
 26 2.955713 0.752580 0.160554 3.082583 0.051892 0.022473
 27 1.836084 0.000003 0.000000 -0.039470 0.042220 -0.063481
 28 0.853992 0.000000 0.000000 -0.002756 -0.113413 0.024347
 29 2.964905 -0.017482 0.178523 3.101087 0.143654 0.043594
 30 1.814734 0.000000 0.000001 -0.005643 0.020561 -0.054153
 31 0.982324 -0.000001 0.000000 0.049934 0.058895 0.016840
 32 2.889731 -0.720927 0.212796 3.078141 0.237342 -0.008940
 33 1.751861 -0.000001 0.000000 -0.012556 -0.068215 -0.054819
 34 0.853992 0.000002 0.000002 -0.022357 0.324473 0.012037
 35 2.857167 -1.430682 0.078012 3.108489 0.441510 -0.042403
 36 1.152892 0.000000 -0.000002 -0.274568 0.666585 -0.146565
 37 0.748463 0.000001 -0.000001 -0.019796 -0.361569 -0.062379
 38 1.583008 -12.676736 -5.889797 1.947854 -0.035690 -0.311660
 39 2.175317 -10.840742 -5.844788 1.947854 -0.035690 -0.311660
 40 1.583638 -12.774396 -6.788309 1.947854 -0.035690 -0.311660
 41 1.372353 -13.633045 -8.411106 1.947854 -0.035690 -0.311660
 42 -1.404102 -21.415215 -7.313824 1.947841 -0.035690 -0.311711
 43 0.000000 0.000000 0.000000 0.000000 -0.000000 0.000000
 44 2.694111 -4.246094 -1.192952 1.570796 0.000000 3.141593
time 19
  0 4.856782 7.575070 1.504075 -0.000000 1.570451 0.000000
  1 -0.023288 0.041601 0.000000 0.006590 0.011779 -0.578356
  2 11.072357 -0.043444 0.000001 0.000000 0.000000 -1.231935
  3 8.108978 0.000001 0.000000 0.157445 0.302819 0.623131
  4 0.758958 -0.993292 -0.533612 0.153207 0.444216 -0.598218
  5 1.920301 0.000001 0.000001 0.089793 -0.045250 0.003743
  6 0.858253 0.000000 0.000001 0.001138 0.018301 -0.127214
  7 2.931402 -0.842322 0.160553 0.000099 0.244346 -0.014674
  8 1.836086 0.000000 0.000001 0.000684 0.976596 0.000448
  9 0.853993 0.000000 -0.000004 0.002756 0.113413 0.024347
 10 2.964060 -0.072899 0.178523 -0.018769 1.060521 -0.035630
 11 1.814738 -0.000000 0.000001 0.554051 1.915642 0.623808
 12 0.982326 -0.000000 -0.000000 -0.000000 0.095993 0.021736
 13 2.910365 0.632511 0.212797 -0.261503 1.212730 -0.292339
 14 1.751858 -0.000000 0.000002 0.745649 1.940428 0.754635
 15 0.853993 0.000000 0.000000 0.000000 0.043633 -0.000000
 16 2.899450 1.342928 0.078013 -0.707016 1.171529 -0.762778
 17 1.152893 -0.000003 0.000000 -0.614257 1.271614 -0.532564
 18 0.748464 -0.000000 -0.000000 0.000000 0.314159 -0.057080
 19 -9.816048 -15.513170 -10.498909 -0.510047 -0.205968 1.404921
 20 -0.023289 0.041603 0.000000 0.552585 0.451811 0.300370
 21 11.072349 -0.043442 0.000000 -0.000000 -0.000000 -2.441400
 22 8.108976 0.000000 0.000002 -2.824951 0.418224 -0.223524
 23 0.788881 0.969696 -0.533612 -2.933110 0.303669 0.548684
 24 1.920299 0.000002 0.000000 0.161274 -0.041524 0.180217
 25 0.858250 0.000002 0.000002 0.040720 0.022076 -0.055509
 26 2.955712 0.752581 0.160552 3.084213 0.052359 0.021382
 27 1.836084 0.000002 0.000000 -0.038132 0.034507 -0.061639
 28 0.853994 0.000000 0.000000 -0.002756 -0.113413 0.024347
 29 2.964904 -0.017481 0.178521 3.102908 0.144577 0.042240
 30 1.814734 -0.000001 0.000003 -0.005176 0.011764 -0.053291
 31 0.982329 -0.000002 0.000000 0.049934 0.058895 0.016840
 32 2.889731 -0.720925 0.212796 3.080150 0.239522 -0.010162
 33 1.751859 -0.000001 -0.000001 -0.012172 -0.076785 -0.054435
 34 0.853989 0.000003 0.000002 -0.022357 0.324473 0.012037
 35 2.857166 -1.430681 0.078011 3.109830 0.445107 -0.042391
 36 1.152892 0.000000 0.000000 -0.270964 0.658355 -0.143950
 37 0.748463 0.000001 -0.000000 -0.019245 -0.360279 -0.062235
 38 1.614259 -12.485324 -5.823389 1.939438 -0.029266 -0.350444
 39 2.276883 -10.668862 -5.790099 1.939438 -0.029266 -0.350444
 40 1.599263 -12.590796 -6.717994 1.939438 -0.029266 -0.350444
 41 1.345008 -13.449445 -8.336885 1.939438 -0.029266 -0.350444
 42 -1.728330 -21.106611 -7.169288 1.939439 -0.029266 -0.350398
 43 0.000000 0.000000 0.000000 0.000000 -0.000000 0.000000
 44 2.694111 -4.246094 -1.192952 1.570796 0.000000 3.141593
time 20
  0 4.856782 7.575070 1.504075 -0.000000 1.570451 0.000000
  1 -0.023288 0.041601 0.000000 -0.006042 -0.010428 -0.546296
  2 11.072355 -0.043443 0.000000 -0.000000 -0.000000 -1.274261
  3 8.108978 0.000001 0.000000 0.165223 0.382997 0.634710
  4 0.758958 -0.993292 -0.533611 0.163706 0.450112 -0.627985
  5 1.920301 0.000000 0.000000 0.079762 -0.042302 0.043353
  6 0.858253 0.000000 -0.000000 0.001234 0.021704 -0.137929
  7 2.931403 -0.842323 0.160554 0.000099 0.244346 -0.014674
  8 1.836087 0.000001 -0.000001 0.000684 0.976596 0.000448
  9 0.853993 -0.000000 -0.000004 0.002756 0.113413 0.024347
 10 2.964061 -0.072899 0.178524 -0.018769 1.060521 -0.035630
 11 1.814737 0.000000 0.000000 0.554052 1.915642 0.623809
 12 0.982327 0.000000 -0.000000 0.000000 0.095993 0.021736
 13 2.910366 0.632510 0.212798 -0.261503 1.212730 -0.292339
 14 1.751858 -0.000000 0.000001 0.745650 1.940428 0.754635
 15 0.853992 0.000000 0.000000 -0.000000 0.043633 -0.000000
 16 2.899450 1.342928 0.078014 -0.707016 1.171529 -0.762778
 17 1.152893 -0.000001 -0.000001 -0.614257 1.271614 -0.532564
 18 0.748463 -0.000000 -0.000000 0.000000 0.314159 -0.057080
 19 -9.816048 -15.513170 -10.280152 -0.443868 -0.156733 1.337867
 20 -0.023291 0.041601 0.000000 0.474473 0.399110 0.442802
 21 11.072351 -0.043446 0.000002 0.000000 0.000000 -2.370429
 22 8.108974 -0.000005 -0.000001 -2.885353 0.501044 -0.482062
 23 0.788882 0.969696 -0.533612 -2.935807 0.304484 0.545441
 24 1.920300 0.000001 0.000000 0.130434 -0.043597 0.244182
 25 0.858252 -0.000001 0.000001 0.037233 0.020206 -0.056756
 26 2.955715 0.752581 0.160551 3.089151 0.053761 0.018158
 27 1.836085 0.000000 0.000001 -0.034118 0.011461 -0.055848
 28 0.853995 -0.000000 0.000000 -0.002756 -0.113413 0.024347
 29 2.964905 -0.017482 0.178523 3.108325 0.147333 0.038165
 30 1.814734 -0.000001 0.000002 -0.003772 -0.014666 -0.050513
 31 0.982326 -0.000001 -0.000001 0.049934 0.058895 0.016840
 32 2.889731 -0.720926 0.212796 3.086126 0.246124 -0.013865
 33 1.751861 -0.000001 -0.000001 -0.010830 -0.102367 -0.052805
 34 0.853991 0.000001 0.000002 -0.022357 0.324473 0.012037
 35 2.857168 -1.430681 0.078012 3.113775 0.455922 -0.042319
 36 1.152892 0.000000 0.000000 -0.260423 0.633828 -0.136411
 37 0.748463 0.000000 -0.000001 -0.017591 -0.356321 -0.061827
 38 1.680667 -11.993122 -5.889797 1.934100 -0.019307 -0.404814
 39 2.444857 -10.215723 -5.868226 1.934100 -0.019307 -0.404814
 40 1.657859 -12.094687 -6.788309 1.934100 -0.019307 -0.404814
 41 1.329383 -12.933805 -8.395481 1.934100 -0.019307 -0.404814
 42 -2.134593 -20.419090 -7.177101 1.934107 -0.019307 -0.404823
 43 0.000000 0.000000 0.000000 0.000000 -0.000000 0.000000
 44 2.694111 -4.246094 -1.192952 1.570796 0.000000 3.141593
time 21
  0 4.856782 7.575070 1.504075 -0.000000 1.570451 0.000000
  1 -0.023288 0.041601 0.000000 -0.024666 -0.040330 -0.489659
  2 11.072357 -0.043443 0.000000 -0.000000 -0.000000 -1.335652
  3 8.108977 0.000000 -0.000000 0.172414 0.489814 0.641532
  4 0.758957 -0.993291 -0.533610 0.173267 0.456848 -0.658964
  5 1.920300 0.000000 0.000000 0.069035 -0.038635 0.087399
  6 0.858252 0.000000 0.000000 0.001234 0.022172 -0.139350
  7 2.931401 -0.842322 0.160554 0.000099 0.244346 -0.014674
  8 1.836087 0.000001 -0.000001 0.000684 0.976596 0.000448
  9 0.853992 0.000000 -0.000004 0.002756 0.113413 0.024347
 10 2.964059 -0.072898 0.178524 -0.018769 1.060521 -0.035630
 11 1.814736 0.000000 0.000000 0.554052 1.915642 0.623809
 12 0.982325 0.000001 -0.000000 0.000000 0.095993 0.021736
 13 2.910364 0.632510 0.212797 -0.261503 1.212730 -0.292339
 14 1.751858 0.000000 0.000000 0.745650 1.940428 0.754635
 15 0.853992 -0.000000 -0.000000 -0.000000 0.043633 -0.000000
 16 2.899450 1.342929 0.078013 -0.707016 1.171529 -0.762778
 17 1.152892 -0.000002 0.000000 -0.614257 1.271614 -0.532564
 18 0.748463 -0.000000 -0.000000 -0.000000 0.314159 -0.057080
 19 -9.816048 -15.513170 -9.952017 -0.369976 -0.092599 1.262778
 20 -0.023289 0.041601 0.000001 0.379120 0.335895 0.570917
 21 11.072349 -0.043444 -0.000004 -0.000000 -0.000000 -2.240921
 22 8.108976 -0.000002 0.000003 -2.965498 0.544476 -0.822402
 23 0.788882 0.969696 -0.533609 -2.940301 0.305814 0.540019
 24 1.920300 0.000000 0.000000 0.097529 -0.040146 0.300911
 25 0.858251 0.000001 0.000001 0.031384 0.017066 -0.058781
 26 2.955714 0.752580 0.160551 3.097384 0.056170 0.012801
 27 1.836084 0.000001 0.000000 -0.027900 -0.027011 -0.046722
 28 0.853992 0.000000 0.000001 -0.002756 -0.113413 0.024347
 29 2.964905 -0.017481 0.178523 3.117374 0.151983 0.031406
 30 1.814735 -0.000001 0.000002 -0.001714 -0.058730 -0.046011
 31 0.982324 -0.000000 -0.000001 0.049934 0.058895 0.016840
 32 2.889730 -0.720927 0.212798 3.096069 0.257165 -0.019966
 33 1.751860 -0.000001 -0.000001 -0.009009 -0.144961 -0.050026
 34 0.853993 0.000001 0.000001 -0.022357 0.324473 0.012037
 35 2.857167 -1.430682 0.078012 3.120419 0.473955 -0.042092
 36 1.152892 0.000000 0.000000 -0.243749 0.592675 -0.124867
 37 0.748465 0.000001 -0.000003 -0.014847 -0.349695 -0.061132
 38 1.797858 -11.172784 -6.089022 1.926581 -0.005225 -0.475979
 39 2.683145 -9.457887 -6.079170 1.926581 -0.005225 -0.475979
 40 1.751612 -11.274350 -6.987533 1.926581 -0.005225 -0.475979
 41 1.341102 -12.090029 -8.590799 1.926581 -0.005225 -0.475979
 42 -2.626795 -19.309681 -7.306011 1.926577 -0.005225 -0.476002
 43 0.000000 0.000000 0.000000 0.000000 -0.000000 0.000000
 44 2.694111 -4.246094 -1.192952 1.570796 0.000000 3.141593
time 22
  0 4.856782 7.575070 1.504075 -0.000000 1.570451 0.000000
  1 -0.023288 0.041601 0.000000 -0.048288 -0.074726 -0.418599
  2 11.072355 -0.043442 0.000001 0.000000 0.000000 -1.398942
  3 8.108978 -0.000001 0.000000 0.176129 0.613463 0.635750
  4 0.758958 -0.993293 -0.533611 0.181007 0.463655 -0.690031
  5 1.920301 0.000000 0.000001 0.057986 -0.034237 0.134473
  6 0.858252 -0.000000 0.000001 0.001198 0.020362 -0.133647
  7 2.931402 -0.842323 0.160553 0.000099 0.244346 -0.014674
  8 1.836087 -0.000000 0.000000 0.000684 0.976596 0.000448
  9 0.853993 -0.000001 -0.000003 0.002756 0.113413 0.024347
 10 2.964061 -0.072900 0.178524 -0.018769 1.060521 -0.035630
 11 1.814737 -0.000000 -0.000001 0.554052 1.915642 0.623809
 12 0.982327 0.000001 -0.000000 0.000000 0.095993 0.021736
 13 2.910365 0.632510 0.212797 -0.261503 1.212730 -0.292339
 14 1.751859 -0.000000 0.000000 0.745649 1.940428 0.754635
 15 0.853992 0.000000 0.000000 -0.000000 0.043633 0.000000
 16 2.899450 1.342927 0.078012 -0.707016 1.171529 -0.762778
 17 1.152894 -0.000002 0.000000 -0.614257 1.271614 -0.532564
 18 0.748464 0.000000 -0.000000 -0.000000 0.314159 -0.057080
 19 -9.816048 -15.513170 -9.522317 -0.293227 -0.014223 1.184436
 20 -0.023289 0.041603 0.000001 0.283707 0.277976 0.679238
 21 11.072352 -0.043445 0.000006 -0.000000 -0.000000 -2.036483
 22 8.108976 0.000001 -0.000002 -3.028394 0.558372 -1.219737
 23 0.788881 0.969697 -0.533612 -2.946617 0.307672 0.532418
 24 1.920301 0.000001 0.000000 0.063996 -0.031301 0.347484
 25 0.858251 -0.000001 0.000002 0.023235 0.012680 -0.061597
 26 2.955714 0.752580 0.160551 3.108889 0.059586 0.005335
 27 1.836084 0.000000 0.000002 -0.019793 -0.080999 -0.034087
 28 0.853995 -0.000001 -0.000001 -0.002756 -0.113413 0.024347
 29 2.964905 -0.017481 0.178523 3.129981 0.158598 0.021998
 30 1.814734 -0.000001 0.000000 0.000999 -0.120388 -0.039785
 31 0.982326 -0.000001 0.000002 0.049934 0.058895 0.016840
 32 2.889732 -0.720927 0.212795 3.109928 0.272723 -0.028319
 33 1.751860 -0.000001 -0.000002 -0.006325 -0.204695 -0.046384
 34 0.853992 0.000001 0.000002 -0.022357 0.324473 0.012037
 35 2.857166 -1.430682 0.078011 3.129827 0.499182 -0.041516
 36 1.152893 -0.000000 -0.000002 -0.222062 0.534897 -0.110473
 37 0.748464 0.000001 0.000000 -0.010988 -0.340489 -0.060138
 38 1.946300 -10.129784 -6.385906 1.917600 0.011553 -0.557903
 39 2.968310 -8.496920 -6.395586 1.917600 0.011553 -0.557903
 40 1.868803 -10.231349 -7.276605 1.917600 0.011553 -0.557903
 41 1.364540 -11.011871 -8.875964 1.917600 0.011553 -0.557903
 42 -3.158061 -17.876043 -7.520861 1.917594 0.011553 -0.557944
 43 0.000000 0.000000 0.000000 0.000000 -0.000000 0.000000
 44 2.694111 -4.246094 -1.192952 1.570796 0.000000 3.141593
time 23
  0 4.856782 7.575070 1.504075 -0.000000 1.570451 0.000000
  1 -0.023288 0.041601 0.000000 -0.074702 -0.110428 -0.341406
  2 11.072353 -0.043442 -0.000000 -0.000000 -0.000000 -1.452593
  3 8.108975 0.000002 -0.000000 0.173636 0.743236 0.611954
  4 0.758958 -0.993292 -0.533611 0.186065 0.469779 -0.720063
  5 1.920300 -0.000001 -0.000001 0.046864 -0.029167 0.183103
  6 0.858252 -0.000000 0.000001 0.001091 0.016946 -0.122932
  7 2.931402 -0.842323 0.160553 0.000099 0.244346 -0.014674
  8 1.836087 0.000000 0.000000 0.000684 0.976596 0.000448
  9 0.853993 -0.000001 -0.000004 0.002756 0.113413 0.024347
 10 2.964059 -0.072898 0.178523 -0.018769 1.060521 -0.035630
 11 1.814738 -0.000000 0.000000 0.554052 1.915642 0.623809
 12 0.982326 -0.000000 0.000000 0.000000 0.095993 0.021736
 13 2.910364 0.632510 0.212797 -0.261503 1.212730 -0.292339
 14 1.751859 0.000000 -0.000000 0.745650 1.940428 0.754635
 15 0.853992 0.000000 0.000000 -0.000000 0.043633 0.000000
 16 2.899450 1.342930 0.078012 -0.707016 1.171529 -0.762778
 17 1.152892 -0.000002 0.000000 -0.614257 1.271614 -0.532564
 18 0.748463 -0.000000 -0.000000 -0.000000 0.314159 -0.057080
 19 -9.816048 -15.513170 -8.975425 -0.216859 0.076873 1.106573
 20 -0.023287 0.041603 0.000000 0.194211 0.229435 0.729418
 21 11.072352 -0.043447 0.000002 0.000000 0.000000 -1.737275
 22 8.108974 0.000002 0.000000 0.092644 2.585846 1.508384
 23 0.788882 0.969696 -0.533611 -2.954742 0.309973 0.522615
 24 1.920300 0.000000 0.000000 0.031124 -0.017651 0.381032
 25 0.858250 0.000000 0.000001 0.012748 0.006987 -0.065169
 26 2.955714 0.752580 0.160552 3.123642 0.064116 -0.004217
 27 1.836085 0.000000 0.000000 -0.010427 -0.150505 -0.018468
 28 0.853992 -0.000000 0.000001 -0.002756 -0.113413 0.024347
 29 2.964906 -0.017482 0.178523 -3.137072 0.167251 0.010038
 30 1.814734 -0.000001 0.000000 0.003806 -0.199717 -0.032026
 31 0.982326 -0.000001 0.000002 0.049934 0.058895 0.016840
 32 2.889731 -0.720926 0.212797 3.127624 0.292892 -0.038781
 33 1.751861 -0.000002 -0.000001 -0.003354 -0.281441 -0.041880
 34 0.853991 0.000002 0.000000 -0.022357 0.324473 0.012037
 35 2.857167 -1.430682 0.078012 -3.141023 0.531628 -0.040390
 36 1.152892 0.000000 0.000000 -0.196526 0.460274 -0.094664
 37 0.748465 0.000001 -0.000003 -0.006026 -0.328615 -0.058783
 38 2.110367 -8.969592 -6.745292 1.907888 0.029770 -0.644655
 39 3.265194 -7.418763 -6.766691 1.907888 0.029770 -0.644655
 40 2.009432 -9.055532 -7.635991 1.907888 0.029770 -0.644655
 41 1.407510 -9.781365 -9.219725 1.907888 0.029770 -0.644655
 42 -3.669796 -16.235369 -7.778682 1.907867 0.029770 -0.644709
 43 0.000000 0.000000 0.000000 0.000000 -0.000000 0.000000
 44 2.694111 -4.246094 -1.192952 1.570796 0.000000 3.141593
time 24
  0 4.856782 7.575070 1.504075 -0.000000 1.570451 0.000000
  1 -0.023288 0.041601 0.000000 -0.100960 -0.144344 -0.265238
  2 11.072353 -0.043443 -0.000000 -0.000000 -0.000000 -1.490964
  3 8.108975 0.000000 0.000000 0.162647 0.868388 0.568375
  4 0.758957 -0.993292 -0.533611 0.187637 0.474357 -0.747869
  5 1.920300 -0.000001 0.000001 0.036054 -0.023570 0.231796
  6 0.858252 -0.000000 0.000000 0.000899 0.012656 -0.109375
  7 2.931400 -0.842323 0.160554 0.000099 0.244346 -0.014674
  8 1.836086 0.000000 0.000000 0.000684 0.976596 0.000448
  9 0.853993 0.000000 -0.000004 0.002756 0.113413 0.024347
 10 2.964059 -0.072899 0.178523 -0.018769 1.060521 -0.035630
 11 1.814737 0.000000 -0.000001 0.554052 1.915642 0.623808
 12 0.982325 -0.000001 0.000000 -0.000000 0.095993 0.021736
 13 2.910363 0.632509 0.212797 -0.261503 1.212730 -0.292339
 14 1.751858 -0.000000 -0.000001 0.745649 1.940428 0.754635
 15 0.853992 0.000000 0.000000 -0.000000 0.043633 0.000000
 16 2.899449 1.342928 0.078013 -0.707016 1.171529 -0.762778
 17 1.152891 -0.000002 0.000000 -0.614257 1.271614 -0.532564
 18 0.748464 0.000000 -0.000000 -0.000000 0.314159 -0.057080
 19 -9.816048 -15.513170 -8.326968 -0.143919 0.178060 1.031867
 20 -0.023291 0.041603 0.000000 0.113834 0.180351 0.692021
 21 11.072348 -0.043442 0.000001 -0.000000 0.000000 -1.357392
 22 8.108973 -0.000000 -0.000001 0.118187 2.592946 1.132165
 23 0.788883 0.969696 -0.533610 -2.964725 0.312669 0.510596
 24 1.920300 0.000002 0.000000 -0.000023 0.000015 0.398740
 25 0.858251 0.000000 0.000001 -0.000003 -0.000012 -0.069435
 26 2.955714 0.752579 0.160552 -3.141590 0.069820 -0.015806
 27 1.836084 0.000002 0.000002 -0.000116 -0.235666 0.000046
 28 0.853992 0.000001 0.000000 -0.002756 -0.113413 0.024347
 29 2.964904 -0.017482 0.178522 -3.117454 0.178109 -0.004452
 30 1.814734 -0.000001 0.000000 0.006519 -0.296680 -0.022543
 31 0.982325 -0.000001 0.000000 0.049934 0.058895 0.016840
 32 2.889732 -0.720928 0.212796 -3.134077 0.317781 -0.051173
 33 1.751859 -0.000001 -0.000001 -0.000095 -0.375284 -0.036381
 34 0.853992 0.000001 0.000000 -0.022357 0.324473 0.012037
 35 2.857167 -1.430682 0.078012 -3.125569 0.571244 -0.038292
 36 1.152892 0.000000 0.000000 -0.168147 0.368641 -0.078880
 37 0.748464 0.000001 -0.000001 0.000002 -0.314102 -0.057070
 38 2.274435 -7.778149 -7.120303 1.898176 0.047974 -0.730305
 39 3.562078 -6.336698 -7.169047 1.898176 0.047974 -0.730305
 40 2.150061 -7.852371 -8.014909 1.898176 0.047974 -0.730305
 41 1.454387 -8.519607 -9.590830 1.898176 0.047974 -0.730305
 42 -4.115122 -14.520472 -8.063847 1.898173 0.047974 -0.730256
 43 0.000000 0.000000 0.000000 0.000000 -0.000000 0.000000
 44 2.694111 -4.246094 -1.192952 1.570796 0.000000 3.141593
time 25
  0 4.856782 7.575070 1.504075 -0.000000 1.570451 0.000000
  1 -0.023288 0.041601 0.000000 -0.124258 -0.173838 -0.196048
  2 11.072353 -0.043443 -0.000000 -0.000000 0.000000 -1.513998
  3 8.108976 0.000000 0.000001 0.142417 0.979037 0.508535
  4 0.758959 -0.993291 -0.533611 0.185012 0.476538 -0.772304
  5 1.920300 0.000001 -0.000000 0.025723 -0.017614 0.279185
  6 0.858253 0.000000 0.000000 0.000623 0.008126 -0.095107
  7 2.931401 -0.842323 0.160553 0.000099 0.244346 -0.014674
  8 1.836087 0.000000 0.000000 0.000684 0.976596 0.000448
  9 0.853993 0.000001 -0.000002 0.002756 0.113413 0.024347
 10 2.964060 -0.072900 0.178523 -0.018769 1.060521 -0.035630
 11 1.814737 0.000002 0.000001 0.554052 1.915641 0.623809
 12 0.982326 0.000000 -0.000001 -0.000000 0.095993 0.021736
 13 2.910365 0.632510 0.212796 -0.261503 1.212730 -0.292339
 14 1.751859 0.000001 0.000000 0.745649 1.940428 0.754634
 15 0.853992 -0.000000 0.000000 0.000000 0.043633 0.000000
 16 2.899450 1.342929 0.078012 -0.707016 1.171529 -0.762778
 17 1.152891 -0.000002 -0.000000 -0.614257 1.271614 -0.532564
 18 0.748463 0.000001 -0.000001 -0.000000 0.314159 -0.057080
 19 -9.816048 -15.513170 -7.569132 -0.076121 0.286084 0.961752
 20 -0.023287 0.041604 0.000001 0.049883 0.121450 0.585233
 21 11.072349 -0.043443 0.000000 0.000000 -0.000000 -0.925057
 22 8.108974 0.000001 0.000000 0.175975 2.596686 0.805044
 23 0.788882 0.969696 -0.533612 -3.003232 0.321958 0.464395
 24 1.920300 0.000001 0.000000 -0.062704 0.064384 0.296543
 25 0.858251 0.000000 0.000000 -0.048517 -0.027229 -0.084955
 26 2.955714 0.752579 0.160553 -3.073517 0.093526 -0.059094
 27 1.836085 0.000001 0.000001 0.026173 -0.562124 0.068576
 28 0.853994 0.000000 0.000000 -0.002756 -0.113413 0.024347
 29 2.964906 -0.017484 0.178523 -3.043688 0.222057 -0.057915
 30 1.814735 0.000000 0.000001 0.007735 -0.667014 0.015771
 31 0.982325 -0.000000 0.000000 0.049934 0.058895 0.016840
 32 2.889733 -0.720928 0.212797 -3.053168 0.414939 -0.094162
 33 1.751860 -0.000000 0.000000 0.008436 -0.733730 -0.016446
 34 0.853993 0.000002 0.000000 -0.022357 0.324473 0.012037
 35 2.857169 -1.430683 0.078012 -3.060858 0.722147 -0.022281
 36 1.152892 0.000000 0.000000 -0.076543 0.016212 -0.044153
 37 0.748464 0.000001 0.000000 0.023121 -0.258924 -0.049735
 38 2.430690 -6.657022 -7.487502 1.889195 0.064837 -0.808660
 39 3.823805 -5.317136 -7.547965 1.889195 0.064837 -0.808660
 40 2.282878 -6.715617 -8.374295 1.889195 0.064837 -0.808660
 41 1.509076 -7.320352 -9.938497 1.889195 0.064837 -0.808660
 42 -4.482321 -12.879797 -8.341199 1.889189 0.064837 -0.808694
 43 0.000000 0.000000 0.000000 0.000000 -0.000000 0.000000
 44 2.694111 -4.246094 -1.192952 1.570796 0.000000 3.141593
time 26
  0 4.856782 7.575070 1.504075 -0.000000 1.570451 0.000000
  1 -0.023288 0.041601 0.000000 -0.142475 -0.196981 -0.139349
  2 11.072353 -0.043443 0.000001 0.000000 -0.000000 -1.524700
  3 8.108976 0.000000 -0.000000 0.115272 1.067068 0.441472
  4 0.758957 -0.993292 -0.533611 0.177482 0.475520 -0.792156
  5 1.920300 0.000000 0.000001 0.016147 -0.011502 0.323757
  6 0.858252 0.000001 0.000000 0.000336 0.004063 -0.082261
  7 2.931401 -0.842322 0.160553 0.000099 0.244346 -0.014674
  8 1.836086 -0.000002 0.000001 0.000684 0.976596 0.000448
  9 0.853993 0.000001 -0.000003 0.002756 0.113413 0.024347
 10 2.964059 -0.072900 0.178523 -0.018769 1.060521 -0.035630
 11 1.814737 -0.000002 -0.000000 0.554052 1.915642 0.623809
 12 0.982325 0.000000 0.000000 0.000000 0.095993 0.021736
 13 2.910364 0.632510 0.212797 -0.261503 1.212730 -0.292339
 14 1.751858 0.000000 0.000000 0.745650 1.940428 0.754635
 15 0.853992 0.000000 0.000000 0.000000 0.043633 -0.000000
 16 2.899448 1.342928 0.078013 -0.707016 1.171529 -0.762778
 17 1.152892 -0.000001 -0.000000 -0.614257 1.271614 -0.532564
 18 0.748464 0.000000 0.000001 -0.000000 0.314159 -0.057080
 19 -9.816048 -15.513170 -6.701918 -0.014417 0.397363 0.897567
 20 -0.023289 0.041603 0.000000 0.011325 0.049219 0.460624
 21 11.072353 -0.043443 0.000003 0.000000 -0.000000 -0.531890
 22 8.108977 0.000003 0.000001 0.253025 2.600389 0.567192
 23 0.788882 0.969696 -0.533611 -3.072251 0.334134 0.381880
 24 1.920301 0.000001 0.000002 -0.176910 0.158391 0.063022
 25 0.858251 -0.000000 0.000002 -0.133068 -0.076893 -0.109056
 26 2.955714 0.752580 0.160551 -2.955841 0.142171 -0.131410
 27 1.836085 0.000002 0.000001 -0.013496 -1.138051 0.241259
 28 0.853996 -0.000001 0.000000 -0.002756 -0.113413 0.024347
 29 2.964905 -0.017482 0.178521 -2.917694 0.308262 -0.145055
 30 1.814735 -0.000002 0.000002 -0.116601 -1.316920 0.196041
 31 0.982326 -0.000000 0.000000 0.049934 0.058895 0.016840
 32 2.889732 -0.720927 0.212795 -2.911453 0.592819 -0.152611
 33 1.751860 -0.000002 -0.000001 -0.025304 -1.365093 0.058696
 34 0.853992 0.000002 0.000000 -0.022357 0.324473 0.012037
 35 2.857167 -1.430682 0.078010 -2.903858 0.983968 0.056290
 36 1.152891 -0.000001 -0.000001 0.081913 -0.607055 -0.062223
 37 0.748463 0.000000 -0.000001 0.064168 -0.162056 -0.033891
 38 2.559600 -5.707774 -7.803918 1.881676 0.078954 -0.873947
 39 4.042562 -4.465547 -7.876100 1.881676 0.078954 -0.873947
 40 2.400069 -5.754650 -8.686804 1.881676 0.078954 -0.873947
 41 1.567671 -6.296883 -10.243193 1.881676 0.078954 -0.873947
 42 -4.747954 -11.465691 -8.583394 1.881660 0.078942 -0.873984
 43 0.000000 0.000000 0.000000 0.000000 -0.000000 0.000000
 44 2.694111 -4.246094 -1.192952 1.570796 0.000000 3.141593
time 27
  0 4.856782 7.575070 1.504075 -0.000000 1.570451 0.000000
  1 -0.023288 0.041601 0.000000 -0.154423 -0.212429 -0.100133
  2 11.072355 -0.043443 0.000000 0.000000 0.000000 -1.527790
  3 8.108980 -0.000001 -0.000001 0.088510 1.126732 0.382821
  4 0.758958 -0.993290 -0.533611 0.164396 0.470450 -0.806081
  5 1.920299 0.000001 0.000000 0.007530 -0.005521 0.364103
  6 0.858252 0.000000 0.000001 0.000096 0.001127 -0.072967
  7 2.931402 -0.842323 0.160553 0.000099 0.244346 -0.014674
  8 1.836087 0.000000 0.000001 0.000684 0.976596 0.000448
  9 0.853993 0.000001 -0.000002 0.002756 0.113413 0.024347
 10 2.964061 -0.072899 0.178524 -0.018769 1.060521 -0.035630
 11 1.814737 0.000001 0.000000 0.554052 1.915642 0.623809
 12 0.982325 0.000002 0.000000 0.000000 0.095993 0.021736
 13 2.910365 0.632510 0.212797 -0.261503 1.212730 -0.292339
 14 1.751857 0.000001 -0.000000 0.745650 1.940428 0.754635
 15 0.853992 0.000000 0.000000 0.000000 0.043633 -0.000000
 16 2.899449 1.342928 0.078013 -0.707016 1.171529 -0.762778
 17 1.152893 -0.000003 -0.000000 -0.614257 1.271614 -0.532564
 18 0.748463 0.000000 0.000000 -0.000000 0.314159 -0.057080
 19 -9.816048 -15.513170 -5.733138 0.040335 0.507836 0.839792
 20 -0.023288 0.041603 0.000000 -0.008180 -0.033707 0.481368
 21 11.072348 -0.043441 0.000002 0.000000 -0.000000 -0.559733
 22 8.108976 0.000000 0.000001 0.337948 2.614770 0.633971
 23 0.788882 0.969696 -0.533610 -3.132821 0.340246 0.309719
 24 1.920300 0.000001 0.000000 -0.292276 0.215845 -0.150686
 25 0.858251 0.000000 0.000001 -0.205563 -0.121344 -0.126518
 26 2.955714 0.752580 0.160553 -2.856344 0.190721 -0.189367
 27 1.836085 0.000001 -0.000003 0.996010 -1.679517 -0.667124
 28 0.853994 0.000001 0.000000 -0.002756 -0.113413 0.024347
 29 2.964905 -0.017482 0.178525 -2.812254 0.390716 -0.212804
 30 1.814734 -0.000001 0.000002 0.273591 -1.892299 -0.149845
 31 0.982325 -0.000001 0.000000 0.049934 0.058895 0.016840
 32 2.889732 -0.720927 0.212797 -2.783004 0.751236 -0.182249
 33 1.751861 -0.000001 -0.000001 0.104685 -1.912553 -0.038124
 34 0.853991 0.000002 -0.000000 -0.022357 0.324473 0.012037
 35 2.857167 -1.430682 0.078012 -2.644982 1.197109 0.252190
 36 1.152891 0.000001 0.000000 0.378771 -1.131337 -0.271524
 37 0.748464 0.000001 -0.000001 0.100505 -0.078938 -0.017161
 38 2.653353 -5.031972 -8.026581 1.876323 0.088974 -0.920130
 39 4.191004 -3.860060 -8.114388 1.876323 0.088974 -0.920130
 40 2.486009 -5.067129 -8.913373 1.876323 0.088974 -0.920130
 41 1.614548 -5.562486 -10.461950 1.876323 0.088974 -0.920130
 42 -4.919834 -10.450035 -8.755274 1.876328 0.088974 -0.920184
 43 0.000000 0.000000 0.000000 0.000000 -0.000000 0.000000
 44 2.694111 -4.246094 -1.192952 1.570796 0.000000 3.141593
time 28
  0 4.856782 7.575070 1.504075 -0.000000 1.570451 0.000000
  1 -0.023288 0.041601 0.000000 -0.159565 -0.219164 -0.082953
  2 11.072353 -0.043442 0.000000 0.000000 -0.000000 -1.527960
  3 8.108978 -0.000001 0.000000 0.074033 1.153220 0.353199
  4 0.758958 -0.993293 -0.533610 0.145102 0.460635 -0.812823
  5 1.920300 0.000000 0.000000 0.000004 0.000003 0.398793
  6 0.858252 0.000000 0.000000 -0.000000 -0.000000 -0.069433
  7 2.931401 -0.842324 0.160554 0.000099 0.244346 -0.014674
  8 1.836087 0.000000 0.000000 0.000684 0.976596 0.000448
  9 0.853992 -0.000001 -0.000003 0.002756 0.113413 0.024347
 10 2.964060 -0.072899 0.178524 -0.018769 1.060521 -0.035630
 11 1.814738 -0.000001 -0.000001 0.554052 1.915642 0.623808
 12 0.982325 0.000000 0.000001 0.000000 0.095993 0.021736
 13 2.910365 0.632510 0.212798 -0.261503 1.212730 -0.292339
 14 1.751858 0.000000 -0.000001 0.745649 1.940428 0.754635
 15 0.853992 0.000000 0.000000 0.000000 0.043633 -0.000000
 16 2.899450 1.342928 0.078014 -0.707016 1.171529 -0.762778
 17 1.152893 -0.000002 -0.000001 -0.614258 1.271614 -0.532564
 18 0.748462 0.000000 0.000000 -0.000000 0.314159 -0.057080
 19 -9.816048 -15.513170 -4.647168 0.088232 0.613443 0.788712
 20 -0.023290 0.041604 0.000000 -0.051328 -0.117692 0.625991
 21 11.072350 -0.043447 -0.000002 -0.000000 0.000000 -0.977763
 22 8.108976 0.000001 -0.000001 0.415719 2.649087 0.989419
 23 0.788882 0.969696 -0.533612 -3.132821 0.340246 0.309719
 24 1.920300 0.000001 0.000000 -0.292276 0.215845 -0.150686
 25 0.858251 -0.000000 0.000003 -0.205563 -0.121344 -0.126518
 26 2.955714 0.752581 0.160551 -2.856344 0.190721 -0.189367
 27 1.836085 0.000000 0.000001 0.996010 -1.679517 -0.667124
 28 0.853995 0.000001 -0.000001 -0.002756 -0.113413 0.024347
 29 2.964905 -0.017481 0.178522 -2.812254 0.390716 -0.212804
 30 1.814734 -0.000001 0.000002 0.273591 -1.892299 -0.149845
 31 0.982326 -0.000000 0.000000 0.049934 0.058895 0.016840
 32 2.889731 -0.720926 0.212797 -2.783004 0.751236 -0.182249
 33 1.751861 -0.000001 0.000001 0.104685 -1.912553 -0.038124
 34 0.853991 0.000002 0.000000 -0.022357 0.324473 0.012037
 35 2.857166 -1.430680 0.078012 -2.644982 1.197109 0.252190
 36 1.152893 -0.000000 0.000000 0.378771 -1.131337 -0.271524
 37 0.748463 0.000001 -0.000001 0.100505 -0.078938 -0.017161
 38 2.700229 -4.735088 -8.124240 1.873895 0.093528 -0.941280
 39 4.257412 -3.590521 -8.215954 1.873895 0.093528 -0.941280
 40 2.525073 -4.762432 -9.014939 1.873895 0.093528 -0.941280
 41 1.634080 -5.234351 -10.559609 1.873895 0.093528 -0.941280
 42 -4.994055 -9.985177 -8.833401 1.873872 0.093528 -0.941254
 43 0.000000 0.000000 0.000000 0.000000 -0.000000 0.000000
 44 2.694111 -4.246094 -1.192952 1.570796 0.000000 3.141593
time 29
  0 4.856782 7.575070 1.504075 -0.000000 1.570451 0.000000
  1 -0.023288 0.041601 0.000000 -0.159565 -0.219164 -0.082953
  2 11.072353 -0.043442 0.000000 0.000000 -0.000000 -1.527960
  3 8.108978 -0.000001 0.000000 0.074045 1.153220 0.353199
  4 0.758958 -0.993291 -0.533611 -0.176857 0.312685 -0.541086
  5 1.920301 -0.000000 0.000000 0.000004 0.000003 0.398793
  6 0.858253 -0.000000 0.000000 -0.000000 0.000000 -0.069433
  7 2.931401 -0.842322 0.160553 0.000099 0.244346 -0.014674
  8 1.836087 0.000000 0.000000 0.000684 0.976596 0.000448
  9 0.853993 0.000001 -0.000003 0.002756 0.113413 0.024347
 10 2.964059 -0.072899 0.178524 -0.018769 1.060521 -0.035630
 11 1.814738 0.000000 -0.000000 0.554052 1.915642 0.623808
 12 0.982325 0.000000 -0.000000 0.000000 0.095993 0.021736
 13 2.910364 0.632511 0.212798 -0.261503 1.212730 -0.292339
 14 1.751859 0.000001 -0.000000 0.745649 1.940428 0.754634
 15 0.853992 0.000000 0.000000 -0.000000 0.043633 0.000000
 16 2.899449 1.342928 0.078013 -0.707016 1.171529 -0.762778
 17 1.152892 -0.000002 0.000000 -0.614257 1.271614 -0.532564
 18 0.748463 0.000000 0.000001 0.000000 0.314159 -0.057080
 19 -9.816048 -15.513170 -3.467444 0.128511 0.710181 0.744711
 20 -0.023289 0.041604 -0.000001 -0.132308 -0.201005 0.709770
 21 11.072350 -0.043443 0.000003 0.000000 -0.000000 -1.404137
 22 8.108975 -0.000000 0.000000 0.452982 2.703558 1.416625
 23 0.788882 0.969696 -0.533612 -3.132821 0.340246 0.309719
 24 1.920301 0.000001 0.000001 -0.292276 0.215845 -0.150686
 25 0.858250 0.000000 0.000000 -0.205563 -0.121344 -0.126518
 26 2.955714 0.752580 0.160551 -2.856344 0.190721 -0.189367
 27 1.836086 0.000001 -0.000001 0.996009 -1.679517 -0.667124
 28 0.853994 0.000000 0.000000 -0.002756 -0.113413 0.024347
 29 2.964906 -0.017483 0.178523 -2.812254 0.390716 -0.212804
 30 1.814733 -0.000001 0.000002 0.273590 -1.892299 -0.149845
 31 0.982325 -0.000001 -0.000000 0.049934 0.058895 0.016840
 32 2.889731 -0.720927 0.212797 -2.783004 0.751236 -0.182249
 33 1.751860 -0.000001 0.000001 0.104685 -1.912553 -0.038124
 34 0.853992 0.000002 0.000000 -0.022357 0.324473 0.012037
 35 2.857169 -1.430682 0.078012 -2.644982 1.197109 0.252190
 36 1.152892 -0.000000 0.000000 0.378771 -1.131337 -0.271524
 37 0.748464 0.000001 -0.000001 0.100505 -0.078938 -0.017161
 38 2.700229 -4.735088 -8.124240 1.873895 0.093528 -0.941280
 39 4.257412 -3.590521 -8.215954 1.873895 0.093528 -0.941280
 40 2.525073 -4.762432 -9.014939 1.873895 0.093528 -0.941280
 41 1.634080 -5.234351 -10.559609 1.873895 0.093528 -0.941280
 42 -4.994055 -9.985177 -8.833401 1.873872 0.093528 -0.941254
 43 0.000000 0.000000 0.000000 0.000000 -0.000000 0.000000
 44 2.694111 -4.246094 -1.192952 1.570796 0.000000 3.141593
time 30
  0 4.856782 7.575070 1.504075 -0.000000 1.570451 0.000000
  1 -0.023288 0.041601 0.000000 -0.159565 -0.219164 -0.082953
  2 11.072353 -0.043442 0.000000 0.000000 -0.000000 -1.527960
  3 8.108978 -0.000001 0.000000 0.074045 1.153220 0.353199
  4 0.758958 -0.993291 -0.533611 -0.176857 0.312685 -0.541086
  5 1.920301 -0.000000 0.000000 0.000004 0.000003 0.398793
  6 0.858253 0.000000 -0.000000 -0.000000 -0.000000 -0.069433
  7 2.931401 -0.842322 0.160553 0.000099 0.244346 -0.014674
  8 1.836086 0.000000 -0.000000 0.000684 0.976596 0.000448
  9 0.853993 0.000001 -0.000003 0.002756 0.113413 0.024347
 10 2.964059 -0.072899 0.178523 -0.018769 1.060521 -0.035630
 11 1.814738 0.000000 -0.000001 0.554052 1.915642 0.623808
 12 0.982325 0.000000 -0.000000 -0.000000 0.095993 0.021736
 13 2.910364 0.632511 0.212798 -0.261503 1.212730 -0.292339
 14 1.751859 0.000001 -0.000000 0.745649 1.940428 0.754635
 15 0.853993 -0.000001 0.000000 -0.000000 0.043633 0.000000
 16 2.899449 1.342928 0.078014 -0.707016 1.171529 -0.762778
 17 1.152893 0.000000 -0.000000 -0.614257 1.271614 -0.532564
 18 0.748464 -0.000001 0.000000 -0.000000 0.314159 -0.057080
 19 -9.816048 -15.513170 -3.467444 0.128511 0.710181 0.744711
 20 -0.023289 0.041604 -0.000001 -0.132308 -0.201005 0.709770
 21 11.072350 -0.043443 0.000003 0.000000 -0.000000 -1.404137
 22 8.108975 -0.000000 0.000000 0.452982 2.703558 1.416625
 23 0.788882 0.969696 -0.533612 -3.132821 0.340246 0.309719
 24 1.920301 0.000001 0.000001 -0.292276 0.215845 -0.150686
 25 0.858250 0.000000 0.000000 -0.205563 -0.121344 -0.126518
 26 2.955714 0.752580 0.160551 -2.856344 0.190721 -0.189367
 27 1.836086 0.000001 -0.000001 0.996009 -1.679517 -0.667124
 28 0.853994 0.000001 0.000000 -0.002756 -0.113413 0.024347
 29 2.964906 -0.017483 0.178523 -2.812254 0.390716 -0.212804
 30 1.814733 -0.000001 0.000002 0.273590 -1.892299 -0.149845
 31 0.982325 -0.000001 -0.000000 0.049934 0.058895 0.016840
 32 2.889731 -0.720927 0.212797 -2.783004 0.751236 -0.182249
 33 1.751860 -0.000001 0.000001 0.104685 -1.912553 -0.038124
 34 0.853992 0.000002 0.000000 -0.022357 0.324473 0.012037
 35 2.857169 -1.430682 0.078012 -2.644982 1.197109 0.252190
 36 1.152892 -0.000000 0.000000 0.378771 -1.131337 -0.271524
 37 0.748464 0.000001 -0.000001 0.100505 -0.078938 -0.017161
 38 2.700229 -4.735088 -8.124240 1.873895 0.093528 -0.941280
 39 4.257412 -3.590521 -8.215954 1.873895 0.093528 -0.941280
 40 2.525073 -4.762432 -9.014939 1.873895 0.093528 -0.941280
 41 1.634080 -5.234351 -10.559609 1.873895 0.093528 -0.941280
 42 -4.994055 -9.985177 -8.833401 1.873872 0.093528 -0.941254
 43 0.000000 0.000000 0.000000 0.000000 -0.000000 0.000000
 44 2.694111 -4.246094 -1.192952 1.570796 0.000000 3.141593
end
