// Created by Crowbar 0.29.0.0
version 1
nodes
  0 "L_Armdummy" -1
  1 "L_Upperarm" 0
  2 "L_Forearm" 1
  3 "L_Wrist" 2
  4 "L_Thumb1" 3
  5 "L_Thumb2" 4
  6 "L_Thumb3" 5
  7 "L_Index1" 3
  8 "L_Index2" 7
  9 "L_Index3" 8
  10 "L_Mid1" 3
  11 "L_Mid2" 10
  12 "L_Mid3" 11
  13 "L_Ring1" 3
  14 "L_Ring2" 13
  15 "L_Ring3" 14
  16 "L_Pinky1" 3
  17 "L_Pinky2" 16
  18 "L_Pinky3" 17
  19 "R_Armdummy" -1
  20 "R_Upperarm" 19
  21 "R_Forearm" 20
  22 "R_Wrist" 21
  23 "R_Thumb1" 22
  24 "R_Thumb2" 23
  25 "R_Thumb3" 24
  26 "R_Index1" 22
  27 "R_Index2" 26
  28 "R_Index3" 27
  29 "R_Mid1" 22
  30 "R_Mid2" 29
  31 "R_Mid3" 30
  32 "R_Ring1" 22
  33 "R_Ring2" 32
  34 "R_Ring3" 33
  35 "R_Pinky1" 22
  36 "R_Pinky2" 35
  37 "R_Pinky3" 36
  38 "a_g3sg1" -1
  39 "a_trigger" -1
  40 "a_magrel" -1
  41 "a_clip" -1
  42 "a_charger" -1
end
skeleton
  time 0
    0 4.856782 7.575070 1.504075 0.000000 1.570796 0.000000
    1 -0.023288 0.041601 0.000000 0.045132 0.078677 -0.497194
    2 11.072353 -0.043443 0.000000 0.000000 0.000000 -1.258768
    3 8.108976 0.000000 0.000000 0.046468 -0.077897 0.200374
    4 0.758958 -0.993292 -0.533611 0.450967 0.475232 -0.090834
    5 1.920300 0.000000 0.000000 0.040560 0.156630 0.608050
    6 0.858252 0.000000 0.000000 0.000000 0.000000 -0.069433
    7 2.931401 -0.842323 0.160553 0.000099 0.244346 -0.014674
    8 1.836086 0.000000 0.000000 0.000684 0.976596 0.000448
    9 0.853993 0.000000 -0.000003 0.002756 0.113413 0.024347
    10 2.964059 -0.072899 0.178523 -0.018769 1.060521 -0.035630
    11 1.814737 0.000000 0.000000 -2.587541 1.225951 -2.517784
    12 0.982325 0.000000 0.000000 0.000000 0.095993 0.021736
    13 2.910364 0.632510 0.212797 -0.261503 1.212730 -0.292339
    14 1.751858 0.000000 0.000000 -2.395943 1.201165 -2.386958
    15 0.853992 0.000000 0.000000 0.000000 0.043633 0.000000
    16 2.899449 1.342928 0.078013 -0.707016 1.171529 -0.762778
    17 1.152892 -0.000002 0.000000 -0.614257 1.271614 -0.532564
    18 0.748463 0.000000 0.000000 0.000000 0.314159 -0.057080
    19 -9.816048 -15.513170 -3.467444 0.128511 0.710181 0.744711
    20 -0.023288 0.041602 0.000000 -0.308491 -0.319685 -0.005018
    21 11.072350 -0.043443 0.000001 0.000000 0.000000 -1.907740
    22 8.108974 0.000000 0.000000 -2.811458 0.084448 0.238274
    23 0.788882 0.969696 -0.533611 -3.132821 0.340246 0.309719
    24 1.920300 0.000001 0.000000 -0.292276 0.215845 -0.150686
    25 0.858251 0.000000 0.000001 -0.205563 -0.121344 -0.126518
    26 2.955714 0.752580 0.160552 -2.856344 0.190721 -0.189367
    27 1.836085 0.000001 0.000000 -2.145582 -1.462076 2.474468
    28 0.853994 0.000000 0.000000 -0.002756 -0.113413 0.024347
    29 2.964905 -0.017482 0.178523 -2.812254 0.390716 -0.212804
    30 1.814734 -0.000001 0.000001 -2.868002 -1.249294 2.991748
    31 0.982325 -0.000001 0.000000 0.049934 0.058895 0.016840
    32 2.889732 -0.720927 0.212797 -2.783004 0.751236 -0.182249
    33 1.751860 -0.000001 -0.000001 -3.036908 -1.229040 3.103469
    34 0.853992 0.000002 0.000001 -0.022357 0.324473 0.012037
    35 2.857167 -1.430682 0.078012 -2.644982 1.197109 0.252190
    36 1.152892 0.000000 0.000000 0.378771 -1.131337 -0.271524
    37 0.748463 0.000001 -0.000001 0.100505 -0.078938 -0.017161
    38 2.700229 -12.028279 -4.323343 1.591277 0.000000 -0.000024
    39 2.702677 -10.204004 -4.950229 1.591277 0.000000 -0.000024
    40 2.696953 -12.434542 -5.132008 1.591277 0.000000 -0.000024
    41 2.704425 -13.824457 -6.344637 1.591277 0.000000 -0.000024
    42 2.486642 -21.176925 -2.426956 1.591277 0.000000 -0.000088
  time 1
    0 4.856782 7.575070 1.504075 0.000000 1.570796 0.000000
    1 -0.023288 0.041601 0.000000 0.045132 0.078677 -0.497194
    2 11.072353 -0.043443 0.000000 0.000000 0.000000 -1.258768
    3 8.108976 0.000000 0.000000 0.046468 -0.077897 0.200374
    4 0.758958 -0.993292 -0.533611 0.450967 0.475232 -0.090834
    5 1.920300 0.000000 0.000000 0.040560 0.156630 0.608050
    6 0.858252 0.000000 0.000000 0.000000 0.000000 -0.069433
    7 2.931401 -0.842323 0.160553 0.000099 0.244346 -0.014674
    8 1.836086 0.000000 0.000000 0.000684 0.976596 0.000448
    9 0.853993 0.000000 -0.000003 0.002756 0.113413 0.024347
    10 2.964059 -0.072899 0.178523 -0.018769 1.060521 -0.035630
    11 1.814737 0.000000 0.000000 -2.587541 1.225951 -2.517784
    12 0.982325 0.000000 0.000000 0.000000 0.095993 0.021736
    13 2.910364 0.632510 0.212797 -0.261503 1.212730 -0.292339
    14 1.751858 0.000000 0.000000 -2.395943 1.201165 -2.386958
    15 0.853992 0.000000 0.000000 0.000000 0.043633 0.000000
    16 2.899449 1.342928 0.078013 -0.707016 1.171529 -0.762778
    17 1.152892 -0.000002 0.000000 -0.614257 1.271614 -0.532564
    18 0.748463 0.000000 0.000000 0.000000 0.314159 -0.057080
    19 -9.816048 -15.513170 -3.467444 0.128511 0.710181 0.744711
    20 -0.023288 0.041602 0.000000 -0.308491 -0.319685 -0.005018
    21 11.072350 -0.043443 0.000001 0.000000 0.000000 -1.907740
    22 8.108974 0.000000 0.000000 -2.811458 0.084448 0.238274
    23 0.788882 0.969696 -0.533611 -3.132821 0.340246 0.309719
    24 1.920300 0.000001 0.000000 -0.292276 0.215845 -0.150686
    25 0.858251 0.000000 0.000001 -0.205563 -0.121344 -0.126518
    26 2.955714 0.752580 0.160552 -2.856344 0.190721 -0.189367
    27 1.836085 0.000001 0.000000 -2.145582 -1.462076 2.474468
    28 0.853994 0.000000 0.000000 -0.002756 -0.113413 0.024347
    29 2.964905 -0.017482 0.178523 -2.812254 0.390716 -0.212804
    30 1.814734 -0.000001 0.000001 -2.868002 -1.249294 2.991748
    31 0.982325 -0.000001 0.000000 0.049934 0.058895 0.016840
    32 2.889732 -0.720927 0.212797 -2.783004 0.751236 -0.182249
    33 1.751860 -0.000001 -0.000001 -3.036908 -1.229040 3.103469
    34 0.853992 0.000002 0.000001 -0.022357 0.324473 0.012037
    35 2.857167 -1.430682 0.078012 -2.644982 1.197109 0.252190
    36 1.152892 0.000000 0.000000 0.378771 -1.131337 -0.271524
    37 0.748463 0.000001 -0.000001 0.100505 -0.078938 -0.017161
    38 2.700229 -12.028279 -4.323343 1.591277 0.000000 -0.000024
    39 2.702677 -10.204004 -4.950229 1.591277 0.000000 -0.000024
    40 2.696953 -12.434542 -5.132008 1.591277 0.000000 -0.000024
    41 2.704425 -13.824457 -6.344637 1.591277 0.000000 -0.000024
    42 2.486642 -21.176925 -2.426956 1.591277 0.000000 -0.000088
  time 2
    0 4.856782 7.575070 1.504075 0.000000 1.570796 0.000000
    1 -0.023288 0.041601 0.000000 0.045132 0.078677 -0.497194
    2 11.072353 -0.043443 0.000000 0.000000 0.000000 -1.258768
    3 8.108976 0.000000 0.000000 0.046468 -0.077897 0.200374
    4 0.758958 -0.993292 -0.533611 0.450967 0.475232 -0.090834
    5 1.920300 0.000000 0.000000 0.040560 0.156630 0.608050
    6 0.858252 0.000000 0.000000 0.000000 0.000000 -0.069433
    7 2.931401 -0.842323 0.160553 0.000099 0.244346 -0.014674
    8 1.836086 0.000000 0.000000 0.000684 0.976596 0.000448
    9 0.853993 0.000000 -0.000003 0.002756 0.113413 0.024347
    10 2.964059 -0.072899 0.178523 -0.018769 1.060521 -0.035630
    11 1.814737 0.000000 0.000000 -2.587541 1.225951 -2.517784
    12 0.982325 0.000000 0.000000 0.000000 0.095993 0.021736
    13 2.910364 0.632510 0.212797 -0.261503 1.212730 -0.292339
    14 1.751858 0.000000 0.000000 -2.395943 1.201165 -2.386958
    15 0.853992 0.000000 0.000000 0.000000 0.043633 0.000000
    16 2.899449 1.342928 0.078013 -0.707016 1.171529 -0.762778
    17 1.152892 -0.000002 0.000000 -0.614257 1.271614 -0.532564
    18 0.748463 0.000000 0.000000 0.000000 0.314159 -0.057080
    19 -9.816048 -15.513170 -3.467444 0.128511 0.710181 0.744711
    20 -0.023288 0.041602 0.000000 -0.308491 -0.319685 -0.005018
    21 11.072350 -0.043443 0.000001 0.000000 0.000000 -1.907740
    22 8.108974 0.000000 0.000000 -2.811458 0.084448 0.238274
    23 0.788882 0.969696 -0.533611 -3.132821 0.340246 0.309719
    24 1.920300 0.000001 0.000000 -0.292276 0.215845 -0.150686
    25 0.858251 0.000000 0.000001 -0.205563 -0.121344 -0.126518
    26 2.955714 0.752580 0.160552 -2.856344 0.190721 -0.189367
    27 1.836085 0.000001 0.000000 -2.145582 -1.462076 2.474468
    28 0.853994 0.000000 0.000000 -0.002756 -0.113413 0.024347
    29 2.964905 -0.017482 0.178523 -2.812254 0.390716 -0.212804
    30 1.814734 -0.000001 0.000001 -2.868002 -1.249294 2.991748
    31 0.982325 -0.000001 0.000000 0.049934 0.058895 0.016840
    32 2.889732 -0.720927 0.212797 -2.783004 0.751236 -0.182249
    33 1.751860 -0.000001 -0.000001 -3.036908 -1.229040 3.103469
    34 0.853992 0.000002 0.000001 -0.022357 0.324473 0.012037
    35 2.857167 -1.430682 0.078012 -2.644982 1.197109 0.252190
    36 1.152892 0.000000 0.000000 0.378771 -1.131337 -0.271524
    37 0.748463 0.000001 -0.000001 0.100505 -0.078938 -0.017161
    38 2.700229 -12.028279 -4.323343 1.591277 0.000000 -0.000024
    39 2.702677 -10.204004 -4.950229 1.591277 0.000000 -0.000024
    40 2.696953 -12.434542 -5.132008 1.591277 0.000000 -0.000024
    41 2.704425 -13.824457 -6.344637 1.591277 0.000000 -0.000024
    42 2.486642 -21.176925 -2.426956 1.591277 0.000000 -0.000088
  time 3
    0 4.856782 7.575070 1.504075 0.000000 1.570796 0.000000
    1 -0.023288 0.041601 0.000000 0.045132 0.078677 -0.497194
    2 11.072353 -0.043443 0.000000 0.000000 0.000000 -1.258768
    3 8.108976 0.000000 0.000000 0.046468 -0.077897 0.200374
    4 0.758958 -0.993292 -0.533611 0.450967 0.475232 -0.090834
    5 1.920300 0.000000 0.000000 0.040560 0.156630 0.608050
    6 0.858252 0.000000 0.000000 0.000000 0.000000 -0.069433
    7 2.931401 -0.842323 0.160553 0.000099 0.244346 -0.014674
    8 1.836086 0.000000 0.000000 0.000684 0.976596 0.000448
    9 0.853993 0.000000 -0.000003 0.002756 0.113413 0.024347
    10 2.964059 -0.072899 0.178523 -0.018769 1.060521 -0.035630
    11 1.814737 0.000000 0.000000 -2.587541 1.225951 -2.517784
    12 0.982325 0.000000 0.000000 0.000000 0.095993 0.021736
    13 2.910364 0.632510 0.212797 -0.261503 1.212730 -0.292339
    14 1.751858 0.000000 0.000000 -2.395943 1.201165 -2.386958
    15 0.853992 0.000000 0.000000 0.000000 0.043633 0.000000
    16 2.899449 1.342928 0.078013 -0.707016 1.171529 -0.762778
    17 1.152892 -0.000002 0.000000 -0.614257 1.271614 -0.532564
    18 0.748463 0.000000 0.000000 0.000000 0.314159 -0.057080
    19 -9.816048 -15.513170 -3.467444 0.128511 0.710181 0.744711
    20 -0.023288 0.041602 0.000000 -0.308491 -0.319685 -0.005018
    21 11.072350 -0.043443 0.000001 0.000000 0.000000 -1.907740
    22 8.108974 0.000000 0.000000 -2.811458 0.084448 0.238274
    23 0.788882 0.969696 -0.533611 -3.132821 0.340246 0.309719
    24 1.920300 0.000001 0.000000 -0.292276 0.215845 -0.150686
    25 0.858251 0.000000 0.000001 -0.205563 -0.121344 -0.126518
    26 2.955714 0.752580 0.160552 -2.856344 0.190721 -0.189367
    27 1.836085 0.000001 0.000000 -2.145582 -1.462076 2.474468
    28 0.853994 0.000000 0.000000 -0.002756 -0.113413 0.024347
    29 2.964905 -0.017482 0.178523 -2.812254 0.390716 -0.212804
    30 1.814734 -0.000001 0.000001 -2.868002 -1.249294 2.991748
    31 0.982325 -0.000001 0.000000 0.049934 0.058895 0.016840
    32 2.889732 -0.720927 0.212797 -2.783004 0.751236 -0.182249
    33 1.751860 -0.000001 -0.000001 -3.036908 -1.229040 3.103469
    34 0.853992 0.000002 0.000001 -0.022357 0.324473 0.012037
    35 2.857167 -1.430682 0.078012 -2.644982 1.197109 0.252190
    36 1.152892 0.000000 0.000000 0.378771 -1.131337 -0.271524
    37 0.748463 0.000001 -0.000001 0.100505 -0.078938 -0.017161
    38 2.700229 -12.028279 -4.323343 1.591277 0.000000 -0.000024
    39 2.702677 -10.204004 -4.950229 1.591277 0.000000 -0.000024
    40 2.696953 -12.434542 -5.132008 1.591277 0.000000 -0.000024
    41 2.704425 -13.824457 -6.344637 1.591277 0.000000 -0.000024
    42 2.486642 -21.176925 -2.426956 1.591277 0.000000 -0.000088
  time 4
    0 4.856782 7.575070 1.504075 0.000000 1.570796 0.000000
    1 -0.023288 0.041601 0.000000 0.045132 0.078677 -0.497194
    2 11.072353 -0.043443 0.000000 0.000000 0.000000 -1.258768
    3 8.108976 0.000000 0.000000 0.046468 -0.077897 0.200374
    4 0.758958 -0.993292 -0.533611 0.450967 0.475232 -0.090834
    5 1.920300 0.000000 0.000000 0.040560 0.156630 0.608050
    6 0.858252 0.000000 0.000000 0.000000 0.000000 -0.069433
    7 2.931401 -0.842323 0.160553 0.000099 0.244346 -0.014674
    8 1.836086 0.000000 0.000000 0.000684 0.976596 0.000448
    9 0.853993 0.000000 -0.000003 0.002756 0.113413 0.024347
    10 2.964059 -0.072899 0.178523 -0.018769 1.060521 -0.035630
    11 1.814737 0.000000 0.000000 -2.587541 1.225951 -2.517784
    12 0.982325 0.000000 0.000000 0.000000 0.095993 0.021736
    13 2.910364 0.632510 0.212797 -0.261503 1.212730 -0.292339
    14 1.751858 0.000000 0.000000 -2.395943 1.201165 -2.386958
    15 0.853992 0.000000 0.000000 0.000000 0.043633 0.000000
    16 2.899449 1.342928 0.078013 -0.707016 1.171529 -0.762778
    17 1.152892 -0.000002 0.000000 -0.614257 1.271614 -0.532564
    18 0.748463 0.000000 0.000000 0.000000 0.314159 -0.057080
    19 -9.816048 -15.513170 -3.467444 0.128511 0.710181 0.744711
    20 -0.023288 0.041602 0.000000 -0.308491 -0.319685 -0.005018
    21 11.072350 -0.043443 0.000001 0.000000 0.000000 -1.907740
    22 8.108974 0.000000 0.000000 -2.811458 0.084448 0.238274
    23 0.788882 0.969696 -0.533611 -3.132821 0.340246 0.309719
    24 1.920300 0.000001 0.000000 -0.292276 0.215845 -0.150686
    25 0.858251 0.000000 0.000001 -0.205563 -0.121344 -0.126518
    26 2.955714 0.752580 0.160552 -2.856344 0.190721 -0.189367
    27 1.836085 0.000001 0.000000 -2.145582 -1.462076 2.474468
    28 0.853994 0.000000 0.000000 -0.002756 -0.113413 0.024347
    29 2.964905 -0.017482 0.178523 -2.812254 0.390716 -0.212804
    30 1.814734 -0.000001 0.000001 -2.868002 -1.249294 2.991748
    31 0.982325 -0.000001 0.000000 0.049934 0.058895 0.016840
    32 2.889732 -0.720927 0.212797 -2.783004 0.751236 -0.182249
    33 1.751860 -0.000001 -0.000001 -3.036908 -1.229040 3.103469
    34 0.853992 0.000002 0.000001 -0.022357 0.324473 0.012037
    35 2.857167 -1.430682 0.078012 -2.644982 1.197109 0.252190
    36 1.152892 0.000000 0.000000 0.378771 -1.131337 -0.271524
    37 0.748463 0.000001 -0.000001 0.100505 -0.078938 -0.017161
    38 2.700229 -12.028279 -4.323343 1.591277 0.000000 -0.000024
    39 2.702677 -10.204004 -4.950229 1.591277 0.000000 -0.000024
    40 2.696953 -12.434542 -5.132008 1.591277 0.000000 -0.000024
    41 2.704425 -13.824457 -6.344637 1.591277 0.000000 -0.000024
    42 2.486642 -21.176925 -2.426956 1.591277 0.000000 -0.000088
  time 5
    0 4.856782 7.575070 1.504075 0.000000 1.570796 0.000000
    1 -0.023288 0.041601 0.000000 0.045132 0.078677 -0.497194
    2 11.072353 -0.043443 0.000000 0.000000 0.000000 -1.258768
    3 8.108976 0.000000 0.000000 0.046468 -0.077897 0.200374
    4 0.758958 -0.993292 -0.533611 0.450967 0.475232 -0.090834
    5 1.920300 0.000000 0.000000 0.040560 0.156630 0.608050
    6 0.858252 0.000000 0.000000 0.000000 0.000000 -0.069433
    7 2.931401 -0.842323 0.160553 0.000099 0.244346 -0.014674
    8 1.836086 0.000000 0.000000 0.000684 0.976596 0.000448
    9 0.853993 0.000000 -0.000003 0.002756 0.113413 0.024347
    10 2.964059 -0.072899 0.178523 -0.018769 1.060521 -0.035630
    11 1.814737 0.000000 0.000000 -2.587541 1.225951 -2.517784
    12 0.982325 0.000000 0.000000 0.000000 0.095993 0.021736
    13 2.910364 0.632510 0.212797 -0.261503 1.212730 -0.292339
    14 1.751858 0.000000 0.000000 -2.395943 1.201165 -2.386958
    15 0.853992 0.000000 0.000000 0.000000 0.043633 0.000000
    16 2.899449 1.342928 0.078013 -0.707016 1.171529 -0.762778
    17 1.152892 -0.000002 0.000000 -0.614257 1.271614 -0.532564
    18 0.748463 0.000000 0.000000 0.000000 0.314159 -0.057080
    19 -9.816048 -15.513170 -3.467444 0.128511 0.710181 0.744711
    20 -0.023288 0.041602 0.000000 -0.308491 -0.319685 -0.005018
    21 11.072350 -0.043443 0.000001 0.000000 0.000000 -1.907740
    22 8.108974 0.000000 0.000000 -2.811458 0.084448 0.238274
    23 0.788882 0.969696 -0.533611 -3.132821 0.340246 0.309719
    24 1.920300 0.000001 0.000000 -0.292276 0.215845 -0.150686
    25 0.858251 0.000000 0.000001 -0.205563 -0.121344 -0.126518
    26 2.955714 0.752580 0.160552 -2.856344 0.190721 -0.189367
    27 1.836085 0.000001 0.000000 -2.145582 -1.462076 2.474468
    28 0.853994 0.000000 0.000000 -0.002756 -0.113413 0.024347
    29 2.964905 -0.017482 0.178523 -2.812254 0.390716 -0.212804
    30 1.814734 -0.000001 0.000001 -2.868002 -1.249294 2.991748
    31 0.982325 -0.000001 0.000000 0.049934 0.058895 0.016840
    32 2.889732 -0.720927 0.212797 -2.783004 0.751236 -0.182249
    33 1.751860 -0.000001 -0.000001 -3.036908 -1.229040 3.103469
    34 0.853992 0.000002 0.000001 -0.022357 0.324473 0.012037
    35 2.857167 -1.430682 0.078012 -2.644982 1.197109 0.252190
    36 1.152892 0.000000 0.000000 0.378771 -1.131337 -0.271524
    37 0.748463 0.000001 -0.000001 0.100505 -0.078938 -0.017161
    38 2.700229 -12.028279 -4.323343 1.591277 0.000000 -0.000024
    39 2.702677 -10.204004 -4.950229 1.591277 0.000000 -0.000024
    40 2.696953 -12.434542 -5.132008 1.591277 0.000000 -0.000024
    41 2.704425 -13.824457 -6.344637 1.591277 0.000000 -0.000024
    42 2.486642 -21.176925 -2.426956 1.591277 0.000000 -0.000088
  time 6
    0 4.856782 7.575070 1.504075 0.000000 1.570796 0.000000
    1 -0.023288 0.041601 0.000000 0.045132 0.078677 -0.497194
    2 11.072353 -0.043443 0.000000 0.000000 0.000000 -1.258768
    3 8.108976 0.000000 0.000000 0.046468 -0.077897 0.200374
    4 0.758958 -0.993292 -0.533611 0.450967 0.475232 -0.090834
    5 1.920300 0.000000 0.000000 0.040560 0.156630 0.608050
    6 0.858252 0.000000 0.000000 0.000000 0.000000 -0.069433
    7 2.931401 -0.842323 0.160553 0.000099 0.244346 -0.014674
    8 1.836086 0.000000 0.000000 0.000684 0.976596 0.000448
    9 0.853993 0.000000 -0.000003 0.002756 0.113413 0.024347
    10 2.964059 -0.072899 0.178523 -0.018769 1.060521 -0.035630
    11 1.814737 0.000000 0.000000 -2.587541 1.225951 -2.517784
    12 0.982325 0.000000 0.000000 0.000000 0.095993 0.021736
    13 2.910364 0.632510 0.212797 -0.261503 1.212730 -0.292339
    14 1.751858 0.000000 0.000000 -2.395943 1.201165 -2.386958
    15 0.853992 0.000000 0.000000 0.000000 0.043633 0.000000
    16 2.899449 1.342928 0.078013 -0.707016 1.171529 -0.762778
    17 1.152892 -0.000002 0.000000 -0.614257 1.271614 -0.532564
    18 0.748463 0.000000 0.000000 0.000000 0.314159 -0.057080
    19 -9.816048 -15.513170 -3.467444 0.128511 0.710181 0.744711
    20 -0.023288 0.041602 0.000000 -0.308491 -0.319685 -0.005018
    21 11.072350 -0.043443 0.000001 0.000000 0.000000 -1.907740
    22 8.108974 0.000000 0.000000 -2.811458 0.084448 0.238274
    23 0.788882 0.969696 -0.533611 -3.132821 0.340246 0.309719
    24 1.920300 0.000001 0.000000 -0.292276 0.215845 -0.150686
    25 0.858251 0.000000 0.000001 -0.205563 -0.121344 -0.126518
    26 2.955714 0.752580 0.160552 -2.856344 0.190721 -0.189367
    27 1.836085 0.000001 0.000000 -2.145582 -1.462076 2.474468
    28 0.853994 0.000000 0.000000 -0.002756 -0.113413 0.024347
    29 2.964905 -0.017482 0.178523 -2.812254 0.390716 -0.212804
    30 1.814734 -0.000001 0.000001 -2.868002 -1.249294 2.991748
    31 0.982325 -0.000001 0.000000 0.049934 0.058895 0.016840
    32 2.889732 -0.720927 0.212797 -2.783004 0.751236 -0.182249
    33 1.751860 -0.000001 -0.000001 -3.036908 -1.229040 3.103469
    34 0.853992 0.000002 0.000001 -0.022357 0.324473 0.012037
    35 2.857167 -1.430682 0.078012 -2.644982 1.197109 0.252190
    36 1.152892 0.000000 0.000000 0.378771 -1.131337 -0.271524
    37 0.748463 0.000001 -0.000001 0.100505 -0.078938 -0.017161
    38 2.700229 -12.028279 -4.323343 1.591277 0.000000 -0.000024
    39 2.702677 -10.204004 -4.950229 1.591277 0.000000 -0.000024
    40 2.696953 -12.434542 -5.132008 1.591277 0.000000 -0.000024
    41 2.704425 -13.824457 -6.344637 1.591277 0.000000 -0.000024
    42 2.486642 -21.176925 -2.426956 1.591277 0.000000 -0.000088
  time 7
    0 4.856782 7.575070 1.504075 0.000000 1.570796 0.000000
    1 -0.023288 0.041601 0.000000 0.045132 0.078677 -0.497194
    2 11.072353 -0.043443 0.000000 0.000000 0.000000 -1.258768
    3 8.108976 0.000000 0.000000 0.046468 -0.077897 0.200374
    4 0.758958 -0.993292 -0.533611 0.450967 0.475232 -0.090834
    5 1.920300 0.000000 0.000000 0.040560 0.156630 0.608050
    6 0.858252 0.000000 0.000000 0.000000 0.000000 -0.069433
    7 2.931401 -0.842323 0.160553 0.000099 0.244346 -0.014674
    8 1.836086 0.000000 0.000000 0.000684 0.976596 0.000448
    9 0.853993 0.000000 -0.000003 0.002756 0.113413 0.024347
    10 2.964059 -0.072899 0.178523 -0.018769 1.060521 -0.035630
    11 1.814737 0.000000 0.000000 -2.587541 1.225951 -2.517784
    12 0.982325 0.000000 0.000000 0.000000 0.095993 0.021736
    13 2.910364 0.632510 0.212797 -0.261503 1.212730 -0.292339
    14 1.751858 0.000000 0.000000 -2.395943 1.201165 -2.386958
    15 0.853992 0.000000 0.000000 0.000000 0.043633 0.000000
    16 2.899449 1.342928 0.078013 -0.707016 1.171529 -0.762778
    17 1.152892 -0.000002 0.000000 -0.614257 1.271614 -0.532564
    18 0.748463 0.000000 0.000000 0.000000 0.314159 -0.057080
    19 -9.816048 -15.513170 -3.467444 0.128511 0.710181 0.744711
    20 -0.023288 0.041602 0.000000 -0.308491 -0.319685 -0.005018
    21 11.072350 -0.043443 0.000001 0.000000 0.000000 -1.907740
    22 8.108974 0.000000 0.000000 -2.811458 0.084448 0.238274
    23 0.788882 0.969696 -0.533611 -3.132821 0.340246 0.309719
    24 1.920300 0.000001 0.000000 -0.292276 0.215845 -0.150686
    25 0.858251 0.000000 0.000001 -0.205563 -0.121344 -0.126518
    26 2.955714 0.752580 0.160552 -2.856344 0.190721 -0.189367
    27 1.836085 0.000001 0.000000 -2.145582 -1.462076 2.474468
    28 0.853994 0.000000 0.000000 -0.002756 -0.113413 0.024347
    29 2.964905 -0.017482 0.178523 -2.812254 0.390716 -0.212804
    30 1.814734 -0.000001 0.000001 -2.868002 -1.249294 2.991748
    31 0.982325 -0.000001 0.000000 0.049934 0.058895 0.016840
    32 2.889732 -0.720927 0.212797 -2.783004 0.751236 -0.182249
    33 1.751860 -0.000001 -0.000001 -3.036908 -1.229040 3.103469
    34 0.853992 0.000002 0.000001 -0.022357 0.324473 0.012037
    35 2.857167 -1.430682 0.078012 -2.644982 1.197109 0.252190
    36 1.152892 0.000000 0.000000 0.378771 -1.131337 -0.271524
    37 0.748463 0.000001 -0.000001 0.100505 -0.078938 -0.017161
    38 2.700229 -12.028279 -4.323343 1.591277 0.000000 -0.000024
    39 2.702677 -10.204004 -4.950229 1.591277 0.000000 -0.000024
    40 2.696953 -12.434542 -5.132008 1.591277 0.000000 -0.000024
    41 2.704425 -13.824457 -6.344637 1.591277 0.000000 -0.000024
    42 2.486642 -21.176925 -2.426956 1.591277 0.000000 -0.000088
  time 8
    0 4.856782 7.575070 1.504075 0.000000 1.570796 0.000000
    1 -0.023288 0.041601 0.000000 0.045132 0.078677 -0.497194
    2 11.072353 -0.043443 0.000000 0.000000 0.000000 -1.258768
    3 8.108976 0.000000 0.000000 0.046468 -0.077897 0.200374
    4 0.758958 -0.993292 -0.533611 0.450967 0.475232 -0.090834
    5 1.920300 0.000000 0.000000 0.040560 0.156630 0.608050
    6 0.858252 0.000000 0.000000 0.000000 0.000000 -0.069433
    7 2.931401 -0.842323 0.160553 0.000099 0.244346 -0.014674
    8 1.836086 0.000000 0.000000 0.000684 0.976596 0.000448
    9 0.853993 0.000000 -0.000003 0.002756 0.113413 0.024347
    10 2.964059 -0.072899 0.178523 -0.018769 1.060521 -0.035630
    11 1.814737 0.000000 0.000000 -2.587541 1.225951 -2.517784
    12 0.982325 0.000000 0.000000 0.000000 0.095993 0.021736
    13 2.910364 0.632510 0.212797 -0.261503 1.212730 -0.292339
    14 1.751858 0.000000 0.000000 -2.395943 1.201165 -2.386958
    15 0.853992 0.000000 0.000000 0.000000 0.043633 0.000000
    16 2.899449 1.342928 0.078013 -0.707016 1.171529 -0.762778
    17 1.152892 -0.000002 0.000000 -0.614257 1.271614 -0.532564
    18 0.748463 0.000000 0.000000 0.000000 0.314159 -0.057080
    19 -9.816048 -15.513170 -3.467444 0.128511 0.710181 0.744711
    20 -0.023288 0.041602 0.000000 -0.308491 -0.319685 -0.005018
    21 11.072350 -0.043443 0.000001 0.000000 0.000000 -1.907740
    22 8.108974 0.000000 0.000000 -2.811458 0.084448 0.238274
    23 0.788882 0.969696 -0.533611 -3.132821 0.340246 0.309719
    24 1.920300 0.000001 0.000000 -0.292276 0.215845 -0.150686
    25 0.858251 0.000000 0.000001 -0.205563 -0.121344 -0.126518
    26 2.955714 0.752580 0.160552 -2.856344 0.190721 -0.189367
    27 1.836085 0.000001 0.000000 -2.145582 -1.462076 2.474468
    28 0.853994 0.000000 0.000000 -0.002756 -0.113413 0.024347
    29 2.964905 -0.017482 0.178523 -2.812254 0.390716 -0.212804
    30 1.814734 -0.000001 0.000001 -2.868002 -1.249294 2.991748
    31 0.982325 -0.000001 0.000000 0.049934 0.058895 0.016840
    32 2.889732 -0.720927 0.212797 -2.783004 0.751236 -0.182249
    33 1.751860 -0.000001 -0.000001 -3.036908 -1.229040 3.103469
    34 0.853992 0.000002 0.000001 -0.022357 0.324473 0.012037
    35 2.857167 -1.430682 0.078012 -2.644982 1.197109 0.252190
    36 1.152892 0.000000 0.000000 0.378771 -1.131337 -0.271524
    37 0.748463 0.000001 -0.000001 0.100505 -0.078938 -0.017161
    38 2.700229 -12.028279 -4.323343 1.591277 0.000000 -0.000024
    39 2.702677 -10.204004 -4.950229 1.591277 0.000000 -0.000024
    40 2.696953 -12.434542 -5.132008 1.591277 0.000000 -0.000024
    41 2.704425 -13.824457 -6.344637 1.591277 0.000000 -0.000024
    42 2.486642 -21.176925 -2.426956 1.591277 0.000000 -0.000088
  time 9
    0 4.856782 7.575070 1.504075 0.000000 1.570796 0.000000
    1 -0.023288 0.041601 0.000000 0.045132 0.078677 -0.497194
    2 11.072353 -0.043443 0.000000 0.000000 0.000000 -1.258768
    3 8.108976 0.000000 0.000000 0.046468 -0.077897 0.200374
    4 0.758958 -0.993292 -0.533611 0.450967 0.475232 -0.090834
    5 1.920300 0.000000 0.000000 0.040560 0.156630 0.608050
    6 0.858252 0.000000 0.000000 0.000000 0.000000 -0.069433
    7 2.931401 -0.842323 0.160553 0.000099 0.244346 -0.014674
    8 1.836086 0.000000 0.000000 0.000684 0.976596 0.000448
    9 0.853993 0.000000 -0.000003 0.002756 0.113413 0.024347
    10 2.964059 -0.072899 0.178523 -0.018769 1.060521 -0.035630
    11 1.814737 0.000000 0.000000 -2.587541 1.225951 -2.517784
    12 0.982325 0.000000 0.000000 0.000000 0.095993 0.021736
    13 2.910364 0.632510 0.212797 -0.261503 1.212730 -0.292339
    14 1.751858 0.000000 0.000000 -2.395943 1.201165 -2.386958
    15 0.853992 0.000000 0.000000 0.000000 0.043633 0.000000
    16 2.899449 1.342928 0.078013 -0.707016 1.171529 -0.762778
    17 1.152892 -0.000002 0.000000 -0.614257 1.271614 -0.532564
    18 0.748463 0.000000 0.000000 0.000000 0.314159 -0.057080
    19 -9.816048 -15.513170 -3.467444 0.128511 0.710181 0.744711
    20 -0.023288 0.041602 0.000000 -0.308491 -0.319685 -0.005018
    21 11.072350 -0.043443 0.000001 0.000000 0.000000 -1.907740
    22 8.108974 0.000000 0.000000 -2.811458 0.084448 0.238274
    23 0.788882 0.969696 -0.533611 -3.132821 0.340246 0.309719
    24 1.920300 0.000001 0.000000 -0.292276 0.215845 -0.150686
    25 0.858251 0.000000 0.000001 -0.205563 -0.121344 -0.126518
    26 2.955714 0.752580 0.160552 -2.856344 0.190721 -0.189367
    27 1.836085 0.000001 0.000000 -2.145582 -1.462076 2.474468
    28 0.853994 0.000000 0.000000 -0.002756 -0.113413 0.024347
    29 2.964905 -0.017482 0.178523 -2.812254 0.390716 -0.212804
    30 1.814734 -0.000001 0.000001 -2.868002 -1.249294 2.991748
    31 0.982325 -0.000001 0.000000 0.049934 0.058895 0.016840
    32 2.889732 -0.720927 0.212797 -2.783004 0.751236 -0.182249
    33 1.751860 -0.000001 -0.000001 -3.036908 -1.229040 3.103469
    34 0.853992 0.000002 0.000001 -0.022357 0.324473 0.012037
    35 2.857167 -1.430682 0.078012 -2.644982 1.197109 0.252190
    36 1.152892 0.000000 0.000000 0.378771 -1.131337 -0.271524
    37 0.748463 0.000001 -0.000001 0.100505 -0.078938 -0.017161
    38 2.700229 -12.028279 -4.323343 1.591277 0.000000 -0.000024
    39 2.702677 -10.204004 -4.950229 1.591277 0.000000 -0.000024
    40 2.696953 -12.434542 -5.132008 1.591277 0.000000 -0.000024
    41 2.704425 -13.824457 -6.344637 1.591277 0.000000 -0.000024
    42 2.486642 -21.176925 -2.426956 1.591277 0.000000 -0.000088
  time 10
    0 4.856782 7.575070 1.504075 0.000000 1.570796 0.000000
    1 -0.023288 0.041601 0.000000 0.045132 0.078677 -0.497194
    2 11.072353 -0.043443 0.000000 0.000000 0.000000 -1.258768
    3 8.108976 0.000000 0.000000 0.046468 -0.077897 0.200374
    4 0.758958 -0.993292 -0.533611 0.450967 0.475232 -0.090834
    5 1.920300 0.000000 0.000000 0.040560 0.156630 0.608050
    6 0.858252 0.000000 0.000000 0.000000 0.000000 -0.069433
    7 2.931401 -0.842323 0.160553 0.000099 0.244346 -0.014674
    8 1.836086 0.000000 0.000000 0.000684 0.976596 0.000448
    9 0.853993 0.000000 -0.000003 0.002756 0.113413 0.024347
    10 2.964059 -0.072899 0.178523 -0.018769 1.060521 -0.035630
    11 1.814737 0.000000 0.000000 -2.587541 1.225951 -2.517784
    12 0.982325 0.000000 0.000000 0.000000 0.095993 0.021736
    13 2.910364 0.632510 0.212797 -0.261503 1.212730 -0.292339
    14 1.751858 0.000000 0.000000 -2.395943 1.201165 -2.386958
    15 0.853992 0.000000 0.000000 0.000000 0.043633 0.000000
    16 2.899449 1.342928 0.078013 -0.707016 1.171529 -0.762778
    17 1.152892 -0.000002 0.000000 -0.614257 1.271614 -0.532564
    18 0.748463 0.000000 0.000000 0.000000 0.314159 -0.057080
    19 -9.816048 -15.513170 -3.467444 0.128511 0.710181 0.744711
    20 -0.023288 0.041602 0.000000 -0.308491 -0.319685 -0.005018
    21 11.072350 -0.043443 0.000001 0.000000 0.000000 -1.907740
    22 8.108974 0.000000 0.000000 -2.811458 0.084448 0.238274
    23 0.788882 0.969696 -0.533611 -3.132821 0.340246 0.309719
    24 1.920300 0.000001 0.000000 -0.292276 0.215845 -0.150686
    25 0.858251 0.000000 0.000001 -0.205563 -0.121344 -0.126518
    26 2.955714 0.752580 0.160552 -2.856344 0.190721 -0.189367
    27 1.836085 0.000001 0.000000 -2.145582 -1.462076 2.474468
    28 0.853994 0.000000 0.000000 -0.002756 -0.113413 0.024347
    29 2.964905 -0.017482 0.178523 -2.812254 0.390716 -0.212804
    30 1.814734 -0.000001 0.000001 -2.868002 -1.249294 2.991748
    31 0.982325 -0.000001 0.000000 0.049934 0.058895 0.016840
    32 2.889732 -0.720927 0.212797 -2.783004 0.751236 -0.182249
    33 1.751860 -0.000001 -0.000001 -3.036908 -1.229040 3.103469
    34 0.853992 0.000002 0.000001 -0.022357 0.324473 0.012037
    35 2.857167 -1.430682 0.078012 -2.644982 1.197109 0.252190
    36 1.152892 0.000000 0.000000 0.378771 -1.131337 -0.271524
    37 0.748463 0.000001 -0.000001 0.100505 -0.078938 -0.017161
    38 2.700229 -12.028279 -4.323343 1.591277 0.000000 -0.000024
    39 2.702677 -10.204004 -4.950229 1.591277 0.000000 -0.000024
    40 2.696953 -12.434542 -5.132008 1.591277 0.000000 -0.000024
    41 2.704425 -13.824457 -6.344637 1.591277 0.000000 -0.000024
    42 2.486642 -21.176925 -2.426956 1.591277 0.000000 -0.000088
  time 11
    0 4.856782 7.575070 1.504075 0.000000 1.570796 0.000000
    1 -0.023288 0.041601 0.000000 0.045132 0.078677 -0.497194
    2 11.072353 -0.043443 0.000000 0.000000 0.000000 -1.258768
    3 8.108976 0.000000 0.000000 0.046468 -0.077897 0.200374
    4 0.758958 -0.993292 -0.533611 0.450967 0.475232 -0.090834
    5 1.920300 0.000000 0.000000 0.040560 0.156630 0.608050
    6 0.858252 0.000000 0.000000 0.000000 0.000000 -0.069433
    7 2.931401 -0.842323 0.160553 0.000099 0.244346 -0.014674
    8 1.836086 0.000000 0.000000 0.000684 0.976596 0.000448
    9 0.853993 0.000000 -0.000003 0.002756 0.113413 0.024347
    10 2.964059 -0.072899 0.178523 -0.018769 1.060521 -0.035630
    11 1.814737 0.000000 0.000000 -2.587541 1.225951 -2.517784
    12 0.982325 0.000000 0.000000 0.000000 0.095993 0.021736
    13 2.910364 0.632510 0.212797 -0.261503 1.212730 -0.292339
    14 1.751858 0.000000 0.000000 -2.395943 1.201165 -2.386958
    15 0.853992 0.000000 0.000000 0.000000 0.043633 0.000000
    16 2.899449 1.342928 0.078013 -0.707016 1.171529 -0.762778
    17 1.152892 -0.000002 0.000000 -0.614257 1.271614 -0.532564
    18 0.748463 0.000000 0.000000 0.000000 0.314159 -0.057080
    19 -9.816048 -15.513170 -3.467444 0.128511 0.710181 0.744711
    20 -0.023288 0.041602 0.000000 -0.308491 -0.319685 -0.005018
    21 11.072350 -0.043443 0.000001 0.000000 0.000000 -1.907740
    22 8.108974 0.000000 0.000000 -2.811458 0.084448 0.238274
    23 0.788882 0.969696 -0.533611 -3.132821 0.340246 0.309719
    24 1.920300 0.000001 0.000000 -0.292276 0.215845 -0.150686
    25 0.858251 0.000000 0.000001 -0.205563 -0.121344 -0.126518
    26 2.955714 0.752580 0.160552 -2.856344 0.190721 -0.189367
    27 1.836085 0.000001 0.000000 -2.145582 -1.462076 2.474468
    28 0.853994 0.000000 0.000000 -0.002756 -0.113413 0.024347
    29 2.964905 -0.017482 0.178523 -2.812254 0.390716 -0.212804
    30 1.814734 -0.000001 0.000001 -2.868002 -1.249294 2.991748
    31 0.982325 -0.000001 0.000000 0.049934 0.058895 0.016840
    32 2.889732 -0.720927 0.212797 -2.783004 0.751236 -0.182249
    33 1.751860 -0.000001 -0.000001 -3.036908 -1.229040 3.103469
    34 0.853992 0.000002 0.000001 -0.022357 0.324473 0.012037
    35 2.857167 -1.430682 0.078012 -2.644982 1.197109 0.252190
    36 1.152892 0.000000 0.000000 0.378771 -1.131337 -0.271524
    37 0.748463 0.000001 -0.000001 0.100505 -0.078938 -0.017161
    38 2.700229 -12.028279 -4.323343 1.591277 0.000000 -0.000024
    39 2.702677 -10.204004 -4.950229 1.591277 0.000000 -0.000024
    40 2.696953 -12.434542 -5.132008 1.591277 0.000000 -0.000024
    41 2.704425 -13.824457 -6.344637 1.591277 0.000000 -0.000024
    42 2.486642 -21.176925 -2.426956 1.591277 0.000000 -0.000088
end
