// Created by Crowbar 0.42.0.0
version 1
nodes
  0 "ValveBiped.Bip01_R_Hand" -1
  1 "ValveBiped.Weapon_bone" 0
end
skeleton
  time 0
    0 1.783203 -5.773438 -3.330078 -2.988847 0.080661 -4.700880
    1 5.000000 -1.500000 -5.000000 0.000000 0.000000 0.000000
end
