"VertexlitGeneric"
{
	"$basetexture" "models/weapons/view_models/stiel/stiel"
        "$bumpmap" "models/weapons/view_models/stiel/stiel_normal"
	"$phong" "1"

	"$phongexponent" "8"
	"$phongboost"	"0.5"
	"$phongfresnelranges"	"[0.5 0.2 0.5]"
}
