// Created by Crowbar 0.42.0.0
version 1
nodes
  0 "ValveBiped.Bip01" -1
  1 "ValveBiped.Bip01_Spine" 0
  2 "ValveBiped.Bip01_Spine1" 1
  3 "ValveBiped.Bip01_Spine2" 2
  4 "ValveBiped.Bip01_Spine4" 3
  5 "ValveBiped.Bip01_R_Clavicle" 4
  6 "ValveBiped.Bip01_R_UpperArm" 5
  7 "ValveBiped.Bip01_R_Forearm" 6
  8 "ValveBiped.Bip01_R_Hand" 7
  9 "ValveBiped.Bip01_R_Finger4" 8
  10 "ValveBiped.Bip01_R_Finger41" 9
  11 "ValveBiped.Bip01_R_Finger42" 10
  12 "ValveBiped.Bip01_R_Finger3" 8
  13 "ValveBiped.Bip01_R_Finger31" 12
  14 "ValveBiped.Bip01_R_Finger32" 13
  15 "ValveBiped.Bip01_R_Finger2" 8
  16 "ValveBiped.Bip01_R_Finger21" 15
  17 "ValveBiped.Bip01_R_Finger22" 16
  18 "ValveBiped.Bip01_R_Finger1" 8
  19 "ValveBiped.Bip01_R_Finger11" 18
  20 "ValveBiped.Bip01_R_Finger12" 19
  21 "ValveBiped.Bip01_R_Finger0" 8
  22 "ValveBiped.Bip01_R_Finger01" 21
  23 "ValveBiped.Bip01_R_Finger02" 22
  24 "ValveBiped.jug" 8
end
skeleton
  time 0
    0 -0.000004 -11.031250 -16.421875 1.570792 0.000003 -0.000003
    1 0.000005 3.345127 -2.981901 1.570796 0.086293 1.570796
    2 4.018330 0.000000 0.000000 0.000000 0.000000 -0.029242
    3 3.518562 0.000000 0.000000 0.000000 0.000000 0.100336
    4 8.942638 0.000000 0.000000 0.000000 0.000000 0.194096
    5 2.033356 1.000772 -1.937610 -1.668475 1.286518 2.942953
    6 6.028144 0.000004 0.000000 1.262444 0.148937 -0.711909
    7 11.692554 -0.000001 0.000000 0.000000 0.000000 -1.773782
    8 11.481699 0.000000 0.000000 -1.367254 0.103926 0.221215
    9 3.859673 -0.132570 1.193108 0.073030 -0.007831 -1.767300
    10 1.312561 0.000001 0.000000 0.000000 -0.036007 -0.489409
    11 0.729362 0.000001 0.000004 0.000000 0.000000 -1.522286
    12 3.942296 0.050327 0.431042 0.135575 -0.004608 -1.761084
    13 1.539097 0.000000 0.000000 0.000000 -0.139528 -0.631800
    14 1.196323 0.000002 0.000000 0.000000 0.000000 -1.867938
    15 3.883657 -0.050327 -0.431042 -0.022402 -0.089957 -1.578934
    16 1.719578 0.000001 0.000000 0.183538 -0.001924 -0.883179
    17 1.209183 0.000002 0.000000 0.006608 -0.006481 -2.111975
    18 3.859828 -0.148935 -1.331284 -0.315183 -0.148564 -1.039767
    19 1.719423 -0.000004 0.000002 0.259175 0.000000 -0.612199
    20 1.099670 0.000000 0.000004 0.002715 -0.016875 -1.527930
    21 0.806017 -0.359833 -1.318333 0.938140 0.326251 -0.736779
    22 1.789782 -0.000002 -0.000004 0.000000 0.000000 0.430491
    23 1.206999 0.000002 0.000000 0.000000 0.000000 0.341152
    24 4.796072 -2.037481 -0.636696 -1.715280 0.118330 -1.254533
  time 1
    0 -0.000004 -11.031250 -16.421875 1.570792 0.000003 -0.000003
    1 0.000005 3.345127 -2.981901 1.570796 0.086293 1.570796
    2 4.018330 0.000000 0.000000 0.000000 0.000000 -0.029242
    3 3.518562 0.000000 0.000000 0.000000 0.000000 0.100336
    4 8.942638 0.000000 0.000000 0.000000 0.000000 0.194096
    5 2.033356 1.000772 -1.937610 -1.668475 1.286518 2.942953
    6 6.028144 0.000004 0.000000 1.262168 0.148533 -0.712868
    7 11.692554 -0.000001 0.000000 0.000000 0.000000 -1.772312
    8 11.481699 0.000000 0.000000 -1.367254 0.103926 0.221215
    9 3.859673 -0.132570 1.193108 0.073030 -0.007831 -1.767300
    10 1.312561 0.000001 0.000000 0.000000 -0.036007 -0.489409
    11 0.729362 0.000001 0.000004 0.000000 0.000000 -1.522286
    12 3.942296 0.050327 0.431042 0.135575 -0.004608 -1.761084
    13 1.539097 0.000000 0.000000 0.000000 -0.139528 -0.631800
    14 1.196323 0.000002 0.000000 0.000000 0.000000 -1.867938
    15 3.883657 -0.050327 -0.431042 -0.022402 -0.089957 -1.578934
    16 1.719578 0.000001 0.000000 0.183538 -0.001924 -0.883179
    17 1.209183 0.000002 0.000000 0.006608 -0.006481 -2.111975
    18 3.859828 -0.148935 -1.331284 -0.315183 -0.148564 -1.039767
    19 1.719423 -0.000004 0.000002 0.259175 0.000000 -0.612199
    20 1.099670 0.000000 0.000004 0.002715 -0.016875 -1.527930
    21 0.806017 -0.359833 -1.318333 0.938140 0.326251 -0.736779
    22 1.789782 -0.000002 -0.000004 0.000000 0.000000 0.430491
    23 1.206999 0.000002 0.000000 0.000000 0.000000 0.341152
    24 4.796072 -2.037481 -0.636696 -1.715280 0.118330 -1.254533
  time 2
    0 -0.000004 -11.031250 -16.421875 1.570792 0.000003 -0.000003
    1 0.000005 3.345127 -2.981901 1.570796 0.086293 1.570796
    2 4.018330 0.000000 0.000000 0.000000 0.000000 -0.029242
    3 3.518562 0.000000 0.000000 0.000000 0.000000 0.100336
    4 8.942638 0.000000 0.000000 0.000000 0.000000 0.194096
    5 2.033356 1.000772 -1.937610 -1.668475 1.286518 2.942953
    6 6.028144 0.000004 0.000000 1.261341 0.147349 -0.715660
    7 11.692554 -0.000001 0.000000 0.000000 0.000000 -1.767947
    8 11.481699 0.000000 0.000000 -1.367254 0.103926 0.221215
    9 3.859673 -0.132570 1.193108 0.073030 -0.007831 -1.767300
    10 1.312561 0.000001 0.000000 0.000000 -0.036007 -0.489409
    11 0.729362 0.000001 0.000004 0.000000 0.000000 -1.522286
    12 3.942296 0.050327 0.431042 0.135575 -0.004608 -1.761084
    13 1.539097 0.000000 0.000000 0.000000 -0.139528 -0.631800
    14 1.196323 0.000002 0.000000 0.000000 0.000000 -1.867938
    15 3.883657 -0.050327 -0.431042 -0.022402 -0.089957 -1.578934
    16 1.719578 0.000001 0.000000 0.183538 -0.001924 -0.883179
    17 1.209183 0.000002 0.000000 0.006608 -0.006481 -2.111975
    18 3.859828 -0.148935 -1.331284 -0.315183 -0.148564 -1.039767
    19 1.719423 -0.000004 0.000002 0.259175 0.000000 -0.612199
    20 1.099670 0.000000 0.000004 0.002715 -0.016875 -1.527930
    21 0.806017 -0.359833 -1.318333 0.938140 0.326251 -0.736779
    22 1.789782 -0.000002 -0.000004 0.000000 0.000000 0.430491
    23 1.206999 0.000002 0.000000 0.000000 0.000000 0.341152
    24 4.796072 -2.037481 -0.636696 -1.715280 0.118330 -1.254533
  time 3
    0 -0.000004 -11.031250 -16.421875 1.570792 0.000003 -0.000003
    1 0.000005 3.345127 -2.981901 1.570796 0.086293 1.570796
    2 4.018330 0.000000 0.000000 0.000000 0.000000 -0.029242
    3 3.518562 0.000000 0.000000 0.000000 0.000000 0.100336
    4 8.942638 0.000000 0.000000 0.000000 0.000000 0.194096
    5 2.033356 1.000772 -1.937610 -1.668475 1.286518 2.942953
    6 6.028144 0.000004 0.000000 1.260035 0.145507 -0.720119
    7 11.692554 -0.000001 0.000000 0.000000 0.000000 -1.760903
    8 11.481699 0.000000 0.000000 -1.367254 0.103926 0.221215
    9 3.859673 -0.132570 1.193108 0.073030 -0.007831 -1.767300
    10 1.312561 0.000001 0.000000 0.000000 -0.036007 -0.489409
    11 0.729362 0.000001 0.000004 0.000000 0.000000 -1.522286
    12 3.942296 0.050327 0.431042 0.135575 -0.004608 -1.761084
    13 1.539097 0.000000 0.000000 0.000000 -0.139528 -0.631800
    14 1.196323 0.000002 0.000000 0.000000 0.000000 -1.867938
    15 3.883657 -0.050327 -0.431042 -0.022402 -0.089957 -1.578934
    16 1.719578 0.000001 0.000000 0.183538 -0.001924 -0.883179
    17 1.209183 0.000002 0.000000 0.006608 -0.006481 -2.111975
    18 3.859828 -0.148935 -1.331284 -0.315183 -0.148564 -1.039767
    19 1.719423 -0.000004 0.000002 0.259175 0.000000 -0.612199
    20 1.099670 0.000000 0.000004 0.002715 -0.016875 -1.527930
    21 0.806017 -0.359833 -1.318333 0.938140 0.326251 -0.736779
    22 1.789782 -0.000002 -0.000004 0.000000 0.000000 0.430491
    23 1.206999 0.000002 0.000000 0.000000 0.000000 0.341152
    24 4.796072 -2.037481 -0.636696 -1.715280 0.118330 -1.254533
  time 4
    0 -0.000004 -11.031250 -16.421875 1.570792 0.000003 -0.000003
    1 0.000005 3.345127 -2.981901 1.570796 0.086293 1.570796
    2 4.018330 0.000000 0.000000 0.000000 0.000000 -0.029242
    3 3.518562 0.000000 0.000000 0.000000 0.000000 0.100336
    4 8.942638 0.000000 0.000000 0.000000 0.000000 0.194096
    5 2.033356 1.000772 -1.937610 -1.668475 1.286518 2.942953
    6 6.028144 0.000004 0.000000 1.258309 0.143111 -0.726039
    7 11.692554 -0.000001 0.000000 0.000000 0.000000 -1.751274
    8 11.481699 0.000000 0.000000 -1.367254 0.103926 0.221215
    9 3.859673 -0.132570 1.193108 0.073030 -0.007831 -1.767300
    10 1.312561 0.000001 0.000000 0.000000 -0.036007 -0.489409
    11 0.729362 0.000001 0.000004 0.000000 0.000000 -1.522286
    12 3.942296 0.050327 0.431042 0.135575 -0.004608 -1.761084
    13 1.539097 0.000000 0.000000 0.000000 -0.139528 -0.631800
    14 1.196323 0.000002 0.000000 0.000000 0.000000 -1.867938
    15 3.883657 -0.050327 -0.431042 -0.022402 -0.089957 -1.578934
    16 1.719578 0.000001 0.000000 0.183538 -0.001924 -0.883179
    17 1.209183 0.000002 0.000000 0.006608 -0.006481 -2.111975
    18 3.859828 -0.148935 -1.331284 -0.315183 -0.148564 -1.039767
    19 1.719423 -0.000004 0.000002 0.259175 0.000000 -0.612199
    20 1.099670 0.000000 0.000004 0.002715 -0.016875 -1.527930
    21 0.806017 -0.359833 -1.318333 0.938140 0.326251 -0.736779
    22 1.789782 -0.000002 -0.000004 0.000000 0.000000 0.430491
    23 1.206999 0.000002 0.000000 0.000000 0.000000 0.341152
    24 4.796072 -2.037481 -0.636696 -1.715280 0.118330 -1.254533
  time 5
    0 -0.000004 -11.031250 -16.421875 1.570792 0.000003 -0.000003
    1 0.000005 3.345127 -2.981901 1.570796 0.086293 1.570796
    2 4.018330 0.000000 0.000000 0.000000 0.000000 -0.029242
    3 3.518562 0.000000 0.000000 0.000000 0.000000 0.100336
    4 8.942638 0.000000 0.000000 0.000000 0.000000 0.194096
    5 2.033356 1.000772 -1.937610 -1.668475 1.286518 2.942953
    6 6.028144 0.000004 0.000000 1.256236 0.140340 -0.733218
    7 11.692554 -0.000001 0.000000 0.000000 0.000000 -1.739202
    8 11.481699 0.000000 0.000000 -1.367254 0.103926 0.221215
    9 3.859673 -0.132570 1.193108 0.073030 -0.007831 -1.767300
    10 1.312561 0.000001 0.000000 0.000000 -0.036007 -0.489409
    11 0.729362 0.000001 0.000004 0.000000 0.000000 -1.522286
    12 3.942296 0.050327 0.431042 0.135575 -0.004608 -1.761084
    13 1.539097 0.000000 0.000000 0.000000 -0.139528 -0.631800
    14 1.196323 0.000002 0.000000 0.000000 0.000000 -1.867938
    15 3.883657 -0.050327 -0.431042 -0.022402 -0.089957 -1.578934
    16 1.719578 0.000001 0.000000 0.183538 -0.001924 -0.883179
    17 1.209183 0.000002 0.000000 0.006608 -0.006481 -2.111975
    18 3.859828 -0.148935 -1.331284 -0.315183 -0.148564 -1.039767
    19 1.719423 -0.000004 0.000002 0.259175 0.000000 -0.612199
    20 1.099670 0.000000 0.000004 0.002715 -0.016875 -1.527930
    21 0.806017 -0.359833 -1.318333 0.938140 0.326251 -0.736779
    22 1.789782 -0.000002 -0.000004 0.000000 0.000000 0.430491
    23 1.206999 0.000002 0.000000 0.000000 0.000000 0.341152
    24 4.796072 -2.037481 -0.636696 -1.715280 0.118330 -1.254533
  time 6
    0 -0.000004 -11.031250 -16.421875 1.570792 0.000003 -0.000003
    1 0.000005 3.345127 -2.981901 1.570796 0.086293 1.570796
    2 4.018330 0.000000 0.000000 0.000000 0.000000 -0.029242
    3 3.518562 0.000000 0.000000 0.000000 0.000000 0.100336
    4 8.942638 0.000000 0.000000 0.000000 0.000000 0.194096
    5 2.033356 1.000772 -1.937610 -1.668475 1.286518 2.942953
    6 6.028144 0.000004 0.000000 1.253875 0.137330 -0.741475
    7 11.692554 -0.000001 0.000000 0.000000 0.000000 -1.724781
    8 11.481699 0.000000 0.000000 -1.367254 0.103926 0.221215
    9 3.859673 -0.132570 1.193108 0.073030 -0.007831 -1.767300
    10 1.312561 0.000001 0.000000 0.000000 -0.036007 -0.489409
    11 0.729362 0.000001 0.000004 0.000000 0.000000 -1.522286
    12 3.942296 0.050327 0.431042 0.135575 -0.004608 -1.761084
    13 1.539097 0.000000 0.000000 0.000000 -0.139528 -0.631800
    14 1.196323 0.000002 0.000000 0.000000 0.000000 -1.867938
    15 3.883657 -0.050327 -0.431042 -0.022402 -0.089957 -1.578934
    16 1.719578 0.000001 0.000000 0.183538 -0.001924 -0.883179
    17 1.209183 0.000002 0.000000 0.006608 -0.006481 -2.111975
    18 3.859828 -0.148935 -1.331284 -0.315183 -0.148564 -1.039767
    19 1.719423 -0.000004 0.000002 0.259175 0.000000 -0.612199
    20 1.099670 0.000000 0.000004 0.002715 -0.016875 -1.527930
    21 0.806017 -0.359833 -1.318333 0.938140 0.326251 -0.736779
    22 1.789782 -0.000002 -0.000004 0.000000 0.000000 0.430491
    23 1.206999 0.000002 0.000000 0.000000 0.000000 0.341152
    24 4.796072 -2.037481 -0.636696 -1.715280 0.118330 -1.254533
  time 7
    0 -0.000004 -11.031250 -16.421875 1.570792 0.000003 -0.000003
    1 0.000005 3.345127 -2.981901 1.570796 0.086293 1.570796
    2 4.018330 0.000000 0.000000 0.000000 0.000000 -0.029242
    3 3.518562 0.000000 0.000000 0.000000 0.000000 0.100336
    4 8.942638 0.000000 0.000000 0.000000 0.000000 0.194096
    5 2.033356 1.000772 -1.937610 -1.668475 1.286518 2.942953
    6 6.028144 0.000004 0.000000 1.251298 0.134229 -0.750607
    7 11.692554 -0.000001 0.000000 0.000000 0.000000 -1.708131
    8 11.481699 0.000000 0.000000 -1.367254 0.103926 0.221215
    9 3.859673 -0.132570 1.193108 0.073030 -0.007831 -1.767300
    10 1.312561 0.000001 0.000000 0.000000 -0.036007 -0.489409
    11 0.729362 0.000001 0.000004 0.000000 0.000000 -1.522286
    12 3.942296 0.050327 0.431042 0.135575 -0.004608 -1.761084
    13 1.539097 0.000000 0.000000 0.000000 -0.139528 -0.631800
    14 1.196323 0.000002 0.000000 0.000000 0.000000 -1.867938
    15 3.883657 -0.050327 -0.431042 -0.022402 -0.089957 -1.578934
    16 1.719578 0.000001 0.000000 0.183538 -0.001924 -0.883179
    17 1.209183 0.000002 0.000000 0.006608 -0.006481 -2.111975
    18 3.859828 -0.148935 -1.331284 -0.315183 -0.148564 -1.039767
    19 1.719423 -0.000004 0.000002 0.259175 0.000000 -0.612199
    20 1.099670 0.000000 0.000004 0.002715 -0.016875 -1.527930
    21 0.806017 -0.359833 -1.318333 0.938140 0.326251 -0.736779
    22 1.789782 -0.000002 -0.000004 0.000000 0.000000 0.430491
    23 1.206999 0.000002 0.000000 0.000000 0.000000 0.341152
    24 4.796072 -2.037481 -0.636696 -1.715280 0.118330 -1.254533
  time 8
    0 -0.000004 -11.031250 -16.421875 1.570792 0.000003 -0.000003
    1 0.000005 3.345127 -2.981901 1.570796 0.086293 1.570796
    2 4.018330 0.000000 0.000000 0.000000 0.000000 -0.029242
    3 3.518562 0.000000 0.000000 0.000000 0.000000 0.100336
    4 8.942638 0.000000 0.000000 0.000000 0.000000 0.194096
    5 2.033356 1.000772 -1.937610 -1.668475 1.286518 2.942953
    6 6.028144 0.000004 0.000000 1.248578 0.131204 -0.760435
    7 11.692554 -0.000001 0.000000 0.000000 0.000000 -1.689323
    8 11.481699 0.000000 0.000000 -1.367254 0.103926 0.221215
    9 3.859673 -0.132570 1.193108 0.073030 -0.007831 -1.767300
    10 1.312561 0.000001 0.000000 0.000000 -0.036007 -0.489409
    11 0.729362 0.000001 0.000004 0.000000 0.000000 -1.522286
    12 3.942296 0.050327 0.431042 0.135575 -0.004608 -1.761084
    13 1.539097 0.000000 0.000000 0.000000 -0.139528 -0.631800
    14 1.196323 0.000002 0.000000 0.000000 0.000000 -1.867938
    15 3.883657 -0.050327 -0.431042 -0.022402 -0.089957 -1.578934
    16 1.719578 0.000001 0.000000 0.183538 -0.001924 -0.883179
    17 1.209183 0.000002 0.000000 0.006608 -0.006481 -2.111975
    18 3.859828 -0.148935 -1.331284 -0.315183 -0.148564 -1.039767
    19 1.719423 -0.000004 0.000002 0.259175 0.000000 -0.612199
    20 1.099670 0.000000 0.000004 0.002715 -0.016875 -1.527930
    21 0.806017 -0.359833 -1.318333 0.938140 0.326251 -0.736779
    22 1.789782 -0.000002 -0.000004 0.000000 0.000000 0.430491
    23 1.206999 0.000002 0.000000 0.000000 0.000000 0.341152
    24 4.796072 -2.037481 -0.636696 -1.715280 0.118330 -1.254533
  time 9
    0 -0.000004 -11.031250 -16.421875 1.570792 0.000003 -0.000003
    1 0.000005 3.345127 -2.981901 1.570796 0.086293 1.570796
    2 4.018330 0.000000 0.000000 0.000000 0.000000 -0.029242
    3 3.518562 0.000000 0.000000 0.000000 0.000000 0.100336
    4 8.942638 0.000000 0.000000 0.000000 0.000000 0.194096
    5 2.033356 1.000772 -1.937610 -1.668475 1.286518 2.942953
    6 6.028144 0.000004 0.000000 1.245749 0.128388 -0.770801
    7 11.692554 -0.000001 0.000000 0.000000 0.000000 -1.668523
    8 11.481699 0.000000 0.000000 -1.367254 0.103926 0.221215
    9 3.859673 -0.132570 1.193108 0.073030 -0.007831 -1.767300
    10 1.312561 0.000001 0.000000 0.000000 -0.036007 -0.489409
    11 0.729362 0.000001 0.000004 0.000000 0.000000 -1.522286
    12 3.942296 0.050327 0.431042 0.135575 -0.004608 -1.761084
    13 1.539097 0.000000 0.000000 0.000000 -0.139528 -0.631800
    14 1.196323 0.000002 0.000000 0.000000 0.000000 -1.867938
    15 3.883657 -0.050327 -0.431042 -0.022402 -0.089957 -1.578934
    16 1.719578 0.000001 0.000000 0.183538 -0.001924 -0.883179
    17 1.209183 0.000002 0.000000 0.006608 -0.006481 -2.111975
    18 3.859828 -0.148935 -1.331284 -0.315183 -0.148564 -1.039767
    19 1.719423 -0.000004 0.000002 0.259175 0.000000 -0.612199
    20 1.099670 0.000000 0.000004 0.002715 -0.016875 -1.527930
    21 0.806017 -0.359833 -1.318333 0.938140 0.326251 -0.736779
    22 1.789782 -0.000002 -0.000004 0.000000 0.000000 0.430491
    23 1.206999 0.000002 0.000000 0.000000 0.000000 0.341152
    24 4.796072 -2.037481 -0.636696 -1.715280 0.118330 -1.254533
  time 10
    0 -0.000004 -11.031250 -16.421875 1.570792 0.000003 -0.000003
    1 0.000005 3.345127 -2.981901 1.570796 0.086293 1.570796
    2 4.018330 0.000000 0.000000 0.000000 0.000000 -0.029242
    3 3.518562 0.000000 0.000000 0.000000 0.000000 0.100336
    4 8.942638 0.000000 0.000000 0.000000 0.000000 0.194096
    5 2.033356 1.000772 -1.937610 -1.668475 1.286518 2.942953
    6 6.028144 0.000004 0.000000 1.242873 0.125947 -0.781564
    7 11.692554 -0.000001 0.000000 0.000000 0.000000 -1.645825
    8 11.481699 0.000000 0.000000 -1.367254 0.103926 0.221215
    9 3.859673 -0.132570 1.193108 0.073030 -0.007831 -1.767300
    10 1.312561 0.000001 0.000000 0.000000 -0.036007 -0.489409
    11 0.729362 0.000001 0.000004 0.000000 0.000000 -1.522286
    12 3.942296 0.050327 0.431042 0.135575 -0.004608 -1.761084
    13 1.539097 0.000000 0.000000 0.000000 -0.139528 -0.631800
    14 1.196323 0.000002 0.000000 0.000000 0.000000 -1.867938
    15 3.883657 -0.050327 -0.431042 -0.022402 -0.089957 -1.578934
    16 1.719578 0.000001 0.000000 0.183538 -0.001924 -0.883179
    17 1.209183 0.000002 0.000000 0.006608 -0.006481 -2.111975
    18 3.859828 -0.148935 -1.331284 -0.315183 -0.148564 -1.039767
    19 1.719423 -0.000004 0.000002 0.259175 0.000000 -0.612199
    20 1.099670 0.000000 0.000004 0.002715 -0.016875 -1.527930
    21 0.806017 -0.359833 -1.318333 0.938140 0.326251 -0.736779
    22 1.789782 -0.000002 -0.000004 0.000000 0.000000 0.430491
    23 1.206999 0.000002 0.000000 0.000000 0.000000 0.341152
    24 4.796072 -2.037481 -0.636696 -1.715280 0.118330 -1.254533
  time 11
    0 -0.000004 -11.031250 -16.421875 1.570792 0.000003 -0.000003
    1 0.000005 3.345127 -2.981901 1.570796 0.086293 1.570796
    2 4.018330 0.000000 0.000000 0.000000 0.000000 -0.029242
    3 3.518562 0.000000 0.000000 0.000000 0.000000 0.100336
    4 8.942638 0.000000 0.000000 0.000000 0.000000 0.194096
    5 2.033356 1.000772 -1.937610 -1.668475 1.286518 2.942953
    6 6.028144 0.000004 0.000000 1.239997 0.123955 -0.792577
    7 11.692554 -0.000001 0.000000 0.000000 0.000000 -1.621324
    8 11.481699 0.000000 0.000000 -1.367254 0.103926 0.221215
    9 3.859673 -0.132570 1.193108 0.073030 -0.007831 -1.767300
    10 1.312561 0.000001 0.000000 0.000000 -0.036007 -0.489409
    11 0.729362 0.000001 0.000004 0.000000 0.000000 -1.522286
    12 3.942296 0.050327 0.431042 0.135575 -0.004608 -1.761084
    13 1.539097 0.000000 0.000000 0.000000 -0.139528 -0.631800
    14 1.196323 0.000002 0.000000 0.000000 0.000000 -1.867938
    15 3.883657 -0.050327 -0.431042 -0.022402 -0.089957 -1.578934
    16 1.719578 0.000001 0.000000 0.183538 -0.001924 -0.883179
    17 1.209183 0.000002 0.000000 0.006608 -0.006481 -2.111975
    18 3.859828 -0.148935 -1.331284 -0.315183 -0.148564 -1.039767
    19 1.719423 -0.000004 0.000002 0.259175 0.000000 -0.612199
    20 1.099670 0.000000 0.000004 0.002715 -0.016875 -1.527930
    21 0.806017 -0.359833 -1.318333 0.938140 0.326251 -0.736779
    22 1.789782 -0.000002 -0.000004 0.000000 0.000000 0.430491
    23 1.206999 0.000002 0.000000 0.000000 0.000000 0.341152
    24 4.796072 -2.037481 -0.636696 -1.715280 0.118330 -1.254533
  time 12
    0 -0.000004 -11.031250 -16.421875 1.570792 0.000003 -0.000003
    1 0.000005 3.345127 -2.981901 1.570796 0.086293 1.570796
    2 4.018330 0.000000 0.000000 0.000000 0.000000 -0.029242
    3 3.518562 0.000000 0.000000 0.000000 0.000000 0.100336
    4 8.942638 0.000000 0.000000 0.000000 0.000000 0.194096
    5 2.033356 1.000772 -1.937610 -1.668475 1.286518 2.942953
    6 6.028144 0.000004 0.000000 1.237145 0.122547 -0.803747
    7 11.692554 -0.000001 0.000000 0.000000 0.000000 -1.595235
    8 11.481699 0.000000 0.000000 -1.367254 0.103926 0.221215
    9 3.859673 -0.132570 1.193108 0.073030 -0.007831 -1.767300
    10 1.312561 0.000001 0.000000 0.000000 -0.036007 -0.489409
    11 0.729362 0.000001 0.000004 0.000000 0.000000 -1.522286
    12 3.942296 0.050327 0.431042 0.135575 -0.004608 -1.761084
    13 1.539097 0.000000 0.000000 0.000000 -0.139528 -0.631800
    14 1.196323 0.000002 0.000000 0.000000 0.000000 -1.867938
    15 3.883657 -0.050327 -0.431042 -0.022402 -0.089957 -1.578934
    16 1.719578 0.000001 0.000000 0.183538 -0.001924 -0.883179
    17 1.209183 0.000002 0.000000 0.006608 -0.006481 -2.111975
    18 3.859828 -0.148935 -1.331284 -0.315183 -0.148564 -1.039767
    19 1.719423 -0.000004 0.000002 0.259175 0.000000 -0.612199
    20 1.099670 0.000000 0.000004 0.002715 -0.016875 -1.527930
    21 0.806017 -0.359833 -1.318333 0.938140 0.326251 -0.736779
    22 1.789782 -0.000002 -0.000004 0.000000 0.000000 0.430491
    23 1.206999 0.000002 0.000000 0.000000 0.000000 0.341152
    24 4.796072 -2.037481 -0.636696 -1.715280 0.118330 -1.254533
  time 13
    0 -0.000004 -11.031250 -16.421875 1.570792 0.000003 -0.000003
    1 0.000005 3.345127 -2.981901 1.570796 0.086293 1.570796
    2 4.018330 0.000000 0.000000 0.000000 0.000000 -0.029242
    3 3.518562 0.000000 0.000000 0.000000 0.000000 0.100336
    4 8.942638 0.000000 0.000000 0.000000 0.000000 0.194096
    5 2.033356 1.000772 -1.937610 -1.668475 1.286518 2.942953
    6 6.028144 0.000004 0.000000 1.234352 0.121783 -0.814977
    7 11.692554 -0.000001 0.000000 0.000000 0.000000 -1.567651
    8 11.481699 0.000000 0.000000 -1.367254 0.103926 0.221215
    9 3.859673 -0.132570 1.193108 0.073030 -0.007831 -1.767300
    10 1.312561 0.000001 0.000000 0.000000 -0.036007 -0.489409
    11 0.729362 0.000001 0.000004 0.000000 0.000000 -1.522286
    12 3.942296 0.050327 0.431042 0.135575 -0.004608 -1.761084
    13 1.539097 0.000000 0.000000 0.000000 -0.139528 -0.631800
    14 1.196323 0.000002 0.000000 0.000000 0.000000 -1.867938
    15 3.883657 -0.050327 -0.431042 -0.022402 -0.089957 -1.578934
    16 1.719578 0.000001 0.000000 0.183538 -0.001924 -0.883179
    17 1.209183 0.000002 0.000000 0.006608 -0.006481 -2.111975
    18 3.859828 -0.148935 -1.331284 -0.315183 -0.148564 -1.039767
    19 1.719423 -0.000004 0.000002 0.259175 0.000000 -0.612199
    20 1.099670 0.000000 0.000004 0.002715 -0.016875 -1.527930
    21 0.806017 -0.359833 -1.318333 0.938140 0.326251 -0.736779
    22 1.789782 -0.000002 -0.000004 0.000000 0.000000 0.430491
    23 1.206999 0.000002 0.000000 0.000000 0.000000 0.341152
    24 4.796072 -2.037481 -0.636696 -1.715280 0.118330 -1.254533
  time 14
    0 -0.000004 -11.031250 -16.421875 1.570792 0.000003 -0.000003
    1 0.000005 3.345127 -2.981901 1.570796 0.086293 1.570796
    2 4.018330 0.000000 0.000000 0.000000 0.000000 -0.029242
    3 3.518562 0.000000 0.000000 0.000000 0.000000 0.100336
    4 8.942638 0.000000 0.000000 0.000000 0.000000 0.194096
    5 2.033356 1.000772 -1.937610 -1.668475 1.286518 2.942953
    6 6.028144 0.000004 0.000000 1.231632 0.121738 -0.826170
    7 11.692554 -0.000001 0.000000 0.000000 0.000000 -1.538810
    8 11.481699 0.000000 0.000000 -1.367254 0.103926 0.221215
    9 3.859673 -0.132570 1.193108 0.073030 -0.007831 -1.767300
    10 1.312561 0.000001 0.000000 0.000000 -0.036007 -0.489409
    11 0.729362 0.000001 0.000004 0.000000 0.000000 -1.522286
    12 3.942296 0.050327 0.431042 0.135575 -0.004608 -1.761084
    13 1.539097 0.000000 0.000000 0.000000 -0.139528 -0.631800
    14 1.196323 0.000002 0.000000 0.000000 0.000000 -1.867938
    15 3.883657 -0.050327 -0.431042 -0.022402 -0.089957 -1.578934
    16 1.719578 0.000001 0.000000 0.183538 -0.001924 -0.883179
    17 1.209183 0.000002 0.000000 0.006608 -0.006481 -2.111975
    18 3.859828 -0.148935 -1.331284 -0.315183 -0.148564 -1.039767
    19 1.719423 -0.000004 0.000002 0.259175 0.000000 -0.612199
    20 1.099670 0.000000 0.000004 0.002715 -0.016875 -1.527930
    21 0.806017 -0.359833 -1.318333 0.938140 0.326251 -0.736779
    22 1.789782 -0.000002 -0.000004 0.000000 0.000000 0.430491
    23 1.206999 0.000002 0.000000 0.000000 0.000000 0.341152
    24 4.796072 -2.037481 -0.636696 -1.715280 0.118330 -1.254533
  time 15
    0 -0.000004 -11.031250 -16.421875 1.570792 0.000003 -0.000003
    1 0.000005 3.345127 -2.981901 1.570796 0.086293 1.570796
    2 4.018330 0.000000 0.000000 0.000000 0.000000 -0.029242
    3 3.518562 0.000000 0.000000 0.000000 0.000000 0.100336
    4 8.942638 0.000000 0.000000 0.000000 0.000000 0.194096
    5 2.033356 1.000772 -1.937610 -1.668475 1.286518 2.942953
    6 6.028144 0.000004 0.000000 1.229007 0.122412 -0.837256
    7 11.692554 -0.000001 0.000000 0.000000 0.000000 -1.508878
    8 11.481699 0.000000 0.000000 -1.367254 0.103926 0.221215
    9 3.859673 -0.132570 1.193108 0.073030 -0.007831 -1.767300
    10 1.312561 0.000001 0.000000 0.000000 -0.036007 -0.489409
    11 0.729362 0.000001 0.000004 0.000000 0.000000 -1.522286
    12 3.942296 0.050327 0.431042 0.135575 -0.004608 -1.761084
    13 1.539097 0.000000 0.000000 0.000000 -0.139528 -0.631800
    14 1.196323 0.000002 0.000000 0.000000 0.000000 -1.867938
    15 3.883657 -0.050327 -0.431042 -0.022402 -0.089957 -1.578934
    16 1.719578 0.000001 0.000000 0.183538 -0.001924 -0.883179
    17 1.209183 0.000002 0.000000 0.006608 -0.006481 -2.111975
    18 3.859828 -0.148935 -1.331284 -0.315183 -0.148564 -1.039767
    19 1.719423 -0.000004 0.000002 0.259175 0.000000 -0.612199
    20 1.099670 0.000000 0.000004 0.002715 -0.016875 -1.527930
    21 0.806017 -0.359833 -1.318333 0.938140 0.326251 -0.736779
    22 1.789782 -0.000002 -0.000004 0.000000 0.000000 0.430491
    23 1.206999 0.000002 0.000000 0.000000 0.000000 0.341152
    24 4.796072 -2.037481 -0.636696 -1.715280 0.118330 -1.254533
  time 16
    0 -0.000004 -11.031250 -16.421875 1.570792 0.000003 -0.000003
    1 0.000005 3.345127 -2.981901 1.570796 0.086293 1.570796
    2 4.018330 0.000000 0.000000 0.000000 0.000000 -0.029242
    3 3.518562 0.000000 0.000000 0.000000 0.000000 0.100336
    4 8.942638 0.000000 0.000000 0.000000 0.000000 0.194096
    5 2.033356 1.000772 -1.937610 -1.668475 1.286518 2.942953
    6 6.028144 0.000004 0.000000 1.226502 0.123850 -0.848174
    7 11.692554 -0.000001 0.000000 0.000000 0.000000 -1.478093
    8 11.481699 0.000000 0.000000 -1.367254 0.103926 0.221215
    9 3.859673 -0.132570 1.193108 0.073030 -0.007831 -1.767300
    10 1.312561 0.000001 0.000000 0.000000 -0.036007 -0.489409
    11 0.729362 0.000001 0.000004 0.000000 0.000000 -1.522286
    12 3.942296 0.050327 0.431042 0.135575 -0.004608 -1.761084
    13 1.539097 0.000000 0.000000 0.000000 -0.139528 -0.631800
    14 1.196323 0.000002 0.000000 0.000000 0.000000 -1.867938
    15 3.883657 -0.050327 -0.431042 -0.022402 -0.089957 -1.578934
    16 1.719578 0.000001 0.000000 0.183538 -0.001924 -0.883179
    17 1.209183 0.000002 0.000000 0.006608 -0.006481 -2.111975
    18 3.859828 -0.148935 -1.331284 -0.315183 -0.148564 -1.039767
    19 1.719423 -0.000004 0.000002 0.259175 0.000000 -0.612199
    20 1.099670 0.000000 0.000004 0.002715 -0.016875 -1.527930
    21 0.806017 -0.359833 -1.318333 0.938140 0.326251 -0.736779
    22 1.789782 -0.000002 -0.000004 0.000000 0.000000 0.430491
    23 1.206999 0.000002 0.000000 0.000000 0.000000 0.341152
    24 4.796072 -2.037481 -0.636696 -1.715280 0.118330 -1.254533
  time 17
    0 -0.000004 -11.031250 -16.421875 1.570792 0.000003 -0.000003
    1 0.000005 3.345127 -2.981901 1.570796 0.086293 1.570796
    2 4.018330 0.000000 0.000000 0.000000 0.000000 -0.029242
    3 3.518562 0.000000 0.000000 0.000000 0.000000 0.100336
    4 8.942638 0.000000 0.000000 0.000000 0.000000 0.194096
    5 2.033356 1.000772 -1.937610 -1.668475 1.286518 2.942953
    6 6.028144 0.000004 0.000000 1.224105 0.126022 -0.858864
    7 11.692554 -0.000001 0.000000 0.000000 0.000000 -1.446714
    8 11.481699 0.000000 0.000000 -1.367254 0.103926 0.221215
    9 3.859673 -0.132570 1.193108 0.073030 -0.007831 -1.767300
    10 1.312561 0.000001 0.000000 0.000000 -0.036007 -0.489409
    11 0.729362 0.000001 0.000004 0.000000 0.000000 -1.522286
    12 3.942296 0.050327 0.431042 0.135575 -0.004608 -1.761084
    13 1.539097 0.000000 0.000000 0.000000 -0.139528 -0.631800
    14 1.196323 0.000002 0.000000 0.000000 0.000000 -1.867938
    15 3.883657 -0.050327 -0.431042 -0.022402 -0.089957 -1.578934
    16 1.719578 0.000001 0.000000 0.183538 -0.001924 -0.883179
    17 1.209183 0.000002 0.000000 0.006608 -0.006481 -2.111975
    18 3.859828 -0.148935 -1.331284 -0.315183 -0.148564 -1.039767
    19 1.719423 -0.000004 0.000002 0.259175 0.000000 -0.612199
    20 1.099670 0.000000 0.000004 0.002715 -0.016875 -1.527930
    21 0.806017 -0.359833 -1.318333 0.938140 0.326251 -0.736779
    22 1.789782 -0.000002 -0.000004 0.000000 0.000000 0.430491
    23 1.206999 0.000002 0.000000 0.000000 0.000000 0.341152
    24 4.796072 -2.037481 -0.636696 -1.715280 0.118330 -1.254533
  time 18
    0 -0.000004 -11.031250 -16.421875 1.570792 0.000003 -0.000003
    1 0.000005 3.345127 -2.981901 1.570796 0.086293 1.570796
    2 4.018330 0.000000 0.000000 0.000000 0.000000 -0.029242
    3 3.518562 0.000000 0.000000 0.000000 0.000000 0.100336
    4 8.942638 0.000000 0.000000 0.000000 0.000000 0.194096
    5 2.033356 1.000772 -1.937610 -1.668475 1.286518 2.942953
    6 6.028144 0.000004 0.000000 1.221840 0.128867 -0.869255
    7 11.692554 -0.000001 0.000000 0.000000 0.000000 -1.415003
    8 11.481699 0.000000 0.000000 -1.367254 0.103926 0.221215
    9 3.859673 -0.132570 1.193108 0.073030 -0.007831 -1.767300
    10 1.312561 0.000001 0.000000 0.000000 -0.036007 -0.489409
    11 0.729362 0.000001 0.000004 0.000000 0.000000 -1.522286
    12 3.942296 0.050327 0.431042 0.135575 -0.004608 -1.761084
    13 1.539097 0.000000 0.000000 0.000000 -0.139528 -0.631800
    14 1.196323 0.000002 0.000000 0.000000 0.000000 -1.867938
    15 3.883657 -0.050327 -0.431042 -0.022402 -0.089957 -1.578934
    16 1.719578 0.000001 0.000000 0.183538 -0.001924 -0.883179
    17 1.209183 0.000002 0.000000 0.006608 -0.006481 -2.111975
    18 3.859828 -0.148935 -1.331284 -0.315183 -0.148564 -1.039767
    19 1.719423 -0.000004 0.000002 0.259175 0.000000 -0.612199
    20 1.099670 0.000000 0.000004 0.002715 -0.016875 -1.527930
    21 0.806017 -0.359833 -1.318333 0.938140 0.326251 -0.736779
    22 1.789782 -0.000002 -0.000004 0.000000 0.000000 0.430491
    23 1.206999 0.000002 0.000000 0.000000 0.000000 0.341152
    24 4.796072 -2.037481 -0.636696 -1.715280 0.118330 -1.254533
  time 19
    0 -0.000004 -11.031250 -16.421875 1.570792 0.000003 -0.000003
    1 0.000005 3.345127 -2.981901 1.570796 0.086293 1.570796
    2 4.018330 0.000000 0.000000 0.000000 0.000000 -0.029242
    3 3.518562 0.000000 0.000000 0.000000 0.000000 0.100336
    4 8.942638 0.000000 0.000000 0.000000 0.000000 0.194096
    5 2.033356 1.000772 -1.937610 -1.668475 1.286518 2.942953
    6 6.028144 0.000004 0.000000 1.219695 0.132357 -0.879286
    7 11.692554 -0.000001 0.000000 0.000000 0.000000 -1.383269
    8 11.481699 0.000000 0.000000 -1.367254 0.103926 0.221215
    9 3.859673 -0.132570 1.193108 0.073030 -0.007831 -1.767300
    10 1.312561 0.000001 0.000000 0.000000 -0.036007 -0.489409
    11 0.729362 0.000001 0.000004 0.000000 0.000000 -1.522286
    12 3.942296 0.050327 0.431042 0.135575 -0.004608 -1.761084
    13 1.539097 0.000000 0.000000 0.000000 -0.139528 -0.631800
    14 1.196323 0.000002 0.000000 0.000000 0.000000 -1.867938
    15 3.883657 -0.050327 -0.431042 -0.022402 -0.089957 -1.578934
    16 1.719578 0.000001 0.000000 0.183538 -0.001924 -0.883179
    17 1.209183 0.000002 0.000000 0.006608 -0.006481 -2.111975
    18 3.859828 -0.148935 -1.331284 -0.315183 -0.148564 -1.039767
    19 1.719423 -0.000004 0.000002 0.259175 0.000000 -0.612199
    20 1.099670 0.000000 0.000004 0.002715 -0.016875 -1.527930
    21 0.806017 -0.359833 -1.318333 0.938140 0.326251 -0.736779
    22 1.789782 -0.000002 -0.000004 0.000000 0.000000 0.430491
    23 1.206999 0.000002 0.000000 0.000000 0.000000 0.341152
    24 4.796072 -2.037481 -0.636696 -1.715280 0.118330 -1.254533
  time 20
    0 -0.000004 -11.031250 -16.421875 1.570792 0.000003 -0.000003
    1 0.000005 3.345127 -2.981901 1.570796 0.086293 1.570796
    2 4.018330 0.000000 0.000000 0.000000 0.000000 -0.029242
    3 3.518562 0.000000 0.000000 0.000000 0.000000 0.100336
    4 8.942638 0.000000 0.000000 0.000000 0.000000 0.194096
    5 2.033356 1.000772 -1.937610 -1.668475 1.286518 2.942953
    6 6.028144 0.000004 0.000000 1.217682 0.136386 -0.888910
    7 11.692554 -0.000001 0.000000 0.000000 0.000000 -1.351843
    8 11.481699 0.000000 0.000000 -1.367254 0.103926 0.221215
    9 3.859673 -0.132570 1.193108 0.073030 -0.007831 -1.767300
    10 1.312561 0.000001 0.000000 0.000000 -0.036007 -0.489409
    11 0.729362 0.000001 0.000004 0.000000 0.000000 -1.522286
    12 3.942296 0.050327 0.431042 0.135575 -0.004608 -1.761084
    13 1.539097 0.000000 0.000000 0.000000 -0.139528 -0.631800
    14 1.196323 0.000002 0.000000 0.000000 0.000000 -1.867938
    15 3.883657 -0.050327 -0.431042 -0.022402 -0.089957 -1.578934
    16 1.719578 0.000001 0.000000 0.183538 -0.001924 -0.883179
    17 1.209183 0.000002 0.000000 0.006608 -0.006481 -2.111975
    18 3.859828 -0.148935 -1.331284 -0.315183 -0.148564 -1.039767
    19 1.719423 -0.000004 0.000002 0.259175 0.000000 -0.612199
    20 1.099670 0.000000 0.000004 0.002715 -0.016875 -1.527930
    21 0.806017 -0.359833 -1.318333 0.938140 0.326251 -0.736779
    22 1.789782 -0.000002 -0.000004 0.000000 0.000000 0.430491
    23 1.206999 0.000002 0.000000 0.000000 0.000000 0.341152
    24 4.796072 -2.037481 -0.636696 -1.715280 0.118330 -1.254533
  time 21
    0 -0.000004 -11.031250 -16.421875 1.570792 0.000003 -0.000003
    1 0.000005 3.345127 -2.981901 1.570796 0.086293 1.570796
    2 4.018330 0.000000 0.000000 0.000000 0.000000 -0.029242
    3 3.518562 0.000000 0.000000 0.000000 0.000000 0.100336
    4 8.942638 0.000000 0.000000 0.000000 0.000000 0.194096
    5 2.033356 1.000772 -1.937610 -1.668475 1.286518 2.942953
    6 6.028144 0.000004 0.000000 1.215812 0.140819 -0.898054
    7 11.692554 -0.000001 0.000000 0.000000 0.000000 -1.321128
    8 11.481699 0.000000 0.000000 -1.367254 0.103926 0.221215
    9 3.859673 -0.132570 1.193108 0.073030 -0.007831 -1.767300
    10 1.312561 0.000001 0.000000 0.000000 -0.036007 -0.489409
    11 0.729362 0.000001 0.000004 0.000000 0.000000 -1.522286
    12 3.942296 0.050327 0.431042 0.135575 -0.004608 -1.761084
    13 1.539097 0.000000 0.000000 0.000000 -0.139528 -0.631800
    14 1.196323 0.000002 0.000000 0.000000 0.000000 -1.867938
    15 3.883657 -0.050327 -0.431042 -0.022402 -0.089957 -1.578934
    16 1.719578 0.000001 0.000000 0.183538 -0.001924 -0.883179
    17 1.209183 0.000002 0.000000 0.006608 -0.006481 -2.111975
    18 3.859828 -0.148935 -1.331284 -0.315183 -0.148564 -1.039767
    19 1.719423 -0.000004 0.000002 0.259175 0.000000 -0.612199
    20 1.099670 0.000000 0.000004 0.002715 -0.016875 -1.527930
    21 0.806017 -0.359833 -1.318333 0.938140 0.326251 -0.736779
    22 1.789782 -0.000002 -0.000004 0.000000 0.000000 0.430491
    23 1.206999 0.000002 0.000000 0.000000 0.000000 0.341152
    24 4.796072 -2.037481 -0.636696 -1.715280 0.118330 -1.254533
  time 22
    0 -0.000004 -11.031250 -16.421875 1.570792 0.000003 -0.000003
    1 0.000005 3.345127 -2.981901 1.570796 0.086293 1.570796
    2 4.018330 0.000000 0.000000 0.000000 0.000000 -0.029242
    3 3.518562 0.000000 0.000000 0.000000 0.000000 0.100336
    4 8.942638 0.000000 0.000000 0.000000 0.000000 0.194096
    5 2.033356 1.000772 -1.937610 -1.668475 1.286518 2.942953
    6 6.028144 0.000004 0.000000 1.214074 0.145567 -0.906635
    7 11.692554 -0.000001 0.000000 0.000000 0.000000 -1.291529
    8 11.481699 0.000000 0.000000 -1.367254 0.103926 0.221215
    9 3.859673 -0.132570 1.193108 0.073030 -0.007831 -1.767300
    10 1.312561 0.000001 0.000000 0.000000 -0.036007 -0.489409
    11 0.729362 0.000001 0.000004 0.000000 0.000000 -1.522286
    12 3.942296 0.050327 0.431042 0.135575 -0.004608 -1.761084
    13 1.539097 0.000000 0.000000 0.000000 -0.139528 -0.631800
    14 1.196323 0.000002 0.000000 0.000000 0.000000 -1.867938
    15 3.883657 -0.050327 -0.431042 -0.022402 -0.089957 -1.578934
    16 1.719578 0.000001 0.000000 0.183538 -0.001924 -0.883179
    17 1.209183 0.000002 0.000000 0.006608 -0.006481 -2.111975
    18 3.859828 -0.148935 -1.331284 -0.315183 -0.148564 -1.039767
    19 1.719423 -0.000004 0.000002 0.259175 0.000000 -0.612199
    20 1.099670 0.000000 0.000004 0.002715 -0.016875 -1.527930
    21 0.806017 -0.359833 -1.318333 0.938140 0.326251 -0.736779
    22 1.789782 -0.000002 -0.000004 0.000000 0.000000 0.430491
    23 1.206999 0.000002 0.000000 0.000000 0.000000 0.341152
    24 4.796072 -2.037481 -0.636696 -1.715280 0.118330 -1.254533
  time 23
    0 -0.000004 -11.031250 -16.421875 1.570792 0.000003 -0.000003
    1 0.000005 3.345127 -2.981901 1.570796 0.086293 1.570796
    2 4.018330 0.000000 0.000000 0.000000 0.000000 -0.029242
    3 3.518562 0.000000 0.000000 0.000000 0.000000 0.100336
    4 8.942638 0.000000 0.000000 0.000000 0.000000 0.194096
    5 2.033356 1.000772 -1.937610 -1.668475 1.286518 2.942953
    6 6.028144 0.000004 0.000000 1.212480 0.150420 -0.914581
    7 11.692554 -0.000001 0.000000 0.000000 0.000000 -1.263494
    8 11.481699 0.000000 0.000000 -1.367254 0.103926 0.221215
    9 3.859673 -0.132570 1.193108 0.073030 -0.007831 -1.767300
    10 1.312561 0.000001 0.000000 0.000000 -0.036007 -0.489409
    11 0.729362 0.000001 0.000004 0.000000 0.000000 -1.522286
    12 3.942296 0.050327 0.431042 0.135575 -0.004608 -1.761084
    13 1.539097 0.000000 0.000000 0.000000 -0.139528 -0.631800
    14 1.196323 0.000002 0.000000 0.000000 0.000000 -1.867938
    15 3.883657 -0.050327 -0.431042 -0.022402 -0.089957 -1.578934
    16 1.719578 0.000001 0.000000 0.183538 -0.001924 -0.883179
    17 1.209183 0.000002 0.000000 0.006608 -0.006481 -2.111975
    18 3.859828 -0.148935 -1.331284 -0.315183 -0.148564 -1.039767
    19 1.719423 -0.000004 0.000002 0.259175 0.000000 -0.612199
    20 1.099670 0.000000 0.000004 0.002715 -0.016875 -1.527930
    21 0.806017 -0.359833 -1.318333 0.938140 0.326251 -0.736779
    22 1.789782 -0.000002 -0.000004 0.000000 0.000000 0.430491
    23 1.206999 0.000002 0.000000 0.000000 0.000000 0.341152
    24 4.796072 -2.037481 -0.636696 -1.715280 0.118330 -1.254533
  time 24
    0 -0.000004 -11.031250 -16.421875 1.570792 0.000003 -0.000003
    1 0.000005 3.345127 -2.981901 1.570796 0.086293 1.570796
    2 4.018330 0.000000 0.000000 0.000000 0.000000 -0.029242
    3 3.518562 0.000000 0.000000 0.000000 0.000000 0.100336
    4 8.942638 0.000000 0.000000 0.000000 0.000000 0.194096
    5 2.033356 1.000772 -1.937610 -1.668475 1.286518 2.942953
    6 6.028144 0.000004 0.000000 1.211054 0.155257 -0.921795
    7 11.692554 -0.000001 0.000000 0.000000 0.000000 -1.237476
    8 11.481699 0.000000 0.000000 -1.367254 0.103926 0.221215
    9 3.859673 -0.132570 1.193108 0.073030 -0.007831 -1.767300
    10 1.312561 0.000001 0.000000 0.000000 -0.036007 -0.489409
    11 0.729362 0.000001 0.000004 0.000000 0.000000 -1.522286
    12 3.942296 0.050327 0.431042 0.135575 -0.004608 -1.761084
    13 1.539097 0.000000 0.000000 0.000000 -0.139528 -0.631800
    14 1.196323 0.000002 0.000000 0.000000 0.000000 -1.867938
    15 3.883657 -0.050327 -0.431042 -0.022402 -0.089957 -1.578934
    16 1.719578 0.000001 0.000000 0.183538 -0.001924 -0.883179
    17 1.209183 0.000002 0.000000 0.006608 -0.006481 -2.111975
    18 3.859828 -0.148935 -1.331284 -0.315183 -0.148564 -1.039767
    19 1.719423 -0.000004 0.000002 0.259175 0.000000 -0.612199
    20 1.099670 0.000000 0.000004 0.002715 -0.016875 -1.527930
    21 0.806017 -0.359833 -1.318333 0.938140 0.326251 -0.736779
    22 1.789782 -0.000002 -0.000004 0.000000 0.000000 0.430491
    23 1.206999 0.000002 0.000000 0.000000 0.000000 0.341152
    24 4.796072 -2.037481 -0.636696 -1.715280 0.118330 -1.254533
  time 25
    0 -0.000004 -11.031250 -16.421875 1.570792 0.000003 -0.000003
    1 0.000005 3.345127 -2.981901 1.570796 0.086293 1.570796
    2 4.018330 0.000000 0.000000 0.000000 0.000000 -0.029242
    3 3.518562 0.000000 0.000000 0.000000 0.000000 0.100336
    4 8.942638 0.000000 0.000000 0.000000 0.000000 0.194096
    5 2.033356 1.000772 -1.937610 -1.668475 1.286518 2.942953
    6 6.028144 0.000004 0.000000 1.209796 0.159885 -0.928207
    7 11.692554 -0.000001 0.000000 0.000000 0.000000 -1.213995
    8 11.481699 0.000000 0.000000 -1.367254 0.103926 0.221215
    9 3.859673 -0.132570 1.193108 0.073030 -0.007831 -1.767300
    10 1.312561 0.000001 0.000000 0.000000 -0.036007 -0.489409
    11 0.729362 0.000001 0.000004 0.000000 0.000000 -1.522286
    12 3.942296 0.050327 0.431042 0.135575 -0.004608 -1.761084
    13 1.539097 0.000000 0.000000 0.000000 -0.139528 -0.631800
    14 1.196323 0.000002 0.000000 0.000000 0.000000 -1.867938
    15 3.883657 -0.050327 -0.431042 -0.022402 -0.089957 -1.578934
    16 1.719578 0.000001 0.000000 0.183538 -0.001924 -0.883179
    17 1.209183 0.000002 0.000000 0.006608 -0.006481 -2.111975
    18 3.859828 -0.148935 -1.331284 -0.315183 -0.148564 -1.039767
    19 1.719423 -0.000004 0.000002 0.259175 0.000000 -0.612199
    20 1.099670 0.000000 0.000004 0.002715 -0.016875 -1.527930
    21 0.806017 -0.359833 -1.318333 0.938140 0.326251 -0.736779
    22 1.789782 -0.000002 -0.000004 0.000000 0.000000 0.430491
    23 1.206999 0.000002 0.000000 0.000000 0.000000 0.341152
    24 4.796072 -2.037481 -0.636696 -1.715280 0.118330 -1.254533
  time 26
    0 -0.000004 -11.031250 -16.421875 1.570792 0.000003 -0.000003
    1 0.000005 3.345127 -2.981901 1.570796 0.086293 1.570796
    2 4.018330 0.000000 0.000000 0.000000 0.000000 -0.029242
    3 3.518562 0.000000 0.000000 0.000000 0.000000 0.100336
    4 8.942638 0.000000 0.000000 0.000000 0.000000 0.194096
    5 2.033356 1.000772 -1.937610 -1.668475 1.286518 2.942953
    6 6.028144 0.000004 0.000000 1.208717 0.164079 -0.933684
    7 11.692554 -0.000001 0.000000 0.000000 0.000000 -1.193622
    8 11.481699 0.000000 0.000000 -1.367254 0.103926 0.221215
    9 3.859673 -0.132570 1.193108 0.073030 -0.007831 -1.767300
    10 1.312561 0.000001 0.000000 0.000000 -0.036007 -0.489409
    11 0.729362 0.000001 0.000004 0.000000 0.000000 -1.522286
    12 3.942296 0.050327 0.431042 0.135575 -0.004608 -1.761084
    13 1.539097 0.000000 0.000000 0.000000 -0.139528 -0.631800
    14 1.196323 0.000002 0.000000 0.000000 0.000000 -1.867938
    15 3.883657 -0.050327 -0.431042 -0.022402 -0.089957 -1.578934
    16 1.719578 0.000001 0.000000 0.183538 -0.001924 -0.883179
    17 1.209183 0.000002 0.000000 0.006608 -0.006481 -2.111975
    18 3.859828 -0.148935 -1.331284 -0.315183 -0.148564 -1.039767
    19 1.719423 -0.000004 0.000002 0.259175 0.000000 -0.612199
    20 1.099670 0.000000 0.000004 0.002715 -0.016875 -1.527930
    21 0.806017 -0.359833 -1.318333 0.938140 0.326251 -0.736779
    22 1.789782 -0.000002 -0.000004 0.000000 0.000000 0.430491
    23 1.206999 0.000002 0.000000 0.000000 0.000000 0.341152
    24 4.796072 -2.037481 -0.636696 -1.715280 0.118330 -1.254533
  time 27
    0 -0.000004 -11.031250 -16.421875 1.570792 0.000003 -0.000003
    1 0.000005 3.345127 -2.981901 1.570796 0.086293 1.570796
    2 4.018330 0.000000 0.000000 0.000000 0.000000 -0.029242
    3 3.518562 0.000000 0.000000 0.000000 0.000000 0.100336
    4 8.942638 0.000000 0.000000 0.000000 0.000000 0.194096
    5 2.033356 1.000772 -1.937610 -1.668475 1.286518 2.942953
    6 6.028144 0.000004 0.000000 1.207842 0.167644 -0.938142
    7 11.692554 -0.000001 0.000000 0.000000 0.000000 -1.176853
    8 11.481699 0.000000 0.000000 -1.367254 0.103926 0.221215
    9 3.859673 -0.132570 1.193108 0.073030 -0.007831 -1.767300
    10 1.312561 0.000001 0.000000 0.000000 -0.036007 -0.489409
    11 0.729362 0.000001 0.000004 0.000000 0.000000 -1.522286
    12 3.942296 0.050327 0.431042 0.135575 -0.004608 -1.761084
    13 1.539097 0.000000 0.000000 0.000000 -0.139528 -0.631800
    14 1.196323 0.000002 0.000000 0.000000 0.000000 -1.867938
    15 3.883657 -0.050327 -0.431042 -0.022402 -0.089957 -1.578934
    16 1.719578 0.000001 0.000000 0.183538 -0.001924 -0.883179
    17 1.209183 0.000002 0.000000 0.006608 -0.006481 -2.111975
    18 3.859828 -0.148935 -1.331284 -0.315183 -0.148564 -1.039767
    19 1.719423 -0.000004 0.000002 0.259175 0.000000 -0.612199
    20 1.099670 0.000000 0.000004 0.002715 -0.016875 -1.527930
    21 0.806017 -0.359833 -1.318333 0.938140 0.326251 -0.736779
    22 1.789782 -0.000002 -0.000004 0.000000 0.000000 0.430491
    23 1.206999 0.000002 0.000000 0.000000 0.000000 0.341152
    24 4.796072 -2.037481 -0.636696 -1.715280 0.118330 -1.254533
  time 28
    0 -0.000004 -11.031250 -16.421875 1.570792 0.000003 -0.000003
    1 0.000005 3.345127 -2.981901 1.570796 0.086293 1.570796
    2 4.018330 0.000000 0.000000 0.000000 0.000000 -0.029242
    3 3.518562 0.000000 0.000000 0.000000 0.000000 0.100336
    4 8.942638 0.000000 0.000000 0.000000 0.000000 0.194096
    5 2.033356 1.000772 -1.937610 -1.668475 1.286518 2.942953
    6 6.028144 0.000004 0.000000 1.207195 0.170399 -0.941462
    7 11.692554 -0.000001 0.000000 0.000000 0.000000 -1.164259
    8 11.481699 0.000000 0.000000 -1.367254 0.103926 0.221215
    9 3.859673 -0.132570 1.193108 0.073030 -0.007831 -1.767300
    10 1.312561 0.000001 0.000000 0.000000 -0.036007 -0.489409
    11 0.729362 0.000001 0.000004 0.000000 0.000000 -1.522286
    12 3.942296 0.050327 0.431042 0.135575 -0.004608 -1.761084
    13 1.539097 0.000000 0.000000 0.000000 -0.139528 -0.631800
    14 1.196323 0.000002 0.000000 0.000000 0.000000 -1.867938
    15 3.883657 -0.050327 -0.431042 -0.022402 -0.089957 -1.578934
    16 1.719578 0.000001 0.000000 0.183538 -0.001924 -0.883179
    17 1.209183 0.000002 0.000000 0.006608 -0.006481 -2.111975
    18 3.859828 -0.148935 -1.331284 -0.315183 -0.148564 -1.039767
    19 1.719423 -0.000004 0.000002 0.259175 0.000000 -0.612199
    20 1.099670 0.000000 0.000004 0.002715 -0.016875 -1.527930
    21 0.806017 -0.359833 -1.318333 0.938140 0.326251 -0.736779
    22 1.789782 -0.000002 -0.000004 0.000000 0.000000 0.430491
    23 1.206999 0.000002 0.000000 0.000000 0.000000 0.341152
    24 4.796072 -2.037481 -0.636696 -1.715280 0.118330 -1.254533
  time 29
    0 -0.000004 -11.031250 -16.421875 1.570792 0.000003 -0.000003
    1 0.000005 3.345127 -2.981901 1.570796 0.086293 1.570796
    2 4.018330 0.000000 0.000000 0.000000 0.000000 -0.029242
    3 3.518562 0.000000 0.000000 0.000000 0.000000 0.100336
    4 8.942638 0.000000 0.000000 0.000000 0.000000 0.194096
    5 2.033356 1.000772 -1.937610 -1.668475 1.286518 2.942953
    6 6.028144 0.000004 0.000000 1.206800 0.172152 -0.943535
    7 11.692554 -0.000001 0.000000 0.000000 0.000000 -1.156361
    8 11.481699 0.000000 0.000000 -1.367254 0.103926 0.221215
    9 3.859673 -0.132570 1.193108 0.073030 -0.007831 -1.767300
    10 1.312561 0.000001 0.000000 0.000000 -0.036007 -0.489409
    11 0.729362 0.000001 0.000004 0.000000 0.000000 -1.522286
    12 3.942296 0.050327 0.431042 0.135575 -0.004608 -1.761084
    13 1.539097 0.000000 0.000000 0.000000 -0.139528 -0.631800
    14 1.196323 0.000002 0.000000 0.000000 0.000000 -1.867938
    15 3.883657 -0.050327 -0.431042 -0.022402 -0.089957 -1.578934
    16 1.719578 0.000001 0.000000 0.183538 -0.001924 -0.883179
    17 1.209183 0.000002 0.000000 0.006608 -0.006481 -2.111975
    18 3.859828 -0.148935 -1.331284 -0.315183 -0.148564 -1.039767
    19 1.719423 -0.000004 0.000002 0.259175 0.000000 -0.612199
    20 1.099670 0.000000 0.000004 0.002715 -0.016875 -1.527930
    21 0.806017 -0.359833 -1.318333 0.938140 0.326251 -0.736779
    22 1.789782 -0.000002 -0.000004 0.000000 0.000000 0.430491
    23 1.206999 0.000002 0.000000 0.000000 0.000000 0.341152
    24 4.796072 -2.037481 -0.636696 -1.715280 0.118330 -1.254533
  time 30
    0 -0.000004 -11.031250 -16.421875 1.570792 0.000003 -0.000003
    1 0.000005 3.345127 -2.981901 1.570796 0.086293 1.570796
    2 4.018330 0.000000 0.000000 0.000000 0.000000 -0.029242
    3 3.518562 0.000000 0.000000 0.000000 0.000000 0.100336
    4 8.942638 0.000000 0.000000 0.000000 0.000000 0.194096
    5 2.033356 1.000772 -1.937610 -1.668475 1.286518 2.942953
    6 6.028144 0.000004 0.000000 1.206656 0.172766 -0.944254
    7 11.692554 -0.000001 0.000000 0.000000 0.000000 -1.153634
    8 11.481699 0.000000 0.000000 -1.367254 0.103926 0.221215
    9 3.859673 -0.132570 1.193108 0.073030 -0.007831 -1.767300
    10 1.312561 0.000001 0.000000 0.000000 -0.036007 -0.489409
    11 0.729362 0.000001 0.000004 0.000000 0.000000 -1.522286
    12 3.942296 0.050327 0.431042 0.135575 -0.004608 -1.761084
    13 1.539097 0.000000 0.000000 0.000000 -0.139528 -0.631800
    14 1.196323 0.000002 0.000000 0.000000 0.000000 -1.867938
    15 3.883657 -0.050327 -0.431042 -0.022402 -0.089957 -1.578934
    16 1.719578 0.000001 0.000000 0.183538 -0.001924 -0.883179
    17 1.209183 0.000002 0.000000 0.006608 -0.006481 -2.111975
    18 3.859828 -0.148935 -1.331284 -0.315183 -0.148564 -1.039767
    19 1.719423 -0.000004 0.000002 0.259175 0.000000 -0.612199
    20 1.099670 0.000000 0.000004 0.002715 -0.016875 -1.527930
    21 0.806017 -0.359833 -1.318333 0.938140 0.326251 -0.736779
    22 1.789782 -0.000002 -0.000004 0.000000 0.000000 0.430491
    23 1.206999 0.000002 0.000000 0.000000 0.000000 0.341152
    24 4.796072 -2.037481 -0.636696 -1.715280 0.118330 -1.254533
end
