// Created by Crowbar 0.29.0.0
version 1
nodes
  0 "base" -1
  1 "L arm base" 0
  2 "Bone L uparm" 1
  3 "Bone L lowarm" 2
  4 "Bone L hand" 3
  5 "Bone L thumbbase" 4
  6 "Bone L thumb mid" 5
  7 "Bone L thumb tip" 6
  8 "Bone L index base" 4
  9 "Bone L index mid" 8
  10 "Bone L index tip" 9
  11 "Bone L mid base" 4
  12 "Bone L mid mid" 11
  13 "Bone L mid tip" 12
  14 "Bone L ring base" 4
  15 "Bone L ring mid" 14
  16 "Bone L ring tip" 15
  17 "Bone L pinky base" 4
  18 "Bone L pinky mid" 17
  19 "Bone L pinky tip" 18
  20 "R arm base" 0
  21 "Bone R uparm" 20
  22 "Bone R lowarm" 21
  23 "Bone R hand" 22
  24 "Bone R thumbbase" 23
  25 "Bone R thumb mid" 24
  26 "Bone R thumb tip" 25
  27 "Bone R index base" 23
  28 "Bone R index mid" 27
  29 "Bone R index tip" 28
  30 "Bone R mid base" 23
  31 "Bone R mid mid" 30
  32 "Bone R mid tip" 31
  33 "Bone R ring base" 23
  34 "Bone R ring mid" 33
  35 "Bone R ring tip" 34
  36 "Bone R pinky base" 23
  37 "Bone R pinky mid" 36
  38 "Bone R pinky tip" 37
  39 "mp5_body" 0
  40 "mp5_trig" 39
  41 "mp5_magrel" 39
  42 "mp5_mag" 39
  43 "mp5_CH" 39
  44 "mp5_eject" 39
  45 "mp5_loop" 39
end
skeleton
  time 0
    0 -3.509934 17.684133 -9.398724 0.000000 -1.570451 0.000000
    1 0.455634 -10.314221 3.508091 0.000000 1.570451 0.000000
    2 0.000000 -0.000002 0.000000 -0.632074 -0.259787 1.446971
    3 -15.296548 0.000003 0.000000 -0.000002 0.000008 1.102662
    4 -15.182516 -0.000001 0.000000 0.597258 -0.181474 -0.208441
    5 -0.566658 -0.606841 1.196676 3.653155 0.088428 0.611863
    6 -2.182800 0.000000 0.000001 -0.024703 0.588610 -0.046994
    7 -1.526287 0.000000 -0.000001 0.005918 0.110356 -0.012382
    8 -3.492492 1.036439 1.112366 1.653966 0.087307 0.871269
    9 -2.307071 0.000000 0.000000 0.000001 1.291725 0.038787
    10 -1.686814 0.000000 0.000000 0.005103 1.241776 0.009538
    11 -3.609122 1.098669 0.208994 1.598458 0.034452 0.996850
    12 -2.423007 0.000001 0.000000 -0.000243 1.488481 -0.001832
    13 -1.790748 0.000000 0.000000 0.013723 1.123662 0.035527
    14 -3.562686 0.896649 -0.737443 1.583307 0.028160 0.842681
    15 -2.321936 -0.000002 0.000000 0.000006 1.374654 0.054492
    16 -1.783666 0.000000 0.000000 0.005447 1.319948 0.010757
    17 -3.508631 0.883018 -1.671875 1.511620 -0.060099 0.679033
    18 -1.681394 0.000000 0.000000 -0.009487 1.097936 -0.057916
    19 -1.453231 0.000000 0.000000 0.005081 1.143855 0.008753
    20 0.471261 1.006395 -9.141076 0.000000 1.570451 0.000000
    21 0.000000 0.000002 0.000000 -3.075705 0.049082 2.120863
    22 -15.296544 0.000001 0.000000 0.000001 -0.000008 1.204163
    23 -15.182513 0.000000 0.000000 -0.010282 0.374013 -0.608005
    24 -0.599358 -0.574776 -1.196574 -3.488496 -0.110029 0.239656
    25 -2.096807 0.000000 0.000001 0.021469 -0.332099 -0.039349
    26 -1.420397 0.000000 0.000000 -0.005920 -0.354828 -0.012283
    27 -3.430256 1.227120 -1.112012 -1.561841 -0.206951 -0.005413
    28 -2.307071 0.000001 0.000001 -0.000007 -0.661281 0.037765
    29 -1.686813 0.000001 0.000000 -0.005104 -1.012040 0.009090
    30 -3.543174 1.295721 -0.208629 -1.579515 0.079618 0.470435
    31 -2.423008 -0.000001 0.000001 3.141740 -1.408646 -3.143329
    32 -1.790750 -0.000002 0.000000 -0.013727 -1.036248 0.035533
    33 -3.507818 1.091496 0.737814 -1.556933 0.055177 0.438507
    34 -2.321934 0.000000 0.000000 -3.141407 -1.278083 3.195989
    35 -1.783664 0.000000 0.000000 -0.005450 -0.988226 0.010765
    36 -3.454484 1.074954 1.672241 -1.442942 0.073409 0.343852
    37 -1.681395 0.000000 0.000000 -3.131914 -1.554872 -3.199317
    38 -1.453233 0.000000 0.000000 -0.005082 -1.073906 0.008757
    39 4.122983 -31.680959 -7.486109 0.000000 1.570796 -1.570796
    40 0.000000 -1.327049 -1.400981 0.000000 0.000000 0.000000
    41 0.000000 -1.377890 1.137398 0.000000 0.000000 0.000000
    42 0.000019 -3.372524 2.134745 0.000000 0.000000 0.000000
    43 0.003241 2.390460 6.292288 0.000000 0.000000 0.000000
    44 0.000001 2.019331 0.839982 0.000000 0.000000 0.000000
    45 0.000001 1.295025 -5.751849 0.000000 0.000000 0.000000
  time 1
    0 -3.509934 17.684133 -9.398724 0.000000 -1.570451 0.000000
    1 0.455634 -10.314221 3.508091 0.000000 1.570451 0.000000
    2 0.000000 -0.000002 0.000000 -0.632074 -0.259787 1.446971
    3 -15.296548 0.000003 0.000000 -0.000002 0.000008 1.102662
    4 -15.182516 -0.000001 0.000000 0.597258 -0.181474 -0.208441
    5 -0.566658 -0.606841 1.196676 3.653155 0.088428 0.611863
    6 -2.182800 0.000000 0.000001 -0.024703 0.588610 -0.046994
    7 -1.526287 0.000000 -0.000001 0.005918 0.110356 -0.012382
    8 -3.492492 1.036439 1.112366 1.653966 0.087307 0.871269
    9 -2.307071 0.000000 0.000000 0.000001 1.291725 0.038787
    10 -1.686814 0.000000 0.000000 0.005103 1.241776 0.009538
    11 -3.609122 1.098669 0.208994 1.598458 0.034452 0.996850
    12 -2.423007 0.000001 0.000000 -0.000243 1.488481 -0.001832
    13 -1.790748 0.000000 0.000000 0.013723 1.123662 0.035527
    14 -3.562686 0.896649 -0.737443 1.583307 0.028160 0.842681
    15 -2.321936 -0.000002 0.000000 0.000006 1.374654 0.054492
    16 -1.783666 0.000000 0.000000 0.005447 1.319948 0.010757
    17 -3.508631 0.883018 -1.671875 1.511620 -0.060099 0.679033
    18 -1.681394 0.000000 0.000000 -0.009487 1.097936 -0.057916
    19 -1.453231 0.000000 0.000000 0.005081 1.143855 0.008753
    20 0.471261 1.006395 -9.141076 0.000000 1.570451 0.000000
    21 0.000000 0.000002 0.000000 -3.075705 0.049082 2.120863
    22 -15.296544 0.000001 0.000000 0.000001 -0.000008 1.204163
    23 -15.182513 0.000000 0.000000 -0.010282 0.374013 -0.608005
    24 -0.599358 -0.574776 -1.196574 -3.488496 -0.110029 0.239656
    25 -2.096807 0.000000 0.000001 0.021469 -0.332099 -0.039349
    26 -1.420397 0.000000 0.000000 -0.005920 -0.354828 -0.012283
    27 -3.430256 1.227120 -1.112012 -1.561841 -0.206951 -0.005413
    28 -2.307071 0.000001 0.000001 -0.000007 -0.661281 0.037765
    29 -1.686813 0.000001 0.000000 -0.005104 -1.012040 0.009090
    30 -3.543174 1.295721 -0.208629 -1.579515 0.079618 0.470435
    31 -2.423008 -0.000001 0.000001 3.141740 -1.408646 -3.143329
    32 -1.790750 -0.000002 0.000000 -0.013727 -1.036248 0.035533
    33 -3.507818 1.091496 0.737814 -1.556933 0.055177 0.438507
    34 -2.321934 0.000000 0.000000 -3.141407 -1.278083 3.195989
    35 -1.783664 0.000000 0.000000 -0.005450 -0.988226 0.010765
    36 -3.454484 1.074954 1.672241 -1.442942 0.073409 0.343852
    37 -1.681395 0.000000 0.000000 -3.131914 -1.554872 -3.199317
    38 -1.453233 0.000000 0.000000 -0.005082 -1.073906 0.008757
    39 4.122983 -31.680959 -7.486109 0.000000 1.570796 -1.570796
    40 0.000000 -1.327049 -1.400981 0.000000 0.000000 0.000000
    41 0.000000 -1.377890 1.137398 0.000000 0.000000 0.000000
    42 0.000019 -3.372524 2.134745 0.000000 0.000000 0.000000
    43 0.003241 2.390460 6.292288 0.000000 0.000000 0.000000
    44 0.000001 2.019331 0.839982 0.000000 0.000000 0.000000
    45 0.000001 1.295025 -5.751849 0.000000 0.000000 0.000000
  time 2
    0 -3.509934 17.684133 -9.398724 0.000000 -1.570451 0.000000
    1 0.455634 -10.314221 3.508091 0.000000 1.570451 0.000000
    2 0.000000 -0.000002 0.000000 -0.632074 -0.259787 1.446971
    3 -15.296548 0.000003 0.000000 -0.000002 0.000008 1.102662
    4 -15.182516 -0.000001 0.000000 0.597258 -0.181474 -0.208441
    5 -0.566658 -0.606841 1.196676 3.653155 0.088428 0.611863
    6 -2.182800 0.000000 0.000001 -0.024703 0.588610 -0.046994
    7 -1.526287 0.000000 -0.000001 0.005918 0.110356 -0.012382
    8 -3.492492 1.036439 1.112366 1.653966 0.087307 0.871269
    9 -2.307071 0.000000 0.000000 0.000001 1.291725 0.038787
    10 -1.686814 0.000000 0.000000 0.005103 1.241776 0.009538
    11 -3.609122 1.098669 0.208994 1.598458 0.034452 0.996850
    12 -2.423007 0.000001 0.000000 -0.000243 1.488481 -0.001832
    13 -1.790748 0.000000 0.000000 0.013723 1.123662 0.035527
    14 -3.562686 0.896649 -0.737443 1.583307 0.028160 0.842681
    15 -2.321936 -0.000002 0.000000 0.000006 1.374654 0.054492
    16 -1.783666 0.000000 0.000000 0.005447 1.319948 0.010757
    17 -3.508631 0.883018 -1.671875 1.511620 -0.060099 0.679033
    18 -1.681394 0.000000 0.000000 -0.009487 1.097936 -0.057916
    19 -1.453231 0.000000 0.000000 0.005081 1.143855 0.008753
    20 0.471261 1.006395 -9.141076 0.000000 1.570451 0.000000
    21 0.000000 0.000002 0.000000 -3.075705 0.049082 2.120863
    22 -15.296544 0.000001 0.000000 0.000001 -0.000008 1.204163
    23 -15.182513 0.000000 0.000000 -0.010282 0.374013 -0.608005
    24 -0.599358 -0.574776 -1.196574 -3.488496 -0.110029 0.239656
    25 -2.096807 0.000000 0.000001 0.021469 -0.332099 -0.039349
    26 -1.420397 0.000000 0.000000 -0.005920 -0.354828 -0.012283
    27 -3.430256 1.227120 -1.112012 -1.561841 -0.206951 -0.005413
    28 -2.307071 0.000001 0.000001 -0.000007 -0.661281 0.037765
    29 -1.686813 0.000001 0.000000 -0.005104 -1.012040 0.009090
    30 -3.543174 1.295721 -0.208629 -1.579515 0.079618 0.470435
    31 -2.423008 -0.000001 0.000001 3.141740 -1.408646 -3.143329
    32 -1.790750 -0.000002 0.000000 -0.013727 -1.036248 0.035533
    33 -3.507818 1.091496 0.737814 -1.556933 0.055177 0.438507
    34 -2.321934 0.000000 0.000000 -3.141407 -1.278083 3.195989
    35 -1.783664 0.000000 0.000000 -0.005450 -0.988226 0.010765
    36 -3.454484 1.074954 1.672241 -1.442942 0.073409 0.343852
    37 -1.681395 0.000000 0.000000 -3.131914 -1.554872 -3.199317
    38 -1.453233 0.000000 0.000000 -0.005082 -1.073906 0.008757
    39 4.122983 -31.680959 -7.486109 0.000000 1.570796 -1.570796
    40 0.000000 -1.327049 -1.400981 0.000000 0.000000 0.000000
    41 0.000000 -1.377890 1.137398 0.000000 0.000000 0.000000
    42 0.000019 -3.372524 2.134745 0.000000 0.000000 0.000000
    43 0.003241 2.390460 6.292288 0.000000 0.000000 0.000000
    44 0.000001 2.019331 0.839982 0.000000 0.000000 0.000000
    45 0.000001 1.295025 -5.751849 0.000000 0.000000 0.000000
  time 3
    0 -3.509934 17.684133 -9.398724 0.000000 -1.570451 0.000000
    1 0.455634 -10.314221 3.508091 0.000000 1.570451 0.000000
    2 0.000000 -0.000002 0.000000 -0.632074 -0.259787 1.446971
    3 -15.296548 0.000003 0.000000 -0.000002 0.000008 1.102662
    4 -15.182516 -0.000001 0.000000 0.597258 -0.181474 -0.208441
    5 -0.566658 -0.606841 1.196676 3.653155 0.088428 0.611863
    6 -2.182800 0.000000 0.000001 -0.024703 0.588610 -0.046994
    7 -1.526287 0.000000 -0.000001 0.005918 0.110356 -0.012382
    8 -3.492492 1.036439 1.112366 1.653966 0.087307 0.871269
    9 -2.307071 0.000000 0.000000 0.000001 1.291725 0.038787
    10 -1.686814 0.000000 0.000000 0.005103 1.241776 0.009538
    11 -3.609122 1.098669 0.208994 1.598458 0.034452 0.996850
    12 -2.423007 0.000001 0.000000 -0.000243 1.488481 -0.001832
    13 -1.790748 0.000000 0.000000 0.013723 1.123662 0.035527
    14 -3.562686 0.896649 -0.737443 1.583307 0.028160 0.842681
    15 -2.321936 -0.000002 0.000000 0.000006 1.374654 0.054492
    16 -1.783666 0.000000 0.000000 0.005447 1.319948 0.010757
    17 -3.508631 0.883018 -1.671875 1.511620 -0.060099 0.679033
    18 -1.681394 0.000000 0.000000 -0.009487 1.097936 -0.057916
    19 -1.453231 0.000000 0.000000 0.005081 1.143855 0.008753
    20 0.471261 1.006395 -9.141076 0.000000 1.570451 0.000000
    21 0.000000 0.000002 0.000000 -3.075705 0.049082 2.120863
    22 -15.296544 0.000001 0.000000 0.000001 -0.000008 1.204163
    23 -15.182513 0.000000 0.000000 -0.010282 0.374013 -0.608005
    24 -0.599358 -0.574776 -1.196574 -3.488496 -0.110029 0.239656
    25 -2.096807 0.000000 0.000001 0.021469 -0.332099 -0.039349
    26 -1.420397 0.000000 0.000000 -0.005920 -0.354828 -0.012283
    27 -3.430256 1.227120 -1.112012 -1.561841 -0.206951 -0.005413
    28 -2.307071 0.000001 0.000001 -0.000007 -0.661281 0.037765
    29 -1.686813 0.000001 0.000000 -0.005104 -1.012040 0.009090
    30 -3.543174 1.295721 -0.208629 -1.579515 0.079618 0.470435
    31 -2.423008 -0.000001 0.000001 3.141740 -1.408646 -3.143329
    32 -1.790750 -0.000002 0.000000 -0.013727 -1.036248 0.035533
    33 -3.507818 1.091496 0.737814 -1.556933 0.055177 0.438507
    34 -2.321934 0.000000 0.000000 -3.141407 -1.278083 3.195989
    35 -1.783664 0.000000 0.000000 -0.005450 -0.988226 0.010765
    36 -3.454484 1.074954 1.672241 -1.442942 0.073409 0.343852
    37 -1.681395 0.000000 0.000000 -3.131914 -1.554872 -3.199317
    38 -1.453233 0.000000 0.000000 -0.005082 -1.073906 0.008757
    39 4.122983 -31.680959 -7.486109 0.000000 1.570796 -1.570796
    40 0.000000 -1.327049 -1.400981 0.000000 0.000000 0.000000
    41 0.000000 -1.377890 1.137398 0.000000 0.000000 0.000000
    42 0.000019 -3.372524 2.134745 0.000000 0.000000 0.000000
    43 0.003241 2.390460 6.292288 0.000000 0.000000 0.000000
    44 0.000001 2.019331 0.839982 0.000000 0.000000 0.000000
    45 0.000001 1.295025 -5.751849 0.000000 0.000000 0.000000
  time 4
    0 -3.509934 17.684133 -9.398724 0.000000 -1.570451 0.000000
    1 0.455634 -10.314221 3.508091 0.000000 1.570451 0.000000
    2 0.000000 -0.000002 0.000000 -0.632074 -0.259787 1.446971
    3 -15.296548 0.000003 0.000000 -0.000002 0.000008 1.102662
    4 -15.182516 -0.000001 0.000000 0.597258 -0.181474 -0.208441
    5 -0.566658 -0.606841 1.196676 3.653155 0.088428 0.611863
    6 -2.182800 0.000000 0.000001 -0.024703 0.588610 -0.046994
    7 -1.526287 0.000000 -0.000001 0.005918 0.110356 -0.012382
    8 -3.492492 1.036439 1.112366 1.653966 0.087307 0.871269
    9 -2.307071 0.000000 0.000000 0.000001 1.291725 0.038787
    10 -1.686814 0.000000 0.000000 0.005103 1.241776 0.009538
    11 -3.609122 1.098669 0.208994 1.598458 0.034452 0.996850
    12 -2.423007 0.000001 0.000000 -0.000243 1.488481 -0.001832
    13 -1.790748 0.000000 0.000000 0.013723 1.123662 0.035527
    14 -3.562686 0.896649 -0.737443 1.583307 0.028160 0.842681
    15 -2.321936 -0.000002 0.000000 0.000006 1.374654 0.054492
    16 -1.783666 0.000000 0.000000 0.005447 1.319948 0.010757
    17 -3.508631 0.883018 -1.671875 1.511620 -0.060099 0.679033
    18 -1.681394 0.000000 0.000000 -0.009487 1.097936 -0.057916
    19 -1.453231 0.000000 0.000000 0.005081 1.143855 0.008753
    20 0.471261 1.006395 -9.141076 0.000000 1.570451 0.000000
    21 0.000000 0.000002 0.000000 -3.075705 0.049082 2.120863
    22 -15.296544 0.000001 0.000000 0.000001 -0.000008 1.204163
    23 -15.182513 0.000000 0.000000 -0.010282 0.374013 -0.608005
    24 -0.599358 -0.574776 -1.196574 -3.488496 -0.110029 0.239656
    25 -2.096807 0.000000 0.000001 0.021469 -0.332099 -0.039349
    26 -1.420397 0.000000 0.000000 -0.005920 -0.354828 -0.012283
    27 -3.430256 1.227120 -1.112012 -1.561841 -0.206951 -0.005413
    28 -2.307071 0.000001 0.000001 -0.000007 -0.661281 0.037765
    29 -1.686813 0.000001 0.000000 -0.005104 -1.012040 0.009090
    30 -3.543174 1.295721 -0.208629 -1.579515 0.079618 0.470435
    31 -2.423008 -0.000001 0.000001 3.141740 -1.408646 -3.143329
    32 -1.790750 -0.000002 0.000000 -0.013727 -1.036248 0.035533
    33 -3.507818 1.091496 0.737814 -1.556933 0.055177 0.438507
    34 -2.321934 0.000000 0.000000 -3.141407 -1.278083 3.195989
    35 -1.783664 0.000000 0.000000 -0.005450 -0.988226 0.010765
    36 -3.454484 1.074954 1.672241 -1.442942 0.073409 0.343852
    37 -1.681395 0.000000 0.000000 -3.131914 -1.554872 -3.199317
    38 -1.453233 0.000000 0.000000 -0.005082 -1.073906 0.008757
    39 4.122983 -31.680959 -7.486109 0.000000 1.570796 -1.570796
    40 0.000000 -1.327049 -1.400981 0.000000 0.000000 0.000000
    41 0.000000 -1.377890 1.137398 0.000000 0.000000 0.000000
    42 0.000019 -3.372524 2.134745 0.000000 0.000000 0.000000
    43 0.003241 2.390460 6.292288 0.000000 0.000000 0.000000
    44 0.000001 2.019331 0.839982 0.000000 0.000000 0.000000
    45 0.000001 1.295025 -5.751849 0.000000 0.000000 0.000000
  time 5
    0 -3.509934 17.684133 -9.398724 0.000000 -1.570451 0.000000
    1 0.455634 -10.314221 3.508091 0.000000 1.570451 0.000000
    2 0.000000 -0.000002 0.000000 -0.632074 -0.259787 1.446971
    3 -15.296548 0.000003 0.000000 -0.000002 0.000008 1.102662
    4 -15.182516 -0.000001 0.000000 0.597258 -0.181474 -0.208441
    5 -0.566658 -0.606841 1.196676 3.653155 0.088428 0.611863
    6 -2.182800 0.000000 0.000001 -0.024703 0.588610 -0.046994
    7 -1.526287 0.000000 -0.000001 0.005918 0.110356 -0.012382
    8 -3.492492 1.036439 1.112366 1.653966 0.087307 0.871269
    9 -2.307071 0.000000 0.000000 0.000001 1.291725 0.038787
    10 -1.686814 0.000000 0.000000 0.005103 1.241776 0.009538
    11 -3.609122 1.098669 0.208994 1.598458 0.034452 0.996850
    12 -2.423007 0.000001 0.000000 -0.000243 1.488481 -0.001832
    13 -1.790748 0.000000 0.000000 0.013723 1.123662 0.035527
    14 -3.562686 0.896649 -0.737443 1.583307 0.028160 0.842681
    15 -2.321936 -0.000002 0.000000 0.000006 1.374654 0.054492
    16 -1.783666 0.000000 0.000000 0.005447 1.319948 0.010757
    17 -3.508631 0.883018 -1.671875 1.511620 -0.060099 0.679033
    18 -1.681394 0.000000 0.000000 -0.009487 1.097936 -0.057916
    19 -1.453231 0.000000 0.000000 0.005081 1.143855 0.008753
    20 0.471261 1.006395 -9.141076 0.000000 1.570451 0.000000
    21 0.000000 0.000002 0.000000 -3.075705 0.049082 2.120863
    22 -15.296544 0.000001 0.000000 0.000001 -0.000008 1.204163
    23 -15.182513 0.000000 0.000000 -0.010282 0.374013 -0.608005
    24 -0.599358 -0.574776 -1.196574 -3.488496 -0.110029 0.239656
    25 -2.096807 0.000000 0.000001 0.021469 -0.332099 -0.039349
    26 -1.420397 0.000000 0.000000 -0.005920 -0.354828 -0.012283
    27 -3.430256 1.227120 -1.112012 -1.561841 -0.206951 -0.005413
    28 -2.307071 0.000001 0.000001 -0.000007 -0.661281 0.037765
    29 -1.686813 0.000001 0.000000 -0.005104 -1.012040 0.009090
    30 -3.543174 1.295721 -0.208629 -1.579515 0.079618 0.470435
    31 -2.423008 -0.000001 0.000001 3.141740 -1.408646 -3.143329
    32 -1.790750 -0.000002 0.000000 -0.013727 -1.036248 0.035533
    33 -3.507818 1.091496 0.737814 -1.556933 0.055177 0.438507
    34 -2.321934 0.000000 0.000000 -3.141407 -1.278083 3.195989
    35 -1.783664 0.000000 0.000000 -0.005450 -0.988226 0.010765
    36 -3.454484 1.074954 1.672241 -1.442942 0.073409 0.343852
    37 -1.681395 0.000000 0.000000 -3.131914 -1.554872 -3.199317
    38 -1.453233 0.000000 0.000000 -0.005082 -1.073906 0.008757
    39 4.122983 -31.680959 -7.486109 0.000000 1.570796 -1.570796
    40 0.000000 -1.327049 -1.400981 0.000000 0.000000 0.000000
    41 0.000000 -1.377890 1.137398 0.000000 0.000000 0.000000
    42 0.000019 -3.372524 2.134745 0.000000 0.000000 0.000000
    43 0.003241 2.390460 6.292288 0.000000 0.000000 0.000000
    44 0.000001 2.019331 0.839982 0.000000 0.000000 0.000000
    45 0.000001 1.295025 -5.751849 0.000000 0.000000 0.000000
  time 6
    0 -3.509934 17.684133 -9.398724 0.000000 -1.570451 0.000000
    1 0.455634 -10.314221 3.508091 0.000000 1.570451 0.000000
    2 0.000000 -0.000002 0.000000 -0.632074 -0.259787 1.446971
    3 -15.296548 0.000003 0.000000 -0.000002 0.000008 1.102662
    4 -15.182516 -0.000001 0.000000 0.597258 -0.181474 -0.208441
    5 -0.566658 -0.606841 1.196676 3.653155 0.088428 0.611863
    6 -2.182800 0.000000 0.000001 -0.024703 0.588610 -0.046994
    7 -1.526287 0.000000 -0.000001 0.005918 0.110356 -0.012382
    8 -3.492492 1.036439 1.112366 1.653966 0.087307 0.871269
    9 -2.307071 0.000000 0.000000 0.000001 1.291725 0.038787
    10 -1.686814 0.000000 0.000000 0.005103 1.241776 0.009538
    11 -3.609122 1.098669 0.208994 1.598458 0.034452 0.996850
    12 -2.423007 0.000001 0.000000 -0.000243 1.488481 -0.001832
    13 -1.790748 0.000000 0.000000 0.013723 1.123662 0.035527
    14 -3.562686 0.896649 -0.737443 1.583307 0.028160 0.842681
    15 -2.321936 -0.000002 0.000000 0.000006 1.374654 0.054492
    16 -1.783666 0.000000 0.000000 0.005447 1.319948 0.010757
    17 -3.508631 0.883018 -1.671875 1.511620 -0.060099 0.679033
    18 -1.681394 0.000000 0.000000 -0.009487 1.097936 -0.057916
    19 -1.453231 0.000000 0.000000 0.005081 1.143855 0.008753
    20 0.471261 1.006395 -9.141076 0.000000 1.570451 0.000000
    21 0.000000 0.000002 0.000000 -3.075705 0.049082 2.120863
    22 -15.296544 0.000001 0.000000 0.000001 -0.000008 1.204163
    23 -15.182513 0.000000 0.000000 -0.010282 0.374013 -0.608005
    24 -0.599358 -0.574776 -1.196574 -3.488496 -0.110029 0.239656
    25 -2.096807 0.000000 0.000001 0.021469 -0.332099 -0.039349
    26 -1.420397 0.000000 0.000000 -0.005920 -0.354828 -0.012283
    27 -3.430256 1.227120 -1.112012 -1.561841 -0.206951 -0.005413
    28 -2.307071 0.000001 0.000001 -0.000007 -0.661281 0.037765
    29 -1.686813 0.000001 0.000000 -0.005104 -1.012040 0.009090
    30 -3.543174 1.295721 -0.208629 -1.579515 0.079618 0.470435
    31 -2.423008 -0.000001 0.000001 3.141740 -1.408646 -3.143329
    32 -1.790750 -0.000002 0.000000 -0.013727 -1.036248 0.035533
    33 -3.507818 1.091496 0.737814 -1.556933 0.055177 0.438507
    34 -2.321934 0.000000 0.000000 -3.141407 -1.278083 3.195989
    35 -1.783664 0.000000 0.000000 -0.005450 -0.988226 0.010765
    36 -3.454484 1.074954 1.672241 -1.442942 0.073409 0.343852
    37 -1.681395 0.000000 0.000000 -3.131914 -1.554872 -3.199317
    38 -1.453233 0.000000 0.000000 -0.005082 -1.073906 0.008757
    39 4.122983 -31.680959 -7.486109 0.000000 1.570796 -1.570796
    40 0.000000 -1.327049 -1.400981 0.000000 0.000000 0.000000
    41 0.000000 -1.377890 1.137398 0.000000 0.000000 0.000000
    42 0.000019 -3.372524 2.134745 0.000000 0.000000 0.000000
    43 0.003241 2.390460 6.292288 0.000000 0.000000 0.000000
    44 0.000001 2.019331 0.839982 0.000000 0.000000 0.000000
    45 0.000001 1.295025 -5.751849 0.000000 0.000000 0.000000
  time 7
    0 -3.509934 17.684133 -9.398724 0.000000 -1.570451 0.000000
    1 0.455634 -10.314221 3.508091 0.000000 1.570451 0.000000
    2 0.000000 -0.000002 0.000000 -0.632074 -0.259787 1.446971
    3 -15.296548 0.000003 0.000000 -0.000002 0.000008 1.102662
    4 -15.182516 -0.000001 0.000000 0.597258 -0.181474 -0.208441
    5 -0.566658 -0.606841 1.196676 3.653155 0.088428 0.611863
    6 -2.182800 0.000000 0.000001 -0.024703 0.588610 -0.046994
    7 -1.526287 0.000000 -0.000001 0.005918 0.110356 -0.012382
    8 -3.492492 1.036439 1.112366 1.653966 0.087307 0.871269
    9 -2.307071 0.000000 0.000000 0.000001 1.291725 0.038787
    10 -1.686814 0.000000 0.000000 0.005103 1.241776 0.009538
    11 -3.609122 1.098669 0.208994 1.598458 0.034452 0.996850
    12 -2.423007 0.000001 0.000000 -0.000243 1.488481 -0.001832
    13 -1.790748 0.000000 0.000000 0.013723 1.123662 0.035527
    14 -3.562686 0.896649 -0.737443 1.583307 0.028160 0.842681
    15 -2.321936 -0.000002 0.000000 0.000006 1.374654 0.054492
    16 -1.783666 0.000000 0.000000 0.005447 1.319948 0.010757
    17 -3.508631 0.883018 -1.671875 1.511620 -0.060099 0.679033
    18 -1.681394 0.000000 0.000000 -0.009487 1.097936 -0.057916
    19 -1.453231 0.000000 0.000000 0.005081 1.143855 0.008753
    20 0.471261 1.006395 -9.141076 0.000000 1.570451 0.000000
    21 0.000000 0.000002 0.000000 -3.075705 0.049082 2.120863
    22 -15.296544 0.000001 0.000000 0.000001 -0.000008 1.204163
    23 -15.182513 0.000000 0.000000 -0.010282 0.374013 -0.608005
    24 -0.599358 -0.574776 -1.196574 -3.488496 -0.110029 0.239656
    25 -2.096807 0.000000 0.000001 0.021469 -0.332099 -0.039349
    26 -1.420397 0.000000 0.000000 -0.005920 -0.354828 -0.012283
    27 -3.430256 1.227120 -1.112012 -1.561841 -0.206951 -0.005413
    28 -2.307071 0.000001 0.000001 -0.000007 -0.661281 0.037765
    29 -1.686813 0.000001 0.000000 -0.005104 -1.012040 0.009090
    30 -3.543174 1.295721 -0.208629 -1.579515 0.079618 0.470435
    31 -2.423008 -0.000001 0.000001 3.141740 -1.408646 -3.143329
    32 -1.790750 -0.000002 0.000000 -0.013727 -1.036248 0.035533
    33 -3.507818 1.091496 0.737814 -1.556933 0.055177 0.438507
    34 -2.321934 0.000000 0.000000 -3.141407 -1.278083 3.195989
    35 -1.783664 0.000000 0.000000 -0.005450 -0.988226 0.010765
    36 -3.454484 1.074954 1.672241 -1.442942 0.073409 0.343852
    37 -1.681395 0.000000 0.000000 -3.131914 -1.554872 -3.199317
    38 -1.453233 0.000000 0.000000 -0.005082 -1.073906 0.008757
    39 4.122983 -31.680959 -7.486109 0.000000 1.570796 -1.570796
    40 0.000000 -1.327049 -1.400981 0.000000 0.000000 0.000000
    41 0.000000 -1.377890 1.137398 0.000000 0.000000 0.000000
    42 0.000019 -3.372524 2.134745 0.000000 0.000000 0.000000
    43 0.003241 2.390460 6.292288 0.000000 0.000000 0.000000
    44 0.000001 2.019331 0.839982 0.000000 0.000000 0.000000
    45 0.000001 1.295025 -5.751849 0.000000 0.000000 0.000000
  time 8
    0 -3.509934 17.684133 -9.398724 0.000000 -1.570451 0.000000
    1 0.455634 -10.314221 3.508091 0.000000 1.570451 0.000000
    2 0.000000 -0.000002 0.000000 -0.632074 -0.259787 1.446971
    3 -15.296548 0.000003 0.000000 -0.000002 0.000008 1.102662
    4 -15.182516 -0.000001 0.000000 0.597258 -0.181474 -0.208441
    5 -0.566658 -0.606841 1.196676 3.653155 0.088428 0.611863
    6 -2.182800 0.000000 0.000001 -0.024703 0.588610 -0.046994
    7 -1.526287 0.000000 -0.000001 0.005918 0.110356 -0.012382
    8 -3.492492 1.036439 1.112366 1.653966 0.087307 0.871269
    9 -2.307071 0.000000 0.000000 0.000001 1.291725 0.038787
    10 -1.686814 0.000000 0.000000 0.005103 1.241776 0.009538
    11 -3.609122 1.098669 0.208994 1.598458 0.034452 0.996850
    12 -2.423007 0.000001 0.000000 -0.000243 1.488481 -0.001832
    13 -1.790748 0.000000 0.000000 0.013723 1.123662 0.035527
    14 -3.562686 0.896649 -0.737443 1.583307 0.028160 0.842681
    15 -2.321936 -0.000002 0.000000 0.000006 1.374654 0.054492
    16 -1.783666 0.000000 0.000000 0.005447 1.319948 0.010757
    17 -3.508631 0.883018 -1.671875 1.511620 -0.060099 0.679033
    18 -1.681394 0.000000 0.000000 -0.009487 1.097936 -0.057916
    19 -1.453231 0.000000 0.000000 0.005081 1.143855 0.008753
    20 0.471261 1.006395 -9.141076 0.000000 1.570451 0.000000
    21 0.000000 0.000002 0.000000 -3.075705 0.049082 2.120863
    22 -15.296544 0.000001 0.000000 0.000001 -0.000008 1.204163
    23 -15.182513 0.000000 0.000000 -0.010282 0.374013 -0.608005
    24 -0.599358 -0.574776 -1.196574 -3.488496 -0.110029 0.239656
    25 -2.096807 0.000000 0.000001 0.021469 -0.332099 -0.039349
    26 -1.420397 0.000000 0.000000 -0.005920 -0.354828 -0.012283
    27 -3.430256 1.227120 -1.112012 -1.561841 -0.206951 -0.005413
    28 -2.307071 0.000001 0.000001 -0.000007 -0.661281 0.037765
    29 -1.686813 0.000001 0.000000 -0.005104 -1.012040 0.009090
    30 -3.543174 1.295721 -0.208629 -1.579515 0.079618 0.470435
    31 -2.423008 -0.000001 0.000001 3.141740 -1.408646 -3.143329
    32 -1.790750 -0.000002 0.000000 -0.013727 -1.036248 0.035533
    33 -3.507818 1.091496 0.737814 -1.556933 0.055177 0.438507
    34 -2.321934 0.000000 0.000000 -3.141407 -1.278083 3.195989
    35 -1.783664 0.000000 0.000000 -0.005450 -0.988226 0.010765
    36 -3.454484 1.074954 1.672241 -1.442942 0.073409 0.343852
    37 -1.681395 0.000000 0.000000 -3.131914 -1.554872 -3.199317
    38 -1.453233 0.000000 0.000000 -0.005082 -1.073906 0.008757
    39 4.122983 -31.680959 -7.486109 0.000000 1.570796 -1.570796
    40 0.000000 -1.327049 -1.400981 0.000000 0.000000 0.000000
    41 0.000000 -1.377890 1.137398 0.000000 0.000000 0.000000
    42 0.000019 -3.372524 2.134745 0.000000 0.000000 0.000000
    43 0.003241 2.390460 6.292288 0.000000 0.000000 0.000000
    44 0.000001 2.019331 0.839982 0.000000 0.000000 0.000000
    45 0.000001 1.295025 -5.751849 0.000000 0.000000 0.000000
  time 9
    0 -3.509934 17.684133 -9.398724 0.000000 -1.570451 0.000000
    1 0.455634 -10.314221 3.508091 0.000000 1.570451 0.000000
    2 0.000000 -0.000002 0.000000 -0.632074 -0.259787 1.446971
    3 -15.296548 0.000003 0.000000 -0.000002 0.000008 1.102662
    4 -15.182516 -0.000001 0.000000 0.597258 -0.181474 -0.208441
    5 -0.566658 -0.606841 1.196676 3.653155 0.088428 0.611863
    6 -2.182800 0.000000 0.000001 -0.024703 0.588610 -0.046994
    7 -1.526287 0.000000 -0.000001 0.005918 0.110356 -0.012382
    8 -3.492492 1.036439 1.112366 1.653966 0.087307 0.871269
    9 -2.307071 0.000000 0.000000 0.000001 1.291725 0.038787
    10 -1.686814 0.000000 0.000000 0.005103 1.241776 0.009538
    11 -3.609122 1.098669 0.208994 1.598458 0.034452 0.996850
    12 -2.423007 0.000001 0.000000 -0.000243 1.488481 -0.001832
    13 -1.790748 0.000000 0.000000 0.013723 1.123662 0.035527
    14 -3.562686 0.896649 -0.737443 1.583307 0.028160 0.842681
    15 -2.321936 -0.000002 0.000000 0.000006 1.374654 0.054492
    16 -1.783666 0.000000 0.000000 0.005447 1.319948 0.010757
    17 -3.508631 0.883018 -1.671875 1.511620 -0.060099 0.679033
    18 -1.681394 0.000000 0.000000 -0.009487 1.097936 -0.057916
    19 -1.453231 0.000000 0.000000 0.005081 1.143855 0.008753
    20 0.471261 1.006395 -9.141076 0.000000 1.570451 0.000000
    21 0.000000 0.000002 0.000000 -3.075705 0.049082 2.120863
    22 -15.296544 0.000001 0.000000 0.000001 -0.000008 1.204163
    23 -15.182513 0.000000 0.000000 -0.010282 0.374013 -0.608005
    24 -0.599358 -0.574776 -1.196574 -3.488496 -0.110029 0.239656
    25 -2.096807 0.000000 0.000001 0.021469 -0.332099 -0.039349
    26 -1.420397 0.000000 0.000000 -0.005920 -0.354828 -0.012283
    27 -3.430256 1.227120 -1.112012 -1.561841 -0.206951 -0.005413
    28 -2.307071 0.000001 0.000001 -0.000007 -0.661281 0.037765
    29 -1.686813 0.000001 0.000000 -0.005104 -1.012040 0.009090
    30 -3.543174 1.295721 -0.208629 -1.579515 0.079618 0.470435
    31 -2.423008 -0.000001 0.000001 3.141740 -1.408646 -3.143329
    32 -1.790750 -0.000002 0.000000 -0.013727 -1.036248 0.035533
    33 -3.507818 1.091496 0.737814 -1.556933 0.055177 0.438507
    34 -2.321934 0.000000 0.000000 -3.141407 -1.278083 3.195989
    35 -1.783664 0.000000 0.000000 -0.005450 -0.988226 0.010765
    36 -3.454484 1.074954 1.672241 -1.442942 0.073409 0.343852
    37 -1.681395 0.000000 0.000000 -3.131914 -1.554872 -3.199317
    38 -1.453233 0.000000 0.000000 -0.005082 -1.073906 0.008757
    39 4.122983 -31.680959 -7.486109 0.000000 1.570796 -1.570796
    40 0.000000 -1.327049 -1.400981 0.000000 0.000000 0.000000
    41 0.000000 -1.377890 1.137398 0.000000 0.000000 0.000000
    42 0.000019 -3.372524 2.134745 0.000000 0.000000 0.000000
    43 0.003241 2.390460 6.292288 0.000000 0.000000 0.000000
    44 0.000001 2.019331 0.839982 0.000000 0.000000 0.000000
    45 0.000001 1.295025 -5.751849 0.000000 0.000000 0.000000
  time 10
    0 -3.509934 17.684133 -9.398724 0.000000 -1.570451 0.000000
    1 0.455634 -10.314221 3.508091 0.000000 1.570451 0.000000
    2 0.000000 -0.000002 0.000000 -0.632074 -0.259787 1.446971
    3 -15.296548 0.000003 0.000000 -0.000002 0.000008 1.102662
    4 -15.182516 -0.000001 0.000000 0.597258 -0.181474 -0.208441
    5 -0.566658 -0.606841 1.196676 3.653155 0.088428 0.611863
    6 -2.182800 0.000000 0.000001 -0.024703 0.588610 -0.046994
    7 -1.526287 0.000000 -0.000001 0.005918 0.110356 -0.012382
    8 -3.492492 1.036439 1.112366 1.653966 0.087307 0.871269
    9 -2.307071 0.000000 0.000000 0.000001 1.291725 0.038787
    10 -1.686814 0.000000 0.000000 0.005103 1.241776 0.009538
    11 -3.609122 1.098669 0.208994 1.598458 0.034452 0.996850
    12 -2.423007 0.000001 0.000000 -0.000243 1.488481 -0.001832
    13 -1.790748 0.000000 0.000000 0.013723 1.123662 0.035527
    14 -3.562686 0.896649 -0.737443 1.583307 0.028160 0.842681
    15 -2.321936 -0.000002 0.000000 0.000006 1.374654 0.054492
    16 -1.783666 0.000000 0.000000 0.005447 1.319948 0.010757
    17 -3.508631 0.883018 -1.671875 1.511620 -0.060099 0.679033
    18 -1.681394 0.000000 0.000000 -0.009487 1.097936 -0.057916
    19 -1.453231 0.000000 0.000000 0.005081 1.143855 0.008753
    20 0.471261 1.006395 -9.141076 0.000000 1.570451 0.000000
    21 0.000000 0.000002 0.000000 -3.075705 0.049082 2.120863
    22 -15.296544 0.000001 0.000000 0.000001 -0.000008 1.204163
    23 -15.182513 0.000000 0.000000 -0.010282 0.374013 -0.608005
    24 -0.599358 -0.574776 -1.196574 -3.488496 -0.110029 0.239656
    25 -2.096807 0.000000 0.000001 0.021469 -0.332099 -0.039349
    26 -1.420397 0.000000 0.000000 -0.005920 -0.354828 -0.012283
    27 -3.430256 1.227120 -1.112012 -1.561841 -0.206951 -0.005413
    28 -2.307071 0.000001 0.000001 -0.000007 -0.661281 0.037765
    29 -1.686813 0.000001 0.000000 -0.005104 -1.012040 0.009090
    30 -3.543174 1.295721 -0.208629 -1.579515 0.079618 0.470435
    31 -2.423008 -0.000001 0.000001 3.141740 -1.408646 -3.143329
    32 -1.790750 -0.000002 0.000000 -0.013727 -1.036248 0.035533
    33 -3.507818 1.091496 0.737814 -1.556933 0.055177 0.438507
    34 -2.321934 0.000000 0.000000 -3.141407 -1.278083 3.195989
    35 -1.783664 0.000000 0.000000 -0.005450 -0.988226 0.010765
    36 -3.454484 1.074954 1.672241 -1.442942 0.073409 0.343852
    37 -1.681395 0.000000 0.000000 -3.131914 -1.554872 -3.199317
    38 -1.453233 0.000000 0.000000 -0.005082 -1.073906 0.008757
    39 4.122983 -31.680959 -7.486109 0.000000 1.570796 -1.570796
    40 0.000000 -1.327049 -1.400981 0.000000 0.000000 0.000000
    41 0.000000 -1.377890 1.137398 0.000000 0.000000 0.000000
    42 0.000019 -3.372524 2.134745 0.000000 0.000000 0.000000
    43 0.003241 2.390460 6.292288 0.000000 0.000000 0.000000
    44 0.000001 2.019331 0.839982 0.000000 0.000000 0.000000
    45 0.000001 1.295025 -5.751849 0.000000 0.000000 0.000000
  time 11
    0 -3.509934 17.684133 -9.398724 0.000000 -1.570451 0.000000
    1 0.455634 -10.314221 3.508091 0.000000 1.570451 0.000000
    2 0.000000 -0.000002 0.000000 -0.632074 -0.259787 1.446971
    3 -15.296548 0.000003 0.000000 -0.000002 0.000008 1.102662
    4 -15.182516 -0.000001 0.000000 0.597258 -0.181474 -0.208441
    5 -0.566658 -0.606841 1.196676 3.653155 0.088428 0.611863
    6 -2.182800 0.000000 0.000001 -0.024703 0.588610 -0.046994
    7 -1.526287 0.000000 -0.000001 0.005918 0.110356 -0.012382
    8 -3.492492 1.036439 1.112366 1.653966 0.087307 0.871269
    9 -2.307071 0.000000 0.000000 0.000001 1.291725 0.038787
    10 -1.686814 0.000000 0.000000 0.005103 1.241776 0.009538
    11 -3.609122 1.098669 0.208994 1.598458 0.034452 0.996850
    12 -2.423007 0.000001 0.000000 -0.000243 1.488481 -0.001832
    13 -1.790748 0.000000 0.000000 0.013723 1.123662 0.035527
    14 -3.562686 0.896649 -0.737443 1.583307 0.028160 0.842681
    15 -2.321936 -0.000002 0.000000 0.000006 1.374654 0.054492
    16 -1.783666 0.000000 0.000000 0.005447 1.319948 0.010757
    17 -3.508631 0.883018 -1.671875 1.511620 -0.060099 0.679033
    18 -1.681394 0.000000 0.000000 -0.009487 1.097936 -0.057916
    19 -1.453231 0.000000 0.000000 0.005081 1.143855 0.008753
    20 0.471261 1.006395 -9.141076 0.000000 1.570451 0.000000
    21 0.000000 0.000002 0.000000 -3.075705 0.049082 2.120863
    22 -15.296544 0.000001 0.000000 0.000001 -0.000008 1.204163
    23 -15.182513 0.000000 0.000000 -0.010282 0.374013 -0.608005
    24 -0.599358 -0.574776 -1.196574 -3.488496 -0.110029 0.239656
    25 -2.096807 0.000000 0.000001 0.021469 -0.332099 -0.039349
    26 -1.420397 0.000000 0.000000 -0.005920 -0.354828 -0.012283
    27 -3.430256 1.227120 -1.112012 -1.561841 -0.206951 -0.005413
    28 -2.307071 0.000001 0.000001 -0.000007 -0.661281 0.037765
    29 -1.686813 0.000001 0.000000 -0.005104 -1.012040 0.009090
    30 -3.543174 1.295721 -0.208629 -1.579515 0.079618 0.470435
    31 -2.423008 -0.000001 0.000001 3.141740 -1.408646 -3.143329
    32 -1.790750 -0.000002 0.000000 -0.013727 -1.036248 0.035533
    33 -3.507818 1.091496 0.737814 -1.556933 0.055177 0.438507
    34 -2.321934 0.000000 0.000000 -3.141407 -1.278083 3.195989
    35 -1.783664 0.000000 0.000000 -0.005450 -0.988226 0.010765
    36 -3.454484 1.074954 1.672241 -1.442942 0.073409 0.343852
    37 -1.681395 0.000000 0.000000 -3.131914 -1.554872 -3.199317
    38 -1.453233 0.000000 0.000000 -0.005082 -1.073906 0.008757
    39 4.122983 -31.680959 -7.486109 0.000000 1.570796 -1.570796
    40 0.000000 -1.327049 -1.400981 0.000000 0.000000 0.000000
    41 0.000000 -1.377890 1.137398 0.000000 0.000000 0.000000
    42 0.000019 -3.372524 2.134745 0.000000 0.000000 0.000000
    43 0.003241 2.390460 6.292288 0.000000 0.000000 0.000000
    44 0.000001 2.019331 0.839982 0.000000 0.000000 0.000000
    45 0.000001 1.295025 -5.751849 0.000000 0.000000 0.000000
  time 12
    0 -3.509934 17.684133 -9.398724 0.000000 -1.570451 0.000000
    1 0.455634 -10.314221 3.508091 0.000000 1.570451 0.000000
    2 0.000000 -0.000002 0.000000 -0.632074 -0.259787 1.446971
    3 -15.296548 0.000003 0.000000 -0.000002 0.000008 1.102662
    4 -15.182516 -0.000001 0.000000 0.597258 -0.181474 -0.208441
    5 -0.566658 -0.606841 1.196676 3.653155 0.088428 0.611863
    6 -2.182800 0.000000 0.000001 -0.024703 0.588610 -0.046994
    7 -1.526287 0.000000 -0.000001 0.005918 0.110356 -0.012382
    8 -3.492492 1.036439 1.112366 1.653966 0.087307 0.871269
    9 -2.307071 0.000000 0.000000 0.000001 1.291725 0.038787
    10 -1.686814 0.000000 0.000000 0.005103 1.241776 0.009538
    11 -3.609122 1.098669 0.208994 1.598458 0.034452 0.996850
    12 -2.423007 0.000001 0.000000 -0.000243 1.488481 -0.001832
    13 -1.790748 0.000000 0.000000 0.013723 1.123662 0.035527
    14 -3.562686 0.896649 -0.737443 1.583307 0.028160 0.842681
    15 -2.321936 -0.000002 0.000000 0.000006 1.374654 0.054492
    16 -1.783666 0.000000 0.000000 0.005447 1.319948 0.010757
    17 -3.508631 0.883018 -1.671875 1.511620 -0.060099 0.679033
    18 -1.681394 0.000000 0.000000 -0.009487 1.097936 -0.057916
    19 -1.453231 0.000000 0.000000 0.005081 1.143855 0.008753
    20 0.471261 1.006395 -9.141076 0.000000 1.570451 0.000000
    21 0.000000 0.000002 0.000000 -3.075705 0.049082 2.120863
    22 -15.296544 0.000001 0.000000 0.000001 -0.000008 1.204163
    23 -15.182513 0.000000 0.000000 -0.010282 0.374013 -0.608005
    24 -0.599358 -0.574776 -1.196574 -3.488496 -0.110029 0.239656
    25 -2.096807 0.000000 0.000001 0.021469 -0.332099 -0.039349
    26 -1.420397 0.000000 0.000000 -0.005920 -0.354828 -0.012283
    27 -3.430256 1.227120 -1.112012 -1.561841 -0.206951 -0.005413
    28 -2.307071 0.000001 0.000001 -0.000007 -0.661281 0.037765
    29 -1.686813 0.000001 0.000000 -0.005104 -1.012040 0.009090
    30 -3.543174 1.295721 -0.208629 -1.579515 0.079618 0.470435
    31 -2.423008 -0.000001 0.000001 3.141740 -1.408646 -3.143329
    32 -1.790750 -0.000002 0.000000 -0.013727 -1.036248 0.035533
    33 -3.507818 1.091496 0.737814 -1.556933 0.055177 0.438507
    34 -2.321934 0.000000 0.000000 -3.141407 -1.278083 3.195989
    35 -1.783664 0.000000 0.000000 -0.005450 -0.988226 0.010765
    36 -3.454484 1.074954 1.672241 -1.442942 0.073409 0.343852
    37 -1.681395 0.000000 0.000000 -3.131914 -1.554872 -3.199317
    38 -1.453233 0.000000 0.000000 -0.005082 -1.073906 0.008757
    39 4.122983 -31.680959 -7.486109 0.000000 1.570796 -1.570796
    40 0.000000 -1.327049 -1.400981 0.000000 0.000000 0.000000
    41 0.000000 -1.377890 1.137398 0.000000 0.000000 0.000000
    42 0.000019 -3.372524 2.134745 0.000000 0.000000 0.000000
    43 0.003241 2.390460 6.292288 0.000000 0.000000 0.000000
    44 0.000001 2.019331 0.839982 0.000000 0.000000 0.000000
    45 0.000001 1.295025 -5.751849 0.000000 0.000000 0.000000
  time 13
    0 -3.509934 17.684133 -9.398724 0.000000 -1.570451 0.000000
    1 0.455634 -10.314221 3.508091 0.000000 1.570451 0.000000
    2 0.000000 -0.000002 0.000000 -0.632074 -0.259787 1.446971
    3 -15.296548 0.000003 0.000000 -0.000002 0.000008 1.102662
    4 -15.182516 -0.000001 0.000000 0.597258 -0.181474 -0.208441
    5 -0.566658 -0.606841 1.196676 3.653155 0.088428 0.611863
    6 -2.182800 0.000000 0.000001 -0.024703 0.588610 -0.046994
    7 -1.526287 0.000000 -0.000001 0.005918 0.110356 -0.012382
    8 -3.492492 1.036439 1.112366 1.653966 0.087307 0.871269
    9 -2.307071 0.000000 0.000000 0.000001 1.291725 0.038787
    10 -1.686814 0.000000 0.000000 0.005103 1.241776 0.009538
    11 -3.609122 1.098669 0.208994 1.598458 0.034452 0.996850
    12 -2.423007 0.000001 0.000000 -0.000243 1.488481 -0.001832
    13 -1.790748 0.000000 0.000000 0.013723 1.123662 0.035527
    14 -3.562686 0.896649 -0.737443 1.583307 0.028160 0.842681
    15 -2.321936 -0.000002 0.000000 0.000006 1.374654 0.054492
    16 -1.783666 0.000000 0.000000 0.005447 1.319948 0.010757
    17 -3.508631 0.883018 -1.671875 1.511620 -0.060099 0.679033
    18 -1.681394 0.000000 0.000000 -0.009487 1.097936 -0.057916
    19 -1.453231 0.000000 0.000000 0.005081 1.143855 0.008753
    20 0.471261 1.006395 -9.141076 0.000000 1.570451 0.000000
    21 0.000000 0.000002 0.000000 -3.075705 0.049082 2.120863
    22 -15.296544 0.000001 0.000000 0.000001 -0.000008 1.204163
    23 -15.182513 0.000000 0.000000 -0.010282 0.374013 -0.608005
    24 -0.599358 -0.574776 -1.196574 -3.488496 -0.110029 0.239656
    25 -2.096807 0.000000 0.000001 0.021469 -0.332099 -0.039349
    26 -1.420397 0.000000 0.000000 -0.005920 -0.354828 -0.012283
    27 -3.430256 1.227120 -1.112012 -1.561841 -0.206951 -0.005413
    28 -2.307071 0.000001 0.000001 -0.000007 -0.661281 0.037765
    29 -1.686813 0.000001 0.000000 -0.005104 -1.012040 0.009090
    30 -3.543174 1.295721 -0.208629 -1.579515 0.079618 0.470435
    31 -2.423008 -0.000001 0.000001 3.141740 -1.408646 -3.143329
    32 -1.790750 -0.000002 0.000000 -0.013727 -1.036248 0.035533
    33 -3.507818 1.091496 0.737814 -1.556933 0.055177 0.438507
    34 -2.321934 0.000000 0.000000 -3.141407 -1.278083 3.195989
    35 -1.783664 0.000000 0.000000 -0.005450 -0.988226 0.010765
    36 -3.454484 1.074954 1.672241 -1.442942 0.073409 0.343852
    37 -1.681395 0.000000 0.000000 -3.131914 -1.554872 -3.199317
    38 -1.453233 0.000000 0.000000 -0.005082 -1.073906 0.008757
    39 4.122983 -31.680959 -7.486109 0.000000 1.570796 -1.570796
    40 0.000000 -1.327049 -1.400981 0.000000 0.000000 0.000000
    41 0.000000 -1.377890 1.137398 0.000000 0.000000 0.000000
    42 0.000019 -3.372524 2.134745 0.000000 0.000000 0.000000
    43 0.003241 2.390460 6.292288 0.000000 0.000000 0.000000
    44 0.000001 2.019331 0.839982 0.000000 0.000000 0.000000
    45 0.000001 1.295025 -5.751849 0.000000 0.000000 0.000000
  time 14
    0 -3.509934 17.684133 -9.398724 0.000000 -1.570451 0.000000
    1 0.455634 -10.314221 3.508091 0.000000 1.570451 0.000000
    2 0.000000 -0.000002 0.000000 -0.632074 -0.259787 1.446971
    3 -15.296548 0.000003 0.000000 -0.000002 0.000008 1.102662
    4 -15.182516 -0.000001 0.000000 0.597258 -0.181474 -0.208441
    5 -0.566658 -0.606841 1.196676 3.653155 0.088428 0.611863
    6 -2.182800 0.000000 0.000001 -0.024703 0.588610 -0.046994
    7 -1.526287 0.000000 -0.000001 0.005918 0.110356 -0.012382
    8 -3.492492 1.036439 1.112366 1.653966 0.087307 0.871269
    9 -2.307071 0.000000 0.000000 0.000001 1.291725 0.038787
    10 -1.686814 0.000000 0.000000 0.005103 1.241776 0.009538
    11 -3.609122 1.098669 0.208994 1.598458 0.034452 0.996850
    12 -2.423007 0.000001 0.000000 -0.000243 1.488481 -0.001832
    13 -1.790748 0.000000 0.000000 0.013723 1.123662 0.035527
    14 -3.562686 0.896649 -0.737443 1.583307 0.028160 0.842681
    15 -2.321936 -0.000002 0.000000 0.000006 1.374654 0.054492
    16 -1.783666 0.000000 0.000000 0.005447 1.319948 0.010757
    17 -3.508631 0.883018 -1.671875 1.511620 -0.060099 0.679033
    18 -1.681394 0.000000 0.000000 -0.009487 1.097936 -0.057916
    19 -1.453231 0.000000 0.000000 0.005081 1.143855 0.008753
    20 0.471261 1.006395 -9.141076 0.000000 1.570451 0.000000
    21 0.000000 0.000002 0.000000 -3.075705 0.049082 2.120863
    22 -15.296544 0.000001 0.000000 0.000001 -0.000008 1.204163
    23 -15.182513 0.000000 0.000000 -0.010282 0.374013 -0.608005
    24 -0.599358 -0.574776 -1.196574 -3.488496 -0.110029 0.239656
    25 -2.096807 0.000000 0.000001 0.021469 -0.332099 -0.039349
    26 -1.420397 0.000000 0.000000 -0.005920 -0.354828 -0.012283
    27 -3.430256 1.227120 -1.112012 -1.561841 -0.206951 -0.005413
    28 -2.307071 0.000001 0.000001 -0.000007 -0.661281 0.037765
    29 -1.686813 0.000001 0.000000 -0.005104 -1.012040 0.009090
    30 -3.543174 1.295721 -0.208629 -1.579515 0.079618 0.470435
    31 -2.423008 -0.000001 0.000001 3.141740 -1.408646 -3.143329
    32 -1.790750 -0.000002 0.000000 -0.013727 -1.036248 0.035533
    33 -3.507818 1.091496 0.737814 -1.556933 0.055177 0.438507
    34 -2.321934 0.000000 0.000000 -3.141407 -1.278083 3.195989
    35 -1.783664 0.000000 0.000000 -0.005450 -0.988226 0.010765
    36 -3.454484 1.074954 1.672241 -1.442942 0.073409 0.343852
    37 -1.681395 0.000000 0.000000 -3.131914 -1.554872 -3.199317
    38 -1.453233 0.000000 0.000000 -0.005082 -1.073906 0.008757
    39 4.122983 -31.680959 -7.486109 0.000000 1.570796 -1.570796
    40 0.000000 -1.327049 -1.400981 0.000000 0.000000 0.000000
    41 0.000000 -1.377890 1.137398 0.000000 0.000000 0.000000
    42 0.000019 -3.372524 2.134745 0.000000 0.000000 0.000000
    43 0.003241 2.390460 6.292288 0.000000 0.000000 0.000000
    44 0.000001 2.019331 0.839982 0.000000 0.000000 0.000000
    45 0.000001 1.295025 -5.751849 0.000000 0.000000 0.000000
  time 15
    0 -3.509934 17.684133 -9.398724 0.000000 -1.570451 0.000000
    1 0.455634 -10.314221 3.508091 0.000000 1.570451 0.000000
    2 0.000000 -0.000002 0.000000 -0.632074 -0.259787 1.446971
    3 -15.296548 0.000003 0.000000 -0.000002 0.000008 1.102662
    4 -15.182516 -0.000001 0.000000 0.597258 -0.181474 -0.208441
    5 -0.566658 -0.606841 1.196676 3.653155 0.088428 0.611863
    6 -2.182800 0.000000 0.000001 -0.024703 0.588610 -0.046994
    7 -1.526287 0.000000 -0.000001 0.005918 0.110356 -0.012382
    8 -3.492492 1.036439 1.112366 1.653966 0.087307 0.871269
    9 -2.307071 0.000000 0.000000 0.000001 1.291725 0.038787
    10 -1.686814 0.000000 0.000000 0.005103 1.241776 0.009538
    11 -3.609122 1.098669 0.208994 1.598458 0.034452 0.996850
    12 -2.423007 0.000001 0.000000 -0.000243 1.488481 -0.001832
    13 -1.790748 0.000000 0.000000 0.013723 1.123662 0.035527
    14 -3.562686 0.896649 -0.737443 1.583307 0.028160 0.842681
    15 -2.321936 -0.000002 0.000000 0.000006 1.374654 0.054492
    16 -1.783666 0.000000 0.000000 0.005447 1.319948 0.010757
    17 -3.508631 0.883018 -1.671875 1.511620 -0.060099 0.679033
    18 -1.681394 0.000000 0.000000 -0.009487 1.097936 -0.057916
    19 -1.453231 0.000000 0.000000 0.005081 1.143855 0.008753
    20 0.471261 1.006395 -9.141076 0.000000 1.570451 0.000000
    21 0.000000 0.000002 0.000000 -3.075705 0.049082 2.120863
    22 -15.296544 0.000001 0.000000 0.000001 -0.000008 1.204163
    23 -15.182513 0.000000 0.000000 -0.010282 0.374013 -0.608005
    24 -0.599358 -0.574776 -1.196574 -3.488496 -0.110029 0.239656
    25 -2.096807 0.000000 0.000001 0.021469 -0.332099 -0.039349
    26 -1.420397 0.000000 0.000000 -0.005920 -0.354828 -0.012283
    27 -3.430256 1.227120 -1.112012 -1.561841 -0.206951 -0.005413
    28 -2.307071 0.000001 0.000001 -0.000007 -0.661281 0.037765
    29 -1.686813 0.000001 0.000000 -0.005104 -1.012040 0.009090
    30 -3.543174 1.295721 -0.208629 -1.579515 0.079618 0.470435
    31 -2.423008 -0.000001 0.000001 3.141740 -1.408646 -3.143329
    32 -1.790750 -0.000002 0.000000 -0.013727 -1.036248 0.035533
    33 -3.507818 1.091496 0.737814 -1.556933 0.055177 0.438507
    34 -2.321934 0.000000 0.000000 -3.141407 -1.278083 3.195989
    35 -1.783664 0.000000 0.000000 -0.005450 -0.988226 0.010765
    36 -3.454484 1.074954 1.672241 -1.442942 0.073409 0.343852
    37 -1.681395 0.000000 0.000000 -3.131914 -1.554872 -3.199317
    38 -1.453233 0.000000 0.000000 -0.005082 -1.073906 0.008757
    39 4.122983 -31.680959 -7.486109 0.000000 1.570796 -1.570796
    40 0.000000 -1.327049 -1.400981 0.000000 0.000000 0.000000
    41 0.000000 -1.377890 1.137398 0.000000 0.000000 0.000000
    42 0.000019 -3.372524 2.134745 0.000000 0.000000 0.000000
    43 0.003241 2.390460 6.292288 0.000000 0.000000 0.000000
    44 0.000001 2.019331 0.839982 0.000000 0.000000 0.000000
    45 0.000001 1.295025 -5.751849 0.000000 0.000000 0.000000
  time 16
    0 -3.509934 17.684133 -9.398724 0.000000 -1.570451 0.000000
    1 0.455634 -10.314221 3.508091 0.000000 1.570451 0.000000
    2 0.000000 -0.000002 0.000000 -0.632074 -0.259787 1.446971
    3 -15.296548 0.000003 0.000000 -0.000002 0.000008 1.102662
    4 -15.182516 -0.000001 0.000000 0.597258 -0.181474 -0.208441
    5 -0.566658 -0.606841 1.196676 3.653155 0.088428 0.611863
    6 -2.182800 0.000000 0.000001 -0.024703 0.588610 -0.046994
    7 -1.526287 0.000000 -0.000001 0.005918 0.110356 -0.012382
    8 -3.492492 1.036439 1.112366 1.653966 0.087307 0.871269
    9 -2.307071 0.000000 0.000000 0.000001 1.291725 0.038787
    10 -1.686814 0.000000 0.000000 0.005103 1.241776 0.009538
    11 -3.609122 1.098669 0.208994 1.598458 0.034452 0.996850
    12 -2.423007 0.000001 0.000000 -0.000243 1.488481 -0.001832
    13 -1.790748 0.000000 0.000000 0.013723 1.123662 0.035527
    14 -3.562686 0.896649 -0.737443 1.583307 0.028160 0.842681
    15 -2.321936 -0.000002 0.000000 0.000006 1.374654 0.054492
    16 -1.783666 0.000000 0.000000 0.005447 1.319948 0.010757
    17 -3.508631 0.883018 -1.671875 1.511620 -0.060099 0.679033
    18 -1.681394 0.000000 0.000000 -0.009487 1.097936 -0.057916
    19 -1.453231 0.000000 0.000000 0.005081 1.143855 0.008753
    20 0.471261 1.006395 -9.141076 0.000000 1.570451 0.000000
    21 0.000000 0.000002 0.000000 -3.075705 0.049082 2.120863
    22 -15.296544 0.000001 0.000000 0.000001 -0.000008 1.204163
    23 -15.182513 0.000000 0.000000 -0.010282 0.374013 -0.608005
    24 -0.599358 -0.574776 -1.196574 -3.488496 -0.110029 0.239656
    25 -2.096807 0.000000 0.000001 0.021469 -0.332099 -0.039349
    26 -1.420397 0.000000 0.000000 -0.005920 -0.354828 -0.012283
    27 -3.430256 1.227120 -1.112012 -1.561841 -0.206951 -0.005413
    28 -2.307071 0.000001 0.000001 -0.000007 -0.661281 0.037765
    29 -1.686813 0.000001 0.000000 -0.005104 -1.012040 0.009090
    30 -3.543174 1.295721 -0.208629 -1.579515 0.079618 0.470435
    31 -2.423008 -0.000001 0.000001 3.141740 -1.408646 -3.143329
    32 -1.790750 -0.000002 0.000000 -0.013727 -1.036248 0.035533
    33 -3.507818 1.091496 0.737814 -1.556933 0.055177 0.438507
    34 -2.321934 0.000000 0.000000 -3.141407 -1.278083 3.195989
    35 -1.783664 0.000000 0.000000 -0.005450 -0.988226 0.010765
    36 -3.454484 1.074954 1.672241 -1.442942 0.073409 0.343852
    37 -1.681395 0.000000 0.000000 -3.131914 -1.554872 -3.199317
    38 -1.453233 0.000000 0.000000 -0.005082 -1.073906 0.008757
    39 4.122983 -31.680959 -7.486109 0.000000 1.570796 -1.570796
    40 0.000000 -1.327049 -1.400981 0.000000 0.000000 0.000000
    41 0.000000 -1.377890 1.137398 0.000000 0.000000 0.000000
    42 0.000019 -3.372524 2.134745 0.000000 0.000000 0.000000
    43 0.003241 2.390460 6.292288 0.000000 0.000000 0.000000
    44 0.000001 2.019331 0.839982 0.000000 0.000000 0.000000
    45 0.000001 1.295025 -5.751849 0.000000 0.000000 0.000000
  time 17
    0 -3.509934 17.684133 -9.398724 0.000000 -1.570451 0.000000
    1 0.455634 -10.314221 3.508091 0.000000 1.570451 0.000000
    2 0.000000 -0.000002 0.000000 -0.632074 -0.259787 1.446971
    3 -15.296548 0.000003 0.000000 -0.000002 0.000008 1.102662
    4 -15.182516 -0.000001 0.000000 0.597258 -0.181474 -0.208441
    5 -0.566658 -0.606841 1.196676 3.653155 0.088428 0.611863
    6 -2.182800 0.000000 0.000001 -0.024703 0.588610 -0.046994
    7 -1.526287 0.000000 -0.000001 0.005918 0.110356 -0.012382
    8 -3.492492 1.036439 1.112366 1.653966 0.087307 0.871269
    9 -2.307071 0.000000 0.000000 0.000001 1.291725 0.038787
    10 -1.686814 0.000000 0.000000 0.005103 1.241776 0.009538
    11 -3.609122 1.098669 0.208994 1.598458 0.034452 0.996850
    12 -2.423007 0.000001 0.000000 -0.000243 1.488481 -0.001832
    13 -1.790748 0.000000 0.000000 0.013723 1.123662 0.035527
    14 -3.562686 0.896649 -0.737443 1.583307 0.028160 0.842681
    15 -2.321936 -0.000002 0.000000 0.000006 1.374654 0.054492
    16 -1.783666 0.000000 0.000000 0.005447 1.319948 0.010757
    17 -3.508631 0.883018 -1.671875 1.511620 -0.060099 0.679033
    18 -1.681394 0.000000 0.000000 -0.009487 1.097936 -0.057916
    19 -1.453231 0.000000 0.000000 0.005081 1.143855 0.008753
    20 0.471261 1.006395 -9.141076 0.000000 1.570451 0.000000
    21 0.000000 0.000002 0.000000 -3.075705 0.049082 2.120863
    22 -15.296544 0.000001 0.000000 0.000001 -0.000008 1.204163
    23 -15.182513 0.000000 0.000000 -0.010282 0.374013 -0.608005
    24 -0.599358 -0.574776 -1.196574 -3.488496 -0.110029 0.239656
    25 -2.096807 0.000000 0.000001 0.021469 -0.332099 -0.039349
    26 -1.420397 0.000000 0.000000 -0.005920 -0.354828 -0.012283
    27 -3.430256 1.227120 -1.112012 -1.561841 -0.206951 -0.005413
    28 -2.307071 0.000001 0.000001 -0.000007 -0.661281 0.037765
    29 -1.686813 0.000001 0.000000 -0.005104 -1.012040 0.009090
    30 -3.543174 1.295721 -0.208629 -1.579515 0.079618 0.470435
    31 -2.423008 -0.000001 0.000001 3.141740 -1.408646 -3.143329
    32 -1.790750 -0.000002 0.000000 -0.013727 -1.036248 0.035533
    33 -3.507818 1.091496 0.737814 -1.556933 0.055177 0.438507
    34 -2.321934 0.000000 0.000000 -3.141407 -1.278083 3.195989
    35 -1.783664 0.000000 0.000000 -0.005450 -0.988226 0.010765
    36 -3.454484 1.074954 1.672241 -1.442942 0.073409 0.343852
    37 -1.681395 0.000000 0.000000 -3.131914 -1.554872 -3.199317
    38 -1.453233 0.000000 0.000000 -0.005082 -1.073906 0.008757
    39 4.122983 -31.680959 -7.486109 0.000000 1.570796 -1.570796
    40 0.000000 -1.327049 -1.400981 0.000000 0.000000 0.000000
    41 0.000000 -1.377890 1.137398 0.000000 0.000000 0.000000
    42 0.000019 -3.372524 2.134745 0.000000 0.000000 0.000000
    43 0.003241 2.390460 6.292288 0.000000 0.000000 0.000000
    44 0.000001 2.019331 0.839982 0.000000 0.000000 0.000000
    45 0.000001 1.295025 -5.751849 0.000000 0.000000 0.000000
  time 18
    0 -3.509934 17.684133 -9.398724 0.000000 -1.570451 0.000000
    1 0.455634 -10.314221 3.508091 0.000000 1.570451 0.000000
    2 0.000000 -0.000002 0.000000 -0.632074 -0.259787 1.446971
    3 -15.296548 0.000003 0.000000 -0.000002 0.000008 1.102662
    4 -15.182516 -0.000001 0.000000 0.597258 -0.181474 -0.208441
    5 -0.566658 -0.606841 1.196676 3.653155 0.088428 0.611863
    6 -2.182800 0.000000 0.000001 -0.024703 0.588610 -0.046994
    7 -1.526287 0.000000 -0.000001 0.005918 0.110356 -0.012382
    8 -3.492492 1.036439 1.112366 1.653966 0.087307 0.871269
    9 -2.307071 0.000000 0.000000 0.000001 1.291725 0.038787
    10 -1.686814 0.000000 0.000000 0.005103 1.241776 0.009538
    11 -3.609122 1.098669 0.208994 1.598458 0.034452 0.996850
    12 -2.423007 0.000001 0.000000 -0.000243 1.488481 -0.001832
    13 -1.790748 0.000000 0.000000 0.013723 1.123662 0.035527
    14 -3.562686 0.896649 -0.737443 1.583307 0.028160 0.842681
    15 -2.321936 -0.000002 0.000000 0.000006 1.374654 0.054492
    16 -1.783666 0.000000 0.000000 0.005447 1.319948 0.010757
    17 -3.508631 0.883018 -1.671875 1.511620 -0.060099 0.679033
    18 -1.681394 0.000000 0.000000 -0.009487 1.097936 -0.057916
    19 -1.453231 0.000000 0.000000 0.005081 1.143855 0.008753
    20 0.471261 1.006395 -9.141076 0.000000 1.570451 0.000000
    21 0.000000 0.000002 0.000000 -3.075705 0.049082 2.120863
    22 -15.296544 0.000001 0.000000 0.000001 -0.000008 1.204163
    23 -15.182513 0.000000 0.000000 -0.010282 0.374013 -0.608005
    24 -0.599358 -0.574776 -1.196574 -3.488496 -0.110029 0.239656
    25 -2.096807 0.000000 0.000001 0.021469 -0.332099 -0.039349
    26 -1.420397 0.000000 0.000000 -0.005920 -0.354828 -0.012283
    27 -3.430256 1.227120 -1.112012 -1.561841 -0.206951 -0.005413
    28 -2.307071 0.000001 0.000001 -0.000007 -0.661281 0.037765
    29 -1.686813 0.000001 0.000000 -0.005104 -1.012040 0.009090
    30 -3.543174 1.295721 -0.208629 -1.579515 0.079618 0.470435
    31 -2.423008 -0.000001 0.000001 3.141740 -1.408646 -3.143329
    32 -1.790750 -0.000002 0.000000 -0.013727 -1.036248 0.035533
    33 -3.507818 1.091496 0.737814 -1.556933 0.055177 0.438507
    34 -2.321934 0.000000 0.000000 -3.141407 -1.278083 3.195989
    35 -1.783664 0.000000 0.000000 -0.005450 -0.988226 0.010765
    36 -3.454484 1.074954 1.672241 -1.442942 0.073409 0.343852
    37 -1.681395 0.000000 0.000000 -3.131914 -1.554872 -3.199317
    38 -1.453233 0.000000 0.000000 -0.005082 -1.073906 0.008757
    39 4.122983 -31.680959 -7.486109 0.000000 1.570796 -1.570796
    40 0.000000 -1.327049 -1.400981 0.000000 0.000000 0.000000
    41 0.000000 -1.377890 1.137398 0.000000 0.000000 0.000000
    42 0.000019 -3.372524 2.134745 0.000000 0.000000 0.000000
    43 0.003241 2.390460 6.292288 0.000000 0.000000 0.000000
    44 0.000001 2.019331 0.839982 0.000000 0.000000 0.000000
    45 0.000001 1.295025 -5.751849 0.000000 0.000000 0.000000
  time 19
    0 -3.509934 17.684133 -9.398724 0.000000 -1.570451 0.000000
    1 0.455634 -10.314221 3.508091 0.000000 1.570451 0.000000
    2 0.000000 -0.000002 0.000000 -0.632074 -0.259787 1.446971
    3 -15.296548 0.000003 0.000000 -0.000002 0.000008 1.102662
    4 -15.182516 -0.000001 0.000000 0.597258 -0.181474 -0.208441
    5 -0.566658 -0.606841 1.196676 3.653155 0.088428 0.611863
    6 -2.182800 0.000000 0.000001 -0.024703 0.588610 -0.046994
    7 -1.526287 0.000000 -0.000001 0.005918 0.110356 -0.012382
    8 -3.492492 1.036439 1.112366 1.653966 0.087307 0.871269
    9 -2.307071 0.000000 0.000000 0.000001 1.291725 0.038787
    10 -1.686814 0.000000 0.000000 0.005103 1.241776 0.009538
    11 -3.609122 1.098669 0.208994 1.598458 0.034452 0.996850
    12 -2.423007 0.000001 0.000000 -0.000243 1.488481 -0.001832
    13 -1.790748 0.000000 0.000000 0.013723 1.123662 0.035527
    14 -3.562686 0.896649 -0.737443 1.583307 0.028160 0.842681
    15 -2.321936 -0.000002 0.000000 0.000006 1.374654 0.054492
    16 -1.783666 0.000000 0.000000 0.005447 1.319948 0.010757
    17 -3.508631 0.883018 -1.671875 1.511620 -0.060099 0.679033
    18 -1.681394 0.000000 0.000000 -0.009487 1.097936 -0.057916
    19 -1.453231 0.000000 0.000000 0.005081 1.143855 0.008753
    20 0.471261 1.006395 -9.141076 0.000000 1.570451 0.000000
    21 0.000000 0.000002 0.000000 -3.075705 0.049082 2.120863
    22 -15.296544 0.000001 0.000000 0.000001 -0.000008 1.204163
    23 -15.182513 0.000000 0.000000 -0.010282 0.374013 -0.608005
    24 -0.599358 -0.574776 -1.196574 -3.488496 -0.110029 0.239656
    25 -2.096807 0.000000 0.000001 0.021469 -0.332099 -0.039349
    26 -1.420397 0.000000 0.000000 -0.005920 -0.354828 -0.012283
    27 -3.430256 1.227120 -1.112012 -1.561841 -0.206951 -0.005413
    28 -2.307071 0.000001 0.000001 -0.000007 -0.661281 0.037765
    29 -1.686813 0.000001 0.000000 -0.005104 -1.012040 0.009090
    30 -3.543174 1.295721 -0.208629 -1.579515 0.079618 0.470435
    31 -2.423008 -0.000001 0.000001 3.141740 -1.408646 -3.143329
    32 -1.790750 -0.000002 0.000000 -0.013727 -1.036248 0.035533
    33 -3.507818 1.091496 0.737814 -1.556933 0.055177 0.438507
    34 -2.321934 0.000000 0.000000 -3.141407 -1.278083 3.195989
    35 -1.783664 0.000000 0.000000 -0.005450 -0.988226 0.010765
    36 -3.454484 1.074954 1.672241 -1.442942 0.073409 0.343852
    37 -1.681395 0.000000 0.000000 -3.131914 -1.554872 -3.199317
    38 -1.453233 0.000000 0.000000 -0.005082 -1.073906 0.008757
    39 4.122983 -31.680959 -7.486109 0.000000 1.570796 -1.570796
    40 0.000000 -1.327049 -1.400981 0.000000 0.000000 0.000000
    41 0.000000 -1.377890 1.137398 0.000000 0.000000 0.000000
    42 0.000019 -3.372524 2.134745 0.000000 0.000000 0.000000
    43 0.003241 2.390460 6.292288 0.000000 0.000000 0.000000
    44 0.000001 2.019331 0.839982 0.000000 0.000000 0.000000
    45 0.000001 1.295025 -5.751849 0.000000 0.000000 0.000000
  time 20
    0 -3.509934 17.684133 -9.398724 0.000000 -1.570451 0.000000
    1 0.455634 -10.314221 3.508091 0.000000 1.570451 0.000000
    2 0.000000 -0.000002 0.000000 -0.632074 -0.259787 1.446971
    3 -15.296548 0.000003 0.000000 -0.000002 0.000008 1.102662
    4 -15.182516 -0.000001 0.000000 0.597258 -0.181474 -0.208441
    5 -0.566658 -0.606841 1.196676 3.653155 0.088428 0.611863
    6 -2.182800 0.000000 0.000001 -0.024703 0.588610 -0.046994
    7 -1.526287 0.000000 -0.000001 0.005918 0.110356 -0.012382
    8 -3.492492 1.036439 1.112366 1.653966 0.087307 0.871269
    9 -2.307071 0.000000 0.000000 0.000001 1.291725 0.038787
    10 -1.686814 0.000000 0.000000 0.005103 1.241776 0.009538
    11 -3.609122 1.098669 0.208994 1.598458 0.034452 0.996850
    12 -2.423007 0.000001 0.000000 -0.000243 1.488481 -0.001832
    13 -1.790748 0.000000 0.000000 0.013723 1.123662 0.035527
    14 -3.562686 0.896649 -0.737443 1.583307 0.028160 0.842681
    15 -2.321936 -0.000002 0.000000 0.000006 1.374654 0.054492
    16 -1.783666 0.000000 0.000000 0.005447 1.319948 0.010757
    17 -3.508631 0.883018 -1.671875 1.511620 -0.060099 0.679033
    18 -1.681394 0.000000 0.000000 -0.009487 1.097936 -0.057916
    19 -1.453231 0.000000 0.000000 0.005081 1.143855 0.008753
    20 0.471261 1.006395 -9.141076 0.000000 1.570451 0.000000
    21 0.000000 0.000002 0.000000 -3.075705 0.049082 2.120863
    22 -15.296544 0.000001 0.000000 0.000001 -0.000008 1.204163
    23 -15.182513 0.000000 0.000000 -0.010282 0.374013 -0.608005
    24 -0.599358 -0.574776 -1.196574 -3.488496 -0.110029 0.239656
    25 -2.096807 0.000000 0.000001 0.021469 -0.332099 -0.039349
    26 -1.420397 0.000000 0.000000 -0.005920 -0.354828 -0.012283
    27 -3.430256 1.227120 -1.112012 -1.561841 -0.206951 -0.005413
    28 -2.307071 0.000001 0.000001 -0.000007 -0.661281 0.037765
    29 -1.686813 0.000001 0.000000 -0.005104 -1.012040 0.009090
    30 -3.543174 1.295721 -0.208629 -1.579515 0.079618 0.470435
    31 -2.423008 -0.000001 0.000001 3.141740 -1.408646 -3.143329
    32 -1.790750 -0.000002 0.000000 -0.013727 -1.036248 0.035533
    33 -3.507818 1.091496 0.737814 -1.556933 0.055177 0.438507
    34 -2.321934 0.000000 0.000000 -3.141407 -1.278083 3.195989
    35 -1.783664 0.000000 0.000000 -0.005450 -0.988226 0.010765
    36 -3.454484 1.074954 1.672241 -1.442942 0.073409 0.343852
    37 -1.681395 0.000000 0.000000 -3.131914 -1.554872 -3.199317
    38 -1.453233 0.000000 0.000000 -0.005082 -1.073906 0.008757
    39 4.122983 -31.680959 -7.486109 0.000000 1.570796 -1.570796
    40 0.000000 -1.327049 -1.400981 0.000000 0.000000 0.000000
    41 0.000000 -1.377890 1.137398 0.000000 0.000000 0.000000
    42 0.000019 -3.372524 2.134745 0.000000 0.000000 0.000000
    43 0.003241 2.390460 6.292288 0.000000 0.000000 0.000000
    44 0.000001 2.019331 0.839982 0.000000 0.000000 0.000000
    45 0.000001 1.295025 -5.751849 0.000000 0.000000 0.000000
  time 21
    0 -3.509934 17.684133 -9.398724 0.000000 -1.570451 0.000000
    1 0.455634 -10.314221 3.508091 0.000000 1.570451 0.000000
    2 0.000000 -0.000002 0.000000 -0.632074 -0.259787 1.446971
    3 -15.296548 0.000003 0.000000 -0.000002 0.000008 1.102662
    4 -15.182516 -0.000001 0.000000 0.597258 -0.181474 -0.208441
    5 -0.566658 -0.606841 1.196676 3.653155 0.088428 0.611863
    6 -2.182800 0.000000 0.000001 -0.024703 0.588610 -0.046994
    7 -1.526287 0.000000 -0.000001 0.005918 0.110356 -0.012382
    8 -3.492492 1.036439 1.112366 1.653966 0.087307 0.871269
    9 -2.307071 0.000000 0.000000 0.000001 1.291725 0.038787
    10 -1.686814 0.000000 0.000000 0.005103 1.241776 0.009538
    11 -3.609122 1.098669 0.208994 1.598458 0.034452 0.996850
    12 -2.423007 0.000001 0.000000 -0.000243 1.488481 -0.001832
    13 -1.790748 0.000000 0.000000 0.013723 1.123662 0.035527
    14 -3.562686 0.896649 -0.737443 1.583307 0.028160 0.842681
    15 -2.321936 -0.000002 0.000000 0.000006 1.374654 0.054492
    16 -1.783666 0.000000 0.000000 0.005447 1.319948 0.010757
    17 -3.508631 0.883018 -1.671875 1.511620 -0.060099 0.679033
    18 -1.681394 0.000000 0.000000 -0.009487 1.097936 -0.057916
    19 -1.453231 0.000000 0.000000 0.005081 1.143855 0.008753
    20 0.471261 1.006395 -9.141076 0.000000 1.570451 0.000000
    21 0.000000 0.000002 0.000000 -3.075705 0.049082 2.120863
    22 -15.296544 0.000001 0.000000 0.000001 -0.000008 1.204163
    23 -15.182513 0.000000 0.000000 -0.010282 0.374013 -0.608005
    24 -0.599358 -0.574776 -1.196574 -3.488496 -0.110029 0.239656
    25 -2.096807 0.000000 0.000001 0.021469 -0.332099 -0.039349
    26 -1.420397 0.000000 0.000000 -0.005920 -0.354828 -0.012283
    27 -3.430256 1.227120 -1.112012 -1.561841 -0.206951 -0.005413
    28 -2.307071 0.000001 0.000001 -0.000007 -0.661281 0.037765
    29 -1.686813 0.000001 0.000000 -0.005104 -1.012040 0.009090
    30 -3.543174 1.295721 -0.208629 -1.579515 0.079618 0.470435
    31 -2.423008 -0.000001 0.000001 3.141740 -1.408646 -3.143329
    32 -1.790750 -0.000002 0.000000 -0.013727 -1.036248 0.035533
    33 -3.507818 1.091496 0.737814 -1.556933 0.055177 0.438507
    34 -2.321934 0.000000 0.000000 -3.141407 -1.278083 3.195989
    35 -1.783664 0.000000 0.000000 -0.005450 -0.988226 0.010765
    36 -3.454484 1.074954 1.672241 -1.442942 0.073409 0.343852
    37 -1.681395 0.000000 0.000000 -3.131914 -1.554872 -3.199317
    38 -1.453233 0.000000 0.000000 -0.005082 -1.073906 0.008757
    39 4.122983 -31.680959 -7.486109 0.000000 1.570796 -1.570796
    40 0.000000 -1.327049 -1.400981 0.000000 0.000000 0.000000
    41 0.000000 -1.377890 1.137398 0.000000 0.000000 0.000000
    42 0.000019 -3.372524 2.134745 0.000000 0.000000 0.000000
    43 0.003241 2.390460 6.292288 0.000000 0.000000 0.000000
    44 0.000001 2.019331 0.839982 0.000000 0.000000 0.000000
    45 0.000001 1.295025 -5.751849 0.000000 0.000000 0.000000
  time 22
    0 -3.509934 17.684133 -9.398724 0.000000 -1.570451 0.000000
    1 0.455634 -10.314221 3.508091 0.000000 1.570451 0.000000
    2 0.000000 -0.000002 0.000000 -0.632074 -0.259787 1.446971
    3 -15.296548 0.000003 0.000000 -0.000002 0.000008 1.102662
    4 -15.182516 -0.000001 0.000000 0.597258 -0.181474 -0.208441
    5 -0.566658 -0.606841 1.196676 3.653155 0.088428 0.611863
    6 -2.182800 0.000000 0.000001 -0.024703 0.588610 -0.046994
    7 -1.526287 0.000000 -0.000001 0.005918 0.110356 -0.012382
    8 -3.492492 1.036439 1.112366 1.653966 0.087307 0.871269
    9 -2.307071 0.000000 0.000000 0.000001 1.291725 0.038787
    10 -1.686814 0.000000 0.000000 0.005103 1.241776 0.009538
    11 -3.609122 1.098669 0.208994 1.598458 0.034452 0.996850
    12 -2.423007 0.000001 0.000000 -0.000243 1.488481 -0.001832
    13 -1.790748 0.000000 0.000000 0.013723 1.123662 0.035527
    14 -3.562686 0.896649 -0.737443 1.583307 0.028160 0.842681
    15 -2.321936 -0.000002 0.000000 0.000006 1.374654 0.054492
    16 -1.783666 0.000000 0.000000 0.005447 1.319948 0.010757
    17 -3.508631 0.883018 -1.671875 1.511620 -0.060099 0.679033
    18 -1.681394 0.000000 0.000000 -0.009487 1.097936 -0.057916
    19 -1.453231 0.000000 0.000000 0.005081 1.143855 0.008753
    20 0.471261 1.006395 -9.141076 0.000000 1.570451 0.000000
    21 0.000000 0.000002 0.000000 -3.075705 0.049082 2.120863
    22 -15.296544 0.000001 0.000000 0.000001 -0.000008 1.204163
    23 -15.182513 0.000000 0.000000 -0.010282 0.374013 -0.608005
    24 -0.599358 -0.574776 -1.196574 -3.488496 -0.110029 0.239656
    25 -2.096807 0.000000 0.000001 0.021469 -0.332099 -0.039349
    26 -1.420397 0.000000 0.000000 -0.005920 -0.354828 -0.012283
    27 -3.430256 1.227120 -1.112012 -1.561841 -0.206951 -0.005413
    28 -2.307071 0.000001 0.000001 -0.000007 -0.661281 0.037765
    29 -1.686813 0.000001 0.000000 -0.005104 -1.012040 0.009090
    30 -3.543174 1.295721 -0.208629 -1.579515 0.079618 0.470435
    31 -2.423008 -0.000001 0.000001 3.141740 -1.408646 -3.143329
    32 -1.790750 -0.000002 0.000000 -0.013727 -1.036248 0.035533
    33 -3.507818 1.091496 0.737814 -1.556933 0.055177 0.438507
    34 -2.321934 0.000000 0.000000 -3.141407 -1.278083 3.195989
    35 -1.783664 0.000000 0.000000 -0.005450 -0.988226 0.010765
    36 -3.454484 1.074954 1.672241 -1.442942 0.073409 0.343852
    37 -1.681395 0.000000 0.000000 -3.131914 -1.554872 -3.199317
    38 -1.453233 0.000000 0.000000 -0.005082 -1.073906 0.008757
    39 4.122983 -31.680959 -7.486109 0.000000 1.570796 -1.570796
    40 0.000000 -1.327049 -1.400981 0.000000 0.000000 0.000000
    41 0.000000 -1.377890 1.137398 0.000000 0.000000 0.000000
    42 0.000019 -3.372524 2.134745 0.000000 0.000000 0.000000
    43 0.003241 2.390460 6.292288 0.000000 0.000000 0.000000
    44 0.000001 2.019331 0.839982 0.000000 0.000000 0.000000
    45 0.000001 1.295025 -5.751849 0.000000 0.000000 0.000000
  time 23
    0 -3.509934 17.684133 -9.398724 0.000000 -1.570451 0.000000
    1 0.455634 -10.314221 3.508091 0.000000 1.570451 0.000000
    2 0.000000 -0.000002 0.000000 -0.632074 -0.259787 1.446971
    3 -15.296548 0.000003 0.000000 -0.000002 0.000008 1.102662
    4 -15.182516 -0.000001 0.000000 0.597258 -0.181474 -0.208441
    5 -0.566658 -0.606841 1.196676 3.653155 0.088428 0.611863
    6 -2.182800 0.000000 0.000001 -0.024703 0.588610 -0.046994
    7 -1.526287 0.000000 -0.000001 0.005918 0.110356 -0.012382
    8 -3.492492 1.036439 1.112366 1.653966 0.087307 0.871269
    9 -2.307071 0.000000 0.000000 0.000001 1.291725 0.038787
    10 -1.686814 0.000000 0.000000 0.005103 1.241776 0.009538
    11 -3.609122 1.098669 0.208994 1.598458 0.034452 0.996850
    12 -2.423007 0.000001 0.000000 -0.000243 1.488481 -0.001832
    13 -1.790748 0.000000 0.000000 0.013723 1.123662 0.035527
    14 -3.562686 0.896649 -0.737443 1.583307 0.028160 0.842681
    15 -2.321936 -0.000002 0.000000 0.000006 1.374654 0.054492
    16 -1.783666 0.000000 0.000000 0.005447 1.319948 0.010757
    17 -3.508631 0.883018 -1.671875 1.511620 -0.060099 0.679033
    18 -1.681394 0.000000 0.000000 -0.009487 1.097936 -0.057916
    19 -1.453231 0.000000 0.000000 0.005081 1.143855 0.008753
    20 0.471261 1.006395 -9.141076 0.000000 1.570451 0.000000
    21 0.000000 0.000002 0.000000 -3.075705 0.049082 2.120863
    22 -15.296544 0.000001 0.000000 0.000001 -0.000008 1.204163
    23 -15.182513 0.000000 0.000000 -0.010282 0.374013 -0.608005
    24 -0.599358 -0.574776 -1.196574 -3.488496 -0.110029 0.239656
    25 -2.096807 0.000000 0.000001 0.021469 -0.332099 -0.039349
    26 -1.420397 0.000000 0.000000 -0.005920 -0.354828 -0.012283
    27 -3.430256 1.227120 -1.112012 -1.561841 -0.206951 -0.005413
    28 -2.307071 0.000001 0.000001 -0.000007 -0.661281 0.037765
    29 -1.686813 0.000001 0.000000 -0.005104 -1.012040 0.009090
    30 -3.543174 1.295721 -0.208629 -1.579515 0.079618 0.470435
    31 -2.423008 -0.000001 0.000001 3.141740 -1.408646 -3.143329
    32 -1.790750 -0.000002 0.000000 -0.013727 -1.036248 0.035533
    33 -3.507818 1.091496 0.737814 -1.556933 0.055177 0.438507
    34 -2.321934 0.000000 0.000000 -3.141407 -1.278083 3.195989
    35 -1.783664 0.000000 0.000000 -0.005450 -0.988226 0.010765
    36 -3.454484 1.074954 1.672241 -1.442942 0.073409 0.343852
    37 -1.681395 0.000000 0.000000 -3.131914 -1.554872 -3.199317
    38 -1.453233 0.000000 0.000000 -0.005082 -1.073906 0.008757
    39 4.122983 -31.680959 -7.486109 0.000000 1.570796 -1.570796
    40 0.000000 -1.327049 -1.400981 0.000000 0.000000 0.000000
    41 0.000000 -1.377890 1.137398 0.000000 0.000000 0.000000
    42 0.000019 -3.372524 2.134745 0.000000 0.000000 0.000000
    43 0.003241 2.390460 6.292288 0.000000 0.000000 0.000000
    44 0.000001 2.019331 0.839982 0.000000 0.000000 0.000000
    45 0.000001 1.295025 -5.751849 0.000000 0.000000 0.000000
  time 24
    0 -3.509934 17.684133 -9.398724 0.000000 -1.570451 0.000000
    1 0.455634 -10.314221 3.508091 0.000000 1.570451 0.000000
    2 0.000000 -0.000002 0.000000 -0.632074 -0.259787 1.446971
    3 -15.296548 0.000003 0.000000 -0.000002 0.000008 1.102662
    4 -15.182516 -0.000001 0.000000 0.597258 -0.181474 -0.208441
    5 -0.566658 -0.606841 1.196676 3.653155 0.088428 0.611863
    6 -2.182800 0.000000 0.000001 -0.024703 0.588610 -0.046994
    7 -1.526287 0.000000 -0.000001 0.005918 0.110356 -0.012382
    8 -3.492492 1.036439 1.112366 1.653966 0.087307 0.871269
    9 -2.307071 0.000000 0.000000 0.000001 1.291725 0.038787
    10 -1.686814 0.000000 0.000000 0.005103 1.241776 0.009538
    11 -3.609122 1.098669 0.208994 1.598458 0.034452 0.996850
    12 -2.423007 0.000001 0.000000 -0.000243 1.488481 -0.001832
    13 -1.790748 0.000000 0.000000 0.013723 1.123662 0.035527
    14 -3.562686 0.896649 -0.737443 1.583307 0.028160 0.842681
    15 -2.321936 -0.000002 0.000000 0.000006 1.374654 0.054492
    16 -1.783666 0.000000 0.000000 0.005447 1.319948 0.010757
    17 -3.508631 0.883018 -1.671875 1.511620 -0.060099 0.679033
    18 -1.681394 0.000000 0.000000 -0.009487 1.097936 -0.057916
    19 -1.453231 0.000000 0.000000 0.005081 1.143855 0.008753
    20 0.471261 1.006395 -9.141076 0.000000 1.570451 0.000000
    21 0.000000 0.000002 0.000000 -3.075705 0.049082 2.120863
    22 -15.296544 0.000001 0.000000 0.000001 -0.000008 1.204163
    23 -15.182513 0.000000 0.000000 -0.010282 0.374013 -0.608005
    24 -0.599358 -0.574776 -1.196574 -3.488496 -0.110029 0.239656
    25 -2.096807 0.000000 0.000001 0.021469 -0.332099 -0.039349
    26 -1.420397 0.000000 0.000000 -0.005920 -0.354828 -0.012283
    27 -3.430256 1.227120 -1.112012 -1.561841 -0.206951 -0.005413
    28 -2.307071 0.000001 0.000001 -0.000007 -0.661281 0.037765
    29 -1.686813 0.000001 0.000000 -0.005104 -1.012040 0.009090
    30 -3.543174 1.295721 -0.208629 -1.579515 0.079618 0.470435
    31 -2.423008 -0.000001 0.000001 3.141740 -1.408646 -3.143329
    32 -1.790750 -0.000002 0.000000 -0.013727 -1.036248 0.035533
    33 -3.507818 1.091496 0.737814 -1.556933 0.055177 0.438507
    34 -2.321934 0.000000 0.000000 -3.141407 -1.278083 3.195989
    35 -1.783664 0.000000 0.000000 -0.005450 -0.988226 0.010765
    36 -3.454484 1.074954 1.672241 -1.442942 0.073409 0.343852
    37 -1.681395 0.000000 0.000000 -3.131914 -1.554872 -3.199317
    38 -1.453233 0.000000 0.000000 -0.005082 -1.073906 0.008757
    39 4.122983 -31.680959 -7.486109 0.000000 1.570796 -1.570796
    40 0.000000 -1.327049 -1.400981 0.000000 0.000000 0.000000
    41 0.000000 -1.377890 1.137398 0.000000 0.000000 0.000000
    42 0.000019 -3.372524 2.134745 0.000000 0.000000 0.000000
    43 0.003241 2.390460 6.292288 0.000000 0.000000 0.000000
    44 0.000001 2.019331 0.839982 0.000000 0.000000 0.000000
    45 0.000001 1.295025 -5.751849 0.000000 0.000000 0.000000
  time 25
    0 -3.509934 17.684133 -9.398724 0.000000 -1.570451 0.000000
    1 0.455634 -10.314221 3.508091 0.000000 1.570451 0.000000
    2 0.000000 -0.000002 0.000000 -0.632074 -0.259787 1.446971
    3 -15.296548 0.000003 0.000000 -0.000002 0.000008 1.102662
    4 -15.182516 -0.000001 0.000000 0.597258 -0.181474 -0.208441
    5 -0.566658 -0.606841 1.196676 3.653155 0.088428 0.611863
    6 -2.182800 0.000000 0.000001 -0.024703 0.588610 -0.046994
    7 -1.526287 0.000000 -0.000001 0.005918 0.110356 -0.012382
    8 -3.492492 1.036439 1.112366 1.653966 0.087307 0.871269
    9 -2.307071 0.000000 0.000000 0.000001 1.291725 0.038787
    10 -1.686814 0.000000 0.000000 0.005103 1.241776 0.009538
    11 -3.609122 1.098669 0.208994 1.598458 0.034452 0.996850
    12 -2.423007 0.000001 0.000000 -0.000243 1.488481 -0.001832
    13 -1.790748 0.000000 0.000000 0.013723 1.123662 0.035527
    14 -3.562686 0.896649 -0.737443 1.583307 0.028160 0.842681
    15 -2.321936 -0.000002 0.000000 0.000006 1.374654 0.054492
    16 -1.783666 0.000000 0.000000 0.005447 1.319948 0.010757
    17 -3.508631 0.883018 -1.671875 1.511620 -0.060099 0.679033
    18 -1.681394 0.000000 0.000000 -0.009487 1.097936 -0.057916
    19 -1.453231 0.000000 0.000000 0.005081 1.143855 0.008753
    20 0.471261 1.006395 -9.141076 0.000000 1.570451 0.000000
    21 0.000000 0.000002 0.000000 -3.075705 0.049082 2.120863
    22 -15.296544 0.000001 0.000000 0.000001 -0.000008 1.204163
    23 -15.182513 0.000000 0.000000 -0.010282 0.374013 -0.608005
    24 -0.599358 -0.574776 -1.196574 -3.488496 -0.110029 0.239656
    25 -2.096807 0.000000 0.000001 0.021469 -0.332099 -0.039349
    26 -1.420397 0.000000 0.000000 -0.005920 -0.354828 -0.012283
    27 -3.430256 1.227120 -1.112012 -1.561841 -0.206951 -0.005413
    28 -2.307071 0.000001 0.000001 -0.000007 -0.661281 0.037765
    29 -1.686813 0.000001 0.000000 -0.005104 -1.012040 0.009090
    30 -3.543174 1.295721 -0.208629 -1.579515 0.079618 0.470435
    31 -2.423008 -0.000001 0.000001 3.141740 -1.408646 -3.143329
    32 -1.790750 -0.000002 0.000000 -0.013727 -1.036248 0.035533
    33 -3.507818 1.091496 0.737814 -1.556933 0.055177 0.438507
    34 -2.321934 0.000000 0.000000 -3.141407 -1.278083 3.195989
    35 -1.783664 0.000000 0.000000 -0.005450 -0.988226 0.010765
    36 -3.454484 1.074954 1.672241 -1.442942 0.073409 0.343852
    37 -1.681395 0.000000 0.000000 -3.131914 -1.554872 -3.199317
    38 -1.453233 0.000000 0.000000 -0.005082 -1.073906 0.008757
    39 4.122983 -31.680959 -7.486109 0.000000 1.570796 -1.570796
    40 0.000000 -1.327049 -1.400981 0.000000 0.000000 0.000000
    41 0.000000 -1.377890 1.137398 0.000000 0.000000 0.000000
    42 0.000019 -3.372524 2.134745 0.000000 0.000000 0.000000
    43 0.003241 2.390460 6.292288 0.000000 0.000000 0.000000
    44 0.000001 2.019331 0.839982 0.000000 0.000000 0.000000
    45 0.000001 1.295025 -5.751849 0.000000 0.000000 0.000000
  time 26
    0 -3.509934 17.684133 -9.398724 0.000000 -1.570451 0.000000
    1 0.455634 -10.314221 3.508091 0.000000 1.570451 0.000000
    2 0.000000 -0.000002 0.000000 -0.632074 -0.259787 1.446971
    3 -15.296548 0.000003 0.000000 -0.000002 0.000008 1.102662
    4 -15.182516 -0.000001 0.000000 0.597258 -0.181474 -0.208441
    5 -0.566658 -0.606841 1.196676 3.653155 0.088428 0.611863
    6 -2.182800 0.000000 0.000001 -0.024703 0.588610 -0.046994
    7 -1.526287 0.000000 -0.000001 0.005918 0.110356 -0.012382
    8 -3.492492 1.036439 1.112366 1.653966 0.087307 0.871269
    9 -2.307071 0.000000 0.000000 0.000001 1.291725 0.038787
    10 -1.686814 0.000000 0.000000 0.005103 1.241776 0.009538
    11 -3.609122 1.098669 0.208994 1.598458 0.034452 0.996850
    12 -2.423007 0.000001 0.000000 -0.000243 1.488481 -0.001832
    13 -1.790748 0.000000 0.000000 0.013723 1.123662 0.035527
    14 -3.562686 0.896649 -0.737443 1.583307 0.028160 0.842681
    15 -2.321936 -0.000002 0.000000 0.000006 1.374654 0.054492
    16 -1.783666 0.000000 0.000000 0.005447 1.319948 0.010757
    17 -3.508631 0.883018 -1.671875 1.511620 -0.060099 0.679033
    18 -1.681394 0.000000 0.000000 -0.009487 1.097936 -0.057916
    19 -1.453231 0.000000 0.000000 0.005081 1.143855 0.008753
    20 0.471261 1.006395 -9.141076 0.000000 1.570451 0.000000
    21 0.000000 0.000002 0.000000 -3.075705 0.049082 2.120863
    22 -15.296544 0.000001 0.000000 0.000001 -0.000008 1.204163
    23 -15.182513 0.000000 0.000000 -0.010282 0.374013 -0.608005
    24 -0.599358 -0.574776 -1.196574 -3.488496 -0.110029 0.239656
    25 -2.096807 0.000000 0.000001 0.021469 -0.332099 -0.039349
    26 -1.420397 0.000000 0.000000 -0.005920 -0.354828 -0.012283
    27 -3.430256 1.227120 -1.112012 -1.561841 -0.206951 -0.005413
    28 -2.307071 0.000001 0.000001 -0.000007 -0.661281 0.037765
    29 -1.686813 0.000001 0.000000 -0.005104 -1.012040 0.009090
    30 -3.543174 1.295721 -0.208629 -1.579515 0.079618 0.470435
    31 -2.423008 -0.000001 0.000001 3.141740 -1.408646 -3.143329
    32 -1.790750 -0.000002 0.000000 -0.013727 -1.036248 0.035533
    33 -3.507818 1.091496 0.737814 -1.556933 0.055177 0.438507
    34 -2.321934 0.000000 0.000000 -3.141407 -1.278083 3.195989
    35 -1.783664 0.000000 0.000000 -0.005450 -0.988226 0.010765
    36 -3.454484 1.074954 1.672241 -1.442942 0.073409 0.343852
    37 -1.681395 0.000000 0.000000 -3.131914 -1.554872 -3.199317
    38 -1.453233 0.000000 0.000000 -0.005082 -1.073906 0.008757
    39 4.122983 -31.680959 -7.486109 0.000000 1.570796 -1.570796
    40 0.000000 -1.327049 -1.400981 0.000000 0.000000 0.000000
    41 0.000000 -1.377890 1.137398 0.000000 0.000000 0.000000
    42 0.000019 -3.372524 2.134745 0.000000 0.000000 0.000000
    43 0.003241 2.390460 6.292288 0.000000 0.000000 0.000000
    44 0.000001 2.019331 0.839982 0.000000 0.000000 0.000000
    45 0.000001 1.295025 -5.751849 0.000000 0.000000 0.000000
  time 27
    0 -3.509934 17.684133 -9.398724 0.000000 -1.570451 0.000000
    1 0.455634 -10.314221 3.508091 0.000000 1.570451 0.000000
    2 0.000000 -0.000002 0.000000 -0.632074 -0.259787 1.446971
    3 -15.296548 0.000003 0.000000 -0.000002 0.000008 1.102662
    4 -15.182516 -0.000001 0.000000 0.597258 -0.181474 -0.208441
    5 -0.566658 -0.606841 1.196676 3.653155 0.088428 0.611863
    6 -2.182800 0.000000 0.000001 -0.024703 0.588610 -0.046994
    7 -1.526287 0.000000 -0.000001 0.005918 0.110356 -0.012382
    8 -3.492492 1.036439 1.112366 1.653966 0.087307 0.871269
    9 -2.307071 0.000000 0.000000 0.000001 1.291725 0.038787
    10 -1.686814 0.000000 0.000000 0.005103 1.241776 0.009538
    11 -3.609122 1.098669 0.208994 1.598458 0.034452 0.996850
    12 -2.423007 0.000001 0.000000 -0.000243 1.488481 -0.001832
    13 -1.790748 0.000000 0.000000 0.013723 1.123662 0.035527
    14 -3.562686 0.896649 -0.737443 1.583307 0.028160 0.842681
    15 -2.321936 -0.000002 0.000000 0.000006 1.374654 0.054492
    16 -1.783666 0.000000 0.000000 0.005447 1.319948 0.010757
    17 -3.508631 0.883018 -1.671875 1.511620 -0.060099 0.679033
    18 -1.681394 0.000000 0.000000 -0.009487 1.097936 -0.057916
    19 -1.453231 0.000000 0.000000 0.005081 1.143855 0.008753
    20 0.471261 1.006395 -9.141076 0.000000 1.570451 0.000000
    21 0.000000 0.000002 0.000000 -3.075705 0.049082 2.120863
    22 -15.296544 0.000001 0.000000 0.000001 -0.000008 1.204163
    23 -15.182513 0.000000 0.000000 -0.010282 0.374013 -0.608005
    24 -0.599358 -0.574776 -1.196574 -3.488496 -0.110029 0.239656
    25 -2.096807 0.000000 0.000001 0.021469 -0.332099 -0.039349
    26 -1.420397 0.000000 0.000000 -0.005920 -0.354828 -0.012283
    27 -3.430256 1.227120 -1.112012 -1.561841 -0.206951 -0.005413
    28 -2.307071 0.000001 0.000001 -0.000007 -0.661281 0.037765
    29 -1.686813 0.000001 0.000000 -0.005104 -1.012040 0.009090
    30 -3.543174 1.295721 -0.208629 -1.579515 0.079618 0.470435
    31 -2.423008 -0.000001 0.000001 3.141740 -1.408646 -3.143329
    32 -1.790750 -0.000002 0.000000 -0.013727 -1.036248 0.035533
    33 -3.507818 1.091496 0.737814 -1.556933 0.055177 0.438507
    34 -2.321934 0.000000 0.000000 -3.141407 -1.278083 3.195989
    35 -1.783664 0.000000 0.000000 -0.005450 -0.988226 0.010765
    36 -3.454484 1.074954 1.672241 -1.442942 0.073409 0.343852
    37 -1.681395 0.000000 0.000000 -3.131914 -1.554872 -3.199317
    38 -1.453233 0.000000 0.000000 -0.005082 -1.073906 0.008757
    39 4.122983 -31.680959 -7.486109 0.000000 1.570796 -1.570796
    40 0.000000 -1.327049 -1.400981 0.000000 0.000000 0.000000
    41 0.000000 -1.377890 1.137398 0.000000 0.000000 0.000000
    42 0.000019 -3.372524 2.134745 0.000000 0.000000 0.000000
    43 0.003241 2.390460 6.292288 0.000000 0.000000 0.000000
    44 0.000001 2.019331 0.839982 0.000000 0.000000 0.000000
    45 0.000001 1.295025 -5.751849 0.000000 0.000000 0.000000
  time 28
    0 -3.509934 17.684133 -9.398724 0.000000 -1.570451 0.000000
    1 0.455634 -10.314221 3.508091 0.000000 1.570451 0.000000
    2 0.000000 -0.000002 0.000000 -0.632074 -0.259787 1.446971
    3 -15.296548 0.000003 0.000000 -0.000002 0.000008 1.102662
    4 -15.182516 -0.000001 0.000000 0.597258 -0.181474 -0.208441
    5 -0.566658 -0.606841 1.196676 3.653155 0.088428 0.611863
    6 -2.182800 0.000000 0.000001 -0.024703 0.588610 -0.046994
    7 -1.526287 0.000000 -0.000001 0.005918 0.110356 -0.012382
    8 -3.492492 1.036439 1.112366 1.653966 0.087307 0.871269
    9 -2.307071 0.000000 0.000000 0.000001 1.291725 0.038787
    10 -1.686814 0.000000 0.000000 0.005103 1.241776 0.009538
    11 -3.609122 1.098669 0.208994 1.598458 0.034452 0.996850
    12 -2.423007 0.000001 0.000000 -0.000243 1.488481 -0.001832
    13 -1.790748 0.000000 0.000000 0.013723 1.123662 0.035527
    14 -3.562686 0.896649 -0.737443 1.583307 0.028160 0.842681
    15 -2.321936 -0.000002 0.000000 0.000006 1.374654 0.054492
    16 -1.783666 0.000000 0.000000 0.005447 1.319948 0.010757
    17 -3.508631 0.883018 -1.671875 1.511620 -0.060099 0.679033
    18 -1.681394 0.000000 0.000000 -0.009487 1.097936 -0.057916
    19 -1.453231 0.000000 0.000000 0.005081 1.143855 0.008753
    20 0.471261 1.006395 -9.141076 0.000000 1.570451 0.000000
    21 0.000000 0.000002 0.000000 -3.075705 0.049082 2.120863
    22 -15.296544 0.000001 0.000000 0.000001 -0.000008 1.204163
    23 -15.182513 0.000000 0.000000 -0.010282 0.374013 -0.608005
    24 -0.599358 -0.574776 -1.196574 -3.488496 -0.110029 0.239656
    25 -2.096807 0.000000 0.000001 0.021469 -0.332099 -0.039349
    26 -1.420397 0.000000 0.000000 -0.005920 -0.354828 -0.012283
    27 -3.430256 1.227120 -1.112012 -1.561841 -0.206951 -0.005413
    28 -2.307071 0.000001 0.000001 -0.000007 -0.661281 0.037765
    29 -1.686813 0.000001 0.000000 -0.005104 -1.012040 0.009090
    30 -3.543174 1.295721 -0.208629 -1.579515 0.079618 0.470435
    31 -2.423008 -0.000001 0.000001 3.141740 -1.408646 -3.143329
    32 -1.790750 -0.000002 0.000000 -0.013727 -1.036248 0.035533
    33 -3.507818 1.091496 0.737814 -1.556933 0.055177 0.438507
    34 -2.321934 0.000000 0.000000 -3.141407 -1.278083 3.195989
    35 -1.783664 0.000000 0.000000 -0.005450 -0.988226 0.010765
    36 -3.454484 1.074954 1.672241 -1.442942 0.073409 0.343852
    37 -1.681395 0.000000 0.000000 -3.131914 -1.554872 -3.199317
    38 -1.453233 0.000000 0.000000 -0.005082 -1.073906 0.008757
    39 4.122983 -31.680959 -7.486109 0.000000 1.570796 -1.570796
    40 0.000000 -1.327049 -1.400981 0.000000 0.000000 0.000000
    41 0.000000 -1.377890 1.137398 0.000000 0.000000 0.000000
    42 0.000019 -3.372524 2.134745 0.000000 0.000000 0.000000
    43 0.003241 2.390460 6.292288 0.000000 0.000000 0.000000
    44 0.000001 2.019331 0.839982 0.000000 0.000000 0.000000
    45 0.000001 1.295025 -5.751849 0.000000 0.000000 0.000000
  time 29
    0 -3.509934 17.684133 -9.398724 0.000000 -1.570451 0.000000
    1 0.455634 -10.314221 3.508091 0.000000 1.570451 0.000000
    2 0.000000 -0.000002 0.000000 -0.632074 -0.259787 1.446971
    3 -15.296548 0.000003 0.000000 -0.000002 0.000008 1.102662
    4 -15.182516 -0.000001 0.000000 0.597258 -0.181474 -0.208441
    5 -0.566658 -0.606841 1.196676 3.653155 0.088428 0.611863
    6 -2.182800 0.000000 0.000001 -0.024703 0.588610 -0.046994
    7 -1.526287 0.000000 -0.000001 0.005918 0.110356 -0.012382
    8 -3.492492 1.036439 1.112366 1.653966 0.087307 0.871269
    9 -2.307071 0.000000 0.000000 0.000001 1.291725 0.038787
    10 -1.686814 0.000000 0.000000 0.005103 1.241776 0.009538
    11 -3.609122 1.098669 0.208994 1.598458 0.034452 0.996850
    12 -2.423007 0.000001 0.000000 -0.000243 1.488481 -0.001832
    13 -1.790748 0.000000 0.000000 0.013723 1.123662 0.035527
    14 -3.562686 0.896649 -0.737443 1.583307 0.028160 0.842681
    15 -2.321936 -0.000002 0.000000 0.000006 1.374654 0.054492
    16 -1.783666 0.000000 0.000000 0.005447 1.319948 0.010757
    17 -3.508631 0.883018 -1.671875 1.511620 -0.060099 0.679033
    18 -1.681394 0.000000 0.000000 -0.009487 1.097936 -0.057916
    19 -1.453231 0.000000 0.000000 0.005081 1.143855 0.008753
    20 0.471261 1.006395 -9.141076 0.000000 1.570451 0.000000
    21 0.000000 0.000002 0.000000 -3.075705 0.049082 2.120863
    22 -15.296544 0.000001 0.000000 0.000001 -0.000008 1.204163
    23 -15.182513 0.000000 0.000000 -0.010282 0.374013 -0.608005
    24 -0.599358 -0.574776 -1.196574 -3.488496 -0.110029 0.239656
    25 -2.096807 0.000000 0.000001 0.021469 -0.332099 -0.039349
    26 -1.420397 0.000000 0.000000 -0.005920 -0.354828 -0.012283
    27 -3.430256 1.227120 -1.112012 -1.561841 -0.206951 -0.005413
    28 -2.307071 0.000001 0.000001 -0.000007 -0.661281 0.037765
    29 -1.686813 0.000001 0.000000 -0.005104 -1.012040 0.009090
    30 -3.543174 1.295721 -0.208629 -1.579515 0.079618 0.470435
    31 -2.423008 -0.000001 0.000001 3.141740 -1.408646 -3.143329
    32 -1.790750 -0.000002 0.000000 -0.013727 -1.036248 0.035533
    33 -3.507818 1.091496 0.737814 -1.556933 0.055177 0.438507
    34 -2.321934 0.000000 0.000000 -3.141407 -1.278083 3.195989
    35 -1.783664 0.000000 0.000000 -0.005450 -0.988226 0.010765
    36 -3.454484 1.074954 1.672241 -1.442942 0.073409 0.343852
    37 -1.681395 0.000000 0.000000 -3.131914 -1.554872 -3.199317
    38 -1.453233 0.000000 0.000000 -0.005082 -1.073906 0.008757
    39 4.122983 -31.680959 -7.486109 0.000000 1.570796 -1.570796
    40 0.000000 -1.327049 -1.400981 0.000000 0.000000 0.000000
    41 0.000000 -1.377890 1.137398 0.000000 0.000000 0.000000
    42 0.000019 -3.372524 2.134745 0.000000 0.000000 0.000000
    43 0.003241 2.390460 6.292288 0.000000 0.000000 0.000000
    44 0.000001 2.019331 0.839982 0.000000 0.000000 0.000000
    45 0.000001 1.295025 -5.751849 0.000000 0.000000 0.000000
  time 30
    0 -3.509934 17.684133 -9.398724 0.000000 -1.570451 0.000000
    1 0.455634 -10.314221 3.508091 0.000000 1.570451 0.000000
    2 0.000000 -0.000002 0.000000 -0.632074 -0.259787 1.446971
    3 -15.296548 0.000003 0.000000 -0.000002 0.000008 1.102662
    4 -15.182516 -0.000001 0.000000 0.597258 -0.181474 -0.208441
    5 -0.566658 -0.606841 1.196676 3.653155 0.088428 0.611863
    6 -2.182800 0.000000 0.000001 -0.024703 0.588610 -0.046994
    7 -1.526287 0.000000 -0.000001 0.005918 0.110356 -0.012382
    8 -3.492492 1.036439 1.112366 1.653966 0.087307 0.871269
    9 -2.307071 0.000000 0.000000 0.000001 1.291725 0.038787
    10 -1.686814 0.000000 0.000000 0.005103 1.241776 0.009538
    11 -3.609122 1.098669 0.208994 1.598458 0.034452 0.996850
    12 -2.423007 0.000001 0.000000 -0.000243 1.488481 -0.001832
    13 -1.790748 0.000000 0.000000 0.013723 1.123662 0.035527
    14 -3.562686 0.896649 -0.737443 1.583307 0.028160 0.842681
    15 -2.321936 -0.000002 0.000000 0.000006 1.374654 0.054492
    16 -1.783666 0.000000 0.000000 0.005447 1.319948 0.010757
    17 -3.508631 0.883018 -1.671875 1.511620 -0.060099 0.679033
    18 -1.681394 0.000000 0.000000 -0.009487 1.097936 -0.057916
    19 -1.453231 0.000000 0.000000 0.005081 1.143855 0.008753
    20 0.471261 1.006395 -9.141076 0.000000 1.570451 0.000000
    21 0.000000 0.000002 0.000000 -3.075705 0.049082 2.120863
    22 -15.296544 0.000001 0.000000 0.000001 -0.000008 1.204163
    23 -15.182513 0.000000 0.000000 -0.010282 0.374013 -0.608005
    24 -0.599358 -0.574776 -1.196574 -3.488496 -0.110029 0.239656
    25 -2.096807 0.000000 0.000001 0.021469 -0.332099 -0.039349
    26 -1.420397 0.000000 0.000000 -0.005920 -0.354828 -0.012283
    27 -3.430256 1.227120 -1.112012 -1.561841 -0.206951 -0.005413
    28 -2.307071 0.000001 0.000001 -0.000007 -0.661281 0.037765
    29 -1.686813 0.000001 0.000000 -0.005104 -1.012040 0.009090
    30 -3.543174 1.295721 -0.208629 -1.579515 0.079618 0.470435
    31 -2.423008 -0.000001 0.000001 3.141740 -1.408646 -3.143329
    32 -1.790750 -0.000002 0.000000 -0.013727 -1.036248 0.035533
    33 -3.507818 1.091496 0.737814 -1.556933 0.055177 0.438507
    34 -2.321934 0.000000 0.000000 -3.141407 -1.278083 3.195989
    35 -1.783664 0.000000 0.000000 -0.005450 -0.988226 0.010765
    36 -3.454484 1.074954 1.672241 -1.442942 0.073409 0.343852
    37 -1.681395 0.000000 0.000000 -3.131914 -1.554872 -3.199317
    38 -1.453233 0.000000 0.000000 -0.005082 -1.073906 0.008757
    39 4.122983 -31.680959 -7.486109 0.000000 1.570796 -1.570796
    40 0.000000 -1.327049 -1.400981 0.000000 0.000000 0.000000
    41 0.000000 -1.377890 1.137398 0.000000 0.000000 0.000000
    42 0.000019 -3.372524 2.134745 0.000000 0.000000 0.000000
    43 0.003241 2.390460 6.292288 0.000000 0.000000 0.000000
    44 0.000001 2.019331 0.839982 0.000000 0.000000 0.000000
    45 0.000001 1.295025 -5.751849 0.000000 0.000000 0.000000
  time 31
    0 -3.509934 17.684133 -9.398724 0.000000 -1.570451 0.000000
    1 0.455634 -10.314221 3.508091 0.000000 1.570451 0.000000
    2 0.000000 -0.000002 0.000000 -0.632074 -0.259787 1.446971
    3 -15.296548 0.000003 0.000000 -0.000002 0.000008 1.102662
    4 -15.182516 -0.000001 0.000000 0.597258 -0.181474 -0.208441
    5 -0.566658 -0.606841 1.196676 3.653155 0.088428 0.611863
    6 -2.182800 0.000000 0.000001 -0.024703 0.588610 -0.046994
    7 -1.526287 0.000000 -0.000001 0.005918 0.110356 -0.012382
    8 -3.492492 1.036439 1.112366 1.653966 0.087307 0.871269
    9 -2.307071 0.000000 0.000000 0.000001 1.291725 0.038787
    10 -1.686814 0.000000 0.000000 0.005103 1.241776 0.009538
    11 -3.609122 1.098669 0.208994 1.598458 0.034452 0.996850
    12 -2.423007 0.000001 0.000000 -0.000243 1.488481 -0.001832
    13 -1.790748 0.000000 0.000000 0.013723 1.123662 0.035527
    14 -3.562686 0.896649 -0.737443 1.583307 0.028160 0.842681
    15 -2.321936 -0.000002 0.000000 0.000006 1.374654 0.054492
    16 -1.783666 0.000000 0.000000 0.005447 1.319948 0.010757
    17 -3.508631 0.883018 -1.671875 1.511620 -0.060099 0.679033
    18 -1.681394 0.000000 0.000000 -0.009487 1.097936 -0.057916
    19 -1.453231 0.000000 0.000000 0.005081 1.143855 0.008753
    20 0.471261 1.006395 -9.141076 0.000000 1.570451 0.000000
    21 0.000000 0.000002 0.000000 -3.075705 0.049082 2.120863
    22 -15.296544 0.000001 0.000000 0.000001 -0.000008 1.204163
    23 -15.182513 0.000000 0.000000 -0.010282 0.374013 -0.608005
    24 -0.599358 -0.574776 -1.196574 -3.488496 -0.110029 0.239656
    25 -2.096807 0.000000 0.000001 0.021469 -0.332099 -0.039349
    26 -1.420397 0.000000 0.000000 -0.005920 -0.354814 -0.012283
    27 -3.430256 1.227120 -1.112012 -1.561841 -0.206951 -0.005413
    28 -2.307071 0.000001 0.000001 -0.000007 -0.661281 0.037765
    29 -1.686813 0.000001 0.000000 -0.005104 -1.012040 0.009090
    30 -3.543174 1.295721 -0.208629 -1.579515 0.079618 0.470435
    31 -2.423008 -0.000001 0.000001 3.141740 -1.408646 -3.143329
    32 -1.790750 -0.000002 0.000000 -0.013727 -1.036248 0.035533
    33 -3.507818 1.091496 0.737814 -1.556933 0.055177 0.438507
    34 -2.321934 0.000000 0.000000 -3.141407 -1.278083 3.195989
    35 -1.783664 0.000000 0.000000 -0.005450 -0.988226 0.010765
    36 -3.454484 1.074954 1.672241 -1.442942 0.073409 0.343852
    37 -1.681395 0.000000 0.000000 -3.131914 -1.554872 -3.199317
    38 -1.453233 0.000000 0.000000 -0.005082 -1.073906 0.008757
    39 4.122983 -31.680959 -7.486109 0.000000 1.570796 -1.570796
    40 0.000000 -1.327049 -1.400981 0.000000 0.000000 0.000000
    41 0.000000 -1.377890 1.137398 0.000000 0.000000 0.000000
    42 0.000019 -3.372524 2.134745 0.000000 0.000000 0.000000
    43 0.003241 2.390460 6.292288 0.000000 0.000000 0.000000
    44 0.000001 2.019331 0.839982 0.000000 0.000000 0.000000
    45 0.000001 1.295025 -5.751849 0.000000 0.000000 0.000000
end
