// Created by Crowbar 0.29.0.0
version 1
nodes
  0 "base" -1
  1 "L arm base" 0
  2 "Bone L uparm" 1
  3 "Bone L lowarm" 2
  4 "Bone L hand" 3
  5 "Bone L thumbbase" 4
  6 "Bone L thumb mid" 5
  7 "Bone L thumb tip" 6
  8 "Bone L index base" 4
  9 "Bone L index mid" 8
  10 "Bone L index tip" 9
  11 "Bone L mid base" 4
  12 "Bone L mid mid" 11
  13 "Bone L mid tip" 12
  14 "Bone L ring base" 4
  15 "Bone L ring mid" 14
  16 "Bone L ring tip" 15
  17 "Bone L pinky base" 4
  18 "Bone L pinky mid" 17
  19 "Bone L pinky tip" 18
  20 "R arm base" 0
  21 "Bone R uparm" 20
  22 "Bone R lowarm" 21
  23 "Bone R hand" 22
  24 "Bone R thumbbase" 23
  25 "Bone R thumb mid" 24
  26 "Bone R thumb tip" 25
  27 "Bone R index base" 23
  28 "Bone R index mid" 27
  29 "Bone R index tip" 28
  30 "Bone R mid base" 23
  31 "Bone R mid mid" 30
  32 "Bone R mid tip" 31
  33 "Bone R ring base" 23
  34 "Bone R ring mid" 33
  35 "Bone R ring tip" 34
  36 "Bone R pinky base" 23
  37 "Bone R pinky mid" 36
  38 "Bone R pinky tip" 37
  39 "mp5_body" 0
  40 "mp5_trig" 39
  41 "mp5_magrel" 39
  42 "mp5_mag" 39
  43 "mp5_CH" 39
  44 "mp5_eject" 39
  45 "mp5_loop" 39
end
skeleton
  time 0
    0 -3.509934 17.684133 -9.398724 0.000000 -1.570451 0.000000
    1 0.455634 -10.314221 3.508091 0.000000 1.570451 0.000000
    2 0.000000 -0.000002 0.000000 -0.632074 -0.259787 1.446971
    3 -15.296548 0.000003 0.000000 -0.000002 0.000008 1.102662
    4 -15.182516 -0.000001 0.000000 0.597258 -0.181474 -0.208441
    5 -0.566658 -0.606841 1.196676 3.653155 0.088428 0.611863
    6 -2.182800 0.000000 0.000001 -0.024703 0.588610 -0.046994
    7 -1.526287 0.000000 -0.000001 0.005918 0.110356 -0.012382
    8 -3.492492 1.036439 1.112366 1.653966 0.087307 0.871269
    9 -2.307071 0.000000 0.000000 0.000001 1.291725 0.038787
    10 -1.686814 0.000000 0.000000 0.005103 1.241776 0.009538
    11 -3.609122 1.098669 0.208994 1.598458 0.034452 0.996850
    12 -2.423007 0.000001 0.000000 -0.000243 1.488481 -0.001832
    13 -1.790748 0.000000 0.000000 0.013723 1.123662 0.035527
    14 -3.562686 0.896649 -0.737443 1.583307 0.028160 0.842681
    15 -2.321936 -0.000002 0.000000 0.000006 1.374654 0.054492
    16 -1.783666 0.000000 0.000000 0.005447 1.319948 0.010757
    17 -3.508631 0.883018 -1.671875 1.511620 -0.060099 0.679033
    18 -1.681394 0.000000 0.000000 -0.009487 1.097936 -0.057916
    19 -1.453231 0.000000 0.000000 0.005081 1.143855 0.008753
    20 0.471261 1.006395 -9.141076 0.000000 1.570451 0.000000
    21 0.000000 0.000002 0.000000 -3.075705 0.049082 2.120863
    22 -15.296544 0.000001 0.000000 0.000001 -0.000008 1.204163
    23 -15.182513 0.000000 0.000000 -0.010282 0.374013 -0.608005
    24 -0.599358 -0.574776 -1.196574 -3.488496 -0.110029 0.239656
    25 -2.096807 0.000000 0.000001 0.021469 -0.332099 -0.039349
    26 -1.420397 0.000000 0.000000 -0.005920 -0.354828 -0.012283
    27 -3.430256 1.227120 -1.112012 -1.587476 -0.206496 0.119379
    28 -2.307071 0.000001 0.000001 -0.000007 -1.411708 0.037765
    29 -1.686813 0.000001 0.000000 -0.005104 -1.378622 0.009090
    30 -3.543174 1.295721 -0.208629 -1.579515 0.079618 0.470435
    31 -2.423008 -0.000001 0.000001 3.141740 -1.408646 -3.143329
    32 -1.790750 -0.000002 0.000000 -0.013727 -1.036248 0.035533
    33 -3.507818 1.091496 0.737814 -1.556933 0.055177 0.438507
    34 -2.321934 0.000000 0.000000 -3.141407 -1.278083 3.195989
    35 -1.783664 0.000000 0.000000 -0.005450 -0.988226 0.010765
    36 -3.454484 1.074954 1.672241 -1.442942 0.073409 0.343852
    37 -1.681395 0.000000 0.000000 -3.131914 -1.554872 -3.199317
    38 -1.453233 0.000000 0.000000 -0.005082 -1.073906 0.008757
    39 4.122983 -31.680959 -7.486109 0.000000 1.570796 -1.570796
    40 0.000000 -1.327049 -1.400981 0.628275 0.000000 0.000000
    41 0.000000 -1.377890 1.137398 0.000000 0.000000 0.000000
    42 0.000019 -3.372524 2.134745 0.000000 0.000000 0.000000
    43 0.003241 2.390460 6.292288 0.000000 0.000000 0.000000
    44 0.000001 2.019331 0.839982 0.000000 0.000000 0.000000
    45 0.000001 1.295025 -5.751849 0.000000 0.000000 0.000000
  time 1
    0 -3.509934 17.684133 -9.398724 0.000000 -1.570451 0.000000
    1 0.455634 -10.314221 3.508091 0.000000 1.570451 0.000000
    2 0.000000 -0.000002 0.000000 -0.607618 -0.312104 1.389714
    3 -15.296548 0.000003 0.000000 -0.000002 0.000008 1.285257
    4 -15.182516 -0.000001 0.000000 0.600858 -0.168473 -0.316595
    5 -0.566658 -0.606841 1.196676 3.653155 0.088428 0.611863
    6 -2.182800 0.000000 0.000001 -0.024703 0.588610 -0.046994
    7 -1.526287 0.000000 -0.000001 0.005918 0.110356 -0.012382
    8 -3.492492 1.036439 1.112366 1.653966 0.087307 0.871269
    9 -2.307071 0.000000 0.000000 0.000001 1.291725 0.038787
    10 -1.686814 0.000000 0.000000 0.005103 1.241776 0.009538
    11 -3.609122 1.098669 0.208994 1.598458 0.034452 0.996850
    12 -2.423007 0.000001 0.000000 -0.000243 1.488481 -0.001832
    13 -1.790748 0.000000 0.000000 0.013723 1.123662 0.035527
    14 -3.562686 0.896649 -0.737443 1.583307 0.028160 0.842725
    15 -2.321936 -0.000002 0.000000 0.000006 1.374654 0.054492
    16 -1.783666 0.000000 0.000000 0.005447 1.319948 0.010757
    17 -3.508631 0.883018 -1.671875 1.511620 -0.060099 0.679033
    18 -1.681394 0.000000 0.000000 -0.009487 1.097936 -0.057916
    19 -1.453231 0.000000 0.000000 0.005081 1.143855 0.008753
    20 0.471261 1.006395 -9.141076 0.000000 1.570451 0.000000
    21 0.000000 0.000002 0.000000 -3.072373 0.042886 2.206390
    22 -15.296544 0.000001 0.000000 0.000001 -0.000008 1.383419
    23 -15.182513 0.000000 0.000000 -0.010015 0.373304 -0.701586
    24 -0.599358 -0.574776 -1.196574 -3.488496 -0.110029 0.239656
    25 -2.096807 0.000000 0.000001 0.021469 -0.332099 -0.039349
    26 -1.420397 0.000000 0.000000 -0.005920 -0.354828 -0.012283
    27 -3.430256 1.227120 -1.112012 -1.587476 -0.206496 0.119379
    28 -2.307071 0.000001 0.000001 -0.000007 -1.411708 0.037765
    29 -1.686813 0.000001 0.000000 -0.005104 -1.378622 0.009090
    30 -3.543174 1.295721 -0.208629 -1.579515 0.079618 0.470435
    31 -2.423008 -0.000001 0.000001 3.141644 -1.408646 3.139665
    32 -1.790750 -0.000002 0.000000 -0.013727 -1.036248 0.035533
    33 -3.507818 1.091496 0.737814 -1.556933 0.055177 0.438507
    34 -2.321934 0.000000 0.000000 -3.141407 -1.278083 3.195893
    35 -1.783664 0.000000 0.000000 -0.005450 -0.988226 0.010765
    36 -3.454484 1.074954 1.672241 -1.442942 0.073409 0.343852
    37 -1.681395 0.000000 0.000000 3.150984 -1.554872 3.083581
    38 -1.453233 0.000000 0.000000 -0.005082 -1.073906 0.008757
    39 3.974541 -30.040284 -7.486109 0.000000 1.570796 -1.570796
    40 0.000000 -1.327049 -1.400981 0.638326 0.000000 0.000000
    41 0.000000 -1.377890 1.137398 0.000000 0.000000 0.000000
    42 0.000019 -3.372524 2.134745 0.000000 0.000000 0.000000
    43 0.003241 2.390460 6.292288 0.000000 0.000000 0.000000
    44 0.000001 2.019331 -0.921791 0.000000 0.000000 0.000000
    45 0.000001 1.295025 -5.751849 -0.209387 0.000000 0.000000
  time 2
    0 -3.509934 17.684133 -9.398724 0.000000 -1.570451 0.000000
    1 0.455634 -10.314221 3.508091 0.000000 1.570451 0.000000
    2 0.000000 -0.000002 0.000000 -0.607806 -0.313089 1.383965
    3 -15.296548 0.000003 0.000000 -0.000002 0.000008 1.308551
    4 -15.182516 -0.000001 0.000000 0.607502 -0.163606 -0.327775
    5 -0.566658 -0.606841 1.196676 3.653155 0.088428 0.611863
    6 -2.182800 0.000000 0.000001 -0.024703 0.588610 -0.046994
    7 -1.526287 0.000000 -0.000001 0.005918 0.110356 -0.012382
    8 -3.492492 1.036439 1.112366 1.653966 0.087307 0.871269
    9 -2.307071 0.000000 0.000000 0.000001 1.291725 0.038787
    10 -1.686814 0.000000 0.000000 0.005103 1.241776 0.009538
    11 -3.609122 1.098669 0.208994 1.598458 0.034452 0.996850
    12 -2.423007 0.000001 0.000000 -0.000243 1.488481 -0.001832
    13 -1.790748 0.000000 0.000000 0.013723 1.123662 0.035527
    14 -3.562686 0.896649 -0.737443 1.583307 0.028160 0.842681
    15 -2.321936 -0.000002 0.000000 0.000006 1.374654 0.054492
    16 -1.783666 0.000000 0.000000 0.005447 1.319948 0.010757
    17 -3.508631 0.883018 -1.671875 1.511620 -0.060099 0.679033
    18 -1.681394 0.000000 0.000000 -0.009487 1.097936 -0.057916
    19 -1.453231 0.000000 0.000000 0.005081 1.143855 0.008753
    20 0.471261 1.006395 -9.141076 0.000000 1.570451 0.000000
    21 0.000000 0.000002 0.000000 -3.071523 0.042287 2.217879
    22 -15.296544 0.000001 0.000000 0.000001 -0.000008 1.407626
    23 -15.182513 0.000000 0.000000 -0.010950 0.360279 -0.714203
    24 -0.599358 -0.574776 -1.196574 -3.488496 -0.110029 0.239656
    25 -2.096807 0.000000 0.000001 0.021469 -0.332099 -0.039349
    26 -1.420397 0.000000 0.000000 -0.005920 -0.354828 -0.012283
    27 -3.430256 1.227120 -1.112012 -1.587476 -0.206496 0.119379
    28 -2.307071 0.000001 0.000001 -0.000007 -1.411708 0.037765
    29 -1.686813 0.000001 0.000000 -0.005104 -1.378622 0.009090
    30 -3.543174 1.295721 -0.208629 -1.579515 0.079618 0.470435
    31 -2.423008 -0.000001 0.000001 3.141740 -1.408646 -3.143329
    32 -1.790750 -0.000002 0.000000 -0.013727 -1.036248 0.035533
    33 -3.507818 1.091496 0.737814 -1.556933 0.055177 0.438507
    34 -2.321934 0.000000 0.000000 -3.141407 -1.278083 3.195989
    35 -1.783664 0.000000 0.000000 -0.005450 -0.988226 0.010765
    36 -3.454484 1.074954 1.672241 -1.442942 0.073409 0.343852
    37 -1.681395 0.000000 0.000000 3.150984 -1.554872 3.083581
    38 -1.453233 0.000000 0.000000 -0.005082 -1.073906 0.008757
    39 4.072201 -29.778557 -7.486109 0.000000 1.570796 -1.557413
    40 0.000000 -1.327049 -1.400981 0.658449 0.000000 0.000000
    41 0.000000 -1.377890 1.137398 0.000000 0.000000 0.000000
    42 0.000019 -3.372524 2.134745 0.000000 0.000000 0.000000
    43 0.003241 2.390460 6.292288 0.000000 0.000000 0.000000
    44 0.000001 2.019331 0.839982 0.000000 0.000000 0.000000
    45 0.000001 1.295025 -5.751849 1.044827 0.000000 0.000000
  time 3
    0 -3.509934 17.684133 -9.398724 0.000000 -1.570451 0.000000
    1 0.455634 -10.314221 3.508091 0.000000 1.570451 0.000000
    2 0.000000 -0.000002 0.000000 -0.612660 -0.305447 1.386840
    3 -15.296548 0.000003 0.000000 -0.000002 0.000008 1.304162
    4 -15.182516 -0.000001 0.000000 0.614231 -0.160704 -0.321767
    5 -0.566658 -0.606841 1.196676 3.653155 0.088428 0.611863
    6 -2.182800 0.000000 0.000001 -0.024703 0.588610 -0.046994
    7 -1.526287 0.000000 -0.000001 0.005918 0.110356 -0.012382
    8 -3.492492 1.036439 1.112366 1.653966 0.087307 0.871269
    9 -2.307071 0.000000 0.000000 0.000013 1.291725 0.038787
    10 -1.686814 0.000000 0.000000 0.005103 1.241776 0.009538
    11 -3.609122 1.098669 0.208994 1.598458 0.034452 0.996850
    12 -2.423007 0.000001 0.000000 -0.000243 1.488481 -0.001832
    13 -1.790748 0.000000 0.000000 0.013723 1.123662 0.035527
    14 -3.562686 0.896649 -0.737443 1.583307 0.028160 0.842681
    15 -2.321936 -0.000002 0.000000 0.000006 1.374654 0.054492
    16 -1.783666 0.000000 0.000000 0.005447 1.319948 0.010757
    17 -3.508631 0.883018 -1.671875 1.511620 -0.060099 0.679033
    18 -1.681394 0.000000 0.000000 -0.009487 1.097936 -0.057916
    19 -1.453231 0.000000 0.000000 0.005081 1.143855 0.008753
    20 0.471261 1.006395 -9.141076 0.000000 1.570451 0.000000
    21 0.000000 0.000002 0.000000 -3.071019 0.042814 2.216352
    22 -15.296544 0.000001 0.000000 0.000001 -0.000008 1.404330
    23 -15.182513 0.000000 0.000000 -0.011886 0.345644 -0.712369
    24 -0.599358 -0.574776 -1.196574 -3.488496 -0.110029 0.239656
    25 -2.096807 0.000000 0.000001 0.021469 -0.332099 -0.039349
    26 -1.420397 0.000000 0.000000 -0.005920 -0.354828 -0.012283
    27 -3.430256 1.227120 -1.112012 -1.587476 -0.206496 0.119379
    28 -2.307071 0.000001 0.000001 -0.000007 -1.411708 0.037765
    29 -1.686813 0.000001 0.000000 -0.005104 -1.378622 0.009090
    30 -3.543174 1.295721 -0.208629 -1.579515 0.079618 0.470435
    31 -2.423008 -0.000001 0.000001 3.141740 -1.408646 -3.143329
    32 -1.790750 -0.000002 0.000000 -0.013727 -1.036248 0.035533
    33 -3.507818 1.091496 0.737814 -1.556933 0.055177 0.438507
    34 -2.321934 0.000000 0.000000 -3.141407 -1.278083 3.195989
    35 -1.783664 0.000000 0.000000 -0.005450 -0.988226 0.010765
    36 -3.454484 1.074954 1.672241 -1.442942 0.073409 0.343852
    37 -1.681395 0.000000 0.000000 -3.132106 -1.554872 3.083581
    38 -1.453233 0.000000 0.000000 -0.005082 -1.073906 0.008757
    39 4.208924 -29.778557 -7.486109 0.000000 1.570796 -1.542092
    40 0.000000 -1.327049 -1.400981 0.673495 0.000000 0.000000
    41 0.000000 -1.377890 1.137398 0.000000 0.000000 0.000000
    42 0.000019 -3.372524 2.134745 0.000000 0.000000 0.000000
    43 0.003241 2.390460 6.292288 0.000000 0.000000 0.000000
    44 0.000001 2.019331 0.839982 0.000000 0.000000 0.000000
    45 0.000001 1.295025 -5.751849 1.972050 0.000000 0.000000
  time 4
    0 -3.509934 17.684133 -9.398724 0.000000 -1.570451 0.000000
    1 0.455634 -10.314221 3.508091 0.000000 1.570451 0.000000
    2 0.000000 -0.000002 0.000000 -0.616347 -0.299175 1.390487
    3 -15.296548 0.000003 0.000000 -0.000002 0.000008 1.294951
    4 -15.182516 -0.000001 0.000000 0.616460 -0.161085 -0.315609
    5 -0.566658 -0.606841 1.196676 3.653155 0.088428 0.611863
    6 -2.182800 0.000000 0.000001 -0.024703 0.588610 -0.046994
    7 -1.526287 0.000000 -0.000001 0.005918 0.110356 -0.012382
    8 -3.492492 1.036439 1.112366 1.653966 0.087307 0.871269
    9 -2.307071 0.000000 0.000000 0.000013 1.291725 0.038787
    10 -1.686814 0.000000 0.000000 0.005103 1.241776 0.009538
    11 -3.609122 1.098669 0.208994 1.598458 0.034452 0.996850
    12 -2.423007 0.000001 0.000000 -0.000243 1.488481 -0.001832
    13 -1.790748 0.000000 0.000000 0.013723 1.123662 0.035527
    14 -3.562686 0.896649 -0.737443 1.583307 0.028160 0.842681
    15 -2.321936 -0.000002 0.000000 0.000006 1.374654 0.054492
    16 -1.783666 0.000000 0.000000 0.005447 1.319948 0.010757
    17 -3.508631 0.883018 -1.671875 1.511620 -0.060099 0.679033
    18 -1.681394 0.000000 0.000000 -0.009487 1.097936 -0.057916
    19 -1.453231 0.000000 0.000000 0.005081 1.143855 0.008753
    20 0.471261 1.006395 -9.141076 0.000000 1.570451 0.000000
    21 0.000000 0.000002 0.000000 -3.069677 0.044012 2.212271
    22 -15.296544 0.000001 0.000000 0.000001 -0.000008 1.395787
    23 -15.182513 0.000000 0.000000 -0.012754 0.341200 -0.707994
    24 -0.599358 -0.574776 -1.196574 -3.488496 -0.110029 0.239656
    25 -2.096807 0.000000 0.000001 0.021469 -0.332099 -0.039349
    26 -1.420397 0.000000 0.000000 -0.005920 -0.354828 -0.012283
    27 -3.430256 1.227120 -1.112012 -1.587476 -0.206496 0.119379
    28 -2.307071 0.000001 0.000001 -0.000007 -1.411708 0.037765
    29 -1.686813 0.000001 0.000000 -0.005104 -1.378660 0.009090
    30 -3.543174 1.295721 -0.208629 -1.579515 0.079618 0.470435
    31 -2.423008 -0.000001 0.000001 3.141740 -1.408646 -3.143329
    32 -1.790750 -0.000002 0.000000 -0.013727 -1.036248 0.035533
    33 -3.507818 1.091496 0.737814 -1.556933 0.055177 0.438507
    34 -2.321934 0.000000 0.000000 -3.141407 -1.278083 3.195989
    35 -1.783664 0.000000 0.000000 -0.005450 -0.988226 0.010765
    36 -3.454484 1.074954 1.672241 -1.442942 0.073409 0.343852
    37 -1.681395 0.000000 0.000000 -3.132010 -1.554872 -3.199413
    38 -1.453233 0.000000 0.000000 -0.005082 -1.073906 0.008757
    39 4.306583 -29.848871 -7.486109 0.000000 1.570796 -1.536001
    40 0.000000 -1.327049 -1.400981 0.668521 0.000000 0.000000
    41 0.000000 -1.377890 1.137398 0.000000 0.000000 0.000000
    42 0.000019 -3.372524 2.134745 0.000000 0.000000 0.000000
    43 0.003241 2.390460 6.292288 0.000000 0.000000 0.000000
    44 0.000001 2.019331 0.839982 0.000000 0.000000 0.000000
    45 0.000001 1.295025 -5.751849 1.455174 0.000000 0.000000
  time 5
    0 -3.509934 17.684133 -9.398724 0.000000 -1.570451 0.000000
    1 0.455634 -10.314221 3.508091 0.000000 1.570451 0.000000
    2 0.000000 -0.000002 0.000000 -0.617159 -0.297591 1.392104
    3 -15.296548 0.000003 0.000000 -0.000002 0.000008 1.289645
    4 -15.182516 -0.000001 0.000000 0.612774 -0.165277 -0.315758
    5 -0.566658 -0.606841 1.196676 3.653155 0.088428 0.611863
    6 -2.182800 0.000000 0.000001 -0.024703 0.588610 -0.046994
    7 -1.526287 0.000000 -0.000001 0.005918 0.110356 -0.012382
    8 -3.492492 1.036439 1.112366 1.653966 0.087307 0.871243
    9 -2.307071 0.000000 0.000000 0.000013 1.291725 0.038787
    10 -1.686814 0.000000 0.000000 0.005103 1.241776 0.009538
    11 -3.609122 1.098669 0.208994 1.598458 0.034452 0.996850
    12 -2.423007 0.000001 0.000000 -0.000243 1.488481 -0.001832
    13 -1.790748 0.000000 0.000000 0.013723 1.123662 0.035527
    14 -3.562686 0.896649 -0.737443 1.583307 0.028160 0.842681
    15 -2.321936 -0.000002 0.000000 0.000006 1.374694 0.054492
    16 -1.783666 0.000000 0.000000 0.005447 1.319948 0.010757
    17 -3.508631 0.883018 -1.671875 1.511620 -0.060099 0.679033
    18 -1.681394 0.000000 0.000000 -0.009487 1.097936 -0.057916
    19 -1.453231 0.000000 0.000000 0.005081 1.143855 0.008753
    20 0.471261 1.006395 -9.141076 0.000000 1.570451 0.000000
    21 0.000000 0.000002 0.000000 -3.066992 0.045978 2.209650
    22 -15.296544 0.000001 0.000000 0.000001 -0.000008 1.390213
    23 -15.182513 0.000000 0.000000 -0.013622 0.350715 -0.705696
    24 -0.599358 -0.574776 -1.196574 -3.488496 -0.110029 0.239656
    25 -2.096807 0.000000 0.000001 0.021469 -0.332099 -0.039349
    26 -1.420397 0.000000 0.000000 -0.005920 -0.354828 -0.012283
    27 -3.430256 1.227120 -1.112012 -1.587476 -0.206496 0.119379
    28 -2.307071 0.000001 0.000001 -0.000007 -1.411708 0.037765
    29 -1.686813 0.000001 0.000000 -0.005104 -1.378622 0.009090
    30 -3.543174 1.295721 -0.208629 -1.579515 0.079618 0.470435
    31 -2.423008 -0.000001 0.000001 3.141740 -1.408646 -3.143233
    32 -1.790750 -0.000002 0.000000 -0.013727 -1.036248 0.035533
    33 -3.507818 1.091496 0.737814 -1.556933 0.055177 0.438507
    34 -2.321934 0.000000 0.000000 -3.141407 -1.278083 3.195989
    35 -1.783664 0.000000 0.000000 -0.005450 -0.988226 0.010765
    36 -3.454484 1.074954 1.672241 -1.442942 0.073409 0.343852
    37 -1.681395 0.000000 0.000000 -3.131914 -1.554872 -3.199317
    38 -1.453233 0.000000 0.000000 -0.005082 -1.073906 0.008757
    39 4.326115 -29.911373 -7.486109 0.000000 1.570796 -1.542554
    40 0.000000 -1.327049 -1.400981 0.628275 0.000000 0.000000
    41 0.000000 -1.377890 1.137398 0.000000 0.000000 0.000000
    42 0.000019 -3.372524 2.134745 0.000000 0.000000 0.000000
    43 0.003241 2.390460 6.292288 0.000000 0.000000 0.000000
    44 0.000001 2.019331 0.839982 0.000000 0.000000 0.000000
    45 0.000001 1.295025 -5.751849 0.455065 0.000000 0.000000
  time 6
    0 -3.509934 17.684133 -9.398724 0.000000 -1.570451 0.000000
    1 0.455634 -10.314221 3.508091 0.000000 1.570451 0.000000
    2 0.000000 -0.000002 0.000000 -0.617284 -0.296927 1.393972
    3 -15.296548 0.000003 0.000000 -0.000002 0.000008 1.282266
    4 -15.182516 -0.000001 0.000000 0.606216 -0.171712 -0.316655
    5 -0.566658 -0.606841 1.196676 3.653155 0.088428 0.611863
    6 -2.182800 0.000000 0.000001 -0.024703 0.588610 -0.046994
    7 -1.526287 0.000000 -0.000001 0.005918 0.110356 -0.012382
    8 -3.492492 1.036439 1.112366 1.653966 0.087307 0.871269
    9 -2.307071 0.000000 0.000000 0.000001 1.291725 0.038787
    10 -1.686814 0.000000 0.000000 0.005103 1.241776 0.009538
    11 -3.609122 1.098669 0.208994 1.598458 0.034452 0.996850
    12 -2.423007 0.000001 0.000000 -0.000243 1.488481 -0.001832
    13 -1.790748 0.000000 0.000000 0.013723 1.123662 0.035527
    14 -3.562686 0.896649 -0.737443 1.583307 0.028160 0.842681
    15 -2.321936 -0.000002 0.000000 0.000006 1.374654 0.054492
    16 -1.783666 0.000000 0.000000 0.005447 1.319948 0.010757
    17 -3.508631 0.883018 -1.671875 1.511620 -0.060099 0.679033
    18 -1.681394 0.000000 0.000000 -0.009487 1.097936 -0.057916
    19 -1.453231 0.000000 0.000000 0.005081 1.143855 0.008753
    20 0.471261 1.006395 -9.141076 0.000000 1.570451 0.000000
    21 0.000000 0.000002 0.000000 -3.063589 0.048555 2.205866
    22 -15.296544 0.000001 0.000000 0.000001 -0.000008 1.382076
    23 -15.182513 0.000000 0.000000 -0.014357 0.367041 -0.702227
    24 -0.599358 -0.574776 -1.196574 -3.488496 -0.110029 0.239656
    25 -2.096807 0.000000 0.000001 0.021469 -0.332099 -0.039349
    26 -1.420397 0.000000 0.000000 -0.005920 -0.354828 -0.012283
    27 -3.430256 1.227120 -1.112012 -1.584672 -0.206556 0.105749
    28 -2.307071 0.000001 0.000001 -0.000007 -1.329702 0.037765
    29 -1.686813 0.000001 0.000000 -0.005104 -1.338585 0.009090
    30 -3.543174 1.295721 -0.208629 -1.579515 0.079618 0.470435
    31 -2.423008 -0.000001 0.000001 3.141740 -1.408646 3.139665
    32 -1.790750 -0.000002 0.000000 -0.013727 -1.036248 0.035533
    33 -3.507818 1.091496 0.737814 -1.556933 0.055177 0.438507
    34 -2.321934 0.000000 0.000000 -3.141407 -1.278083 3.195893
    35 -1.783664 0.000000 0.000000 -0.005450 -0.988226 0.010765
    36 -3.454484 1.074954 1.672241 -1.442942 0.073409 0.343852
    37 -1.681395 0.000000 0.000000 3.150984 -1.554872 3.083485
    38 -1.453233 0.000000 0.000000 -0.005082 -1.073906 0.008757
    39 4.337834 -30.001220 -7.486109 0.000000 1.570796 -1.554644
    40 0.000000 -1.327049 -1.400981 0.542829 0.000000 0.000000
    41 0.000000 -1.377890 1.137398 0.000000 0.000000 0.000000
    42 0.000019 -3.372524 2.134745 0.000000 0.000000 0.000000
    43 0.003241 2.390460 6.292288 0.000000 0.000000 0.000000
    44 0.000001 2.019331 0.839982 0.000000 0.000000 0.000000
    45 0.000001 1.295025 -5.751849 -0.191873 0.000000 0.000000
  time 7
    0 -3.509934 17.684133 -9.398724 0.000000 -1.570451 0.000000
    1 0.455634 -10.314221 3.508091 0.000000 1.570451 0.000000
    2 0.000000 -0.000002 0.000000 -0.617180 -0.296542 1.396182
    3 -15.296548 0.000003 0.000000 -0.000002 0.000008 1.273344
    4 -15.182516 -0.000001 0.000000 0.598715 -0.178909 -0.317133
    5 -0.566658 -0.606841 1.196676 3.653155 0.088428 0.611863
    6 -2.182800 0.000000 0.000001 -0.024703 0.588610 -0.046994
    7 -1.526287 0.000000 -0.000001 0.005918 0.110356 -0.012382
    8 -3.492492 1.036439 1.112366 1.653966 0.087307 0.871269
    9 -2.307071 0.000000 0.000000 0.000001 1.291725 0.038787
    10 -1.686814 0.000000 0.000000 0.005103 1.241776 0.009538
    11 -3.609122 1.098669 0.208994 1.598458 0.034452 0.996850
    12 -2.423007 0.000001 0.000000 -0.000243 1.488481 -0.001832
    13 -1.790748 0.000000 0.000000 0.013723 1.123662 0.035527
    14 -3.562686 0.896649 -0.737443 1.583307 0.028160 0.842725
    15 -2.321936 -0.000002 0.000000 0.000006 1.374654 0.054492
    16 -1.783666 0.000000 0.000000 0.005447 1.319948 0.010757
    17 -3.508631 0.883018 -1.671875 1.511620 -0.060099 0.679033
    18 -1.681394 0.000000 0.000000 -0.009487 1.097936 -0.057916
    19 -1.453231 0.000000 0.000000 0.005081 1.143855 0.008753
    20 0.471261 1.006395 -9.141076 0.000000 1.570451 0.000000
    21 0.000000 0.000002 0.000000 -3.060209 0.051287 2.201102
    22 -15.296544 0.000001 0.000000 0.000001 -0.000008 1.371946
    23 -15.182513 0.000000 0.000000 -0.015226 0.385444 -0.697874
    24 -0.599358 -0.574776 -1.196574 -3.488496 -0.110029 0.239656
    25 -2.096807 0.000000 0.000001 0.021469 -0.332099 -0.039349
    26 -1.420397 0.000000 0.000000 -0.005920 -0.354828 -0.012283
    27 -3.430256 1.227120 -1.112012 -1.579399 -0.206627 0.079986
    28 -2.307071 0.000001 0.000001 -0.000007 -1.174915 0.037765
    29 -1.686813 0.000001 0.000000 -0.005104 -1.262960 0.009090
    30 -3.543174 1.295721 -0.208629 -1.579515 0.079618 0.470435
    31 -2.423008 -0.000001 0.000001 3.141644 -1.408646 3.139665
    32 -1.790750 -0.000002 0.000000 -0.013727 -1.036248 0.035533
    33 -3.507818 1.091496 0.737814 -1.556933 0.055177 0.438507
    34 -2.321934 0.000000 0.000000 -3.141407 -1.278083 3.195893
    35 -1.783664 0.000000 0.000000 -0.005450 -0.988226 0.010765
    36 -3.454484 1.074954 1.672241 -1.442942 0.073409 0.343852
    37 -1.681395 0.000000 0.000000 3.150888 -1.554872 3.083485
    38 -1.453233 0.000000 0.000000 -0.005082 -1.073906 0.008757
    39 4.330021 -30.114505 -7.486109 0.000000 1.570796 -1.569042
    40 0.000000 -1.327049 -1.400981 0.422194 0.000000 0.000000
    41 0.000000 -1.377890 1.137398 0.000000 0.000000 0.000000
    42 0.000019 -3.372524 2.134745 0.000000 0.000000 0.000000
    43 0.003241 2.390460 6.292288 0.000000 0.000000 0.000000
    44 0.000001 2.019331 0.839982 0.000000 0.000000 0.000000
    45 0.000001 1.295025 -5.751849 -0.171349 0.000000 0.000000
  time 8
    0 -3.509934 17.684133 -9.398724 0.000000 -1.570451 0.000000
    1 0.455634 -10.314221 3.508091 0.000000 1.570451 0.000000
    2 0.000000 -0.000002 0.000000 -0.617284 -0.295771 1.398697
    3 -15.296548 0.000003 0.000000 -0.000002 0.000008 1.263554
    4 -15.182516 -0.000001 0.000000 0.592157 -0.185226 -0.316207
    5 -0.566658 -0.606841 1.196676 3.653155 0.088428 0.611863
    6 -2.182800 0.000000 0.000001 -0.024703 0.588610 -0.046994
    7 -1.526287 0.000000 -0.000001 0.005918 0.110356 -0.012382
    8 -3.492492 1.036439 1.112366 1.653966 0.087307 0.871269
    9 -2.307071 0.000000 0.000000 0.000001 1.291725 0.038787
    10 -1.686814 0.000000 0.000000 0.005103 1.241776 0.009538
    11 -3.609122 1.098669 0.208994 1.598458 0.034452 0.996850
    12 -2.423007 0.000001 0.000000 -0.000243 1.488481 -0.001832
    13 -1.790748 0.000000 0.000000 0.013723 1.123662 0.035527
    14 -3.562686 0.896649 -0.737443 1.583307 0.028160 0.842725
    15 -2.321936 -0.000002 0.000000 0.000006 1.374654 0.054492
    16 -1.783666 0.000000 0.000000 0.005447 1.319948 0.010757
    17 -3.508631 0.883018 -1.671875 1.511620 -0.060099 0.679033
    18 -1.681394 0.000000 0.000000 -0.009487 1.097936 -0.057916
    19 -1.453231 0.000000 0.000000 0.005081 1.143855 0.008753
    20 0.471261 1.006395 -9.141076 0.000000 1.570451 0.000000
    21 0.000000 0.000002 0.000000 -3.057572 0.053648 2.195904
    22 -15.296544 0.000001 0.000000 0.000001 -0.000008 1.360961
    23 -15.182513 0.000000 0.000000 -0.015693 0.401239 -0.692880
    24 -0.599358 -0.574776 -1.196574 -3.488496 -0.110029 0.239656
    25 -2.096807 0.000000 0.000001 0.021469 -0.332099 -0.039349
    26 -1.420397 0.000000 0.000000 -0.005920 -0.354828 -0.012283
    27 -3.430256 1.227120 -1.112012 -1.573526 -0.206735 0.051495
    28 -2.307071 0.000001 0.000001 -0.000007 -1.003510 0.037765
    29 -1.686813 0.000001 0.000000 -0.005104 -1.179205 0.009090
    30 -3.543174 1.295721 -0.208629 -1.579515 0.079618 0.470435
    31 -2.423008 -0.000001 0.000001 3.141740 -1.408646 -3.143233
    32 -1.790750 -0.000002 0.000000 -0.013727 -1.036248 0.035533
    33 -3.507818 1.091496 0.737814 -1.556933 0.055177 0.438507
    34 -2.321934 0.000000 0.000000 -3.141407 -1.278083 3.195989
    35 -1.783664 0.000000 0.000000 -0.005450 -0.988226 0.010765
    36 -3.454484 1.074954 1.672241 -1.442942 0.073409 0.343852
    37 -1.681395 0.000000 0.000000 -3.131914 -1.554872 -3.199317
    38 -1.453233 0.000000 0.000000 -0.005082 -1.073906 0.008757
    39 4.326115 -30.235602 -7.486109 0.000000 1.570796 -1.581225
    40 0.000000 -1.327049 -1.400981 0.281456 0.000000 0.000000
    41 0.000000 -1.377890 1.137398 0.000000 0.000000 0.000000
    42 0.000019 -3.372524 2.134745 0.000000 0.000000 0.000000
    43 0.003241 2.390460 6.292288 0.000000 0.000000 0.000000
    44 0.000001 2.019331 0.839982 0.000000 0.000000 0.000000
    45 0.000001 1.295025 -5.751849 0.123140 0.000000 0.000000
  time 9
    0 -3.509934 17.684133 -9.398724 0.000000 -1.570451 0.000000
    1 0.455634 -10.314221 3.508091 0.000000 1.570451 0.000000
    2 0.000000 -0.000002 0.000000 -0.617992 -0.294016 1.401572
    3 -15.296548 0.000003 0.000000 -0.000002 0.000008 1.253425
    4 -15.182516 -0.000001 0.000000 0.588471 -0.189037 -0.312829
    5 -0.566658 -0.606841 1.196676 3.653155 0.088428 0.611863
    6 -2.182800 0.000000 0.000001 -0.024703 0.588610 -0.046994
    7 -1.526287 0.000000 -0.000001 0.005918 0.110356 -0.012382
    8 -3.492492 1.036439 1.112366 1.653966 0.087307 0.871269
    9 -2.307071 0.000000 0.000000 0.000001 1.291725 0.038787
    10 -1.686814 0.000000 0.000000 0.005103 1.241776 0.009538
    11 -3.609122 1.098669 0.208994 1.598458 0.034452 0.996850
    12 -2.423007 0.000001 0.000000 -0.000243 1.488481 -0.001832
    13 -1.790748 0.000000 0.000000 0.013723 1.123662 0.035527
    14 -3.562686 0.896649 -0.737443 1.583307 0.028160 0.842681
    15 -2.321936 -0.000002 0.000000 0.000006 1.374654 0.054492
    16 -1.783666 0.000000 0.000000 0.005447 1.319948 0.010757
    17 -3.508631 0.883018 -1.671875 1.511620 -0.060099 0.679033
    18 -1.681394 0.000000 0.000000 -0.009487 1.097936 -0.057916
    19 -1.453231 0.000000 0.000000 0.005081 1.143855 0.008753
    20 0.471261 1.006395 -9.141076 0.000000 1.570451 0.000000
    21 0.000000 0.000002 0.000000 -3.056266 0.055110 2.190798
    22 -15.296544 0.000001 0.000000 0.000001 -0.000008 1.350139
    23 -15.182513 0.000000 0.000000 -0.016027 0.409853 -0.687643
    24 -0.599358 -0.574776 -1.196574 -3.488496 -0.110029 0.239656
    25 -2.096807 0.000000 0.000001 0.021469 -0.332099 -0.039349
    26 -1.420397 0.000000 0.000000 -0.005920 -0.354828 -0.012283
    27 -3.430256 1.227120 -1.112012 -1.569044 -0.206819 0.029557
    28 -2.307071 0.000001 0.000001 -0.000007 -0.871446 0.037765
    29 -1.686813 0.000001 0.000000 -0.005104 -1.114740 0.009090
    30 -3.543174 1.295721 -0.208629 -1.579515 0.079618 0.470435
    31 -2.423008 -0.000001 0.000001 3.141740 -1.408646 -3.143329
    32 -1.790750 -0.000002 0.000000 -0.013727 -1.036248 0.035533
    33 -3.507818 1.091496 0.737814 -1.556933 0.055177 0.438507
    34 -2.321934 0.000000 0.000000 -3.141407 -1.278083 3.195989
    35 -1.783664 0.000000 0.000000 -0.005450 -0.988226 0.010765
    36 -3.454484 1.074954 1.672241 -1.442942 0.073409 0.343852
    37 -1.681395 0.000000 0.000000 -3.132010 -1.554872 3.083676
    38 -1.453233 0.000000 0.000000 -0.005082 -1.073906 0.008757
    39 4.318302 -30.348887 -7.486109 0.000000 1.570796 -1.588055
    40 0.000000 -1.327049 -1.400981 0.135702 0.000000 0.000000
    41 0.000000 -1.377890 1.137398 0.000000 0.000000 0.000000
    42 0.000019 -3.372524 2.134745 0.000000 0.000000 0.000000
    43 0.003241 2.390460 6.292288 0.000000 0.000000 0.000000
    44 0.000001 2.019331 0.839982 0.000000 0.000000 0.000000
    45 0.000001 1.295025 -5.751849 0.465297 0.000000 0.000000
  time 10
    0 -3.509934 17.684133 -9.398724 0.000000 -1.570451 0.000000
    1 0.455634 -10.314221 3.508091 0.000000 1.570451 0.000000
    2 0.000000 -0.000002 0.000000 -0.619367 -0.291147 1.404842
    3 -15.296548 0.000003 0.000000 -0.000002 0.000008 1.242574
    4 -15.182516 -0.000001 0.000000 0.587571 -0.190517 -0.306910
    5 -0.566658 -0.606841 1.196676 3.653155 0.088428 0.611863
    6 -2.182800 0.000000 0.000001 -0.024703 0.588610 -0.046994
    7 -1.526287 0.000000 -0.000001 0.005918 0.110356 -0.012382
    8 -3.492492 1.036439 1.112366 1.653966 0.087307 0.871269
    9 -2.307071 0.000000 0.000000 0.000001 1.291725 0.038787
    10 -1.686814 0.000000 0.000000 0.005103 1.241776 0.009538
    11 -3.609122 1.098669 0.208994 1.598458 0.034452 0.996850
    12 -2.423007 0.000001 0.000000 -0.000243 1.488481 -0.001832
    13 -1.790748 0.000000 0.000000 0.013723 1.123662 0.035527
    14 -3.562686 0.896649 -0.737443 1.583307 0.028160 0.842681
    15 -2.321936 -0.000002 0.000000 0.000006 1.374654 0.054492
    16 -1.783666 0.000000 0.000000 0.005447 1.319948 0.010757
    17 -3.508631 0.883018 -1.671875 1.511620 -0.060099 0.679033
    18 -1.681394 0.000000 0.000000 -0.009487 1.097936 -0.057916
    19 -1.453231 0.000000 0.000000 0.005081 1.143855 0.008753
    20 0.471261 1.006395 -9.141076 0.000000 1.570451 0.000000
    21 0.000000 0.000002 0.000000 -3.056218 0.055793 2.185647
    22 -15.296544 0.000001 0.000000 0.000001 -0.000008 1.339195
    23 -15.182513 0.000000 0.000000 -0.016094 0.411608 -0.682030
    24 -0.599358 -0.574776 -1.196574 -3.488496 -0.110029 0.239656
    25 -2.096807 0.000000 0.000001 0.021469 -0.332099 -0.039349
    26 -1.420397 0.000000 0.000000 -0.005920 -0.354828 -0.012283
    27 -3.430256 1.227120 -1.112012 -1.566203 -0.206867 0.015686
    28 -2.307071 0.000001 0.000001 -0.000007 -0.788028 0.037765
    29 -1.686813 0.000001 0.000000 -0.005104 -1.074012 0.009090
    30 -3.543174 1.295721 -0.208629 -1.579515 0.079618 0.470435
    31 -2.423008 -0.000001 0.000001 3.141740 -1.408646 -3.143329
    32 -1.790750 -0.000002 0.000000 -0.013727 -1.036248 0.035533
    33 -3.507818 1.091496 0.737814 -1.556933 0.055177 0.438507
    34 -2.321934 0.000000 0.000000 -3.141407 -1.278083 3.195989
    35 -1.783664 0.000000 0.000000 -0.005450 -0.988226 0.010765
    36 -3.454484 1.074954 1.672241 -1.442942 0.073409 0.343852
    37 -1.681395 0.000000 0.000000 -3.131914 -1.554872 -3.199413
    38 -1.453233 0.000000 0.000000 -0.005082 -1.073906 0.008757
    39 4.330021 -30.446546 -7.486109 0.000000 1.570796 -1.589532
    40 0.000000 -1.327049 -1.400981 0.000000 0.000000 0.000000
    41 0.000000 -1.377890 1.137398 0.000000 0.000000 0.000000
    42 0.000019 -3.372524 2.134745 0.000000 0.000000 0.000000
    43 0.003241 2.390460 6.292288 0.000000 0.000000 0.000000
    44 0.000001 2.019331 0.839982 0.000000 0.000000 0.000000
    45 0.000001 1.295025 -5.751849 0.628220 0.000000 0.000000
  time 11
    0 -3.509934 17.684133 -9.398724 0.000000 -1.570451 0.000000
    1 0.455634 -10.314221 3.508091 0.000000 1.570451 0.000000
    2 0.000000 -0.000002 0.000000 -0.621075 -0.287615 1.408560
    3 -15.296548 0.000003 0.000000 -0.000002 0.000008 1.230565
    4 -15.182516 -0.000001 0.000000 0.587743 -0.191074 -0.299407
    5 -0.566658 -0.606841 1.196676 3.653155 0.088428 0.611863
    6 -2.182800 0.000000 0.000001 -0.024703 0.588610 -0.046994
    7 -1.526287 0.000000 -0.000001 0.005918 0.110356 -0.012382
    8 -3.492492 1.036439 1.112366 1.653966 0.087307 0.871269
    9 -2.307071 0.000000 0.000000 0.000001 1.291725 0.038787
    10 -1.686814 0.000000 0.000000 0.005103 1.241776 0.009538
    11 -3.609122 1.098669 0.208994 1.598458 0.034452 0.996850
    12 -2.423007 0.000001 0.000000 -0.000243 1.488481 -0.001832
    13 -1.790748 0.000000 0.000000 0.013723 1.123662 0.035527
    14 -3.562686 0.896649 -0.737443 1.583307 0.028160 0.842681
    15 -2.321936 -0.000002 0.000000 0.000006 1.374654 0.054492
    16 -1.783666 0.000000 0.000000 0.005447 1.319948 0.010757
    17 -3.508631 0.883018 -1.671875 1.511620 -0.060099 0.679033
    18 -1.681394 0.000000 0.000000 -0.009487 1.097936 -0.057916
    19 -1.453231 0.000000 0.000000 0.005081 1.143855 0.008753
    20 0.471261 1.006395 -9.141076 0.000000 1.570451 0.000000
    21 0.000000 0.000002 0.000000 -3.056710 0.056129 2.180062
    22 -15.296544 0.000001 0.000000 0.000001 -0.000008 1.327437
    23 -15.182513 0.000000 0.000000 -0.016094 0.410642 -0.675843
    24 -0.599358 -0.574776 -1.196574 -3.488496 -0.110029 0.239656
    25 -2.096807 0.000000 0.000001 0.021469 -0.332099 -0.039349
    26 -1.420397 0.000000 0.000000 -0.005920 -0.354828 -0.012283
    27 -3.430256 1.227120 -1.112012 -1.564034 -0.206915 0.005249
    28 -2.307071 0.000001 0.000001 -0.000007 -0.725340 0.037765
    29 -1.686813 0.000001 0.000000 -0.005104 -1.043333 0.009090
    30 -3.543174 1.295721 -0.208629 -1.579515 0.079618 0.470435
    31 -2.423008 -0.000001 0.000001 3.141740 -1.408646 3.139665
    32 -1.790750 -0.000002 0.000000 -0.013727 -1.036248 0.035533
    33 -3.507818 1.091496 0.737814 -1.556933 0.055177 0.438507
    34 -2.321934 0.000000 0.000000 -3.141407 -1.278083 3.195893
    35 -1.783664 0.000000 0.000000 -0.005450 -0.988226 0.010765
    36 -3.454484 1.074954 1.672241 -1.442942 0.073409 0.343852
    37 -1.681395 0.000000 0.000000 3.150984 -1.554872 3.083581
    38 -1.453233 0.000000 0.000000 -0.005082 -1.073906 0.008757
    39 4.337834 -30.555924 -7.486109 0.000000 1.570796 -1.588701
    40 0.000000 -1.327049 -1.400981 0.000000 0.000000 0.000000
    41 0.000000 -1.377890 1.137398 0.000000 0.000000 0.000000
    42 0.000019 -3.372524 2.134745 0.000000 0.000000 0.000000
    43 0.003241 2.390460 6.292288 0.000000 0.000000 0.000000
    44 0.000001 2.019331 0.839982 0.000000 0.000000 0.000000
    45 0.000001 1.295025 -5.751849 0.507126 0.000000 0.000000
  time 12
    0 -3.509934 17.684133 -9.398724 0.000000 -1.570451 0.000000
    1 0.455634 -10.314221 3.508091 0.000000 1.570451 0.000000
    2 0.000000 -0.000002 0.000000 -0.622971 -0.283634 1.412549
    3 -15.296548 0.000003 0.000000 -0.000002 0.000008 1.217881
    4 -15.182516 -0.000001 0.000000 0.588643 -0.190884 -0.290827
    5 -0.566658 -0.606841 1.196676 3.653155 0.088428 0.611863
    6 -2.182800 0.000000 0.000001 -0.024703 0.588610 -0.046994
    7 -1.526287 0.000000 -0.000001 0.005918 0.110356 -0.012382
    8 -3.492492 1.036439 1.112366 1.653966 0.087307 0.871269
    9 -2.307071 0.000000 0.000000 0.000001 1.291725 0.038787
    10 -1.686814 0.000000 0.000000 0.005103 1.241776 0.009538
    11 -3.609122 1.098669 0.208994 1.598458 0.034452 0.996850
    12 -2.423007 0.000001 0.000000 -0.000243 1.488481 -0.001832
    13 -1.790748 0.000000 0.000000 0.013723 1.123662 0.035527
    14 -3.562686 0.896649 -0.737443 1.583307 0.028160 0.842681
    15 -2.321936 -0.000002 0.000000 0.000006 1.374654 0.054492
    16 -1.783666 0.000000 0.000000 0.005447 1.319948 0.010757
    17 -3.508631 0.883018 -1.671875 1.511620 -0.060099 0.679033
    18 -1.681394 0.000000 0.000000 -0.009487 1.097936 -0.057916
    19 -1.453231 0.000000 0.000000 0.005081 1.143855 0.008753
    20 0.471261 1.006395 -9.141076 0.000000 1.570451 0.000000
    21 0.000000 0.000002 0.000000 -3.057644 0.056237 2.174203
    22 -15.296544 0.000001 0.000000 0.000001 -0.000008 1.315191
    23 -15.182513 0.000000 0.000000 -0.015960 0.407583 -0.669258
    24 -0.599358 -0.574776 -1.196574 -3.488496 -0.110029 0.239656
    25 -2.096807 0.000000 0.000001 0.021469 -0.332099 -0.039349
    26 -1.420397 0.000000 0.000000 -0.005920 -0.354828 -0.012283
    27 -3.430256 1.227120 -1.112012 -1.562608 -0.206939 -0.001754
    28 -2.307071 0.000001 0.000001 -0.000007 -0.683299 0.037765
    29 -1.686813 0.000001 0.000000 -0.005104 -1.022854 0.009090
    30 -3.543174 1.295721 -0.208629 -1.579515 0.079618 0.470435
    31 -2.423008 -0.000001 0.000001 3.141740 -1.408646 -3.143329
    32 -1.790750 -0.000002 0.000000 -0.013727 -1.036248 0.035533
    33 -3.507818 1.091496 0.737814 -1.556933 0.055177 0.438507
    34 -2.321934 0.000000 0.000000 -3.141407 -1.278083 3.195989
    35 -1.783664 0.000000 0.000000 -0.005450 -0.988226 0.010765
    36 -3.454484 1.074954 1.672241 -1.442942 0.073409 0.343852
    37 -1.681395 0.000000 0.000000 -3.131914 -1.554872 -3.199317
    38 -1.453233 0.000000 0.000000 -0.005082 -1.073906 0.008757
    39 4.361272 -30.669209 -7.486109 0.000000 1.570796 -1.586394
    40 0.000000 -1.327049 -1.400981 0.000000 0.000000 0.000000
    41 0.000000 -1.377890 1.137398 0.000000 0.000000 0.000000
    42 0.000019 -3.372524 2.134745 0.000000 0.000000 0.000000
    43 0.003241 2.390460 6.292288 0.000000 0.000000 0.000000
    44 0.000001 2.019331 0.839982 0.000000 0.000000 0.000000
    45 0.000001 1.295025 -5.751849 0.237674 0.000000 0.000000
  time 13
    0 -3.509934 17.684133 -9.398724 0.000000 -1.570451 0.000000
    1 0.455634 -10.314221 3.508091 0.000000 1.570451 0.000000
    2 0.000000 -0.000002 0.000000 -0.624950 -0.279502 1.416609
    3 -15.296548 0.000003 0.000000 -0.000002 0.000008 1.204907
    4 -15.182516 -0.000001 0.000000 0.590186 -0.190195 -0.281710
    5 -0.566658 -0.606841 1.196676 3.653155 0.088428 0.611863
    6 -2.182800 0.000000 0.000001 -0.024703 0.588610 -0.046994
    7 -1.526287 0.000000 -0.000001 0.005918 0.110356 -0.012382
    8 -3.492492 1.036439 1.112366 1.653966 0.087307 0.871269
    9 -2.307071 0.000000 0.000000 0.000001 1.291725 0.038787
    10 -1.686814 0.000000 0.000000 0.005103 1.241776 0.009538
    11 -3.609122 1.098669 0.208994 1.598458 0.034452 0.996850
    12 -2.423007 0.000001 0.000000 -0.000243 1.488481 -0.001832
    13 -1.790748 0.000000 0.000000 0.013723 1.123662 0.035527
    14 -3.562686 0.896649 -0.737443 1.583307 0.028160 0.842681
    15 -2.321936 -0.000002 0.000000 0.000006 1.374654 0.054492
    16 -1.783666 0.000000 0.000000 0.005447 1.319948 0.010757
    17 -3.508631 0.883018 -1.671875 1.511620 -0.060099 0.679033
    18 -1.681394 0.000000 0.000000 -0.009487 1.097936 -0.057916
    19 -1.453231 0.000000 0.000000 0.005081 1.143855 0.008753
    20 0.471261 1.006395 -9.141076 0.000000 1.570451 0.000000
    21 0.000000 0.000002 0.000000 -3.058855 0.056117 2.168299
    22 -15.296544 0.000001 0.000000 0.000001 -0.000008 1.302904
    23 -15.182513 0.000000 0.000000 -0.015760 0.403155 -0.662563
    24 -0.599358 -0.574776 -1.196574 -3.488496 -0.110029 0.239656
    25 -2.096807 0.000000 0.000001 0.021469 -0.332099 -0.039349
    26 -1.420397 0.000000 0.000000 -0.005920 -0.354828 -0.012283
    27 -3.430256 1.227120 -1.112012 -1.561877 -0.206951 -0.005308
    28 -2.307071 0.000001 0.000001 -0.000007 -0.661946 0.037765
    29 -1.686813 0.000001 0.000000 -0.005104 -1.012423 0.009090
    30 -3.543174 1.295721 -0.208629 -1.579515 0.079618 0.470435
    31 -2.423008 -0.000001 0.000001 3.141740 -1.408646 -3.143329
    32 -1.790750 -0.000002 0.000000 -0.013727 -1.036248 0.035533
    33 -3.507818 1.091496 0.737814 -1.556933 0.055177 0.438507
    34 -2.321934 0.000000 0.000000 -3.141407 -1.278083 3.195989
    35 -1.783664 0.000000 0.000000 -0.005450 -0.988226 0.010765
    36 -3.454484 1.074954 1.672241 -1.442942 0.073409 0.343852
    37 -1.681395 0.000000 0.000000 3.150984 -1.554872 3.083581
    38 -1.453233 0.000000 0.000000 -0.005082 -1.073906 0.008757
    39 4.369085 -30.786400 -7.486109 0.000000 1.570796 -1.582979
    40 0.000000 -1.327049 -1.400981 0.000000 0.000000 0.000000
    41 0.000000 -1.377890 1.137398 0.000000 0.000000 0.000000
    42 0.000019 -3.372524 2.134745 0.000000 0.000000 0.000000
    43 0.003241 2.390460 6.292288 0.000000 0.000000 0.000000
    44 0.000001 2.019331 0.839982 0.000000 0.000000 0.000000
    45 0.000001 1.295025 -5.751849 -0.045741 0.000000 0.000000
  time 14
    0 -3.509934 17.684133 -9.398724 0.000000 -1.570451 0.000000
    1 0.455634 -10.314221 3.508091 0.000000 1.570451 0.000000
    2 0.000000 -0.000002 0.000000 -0.626846 -0.275414 1.420633
    3 -15.296548 0.000003 0.000000 -0.000002 0.000008 1.192223
    4 -15.182516 -0.000001 0.000000 0.591900 -0.189198 -0.272503
    5 -0.566658 -0.606841 1.196676 3.653155 0.088428 0.611863
    6 -2.182800 0.000000 0.000001 -0.024703 0.588610 -0.046994
    7 -1.526287 0.000000 -0.000001 0.005918 0.110356 -0.012382
    8 -3.492492 1.036439 1.112366 1.653966 0.087307 0.871269
    9 -2.307071 0.000000 0.000000 0.000001 1.291725 0.038787
    10 -1.686814 0.000000 0.000000 0.005103 1.241776 0.009538
    11 -3.609122 1.098669 0.208994 1.598458 0.034452 0.996850
    12 -2.423007 0.000001 0.000000 -0.000243 1.488481 -0.001832
    13 -1.790748 0.000000 0.000000 0.013723 1.123662 0.035527
    14 -3.562686 0.896649 -0.737443 1.583307 0.028160 0.842681
    15 -2.321936 -0.000002 0.000000 0.000006 1.374654 0.054492
    16 -1.783666 0.000000 0.000000 0.005447 1.319948 0.010757
    17 -3.508631 0.883018 -1.671875 1.511620 -0.060099 0.679033
    18 -1.681394 0.000000 0.000000 -0.009487 1.097936 -0.057916
    19 -1.453231 0.000000 0.000000 0.005081 1.143855 0.008753
    20 0.471261 1.006395 -9.141076 0.000000 1.570451 0.000000
    21 0.000000 0.000002 0.000000 -3.060209 0.055841 2.162532
    22 -15.296544 0.000001 0.000000 0.000001 -0.000008 1.290821
    23 -15.182513 0.000000 0.000000 -0.015560 0.398116 -0.655978
    24 -0.599358 -0.574776 -1.196574 -3.488496 -0.110029 0.239656
    25 -2.096807 0.000000 0.000001 0.021469 -0.332099 -0.039349
    26 -1.420397 0.000000 0.000000 -0.005920 -0.354828 -0.012283
    27 -3.430256 1.227120 -1.112012 -1.561841 -0.206975 -0.005413
    28 -2.307071 0.000001 0.000001 -0.000007 -0.661281 0.037765
    29 -1.686813 0.000001 0.000000 -0.005104 -1.012040 0.009090
    30 -3.543174 1.295721 -0.208629 -1.579515 0.079618 0.470435
    31 -2.423008 -0.000001 0.000001 3.141740 -1.408646 -3.143424
    32 -1.790750 -0.000002 0.000000 -0.013727 -1.036248 0.035533
    33 -3.507818 1.091496 0.737814 -1.556933 0.055177 0.438507
    34 -2.321934 0.000000 0.000000 -3.141407 -1.278083 3.195989
    35 -1.783664 0.000000 0.000000 -0.005450 -0.988226 0.010765
    36 -3.454484 1.074954 1.672241 -1.442942 0.073409 0.343852
    37 -1.681395 0.000000 0.000000 3.150984 -1.554872 3.083485
    38 -1.453233 0.000000 0.000000 -0.005082 -1.073906 0.008757
    39 4.380804 -30.891872 -7.486109 0.000000 1.570796 -1.579010
    40 0.000000 -1.327049 -1.400981 0.000000 0.000000 0.000000
    41 0.000000 -1.377890 1.137398 0.000000 0.000000 0.000000
    42 0.000019 -3.372524 2.134745 0.000000 0.000000 0.000000
    43 0.003241 2.390460 6.292288 0.000000 0.000000 0.000000
    44 0.000001 2.019331 0.839982 0.000000 0.000000 0.000000
    45 0.000001 1.295025 -5.751849 -0.209387 0.000000 0.000000
  time 15
    0 -3.509934 17.684133 -9.398724 0.000000 -1.570451 0.000000
    1 0.455634 -10.314221 3.508091 0.000000 1.570451 0.000000
    2 0.000000 -0.000002 0.000000 -0.628554 -0.271689 1.424424
    3 -15.296548 0.000003 0.000000 -0.000002 0.000008 1.180311
    4 -15.182516 -0.000001 0.000000 0.593615 -0.188099 -0.263714
    5 -0.566658 -0.606841 1.196676 3.653155 0.088428 0.611863
    6 -2.182800 0.000000 0.000001 -0.024703 0.588610 -0.046994
    7 -1.526287 0.000000 -0.000001 0.005918 0.110356 -0.012382
    8 -3.492492 1.036439 1.112366 1.653966 0.087307 0.871269
    9 -2.307071 0.000000 0.000000 0.000001 1.291725 0.038787
    10 -1.686814 0.000000 0.000000 0.005103 1.241776 0.009538
    11 -3.609122 1.098669 0.208994 1.598458 0.034452 0.996850
    12 -2.423007 0.000001 0.000000 -0.000243 1.488481 -0.001832
    13 -1.790748 0.000000 0.000000 0.013723 1.123662 0.035527
    14 -3.562686 0.896649 -0.737443 1.583307 0.028160 0.842681
    15 -2.321936 -0.000002 0.000000 0.000006 1.374654 0.054492
    16 -1.783666 0.000000 0.000000 0.005447 1.319948 0.010757
    17 -3.508631 0.883018 -1.671875 1.511620 -0.060099 0.679033
    18 -1.681394 0.000000 0.000000 -0.009487 1.097936 -0.057916
    19 -1.453231 0.000000 0.000000 0.005081 1.143855 0.008753
    20 0.471261 1.006395 -9.141076 0.000000 1.570451 0.000000
    21 0.000000 0.000002 0.000000 -3.061611 0.055494 2.157153
    22 -15.296544 0.000001 0.000000 0.000001 -0.000008 1.279592
    23 -15.182513 0.000000 0.000000 -0.015292 0.393108 -0.649813
    24 -0.599358 -0.574776 -1.196574 -3.488496 -0.110029 0.239656
    25 -2.096807 0.000000 0.000001 0.021469 -0.332099 -0.039349
    26 -1.420397 0.000000 0.000000 -0.005920 -0.354828 -0.012283
    27 -3.430256 1.227120 -1.112012 -1.561841 -0.206951 -0.005413
    28 -2.307071 0.000001 0.000001 -0.000007 -0.661281 0.037765
    29 -1.686813 0.000001 0.000000 -0.005104 -1.012040 0.009090
    30 -3.543174 1.295721 -0.208629 -1.579515 0.079618 0.470435
    31 -2.423008 -0.000001 0.000001 3.141740 -1.408646 -3.143329
    32 -1.790750 -0.000002 0.000000 -0.013727 -1.036248 0.035533
    33 -3.507818 1.091496 0.737814 -1.556933 0.055177 0.438507
    34 -2.321934 0.000000 0.000000 -3.141407 -1.278083 3.195989
    35 -1.783664 0.000000 0.000000 -0.005450 -0.988226 0.010765
    36 -3.454484 1.074954 1.672241 -1.442942 0.073409 0.343852
    37 -1.681395 0.000000 0.000000 3.150984 -1.554872 3.083581
    38 -1.453233 0.000000 0.000000 -0.005082 -1.073906 0.008757
    39 4.380804 -30.985625 -7.486109 0.000000 1.570796 -1.575411
    40 0.000000 -1.327049 -1.400981 0.000000 0.000000 0.000000
    41 0.000000 -1.377890 1.137398 0.000000 0.000000 0.000000
    42 0.000019 -3.372524 2.134745 0.000000 0.000000 0.000000
    43 0.003241 2.390460 6.292288 0.000000 0.000000 0.000000
    44 0.000001 2.019331 0.839982 0.000000 0.000000 0.000000
    45 0.000001 1.295025 -5.751849 -0.186877 0.000000 0.000000
  time 16
    0 -3.509934 17.684133 -9.398724 0.000000 -1.570451 0.000000
    1 0.455634 -10.314221 3.508091 0.000000 1.570451 0.000000
    2 0.000000 -0.000002 0.000000 -0.629929 -0.268542 1.427766
    3 -15.296548 0.000003 0.000000 -0.000002 0.000008 1.169700
    4 -15.182516 -0.000001 0.000000 0.594986 -0.187132 -0.256002
    5 -0.566658 -0.606841 1.196676 3.653155 0.088428 0.611863
    6 -2.182800 0.000000 0.000001 -0.024703 0.588610 -0.046994
    7 -1.526287 0.000000 -0.000001 0.005918 0.110356 -0.012382
    8 -3.492492 1.036439 1.112366 1.653966 0.087307 0.871269
    9 -2.307071 0.000000 0.000000 0.000013 1.291725 0.038787
    10 -1.686814 0.000000 0.000000 0.005103 1.241776 0.009538
    11 -3.609122 1.098669 0.208994 1.598458 0.034452 0.996850
    12 -2.423007 0.000001 0.000000 -0.000243 1.488481 -0.001832
    13 -1.790748 0.000000 0.000000 0.013723 1.123662 0.035527
    14 -3.562686 0.896649 -0.737443 1.583307 0.028160 0.842725
    15 -2.321936 -0.000002 0.000000 0.000006 1.374694 0.054492
    16 -1.783666 0.000000 0.000000 0.005447 1.319948 0.010757
    17 -3.508631 0.883018 -1.671875 1.511620 -0.060099 0.679033
    18 -1.681394 0.000000 0.000000 -0.009487 1.097936 -0.057916
    19 -1.453231 0.000000 0.000000 0.005081 1.143855 0.008753
    20 0.471261 1.006395 -9.141076 0.000000 1.570451 0.000000
    21 0.000000 0.000002 0.000000 -3.062930 0.055122 2.152343
    22 -15.296544 0.000001 0.000000 0.000001 -0.000008 1.269461
    23 -15.182513 0.000000 0.000000 -0.014958 0.388890 -0.644288
    24 -0.599358 -0.574776 -1.196574 -3.488496 -0.110029 0.239656
    25 -2.096807 0.000000 0.000001 0.021469 -0.332099 -0.039349
    26 -1.420397 0.000000 0.000000 -0.005920 -0.354828 -0.012283
    27 -3.430256 1.227120 -1.112012 -1.561841 -0.206963 -0.005413
    28 -2.307071 0.000001 0.000001 -0.000007 -0.661281 0.037765
    29 -1.686813 0.000001 0.000000 -0.005104 -1.012040 0.009090
    30 -3.543174 1.295721 -0.208629 -1.579515 0.079618 0.470435
    31 -2.423008 -0.000001 0.000001 3.141740 -1.408646 3.139665
    32 -1.790750 -0.000002 0.000000 -0.013727 -1.036248 0.035533
    33 -3.507818 1.091496 0.737814 -1.556933 0.055177 0.438507
    34 -2.321934 0.000000 0.000000 -3.141407 -1.278083 3.195893
    35 -1.783664 0.000000 0.000000 -0.005450 -0.988226 0.010765
    36 -3.454484 1.074954 1.672241 -1.442942 0.073409 0.343852
    37 -1.681395 0.000000 0.000000 3.150888 -1.554872 3.083485
    38 -1.453233 0.000000 0.000000 -0.005082 -1.073906 0.008757
    39 4.388617 -31.079378 -7.486109 0.000000 1.570796 -1.572365
    40 0.000000 -1.327049 -1.400981 0.000000 0.000000 0.000000
    41 0.000000 -1.377890 1.137398 0.000000 0.000000 0.000000
    42 0.000019 -3.372524 2.134745 0.000000 0.000000 0.000000
    43 0.003241 2.390460 6.292288 0.000000 0.000000 0.000000
    44 0.000001 2.019331 0.839982 0.000000 0.000000 0.000000
    45 0.000001 1.295025 -5.751849 -0.059945 0.000000 0.000000
  time 17
    0 -3.509934 17.684133 -9.398724 0.000000 -1.570451 0.000000
    1 0.455634 -10.314221 3.508091 0.000000 1.570451 0.000000
    2 0.000000 -0.000002 0.000000 -0.630866 -0.266295 1.430443
    3 -15.296548 0.000003 0.000000 -0.000002 0.000008 1.160971
    4 -15.182516 -0.000001 0.000000 0.595800 -0.186501 -0.249784
    5 -0.566658 -0.606841 1.196676 3.653155 0.088428 0.611863
    6 -2.182800 0.000000 0.000001 -0.024703 0.588610 -0.046994
    7 -1.526287 0.000000 -0.000001 0.005918 0.110356 -0.012382
    8 -3.492492 1.036439 1.112366 1.653966 0.087307 0.871269
    9 -2.307071 0.000000 0.000000 0.000013 1.291725 0.038787
    10 -1.686814 0.000000 0.000000 0.005103 1.241776 0.009538
    11 -3.609122 1.098669 0.208994 1.598458 0.034452 0.996850
    12 -2.423007 0.000001 0.000000 -0.000243 1.488481 -0.001832
    13 -1.790748 0.000000 0.000000 0.013723 1.123662 0.035527
    14 -3.562686 0.896649 -0.737443 1.583307 0.028160 0.842681
    15 -2.321936 -0.000002 0.000000 0.000006 1.374654 0.054492
    16 -1.783666 0.000000 0.000000 0.005447 1.319948 0.010757
    17 -3.508631 0.883018 -1.671875 1.511620 -0.060099 0.679033
    18 -1.681394 0.000000 0.000000 -0.009487 1.097936 -0.057916
    19 -1.453231 0.000000 0.000000 0.005081 1.143855 0.008753
    20 0.471261 1.006395 -9.141076 0.000000 1.570451 0.000000
    21 0.000000 0.000002 0.000000 -3.064056 0.054775 2.148354
    22 -15.296544 0.000001 0.000000 0.000001 -0.000008 1.261121
    23 -15.182513 0.000000 0.000000 -0.014624 0.386137 -0.639692
    24 -0.599358 -0.574776 -1.196574 -3.488496 -0.110029 0.239656
    25 -2.096807 0.000000 0.000001 0.021469 -0.332099 -0.039349
    26 -1.420397 0.000000 0.000000 -0.005920 -0.354828 -0.012283
    27 -3.430256 1.227120 -1.112012 -1.561841 -0.206975 -0.005413
    28 -2.307071 0.000001 0.000001 -0.000007 -0.661281 0.037765
    29 -1.686813 0.000001 0.000000 -0.005104 -1.012040 0.009090
    30 -3.543174 1.295721 -0.208629 -1.579515 0.079618 0.470435
    31 -2.423008 -0.000001 0.000001 3.141740 -1.408646 -3.143424
    32 -1.790750 -0.000002 0.000000 -0.013727 -1.036248 0.035533
    33 -3.507818 1.091496 0.737814 -1.556933 0.055177 0.438507
    34 -2.321934 0.000000 0.000000 -3.141407 -1.278083 3.195893
    35 -1.783664 0.000000 0.000000 -0.005450 -0.988226 0.010765
    36 -3.454484 1.074954 1.672241 -1.442942 0.073409 0.343852
    37 -1.681395 0.000000 0.000000 3.150888 -1.554872 3.083485
    38 -1.453233 0.000000 0.000000 -0.005082 -1.073906 0.008757
    39 4.380804 -31.153599 -7.486109 0.000000 1.570796 -1.570796
    40 0.000000 -1.327049 -1.400981 0.000000 0.000000 0.000000
    41 0.000000 -1.377890 1.137398 0.000000 0.000000 0.000000
    42 0.000019 -3.372524 2.134745 0.000000 0.000000 0.000000
    43 0.003241 2.390460 6.292288 0.000000 0.000000 0.000000
    44 0.000001 2.019331 0.839982 0.000000 0.000000 0.000000
    45 0.000001 1.295025 -5.751849 0.083779 0.000000 0.000000
  time 18
    0 -3.509934 17.684133 -9.398724 0.000000 -1.570451 0.000000
    1 0.455634 -10.314221 3.508091 0.000000 1.570451 0.000000
    2 0.000000 -0.000002 0.000000 -0.631470 -0.264689 1.432617
    3 -15.296548 0.000003 0.000000 -0.000002 0.000008 1.153688
    4 -15.182516 -0.000001 0.000000 0.596229 -0.186120 -0.244762
    5 -0.566658 -0.606841 1.196676 3.653155 0.088428 0.611863
    6 -2.182800 0.000000 0.000001 -0.024703 0.588610 -0.046994
    7 -1.526287 0.000000 -0.000001 0.005918 0.110356 -0.012382
    8 -3.492492 1.036439 1.112366 1.653966 0.087307 0.871269
    9 -2.307071 0.000000 0.000000 0.000001 1.291725 0.038787
    10 -1.686814 0.000000 0.000000 0.005103 1.241776 0.009538
    11 -3.609122 1.098669 0.208994 1.598458 0.034452 0.996850
    12 -2.423007 0.000001 0.000000 -0.000243 1.488481 -0.001832
    13 -1.790748 0.000000 0.000000 0.013723 1.123662 0.035527
    14 -3.562686 0.896649 -0.737443 1.583307 0.028160 0.842681
    15 -2.321936 -0.000002 0.000000 0.000006 1.374654 0.054492
    16 -1.783666 0.000000 0.000000 0.005447 1.319948 0.010757
    17 -3.508631 0.883018 -1.671875 1.511620 -0.060099 0.679033
    18 -1.681394 0.000000 0.000000 -0.009487 1.097936 -0.057916
    19 -1.453231 0.000000 0.000000 0.005081 1.143855 0.008753
    20 0.471261 1.006395 -9.141076 0.000000 1.570451 0.000000
    21 0.000000 0.000002 0.000000 -3.065039 0.054487 2.144934
    22 -15.296544 0.000001 0.000000 0.000001 -0.000008 1.254083
    23 -15.182513 0.000000 0.000000 -0.014290 0.384446 -0.635847
    24 -0.599358 -0.574776 -1.196574 -3.488496 -0.110029 0.239656
    25 -2.096807 0.000000 0.000001 0.021469 -0.332099 -0.039349
    26 -1.420397 0.000000 0.000000 -0.005920 -0.354828 -0.012283
    27 -3.430256 1.227120 -1.112012 -1.561841 -0.206963 -0.005413
    28 -2.307071 0.000001 0.000001 -0.000007 -0.661281 0.037765
    29 -1.686813 0.000001 0.000000 -0.005104 -1.012040 0.009090
    30 -3.543174 1.295721 -0.208629 -1.579515 0.079618 0.470435
    31 -2.423008 -0.000001 0.000001 3.141644 -1.408646 3.139665
    32 -1.790750 -0.000002 0.000000 -0.013727 -1.036248 0.035533
    33 -3.507818 1.091496 0.737814 -1.556933 0.055177 0.438507
    34 -2.321934 0.000000 0.000000 -3.141407 -1.278083 3.195893
    35 -1.783664 0.000000 0.000000 -0.005450 -0.988226 0.010765
    36 -3.454484 1.074954 1.672241 -1.442942 0.073409 0.343852
    37 -1.681395 0.000000 0.000000 3.150984 -1.554872 3.083485
    38 -1.453233 0.000000 0.000000 -0.005082 -1.073906 0.008757
    39 4.369085 -31.216101 -7.486109 0.000000 1.570796 -1.570242
    40 0.000000 -1.327049 -1.400981 0.000000 0.000000 0.000000
    41 0.000000 -1.377890 1.137398 0.000000 0.000000 0.000000
    42 0.000019 -3.372524 2.134745 0.000000 0.000000 0.000000
    43 0.003241 2.390460 6.292288 0.000000 0.000000 0.000000
    44 0.000001 2.019331 0.839982 0.000000 0.000000 0.000000
    45 0.000001 1.295025 -5.751849 0.156965 0.000000 0.000000
  time 19
    0 -3.509934 17.684133 -9.398724 0.000000 -1.570451 0.000000
    1 0.455634 -10.314221 3.508091 0.000000 1.570451 0.000000
    2 0.000000 -0.000002 0.000000 -0.631929 -0.263383 1.434593
    3 -15.296548 0.000003 0.000000 -0.000002 0.000008 1.147033
    4 -15.182516 -0.000001 0.000000 0.596486 -0.185754 -0.240158
    5 -0.566658 -0.606841 1.196676 3.653155 0.088428 0.611863
    6 -2.182800 0.000000 0.000001 -0.024703 0.588610 -0.046994
    7 -1.526287 0.000000 -0.000001 0.005918 0.110356 -0.012382
    8 -3.492492 1.036439 1.112366 1.653966 0.087307 0.871269
    9 -2.307071 0.000000 0.000000 0.000001 1.291725 0.038787
    10 -1.686814 0.000000 0.000000 0.005103 1.241776 0.009538
    11 -3.609122 1.098669 0.208994 1.598458 0.034452 0.996850
    12 -2.423007 0.000001 0.000000 -0.000243 1.488481 -0.001832
    13 -1.790748 0.000000 0.000000 0.013723 1.123662 0.035527
    14 -3.562686 0.896649 -0.737443 1.583307 0.028160 0.842681
    15 -2.321936 -0.000002 0.000000 0.000006 1.374654 0.054492
    16 -1.783666 0.000000 0.000000 0.005447 1.319948 0.010757
    17 -3.508631 0.883018 -1.671875 1.511620 -0.060099 0.679033
    18 -1.681394 0.000000 0.000000 -0.009487 1.097936 -0.057916
    19 -1.453231 0.000000 0.000000 0.005081 1.143855 0.008753
    20 0.471261 1.006395 -9.141076 0.000000 1.570451 0.000000
    21 0.000000 0.000002 0.000000 -3.065986 0.054115 2.141834
    22 -15.296544 0.000001 0.000000 0.000001 -0.000008 1.247532
    23 -15.182513 0.000000 0.000000 -0.013956 0.383045 -0.632312
    24 -0.599358 -0.574776 -1.196574 -3.488496 -0.110029 0.239656
    25 -2.096807 0.000000 0.000001 0.021469 -0.332099 -0.039349
    26 -1.420397 0.000000 0.000000 -0.005920 -0.354828 -0.012283
    27 -3.430256 1.227120 -1.112012 -1.561841 -0.206975 -0.005413
    28 -2.307071 0.000001 0.000001 -0.000007 -0.661281 0.037765
    29 -1.686813 0.000001 0.000000 -0.005104 -1.012040 0.009090
    30 -3.543174 1.295721 -0.208629 -1.579515 0.079618 0.470435
    31 -2.423008 -0.000001 0.000001 3.141740 -1.408646 3.139665
    32 -1.790750 -0.000002 0.000000 -0.013727 -1.036248 0.035533
    33 -3.507818 1.091496 0.737814 -1.556933 0.055177 0.438507
    34 -2.321934 0.000000 0.000000 -3.141407 -1.278083 3.195893
    35 -1.783664 0.000000 0.000000 -0.005450 -0.988226 0.010765
    36 -3.454484 1.074954 1.672241 -1.442942 0.073409 0.343852
    37 -1.681395 0.000000 0.000000 3.150888 -1.554872 3.083485
    38 -1.453233 0.000000 0.000000 -0.005082 -1.073906 0.008757
    39 4.361272 -31.278603 -7.486109 0.000000 1.570796 -1.569688
    40 0.000000 -1.327049 -1.400981 0.000000 0.000000 0.000000
    41 0.000000 -1.377890 1.137398 0.000000 0.000000 0.000000
    42 0.000019 -3.372524 2.134745 0.000000 0.000000 0.000000
    43 0.003241 2.390460 6.292288 0.000000 0.000000 0.000000
    44 0.000001 2.019331 0.839982 0.000000 0.000000 0.000000
    45 0.000001 1.295025 -5.751849 0.117603 0.000000 0.000000
  time 20
    0 -3.509934 17.684133 -9.398724 0.000000 -1.570451 0.000000
    1 0.455634 -10.314221 3.508091 0.000000 1.570451 0.000000
    2 0.000000 -0.000002 0.000000 -0.632262 -0.262335 1.436371
    3 -15.296548 0.000003 0.000000 -0.000002 0.000008 1.140956
    4 -15.182516 -0.000001 0.000000 0.596658 -0.185402 -0.236003
    5 -0.566658 -0.606841 1.196676 3.653155 0.088428 0.611863
    6 -2.182800 0.000000 0.000001 -0.024703 0.588610 -0.046994
    7 -1.526287 0.000000 -0.000001 0.005918 0.110356 -0.012382
    8 -3.492492 1.036439 1.112366 1.653966 0.087307 0.871269
    9 -2.307071 0.000000 0.000000 0.000013 1.291725 0.038787
    10 -1.686814 0.000000 0.000000 0.005103 1.241776 0.009538
    11 -3.609122 1.098669 0.208994 1.598458 0.034452 0.996850
    12 -2.423007 0.000001 0.000000 -0.000243 1.488481 -0.001832
    13 -1.790748 0.000000 0.000000 0.013723 1.123662 0.035527
    14 -3.562686 0.896649 -0.737443 1.583307 0.028160 0.842681
    15 -2.321936 -0.000002 0.000000 0.000006 1.374654 0.054492
    16 -1.783666 0.000000 0.000000 0.005447 1.319948 0.010757
    17 -3.508631 0.883018 -1.671875 1.511620 -0.060099 0.679033
    18 -1.681394 0.000000 0.000000 -0.009487 1.097936 -0.057916
    19 -1.453231 0.000000 0.000000 0.005081 1.143855 0.008753
    20 0.471261 1.006395 -9.141076 0.000000 1.570451 0.000000
    21 0.000000 0.000002 0.000000 -3.066896 0.053756 2.138985
    22 -15.296544 0.000001 0.000000 0.000001 -0.000008 1.241674
    23 -15.182513 0.000000 0.000000 -0.013689 0.381870 -0.629086
    24 -0.599358 -0.574776 -1.196574 -3.488496 -0.110029 0.239656
    25 -2.096807 0.000000 0.000001 0.021469 -0.332099 -0.039349
    26 -1.420397 0.000000 0.000000 -0.005920 -0.354828 -0.012283
    27 -3.430256 1.227120 -1.112012 -1.561841 -0.206963 -0.005413
    28 -2.307071 0.000001 0.000001 -0.000007 -0.661281 0.037765
    29 -1.686813 0.000001 0.000000 -0.005104 -1.012040 0.009090
    30 -3.543174 1.295721 -0.208629 -1.579515 0.079618 0.470435
    31 -2.423008 -0.000001 0.000001 3.141644 -1.408646 3.139665
    32 -1.790750 -0.000002 0.000000 -0.013727 -1.036248 0.035533
    33 -3.507818 1.091496 0.737814 -1.556933 0.055177 0.438507
    34 -2.321934 0.000000 0.000000 -3.141407 -1.278083 3.195893
    35 -1.783664 0.000000 0.000000 -0.005450 -0.988226 0.010765
    36 -3.454484 1.074954 1.672241 -1.442942 0.073409 0.343852
    37 -1.681395 0.000000 0.000000 3.150984 -1.554872 3.083581
    38 -1.453233 0.000000 0.000000 -0.005082 -1.073906 0.008757
    39 4.337834 -31.329385 -7.486109 0.000000 1.570796 -1.569504
    40 0.000000 -1.327049 -1.400981 0.000000 0.000000 0.000000
    41 0.000000 -1.377890 1.137398 0.000000 0.000000 0.000000
    42 0.000019 -3.372524 2.134745 0.000000 0.000000 0.000000
    43 0.003241 2.390460 6.292288 0.000000 0.000000 0.000000
    44 0.000001 2.019331 0.839982 0.000000 0.000000 0.000000
    45 0.000001 1.295025 -5.751849 0.018417 0.000000 0.000000
  time 21
    0 -3.509934 17.684133 -9.398724 0.000000 -1.570451 0.000000
    1 0.455634 -10.314221 3.508091 0.000000 1.570451 0.000000
    2 0.000000 -0.000002 0.000000 -0.632491 -0.261521 1.437970
    3 -15.296548 0.000003 0.000000 -0.000002 0.000008 1.135410
    4 -15.182516 -0.000001 0.000000 0.596829 -0.185065 -0.232177
    5 -0.566658 -0.606841 1.196676 3.653155 0.088428 0.611863
    6 -2.182800 0.000000 0.000001 -0.024703 0.588610 -0.046994
    7 -1.526287 0.000000 -0.000001 0.005918 0.110356 -0.012382
    8 -3.492492 1.036439 1.112366 1.653966 0.087307 0.871269
    9 -2.307071 0.000000 0.000000 0.000001 1.291725 0.038787
    10 -1.686814 0.000000 0.000000 0.005103 1.241776 0.009538
    11 -3.609122 1.098669 0.208994 1.598458 0.034452 0.996850
    12 -2.423007 0.000001 0.000000 -0.000243 1.488481 -0.001832
    13 -1.790748 0.000000 0.000000 0.013723 1.123662 0.035527
    14 -3.562686 0.896649 -0.737443 1.583307 0.028160 0.842681
    15 -2.321936 -0.000002 0.000000 0.000006 1.374654 0.054492
    16 -1.783666 0.000000 0.000000 0.005447 1.319948 0.010757
    17 -3.508631 0.883018 -1.671875 1.511620 -0.060099 0.679033
    18 -1.681394 0.000000 0.000000 -0.009487 1.097936 -0.057916
    19 -1.453231 0.000000 0.000000 0.005081 1.143855 0.008753
    20 0.471261 1.006395 -9.141076 0.000000 1.570451 0.000000
    21 0.000000 0.000002 0.000000 -3.067831 0.053336 2.136432
    22 -15.296544 0.000001 0.000000 0.000001 -0.000008 1.236263
    23 -15.182513 0.000000 0.000000 -0.013355 0.380872 -0.626125
    24 -0.599358 -0.574776 -1.196574 -3.488496 -0.110029 0.239656
    25 -2.096807 0.000000 0.000001 0.021469 -0.332099 -0.039349
    26 -1.420397 0.000000 0.000000 -0.005920 -0.354828 -0.012283
    27 -3.430256 1.227120 -1.112012 -1.561841 -0.206951 -0.005413
    28 -2.307071 0.000001 0.000001 -0.000007 -0.661281 0.037765
    29 -1.686813 0.000001 0.000000 -0.005104 -1.012040 0.009090
    30 -3.543174 1.295721 -0.208629 -1.579515 0.079618 0.470435
    31 -2.423008 -0.000001 0.000001 3.141644 -1.408646 3.139665
    32 -1.790750 -0.000002 0.000000 -0.013727 -1.036248 0.035533
    33 -3.507818 1.091496 0.737814 -1.556933 0.055177 0.438507
    34 -2.321934 0.000000 0.000000 -3.141407 -1.278083 3.195893
    35 -1.783664 0.000000 0.000000 -0.005450 -0.988226 0.010765
    36 -3.454484 1.074954 1.672241 -1.442942 0.073409 0.343852
    37 -1.681395 0.000000 0.000000 3.150984 -1.554872 3.083581
    38 -1.453233 0.000000 0.000000 -0.005082 -1.073906 0.008757
    39 4.318302 -31.380168 -7.486109 0.000000 1.570796 -1.569319
    40 0.000000 -1.327049 -1.400981 0.000000 0.000000 0.000000
    41 0.000000 -1.377890 1.137398 0.000000 0.000000 0.000000
    42 0.000019 -3.372524 2.134745 0.000000 0.000000 0.000000
    43 0.003241 2.390460 6.292288 0.000000 0.000000 0.000000
    44 0.000001 2.019331 0.839982 0.000000 0.000000 0.000000
    45 0.000001 1.295025 -5.751849 -0.085464 0.000000 0.000000
  time 22
    0 -3.509934 17.684133 -9.398724 0.000000 -1.570451 0.000000
    1 0.455634 -10.314221 3.508091 0.000000 1.570451 0.000000
    2 0.000000 -0.000002 0.000000 -0.632637 -0.260879 1.439426
    3 -15.296548 0.000003 0.000000 -0.000002 0.000008 1.130346
    4 -15.182516 -0.000001 0.000000 0.596915 -0.184713 -0.228619
    5 -0.566658 -0.606841 1.196676 3.653155 0.088428 0.611863
    6 -2.182800 0.000000 0.000001 -0.024691 0.588610 -0.046994
    7 -1.526287 0.000000 -0.000001 0.005918 0.110356 -0.012382
    8 -3.492492 1.036439 1.112366 1.653966 0.087307 0.871269
    9 -2.307071 0.000000 0.000000 0.000001 1.291725 0.038787
    10 -1.686814 0.000000 0.000000 0.005103 1.241776 0.009538
    11 -3.609122 1.098669 0.208994 1.598458 0.034452 0.996850
    12 -2.423007 0.000001 0.000000 -0.000243 1.488481 -0.001832
    13 -1.790748 0.000000 0.000000 0.013723 1.123662 0.035527
    14 -3.562686 0.896649 -0.737443 1.583307 0.028160 0.842681
    15 -2.321936 -0.000002 0.000000 0.000006 1.374654 0.054492
    16 -1.783666 0.000000 0.000000 0.005447 1.319948 0.010757
    17 -3.508631 0.883018 -1.671875 1.511620 -0.060099 0.679033
    18 -1.681394 0.000000 0.000000 -0.009487 1.097936 -0.057916
    19 -1.453231 0.000000 0.000000 0.005081 1.143855 0.008753
    20 0.471261 1.006395 -9.141076 0.000000 1.570451 0.000000
    21 0.000000 0.000002 0.000000 -3.068778 0.052917 2.133993
    22 -15.296544 0.000001 0.000000 0.000001 -0.000008 1.231259
    23 -15.182513 0.000000 0.000000 -0.012954 0.379954 -0.623340
    24 -0.599358 -0.574776 -1.196574 -3.488496 -0.110011 0.239656
    25 -2.096807 0.000000 0.000001 0.021469 -0.332099 -0.039349
    26 -1.420397 0.000000 0.000000 -0.005920 -0.354828 -0.012283
    27 -3.430256 1.227120 -1.112012 -1.561841 -0.206963 -0.005413
    28 -2.307071 0.000001 0.000001 -0.000007 -0.661281 0.037765
    29 -1.686813 0.000001 0.000000 -0.005104 -1.012040 0.009090
    30 -3.543174 1.295721 -0.208629 -1.579515 0.079618 0.470435
    31 -2.423008 -0.000001 0.000001 3.141835 -1.408646 -3.143329
    32 -1.790750 -0.000002 0.000000 -0.013727 -1.036248 0.035533
    33 -3.507818 1.091496 0.737814 -1.556933 0.055177 0.438507
    34 -2.321934 0.000000 0.000000 -3.141407 -1.278083 3.195989
    35 -1.783664 0.000000 0.000000 -0.005450 -0.988226 0.010765
    36 -3.454484 1.074954 1.672241 -1.442942 0.073409 0.343852
    37 -1.681395 0.000000 0.000000 -3.131914 -1.554872 -3.199413
    38 -1.453233 0.000000 0.000000 -0.005082 -1.073906 0.008757
    39 4.294864 -31.423138 -7.486109 0.000000 1.570796 -1.569504
    40 0.000000 -1.327049 -1.400981 0.000000 0.000000 0.000000
    41 0.000000 -1.377890 1.137398 0.000000 0.000000 0.000000
    42 0.000019 -3.372524 2.134745 0.000000 0.000000 0.000000
    43 0.003241 2.390460 6.292288 0.000000 0.000000 0.000000
    44 0.000001 2.019331 0.839982 0.000000 0.000000 0.000000
    45 0.000001 1.295025 -5.751849 -0.139571 0.000000 0.000000
  time 23
    0 -3.509934 17.684133 -9.398724 0.000000 -1.570451 0.000000
    1 0.455634 -10.314221 3.508091 0.000000 1.570451 0.000000
    2 0.000000 -0.000002 0.000000 -0.632679 -0.260451 1.440737
    3 -15.296548 0.000003 0.000000 -0.000002 0.000008 1.125667
    4 -15.182516 -0.000001 0.000000 0.596915 -0.184347 -0.225391
    5 -0.566658 -0.606841 1.196676 3.653155 0.088428 0.611863
    6 -2.182800 0.000000 0.000001 -0.024703 0.588610 -0.046994
    7 -1.526287 0.000000 -0.000001 0.005918 0.110356 -0.012382
    8 -3.492492 1.036439 1.112366 1.653966 0.087307 0.871269
    9 -2.307071 0.000000 0.000000 0.000001 1.291725 0.038787
    10 -1.686814 0.000000 0.000000 0.005103 1.241776 0.009538
    11 -3.609122 1.098669 0.208994 1.598458 0.034452 0.996850
    12 -2.423007 0.000001 0.000000 -0.000243 1.488481 -0.001832
    13 -1.790748 0.000000 0.000000 0.013723 1.123662 0.035527
    14 -3.562686 0.896649 -0.737443 1.583307 0.028160 0.842681
    15 -2.321936 -0.000002 0.000000 0.000006 1.374654 0.054492
    16 -1.783666 0.000000 0.000000 0.005447 1.319948 0.010757
    17 -3.508631 0.883018 -1.671875 1.511620 -0.060099 0.679033
    18 -1.681394 0.000000 0.000000 -0.009487 1.097936 -0.057916
    19 -1.453231 0.000000 0.000000 0.005081 1.143855 0.008753
    20 0.471261 1.006395 -9.141076 0.000000 1.570451 0.000000
    21 0.000000 0.000002 0.000000 -3.069737 0.052461 2.131827
    22 -15.296544 0.000001 0.000000 0.000001 -0.000008 1.226743
    23 -15.182513 0.000000 0.000000 -0.012620 0.379149 -0.620777
    24 -0.599358 -0.574776 -1.196574 -3.488496 -0.110029 0.239656
    25 -2.096807 0.000000 0.000001 0.021469 -0.332099 -0.039349
    26 -1.420397 0.000000 0.000000 -0.005920 -0.354828 -0.012283
    27 -3.430256 1.227120 -1.112012 -1.561841 -0.206951 -0.005413
    28 -2.307071 0.000001 0.000001 -0.000007 -0.661281 0.037765
    29 -1.686813 0.000001 0.000000 -0.005104 -1.012040 0.009090
    30 -3.543174 1.295721 -0.208629 -1.579515 0.079618 0.470435
    31 -2.423008 -0.000001 0.000001 3.141644 -1.408646 3.139665
    32 -1.790750 -0.000002 0.000000 -0.013727 -1.036248 0.035533
    33 -3.507818 1.091496 0.737814 -1.556933 0.055177 0.438507
    34 -2.321934 0.000000 0.000000 -3.141407 -1.278083 3.195893
    35 -1.783664 0.000000 0.000000 -0.005450 -0.988226 0.010765
    36 -3.454484 1.074954 1.672241 -1.442942 0.073409 0.343852
    37 -1.681395 0.000000 0.000000 3.150984 -1.554872 3.083581
    38 -1.453233 0.000000 0.000000 -0.005082 -1.073906 0.008757
    39 4.275332 -31.466108 -7.486109 0.000000 1.570796 -1.569596
    40 0.000000 -1.327049 -1.400981 0.000000 0.000000 0.000000
    41 0.000000 -1.377890 1.137398 0.000000 0.000000 0.000000
    42 0.000019 -3.372524 2.134745 0.000000 0.000000 0.000000
    43 0.003241 2.390460 6.292288 0.000000 0.000000 0.000000
    44 0.000001 2.019331 0.839982 0.000000 0.000000 0.000000
    45 0.000001 1.295025 -5.751849 -0.116219 0.000000 0.000000
  time 24
    0 -3.509934 17.684133 -9.398724 0.000000 -1.570451 0.000000
    1 0.455634 -10.314221 3.508091 0.000000 1.570451 0.000000
    2 0.000000 -0.000002 0.000000 -0.632679 -0.260130 1.441941
    3 -15.296548 0.000003 0.000000 -0.000002 0.000008 1.121375
    4 -15.182516 -0.000001 0.000000 0.596915 -0.183966 -0.222342
    5 -0.566658 -0.606841 1.196676 3.653155 0.088428 0.611863
    6 -2.182800 0.000000 0.000001 -0.024703 0.588610 -0.046994
    7 -1.526287 0.000000 -0.000001 0.005918 0.110356 -0.012382
    8 -3.492492 1.036439 1.112366 1.653966 0.087307 0.871269
    9 -2.307071 0.000000 0.000000 0.000001 1.291725 0.038787
    10 -1.686814 0.000000 0.000000 0.005103 1.241776 0.009538
    11 -3.609122 1.098669 0.208994 1.598458 0.034452 0.996850
    12 -2.423007 0.000001 0.000000 -0.000243 1.488481 -0.001832
    13 -1.790748 0.000000 0.000000 0.013723 1.123662 0.035527
    14 -3.562686 0.896649 -0.737443 1.583307 0.028160 0.842681
    15 -2.321936 -0.000002 0.000000 0.000006 1.374654 0.054492
    16 -1.783666 0.000000 0.000000 0.005447 1.319948 0.010757
    17 -3.508631 0.883018 -1.671875 1.511620 -0.060099 0.679033
    18 -1.681394 0.000000 0.000000 -0.009487 1.097936 -0.057916
    19 -1.453231 0.000000 0.000000 0.005081 1.143855 0.008753
    20 0.471261 1.006395 -9.141076 0.000000 1.570451 0.000000
    21 0.000000 0.000002 0.000000 -3.070696 0.051970 2.129776
    22 -15.296544 0.000001 0.000000 0.000001 -0.000008 1.222471
    23 -15.182513 0.000000 0.000000 -0.012286 0.378392 -0.618457
    24 -0.599358 -0.574776 -1.196574 -3.488496 -0.110029 0.239656
    25 -2.096807 0.000000 0.000001 0.021469 -0.332099 -0.039349
    26 -1.420397 0.000000 0.000000 -0.005920 -0.354828 -0.012283
    27 -3.430256 1.227120 -1.112012 -1.561841 -0.206951 -0.005413
    28 -2.307071 0.000001 0.000001 -0.000007 -0.661281 0.037765
    29 -1.686813 0.000001 0.000000 -0.005104 -1.012040 0.009090
    30 -3.543174 1.295721 -0.208629 -1.579515 0.079618 0.470435
    31 -2.423008 -0.000001 0.000001 3.141740 -1.408646 -3.143233
    32 -1.790750 -0.000002 0.000000 -0.013727 -1.036248 0.035533
    33 -3.507818 1.091496 0.737814 -1.556933 0.055177 0.438507
    34 -2.321934 0.000000 0.000000 -3.141407 -1.278083 3.195989
    35 -1.783664 0.000000 0.000000 -0.005450 -0.988226 0.010765
    36 -3.454484 1.074954 1.672241 -1.442942 0.073409 0.343852
    37 -1.681395 0.000000 0.000000 -3.131914 -1.554872 -3.199317
    38 -1.453233 0.000000 0.000000 -0.005082 -1.073906 0.008757
    39 4.251894 -31.509078 -7.486109 0.000000 1.570796 -1.569873
    40 0.000000 -1.327049 -1.400981 0.000000 0.000000 0.000000
    41 0.000000 -1.377890 1.137398 0.000000 0.000000 0.000000
    42 0.000019 -3.372524 2.134745 0.000000 0.000000 0.000000
    43 0.003241 2.390460 6.292288 0.000000 0.000000 0.000000
    44 0.000001 2.019331 0.839982 0.000000 0.000000 0.000000
    45 0.000001 1.295025 -5.751849 -0.048991 0.000000 0.000000
  time 25
    0 -3.509934 17.684133 -9.398724 0.000000 -1.570451 0.000000
    1 0.455634 -10.314221 3.508091 0.000000 1.570451 0.000000
    2 0.000000 -0.000002 0.000000 -0.632616 -0.259958 1.443055
    3 -15.296548 0.000003 0.000000 -0.000002 0.000008 1.117324
    4 -15.182516 -0.000001 0.000000 0.596915 -0.183555 -0.219412
    5 -0.566658 -0.606841 1.196676 3.653155 0.088428 0.611863
    6 -2.182800 0.000000 0.000001 -0.024703 0.588610 -0.046994
    7 -1.526287 0.000000 -0.000001 0.005918 0.110356 -0.012382
    8 -3.492492 1.036439 1.112366 1.653966 0.087307 0.871243
    9 -2.307071 0.000000 0.000000 0.000013 1.291725 0.038787
    10 -1.686814 0.000000 0.000000 0.005103 1.241776 0.009538
    11 -3.609122 1.098669 0.208994 1.598458 0.034452 0.996850
    12 -2.423007 0.000001 0.000000 -0.000243 1.488481 -0.001832
    13 -1.790748 0.000000 0.000000 0.013723 1.123662 0.035527
    14 -3.562686 0.896649 -0.737443 1.583307 0.028160 0.842681
    15 -2.321936 -0.000002 0.000000 0.000006 1.374654 0.054492
    16 -1.783666 0.000000 0.000000 0.005447 1.319948 0.010757
    17 -3.508631 0.883018 -1.671875 1.511620 -0.060099 0.679033
    18 -1.681394 0.000000 0.000000 -0.009487 1.097936 -0.057916
    19 -1.453231 0.000000 0.000000 0.005081 1.143855 0.008753
    20 0.471261 1.006395 -9.141076 0.000000 1.570451 0.000000
    21 0.000000 0.000002 0.000000 -3.071630 0.051455 2.127861
    22 -15.296544 0.000001 0.000000 0.000001 -0.000008 1.218484
    23 -15.182513 0.000000 0.000000 -0.011952 0.377652 -0.616203
    24 -0.599358 -0.574776 -1.196574 -3.488496 -0.110029 0.239656
    25 -2.096807 0.000000 0.000001 0.021469 -0.332099 -0.039349
    26 -1.420397 0.000000 0.000000 -0.005920 -0.354828 -0.012283
    27 -3.430256 1.227120 -1.112012 -1.561841 -0.206975 -0.005413
    28 -2.307071 0.000001 0.000001 -0.000007 -0.661281 0.037765
    29 -1.686813 0.000001 0.000000 -0.005104 -1.012040 0.009090
    30 -3.543174 1.295721 -0.208629 -1.579515 0.079618 0.470435
    31 -2.423008 -0.000001 0.000001 3.141644 -1.408646 3.139665
    32 -1.790750 -0.000002 0.000000 -0.013727 -1.036248 0.035533
    33 -3.507818 1.091496 0.737814 -1.556933 0.055177 0.438507
    34 -2.321934 0.000000 0.000000 -3.141407 -1.278083 3.195893
    35 -1.783664 0.000000 0.000000 -0.005450 -0.988226 0.010765
    36 -3.454484 1.074954 1.672241 -1.442942 0.073409 0.343852
    37 -1.681395 0.000000 0.000000 3.150888 -1.554872 3.083485
    38 -1.453233 0.000000 0.000000 -0.005082 -1.073906 0.008757
    39 4.228455 -31.540329 -7.486109 0.000000 1.570796 -1.570150
    40 0.000000 -1.327049 -1.400981 0.000000 0.000000 0.000000
    41 0.000000 -1.377890 1.137398 0.000000 0.000000 0.000000
    42 0.000019 -3.372524 2.134745 0.000000 0.000000 0.000000
    43 0.003241 2.390460 6.292288 0.000000 0.000000 0.000000
    44 0.000001 2.019331 0.839982 0.000000 0.000000 0.000000
    45 0.000001 1.295025 -5.751849 0.025158 0.000000 0.000000
  time 26
    0 -3.509934 17.684133 -9.398724 0.000000 -1.570451 0.000000
    1 0.455634 -10.314221 3.508091 0.000000 1.570451 0.000000
    2 0.000000 -0.000002 0.000000 -0.632512 -0.259851 1.444097
    3 -15.296548 0.000003 0.000000 -0.000002 0.000008 1.113465
    4 -15.182516 -0.000001 0.000000 0.596915 -0.183101 -0.216632
    5 -0.566658 -0.606841 1.196676 3.653155 0.088428 0.611863
    6 -2.182800 0.000000 0.000001 -0.024703 0.588610 -0.046994
    7 -1.526287 0.000000 -0.000001 0.005918 0.110356 -0.012382
    8 -3.492492 1.036439 1.112366 1.653966 0.087307 0.871269
    9 -2.307071 0.000000 0.000000 0.000001 1.291725 0.038787
    10 -1.686814 0.000000 0.000000 0.005103 1.241776 0.009538
    11 -3.609122 1.098669 0.208994 1.598458 0.034452 0.996850
    12 -2.423007 0.000001 0.000000 -0.000243 1.488481 -0.001832
    13 -1.790748 0.000000 0.000000 0.013723 1.123662 0.035527
    14 -3.562686 0.896649 -0.737443 1.583307 0.028160 0.842681
    15 -2.321936 -0.000002 0.000000 0.000006 1.374654 0.054492
    16 -1.783666 0.000000 0.000000 0.005447 1.319948 0.010757
    17 -3.508631 0.883018 -1.671875 1.511620 -0.060099 0.679033
    18 -1.681394 0.000000 0.000000 -0.009487 1.097936 -0.057916
    19 -1.453231 0.000000 0.000000 0.005081 1.143855 0.008753
    20 0.471261 1.006395 -9.141076 0.000000 1.570451 0.000000
    21 0.000000 0.000002 0.000000 -3.072625 0.050903 2.126060
    22 -15.296544 0.000001 0.000000 0.000001 -0.000008 1.214741
    23 -15.182513 0.000000 0.000000 -0.011552 0.376879 -0.614104
    24 -0.599358 -0.574776 -1.196574 -3.488496 -0.110029 0.239656
    25 -2.096807 0.000000 0.000001 0.021469 -0.332099 -0.039349
    26 -1.420397 0.000000 0.000000 -0.005920 -0.354828 -0.012283
    27 -3.430256 1.227120 -1.112012 -1.561841 -0.206951 -0.005413
    28 -2.307071 0.000001 0.000001 -0.000007 -0.661281 0.037765
    29 -1.686813 0.000001 0.000000 -0.005104 -1.012040 0.009090
    30 -3.543174 1.295721 -0.208629 -1.579515 0.079618 0.470435
    31 -2.423008 -0.000001 0.000001 3.141740 -1.408646 -3.143329
    32 -1.790750 -0.000002 0.000000 -0.013727 -1.036248 0.035533
    33 -3.507818 1.091496 0.737814 -1.556933 0.055177 0.438507
    34 -2.321934 0.000000 0.000000 -3.141407 -1.278083 3.195989
    35 -1.783664 0.000000 0.000000 -0.005450 -0.988226 0.010765
    36 -3.454484 1.074954 1.672241 -1.442942 0.073409 0.343852
    37 -1.681395 0.000000 0.000000 3.150984 -1.554872 3.083581
    38 -1.453233 0.000000 0.000000 -0.005082 -1.073906 0.008757
    39 4.201111 -31.583299 -7.486109 0.000000 1.570796 -1.570427
    40 0.000000 -1.327049 -1.400981 0.000000 0.000000 0.000000
    41 0.000000 -1.377890 1.137398 0.000000 0.000000 0.000000
    42 0.000019 -3.372524 2.134745 0.000000 0.000000 0.000000
    43 0.003241 2.390460 6.292288 0.000000 0.000000 0.000000
    44 0.000001 2.019331 0.839982 0.000000 0.000000 0.000000
    45 0.000001 1.295025 -5.751849 0.069695 0.000000 0.000000
  time 27
    0 -3.509934 17.684133 -9.398724 0.000000 -1.570451 0.000000
    1 0.455634 -10.314221 3.508091 0.000000 1.570451 0.000000
    2 0.000000 -0.000002 0.000000 -0.632366 -0.259809 1.445085
    3 -15.296548 0.000003 0.000000 -0.000002 0.000008 1.109800
    4 -15.182516 -0.000001 0.000000 0.597001 -0.182617 -0.213942
    5 -0.566658 -0.606841 1.196676 3.653155 0.088428 0.611863
    6 -2.182800 0.000000 0.000001 -0.024703 0.588610 -0.046994
    7 -1.526287 0.000000 -0.000001 0.005918 0.110356 -0.012382
    8 -3.492492 1.036439 1.112366 1.653966 0.087307 0.871269
    9 -2.307071 0.000000 0.000000 0.000001 1.291725 0.038787
    10 -1.686814 0.000000 0.000000 0.005103 1.241776 0.009538
    11 -3.609122 1.098669 0.208994 1.598458 0.034452 0.996850
    12 -2.423007 0.000001 0.000000 -0.000243 1.488481 -0.001832
    13 -1.790748 0.000000 0.000000 0.013723 1.123662 0.035527
    14 -3.562686 0.896649 -0.737443 1.583307 0.028160 0.842681
    15 -2.321936 -0.000002 0.000000 0.000006 1.374654 0.054492
    16 -1.783666 0.000000 0.000000 0.005447 1.319948 0.010757
    17 -3.508631 0.883018 -1.671875 1.511620 -0.060099 0.679033
    18 -1.681394 0.000000 0.000000 -0.009487 1.097936 -0.057916
    19 -1.453231 0.000000 0.000000 0.005081 1.143855 0.008753
    20 0.471261 1.006395 -9.141076 0.000000 1.570451 0.000000
    21 0.000000 0.000002 0.000000 -3.073632 0.050316 2.124305
    22 -15.296544 0.000001 0.000000 0.000001 -0.000008 1.211120
    23 -15.182513 0.000000 0.000000 -0.011084 0.376058 -0.612049
    24 -0.599358 -0.574776 -1.196574 -3.488496 -0.110029 0.239656
    25 -2.096807 0.000000 0.000001 0.021469 -0.332099 -0.039349
    26 -1.420397 0.000000 0.000000 -0.005920 -0.354828 -0.012283
    27 -3.430256 1.227120 -1.112012 -1.561841 -0.206951 -0.005413
    28 -2.307071 0.000001 0.000001 -0.000007 -0.661281 0.037765
    29 -1.686813 0.000001 0.000000 -0.005104 -1.012040 0.009090
    30 -3.543174 1.295721 -0.208629 -1.579515 0.079618 0.470435
    31 -2.423008 -0.000001 0.000001 3.141740 -1.408646 -3.143424
    32 -1.790750 -0.000002 0.000000 -0.013727 -1.036248 0.035533
    33 -3.507818 1.091496 0.737814 -1.556933 0.055177 0.438507
    34 -2.321934 0.000000 0.000000 -3.141407 -1.278083 3.195989
    35 -1.783664 0.000000 0.000000 -0.005450 -0.988226 0.010765
    36 -3.454484 1.074954 1.672241 -1.442942 0.073409 0.343852
    37 -1.681395 0.000000 0.000000 3.150888 -1.554872 3.083485
    38 -1.453233 0.000000 0.000000 -0.005082 -1.073906 0.008757
    39 4.177673 -31.610644 -7.486109 0.000000 1.570796 -1.570611
    40 0.000000 -1.327049 -1.400981 0.000000 0.000000 0.000000
    41 0.000000 -1.377890 1.137398 0.000000 0.000000 0.000000
    42 0.000019 -3.372524 2.134745 0.000000 0.000000 0.000000
    43 0.003241 2.390460 6.292288 0.000000 0.000000 0.000000
    44 0.000001 2.019331 0.839982 0.000000 0.000000 0.000000
    45 0.000001 1.295025 -5.751849 0.071982 0.000000 0.000000
  time 28
    0 -3.509934 17.684133 -9.398724 0.000000 -1.570451 0.000000
    1 0.455634 -10.314221 3.508091 0.000000 1.570451 0.000000
    2 0.000000 -0.000002 0.000000 -0.632220 -0.259809 1.446019
    3 -15.296548 0.000003 0.000000 -0.000002 0.000008 1.106231
    4 -15.182516 -0.000001 0.000000 0.597086 -0.182060 -0.211222
    5 -0.566658 -0.606841 1.196676 3.653155 0.088428 0.611863
    6 -2.182800 0.000000 0.000001 -0.024703 0.588610 -0.046994
    7 -1.526287 0.000000 -0.000001 0.005918 0.110356 -0.012382
    8 -3.492492 1.036439 1.112366 1.653966 0.087307 0.871269
    9 -2.307071 0.000000 0.000000 0.000013 1.291725 0.038787
    10 -1.686814 0.000000 0.000000 0.005103 1.241776 0.009538
    11 -3.609122 1.098669 0.208994 1.598458 0.034452 0.996850
    12 -2.423007 0.000001 0.000000 -0.000243 1.488481 -0.001832
    13 -1.790748 0.000000 0.000000 0.013723 1.123662 0.035527
    14 -3.562686 0.896649 -0.737443 1.583307 0.028160 0.842681
    15 -2.321936 -0.000002 0.000000 0.000006 1.374654 0.054492
    16 -1.783666 0.000000 0.000000 0.005447 1.319948 0.010757
    17 -3.508631 0.883018 -1.671875 1.511620 -0.060099 0.679033
    18 -1.681394 0.000000 0.000000 -0.009487 1.097936 -0.057916
    19 -1.453231 0.000000 0.000000 0.005081 1.143855 0.008753
    20 0.471261 1.006395 -9.141076 0.000000 1.570451 0.000000
    21 0.000000 0.000002 0.000000 -3.074651 0.049705 2.122618
    22 -15.296544 0.000001 0.000000 0.000001 -0.000008 1.207621
    23 -15.182513 0.000000 0.000000 -0.010683 0.375108 -0.610060
    24 -0.599358 -0.574776 -1.196574 -3.488496 -0.110029 0.239656
    25 -2.096807 0.000000 0.000001 0.021469 -0.332099 -0.039349
    26 -1.420397 0.000000 0.000000 -0.005920 -0.354828 -0.012283
    27 -3.430256 1.227120 -1.112012 -1.561841 -0.206963 -0.005413
    28 -2.307071 0.000001 0.000001 -0.000007 -0.661281 0.037765
    29 -1.686813 0.000001 0.000000 -0.005104 -1.012040 0.009090
    30 -3.543174 1.295721 -0.208629 -1.579515 0.079618 0.470435
    31 -2.423008 -0.000001 0.000001 3.141740 -1.408646 -3.143329
    32 -1.790750 -0.000002 0.000000 -0.013727 -1.036248 0.035533
    33 -3.507818 1.091496 0.737814 -1.556933 0.055177 0.438507
    34 -2.321934 0.000000 0.000000 -3.141407 -1.278083 3.195989
    35 -1.783664 0.000000 0.000000 -0.005450 -0.988226 0.010765
    36 -3.454484 1.074954 1.672241 -1.442942 0.073409 0.343852
    37 -1.681395 0.000000 0.000000 -3.132010 -1.554872 3.083581
    38 -1.453233 0.000000 0.000000 -0.005082 -1.073906 0.008757
    39 4.146422 -31.645801 -7.486109 0.000000 1.570796 -1.570796
    40 0.000000 -1.327049 -1.400981 0.000000 0.000000 0.000000
    41 0.000000 -1.377890 1.137398 0.000000 0.000000 0.000000
    42 0.000019 -3.372524 2.134745 0.000000 0.000000 0.000000
    43 0.003241 2.390460 6.292288 0.000000 0.000000 0.000000
    44 0.000001 2.019331 0.839982 0.000000 0.000000 0.000000
    45 0.000001 1.295025 -5.751849 0.052302 0.000000 0.000000
  time 29
    0 -3.509934 17.684133 -9.398724 0.000000 -1.570451 0.000000
    1 0.455634 -10.314221 3.508091 0.000000 1.570451 0.000000
    2 0.000000 -0.000002 0.000000 -0.632074 -0.259787 1.446971
    3 -15.296548 0.000003 0.000000 -0.000002 0.000008 1.102662
    4 -15.182516 -0.000001 0.000000 0.597258 -0.181474 -0.208441
    5 -0.566658 -0.606841 1.196676 3.653155 0.088428 0.611863
    6 -2.182800 0.000000 0.000001 -0.024703 0.588610 -0.046994
    7 -1.526287 0.000000 -0.000001 0.005918 0.110356 -0.012382
    8 -3.492492 1.036439 1.112366 1.653966 0.087307 0.871269
    9 -2.307071 0.000000 0.000000 0.000001 1.291725 0.038787
    10 -1.686814 0.000000 0.000000 0.005103 1.241776 0.009538
    11 -3.609122 1.098669 0.208994 1.598458 0.034452 0.996850
    12 -2.423007 0.000001 0.000000 -0.000243 1.488481 -0.001832
    13 -1.790748 0.000000 0.000000 0.013723 1.123662 0.035527
    14 -3.562686 0.896649 -0.737443 1.583307 0.028160 0.842681
    15 -2.321936 -0.000002 0.000000 0.000006 1.374654 0.054492
    16 -1.783666 0.000000 0.000000 0.005447 1.319948 0.010757
    17 -3.508631 0.883018 -1.671875 1.511620 -0.060099 0.679033
    18 -1.681394 0.000000 0.000000 -0.009487 1.097936 -0.057916
    19 -1.453231 0.000000 0.000000 0.005081 1.143855 0.008753
    20 0.471261 1.006395 -9.141076 0.000000 1.570451 0.000000
    21 0.000000 0.000002 0.000000 -3.075705 0.049082 2.120863
    22 -15.296544 0.000001 0.000000 0.000001 -0.000008 1.204163
    23 -15.182513 0.000000 0.000000 -0.010282 0.374013 -0.608005
    24 -0.599358 -0.574776 -1.196574 -3.488496 -0.110029 0.239656
    25 -2.096807 0.000000 0.000001 0.021469 -0.332099 -0.039349
    26 -1.420397 0.000000 0.000000 -0.005920 -0.354828 -0.012283
    27 -3.430256 1.227120 -1.112012 -1.561841 -0.206951 -0.005413
    28 -2.307071 0.000001 0.000001 -0.000007 -0.661281 0.037765
    29 -1.686813 0.000001 0.000000 -0.005104 -1.012040 0.009090
    30 -3.543174 1.295721 -0.208629 -1.579515 0.079618 0.470435
    31 -2.423008 -0.000001 0.000001 3.141740 -1.408646 -3.143329
    32 -1.790750 -0.000002 0.000000 -0.013727 -1.036248 0.035533
    33 -3.507818 1.091496 0.737814 -1.556933 0.055177 0.438507
    34 -2.321934 0.000000 0.000000 -3.141407 -1.278083 3.195989
    35 -1.783664 0.000000 0.000000 -0.005450 -0.988226 0.010765
    36 -3.454484 1.074954 1.672241 -1.442942 0.073409 0.343852
    37 -1.681395 0.000000 0.000000 -3.131914 -1.554872 -3.199317
    38 -1.453233 0.000000 0.000000 -0.005082 -1.073906 0.008757
    39 4.122983 -31.680959 -7.486109 0.000000 1.570796 -1.570796
    40 0.000000 -1.327049 -1.400981 0.000000 0.000000 0.000000
    41 0.000000 -1.377890 1.137398 0.000000 0.000000 0.000000
    42 0.000019 -3.372524 2.134745 0.000000 0.000000 0.000000
    43 0.003241 2.390460 6.292288 0.000000 0.000000 0.000000
    44 0.000001 2.019331 0.839982 0.000000 0.000000 0.000000
    45 0.000001 1.295025 -5.751849 0.023894 0.000000 0.000000
  time 30
    0 -3.509934 17.684133 -9.398724 0.000000 -1.570451 0.000000
    1 0.455634 -10.314221 3.508091 0.000000 1.570451 0.000000
    2 0.000000 -0.000002 0.000000 -0.632074 -0.259787 1.446971
    3 -15.296548 0.000003 0.000000 -0.000002 0.000008 1.102662
    4 -15.182516 -0.000001 0.000000 0.597258 -0.181474 -0.208441
    5 -0.566658 -0.606841 1.196676 3.653155 0.088428 0.611863
    6 -2.182800 0.000000 0.000001 -0.024703 0.588610 -0.046994
    7 -1.526287 0.000000 -0.000001 0.005918 0.110356 -0.012382
    8 -3.492492 1.036439 1.112366 1.653966 0.087307 0.871269
    9 -2.307071 0.000000 0.000000 0.000001 1.291725 0.038787
    10 -1.686814 0.000000 0.000000 0.005103 1.241776 0.009538
    11 -3.609122 1.098669 0.208994 1.598458 0.034452 0.996850
    12 -2.423007 0.000001 0.000000 -0.000243 1.488481 -0.001832
    13 -1.790748 0.000000 0.000000 0.013723 1.123662 0.035527
    14 -3.562686 0.896649 -0.737443 1.583307 0.028160 0.842681
    15 -2.321936 -0.000002 0.000000 0.000006 1.374654 0.054492
    16 -1.783666 0.000000 0.000000 0.005447 1.319948 0.010757
    17 -3.508631 0.883018 -1.671875 1.511620 -0.060099 0.679033
    18 -1.681394 0.000000 0.000000 -0.009487 1.097936 -0.057916
    19 -1.453231 0.000000 0.000000 0.005081 1.143855 0.008753
    20 0.471261 1.006395 -9.141076 0.000000 1.570451 0.000000
    21 0.000000 0.000002 0.000000 -3.075705 0.049082 2.120863
    22 -15.296544 0.000001 0.000000 0.000001 -0.000008 1.204163
    23 -15.182513 0.000000 0.000000 -0.010282 0.374013 -0.608005
    24 -0.599358 -0.574776 -1.196574 -3.488496 -0.110029 0.239656
    25 -2.096807 0.000000 0.000001 0.021469 -0.332099 -0.039349
    26 -1.420397 0.000000 0.000000 -0.005920 -0.354814 -0.012283
    27 -3.430256 1.227120 -1.112012 -1.561841 -0.206951 -0.005413
    28 -2.307071 0.000001 0.000001 -0.000007 -0.661281 0.037765
    29 -1.686813 0.000001 0.000000 -0.005104 -1.012040 0.009090
    30 -3.543174 1.295721 -0.208629 -1.579515 0.079618 0.470435
    31 -2.423008 -0.000001 0.000001 3.141740 -1.408646 -3.143329
    32 -1.790750 -0.000002 0.000000 -0.013727 -1.036248 0.035533
    33 -3.507818 1.091496 0.737814 -1.556933 0.055177 0.438507
    34 -2.321934 0.000000 0.000000 -3.141407 -1.278083 3.195989
    35 -1.783664 0.000000 0.000000 -0.005450 -0.988226 0.010765
    36 -3.454484 1.074954 1.672241 -1.442942 0.073409 0.343852
    37 -1.681395 0.000000 0.000000 -3.131914 -1.554872 -3.199317
    38 -1.453233 0.000000 0.000000 -0.005082 -1.073906 0.008757
    39 4.122983 -31.680959 -7.486109 0.000000 1.570796 -1.570796
    40 0.000000 -1.327049 -1.400981 0.000000 0.000000 0.000000
    41 0.000000 -1.377890 1.137398 0.000000 0.000000 0.000000
    42 0.000019 -3.372524 2.134745 0.000000 0.000000 0.000000
    43 0.003241 2.390460 6.292288 0.000000 0.000000 0.000000
    44 0.000001 2.019331 0.839982 0.000000 0.000000 0.000000
    45 0.000001 1.295025 -5.751849 0.000000 0.000000 0.000000
end
