
VertexLitGeneric
{

	$baseTexture				models/jessev92/hl2/weapons/cz75/cz75_d
	$bumpmap					models/jessev92/hl2/weapons/cz75/cz75_b

	$halflambert				1
	$ambientocclusion			1
	$nocull						0

	$phong						1
	$phongexponent				22
	$phongboost					1
 	$phongtint					"[ 0.7 0.9 1 ]"
 	$phongfresnelranges			"[ 1 8 4 ]"
 	$phongexponenttexture		models/jessev92/hl2/weapons/cz75/cz75_x
 	$phongwarptexture			models/jessev92/hl2/weapons/cz75/cz75_w
	
	$rimlight					1
	$rimlightexponent			28
	$rimlightboost				0.2
	
	$detail						detail/metal_detail_01
	$detailscale				2
	$detailblendfactor			0.95
	$detailblendmode			0
	
}
