
UnLitGeneric
{

	$baseTexture				models/jessev92/hl2/weapons/sg552/557_d
	$bumpmap					models/jessev92/hl2/weapons/sg552/557_b

	$halflambert				1
	$ambientocclusion			1
	$translucent				1
	$additive					1
	$selfillum					1

	$detail						detail/metal_detail_01
	$detailscale				4
	$detailblendfactor			0.95
	$detailblendmode			0
	
}

