

VertexLitGeneric
{

	$baseTexture				models/jessev92/hl2/weapons/sg552/spr_d
	$bumpmap					dev/bump_normal

	$halflambert				1
	$ambientocclusion			1

	$phong						1
	$phongexponent				50
	$phongboost					0.5
 	$phongfresnelranges			"[ 0.7 1.4 2.8 ]"
	$phongalbedotint			1
	$phongexponenttexture		models/jessev92/hl2/weapons/sg552/spr_x
	
	$detail						detail/metal_detail_01
	$detailscale				4
	$detailblendfactor			0.95
	$detailblendmode			0
	
}
