// Created by Crowbar 0.42.0.0
version 1
nodes
  0 "ValveBiped.Bip01_R_Hand" -1
  1 "ValveBiped.Weapon_bone" 0
end
skeleton
  time 0
    0 1.781250 -5.773438 -3.328125 -2.988848 0.080714 -4.700923
    1 4.999983 -1.500034 -5.000009 0.000000 0.000000 0.000000
  time 1
    0 1.781250 -5.773438 -3.328125 -2.988848 0.080714 -4.700923
    1 4.999983 -1.500034 -5.000009 0.000000 0.000000 0.000000
  time 2
    0 1.781250 -5.773438 -3.328125 -2.988848 0.080714 -4.700923
    1 4.999983 -1.500034 -5.000009 0.000000 0.000000 0.000000
  time 3
    0 1.781250 -5.773438 -3.328125 -2.988848 0.080714 -4.700923
    1 4.999983 -1.500034 -5.000009 0.000000 0.000000 0.000000
end
