// Created by Crowbar 0.29.0.0
version 1
nodes
  0 "polymsh" -1
end
skeleton
  time 0
    0 0.000000 0.000000 0.000000 1.570796 0.000000 0.000000
end
triangles
  phy
    0 0.609998 5.623069 0.205669 -0.224143 -0.969748 0.096685 0 0
    0 0.068477 3.979606 0.436742 -0.068503 -0.988893 -0.131903 0 0
    0 0.715253 4.935527 0.343690 -0.088238 -0.996073 0.007238 0 0
  phy
    0 0.715253 4.935527 0.343690 -0.088238 -0.996073 0.007238 0 0
    0 5.469726 1.355002 0.626325 -0.162601 0.984703 0.062612 0 0
    0 0.609998 5.623069 0.205669 -0.224143 -0.969748 0.096685 0 0
  phy
    0 0.068477 3.979606 0.436742 -0.068503 -0.988893 -0.131903 0 0
    0 5.469726 1.355002 0.626325 -0.162601 0.984703 0.062612 0 0
    0 0.715253 4.935527 0.343690 -0.088238 -0.996073 0.007238 0 0
  phy
    0 -4.667004 -1.533993 -1.324686 -0.808363 -0.583324 -0.079258 0 0
    0 -3.227460 2.983064 -1.453422 0.179731 -0.983672 0.009301 0 0
    0 -3.844912 -2.940639 -1.505827 0.492688 -0.860882 -0.127049 0 0
  phy
    0 -3.227460 2.983064 -1.453422 0.179731 -0.983672 0.009301 0 0
    0 -4.667004 -1.533993 -1.324686 -0.808363 -0.583324 -0.079258 0 0
    0 -4.010697 3.446075 -1.304524 -0.539602 0.824339 -0.171157 0 0
  phy
    0 -4.667004 -1.533993 -1.324686 -0.808363 -0.583324 -0.079258 0 0
    0 -3.844912 -2.940639 -1.505827 0.492688 -0.860882 -0.127049 0 0
    0 -4.241945 -3.542006 -1.117621 -0.956840 0.000099 -0.290617 0 0
  phy
    0 -4.667004 -1.533993 -1.324686 -0.808363 -0.583324 -0.079258 0 0
    0 -4.241945 -3.542006 -1.117621 -0.956840 0.000099 -0.290617 0 0
    0 -5.403977 -2.029298 -0.738435 -0.956840 0.000099 -0.290617 0 0
  phy
    0 -4.010697 3.446075 -1.304524 -0.539602 0.824339 -0.171157 0 0
    0 -4.667004 -1.533993 -1.324686 -0.808363 -0.583324 -0.079258 0 0
    0 -5.513784 -1.530729 -0.611944 -0.034457 0.997671 -0.058859 0 0
  phy
    0 -5.513784 -1.530729 -0.611944 -0.034457 0.997671 -0.058859 0 0
    0 -4.667004 -1.533993 -1.324686 -0.808363 -0.583324 -0.079258 0 0
    0 -5.403977 -2.029298 -0.738435 -0.956840 0.000099 -0.290617 0 0
  phy
    0 0.609998 5.623069 0.205669 -0.224143 -0.969748 0.096685 0 0
    0 -4.193939 3.475222 -0.449118 0.016310 -0.997989 -0.061258 0 0
    0 -3.789549 3.411181 -0.181589 -0.034457 0.997671 -0.058859 0 0
  phy
    0 -4.193939 3.475222 -0.449118 0.016310 -0.997989 -0.061258 0 0
    0 0.609998 5.623069 0.205669 -0.224143 -0.969748 0.096685 0 0
    0 0.676085 5.942866 -0.311459 -0.882216 0.194596 -0.428751 0 0
  phy
    0 0.609998 5.623069 0.205669 -0.224143 -0.969748 0.096685 0 0
    0 5.064248 3.362413 0.137860 0.363201 0.930725 0.042846 0 0
    0 5.676529 3.399094 -0.104763 -0.088484 -0.989652 0.112959 0 0
  phy
    0 0.609998 5.623069 0.205669 -0.224143 -0.969748 0.096685 0 0
    0 5.676529 3.399094 -0.104763 -0.088484 -0.989652 0.112959 0 0
    0 0.676085 5.942866 -0.311459 -0.882216 0.194596 -0.428751 0 0
  phy
    0 0.609998 5.623069 0.205669 -0.224143 -0.969748 0.096685 0 0
    0 -3.789549 3.411181 -0.181589 -0.034457 0.997671 -0.058859 0 0
    0 0.068477 3.979606 0.436742 -0.068503 -0.988893 -0.131903 0 0
  phy
    0 5.004421 2.899634 0.315698 -0.333078 -0.942119 0.038344 0 0
    0 5.064248 3.362413 0.137860 0.363201 0.930725 0.042846 0 0
    0 0.609998 5.623069 0.205669 -0.224143 -0.969748 0.096685 0 0
  phy
    0 0.609998 5.623069 0.205669 -0.224143 -0.969748 0.096685 0 0
    0 5.469726 1.355002 0.626325 -0.162601 0.984703 0.062612 0 0
    0 5.004421 2.899634 0.315698 -0.333078 -0.942119 0.038344 0 0
  phy
    0 0.893794 -5.905638 1.081906 0.009624 -0.999947 -0.003568 0 0
    0 5.355718 -4.729468 -0.385633 -0.162601 0.984703 0.062612 0 0
    0 5.152156 0.885643 0.672014 -0.075430 -0.997150 0.001653 0 0
  phy
    0 5.355718 -4.729468 -0.385633 -0.162601 0.984703 0.062612 0 0
    0 5.469726 1.355002 0.626325 -0.162601 0.984703 0.062612 0 0
    0 5.152156 0.885643 0.672014 -0.075430 -0.997150 0.001653 0 0
  phy
    0 0.068477 3.979606 0.436742 -0.068503 -0.988893 -0.131903 0 0
    0 0.287915 -4.669685 1.065166 -0.164277 0.984803 -0.056362 0 0
    0 5.152156 0.885643 0.672014 -0.075430 -0.997150 0.001653 0 0
  phy
    0 5.152156 0.885643 0.672014 -0.075430 -0.997150 0.001653 0 0
    0 0.287915 -4.669685 1.065166 -0.164277 0.984803 -0.056362 0 0
    0 0.561243 -4.996556 1.089469 -0.164277 0.984803 -0.056362 0 0
  phy
    0 0.561243 -4.996556 1.089469 -0.164277 0.984803 -0.056362 0 0
    0 0.893794 -5.905638 1.081906 0.009624 -0.999947 -0.003568 0 0
    0 5.152156 0.885643 0.672014 -0.075430 -0.997150 0.001653 0 0
  phy
    0 5.152156 0.885643 0.672014 -0.075430 -0.997150 0.001653 0 0
    0 5.469726 1.355002 0.626325 -0.162601 0.984703 0.062612 0 0
    0 0.068477 3.979606 0.436742 -0.068503 -0.988893 -0.131903 0 0
  phy
    0 -5.513784 -1.530729 -0.611944 -0.034457 0.997671 -0.058859 0 0
    0 -5.403977 -2.029298 -0.738435 -0.956840 0.000099 -0.290617 0 0
    0 -4.319791 -3.121633 -0.306804 -0.473489 -0.877898 -0.071435 0 0
  phy
    0 -5.403977 -2.029298 -0.738435 -0.956840 0.000099 -0.290617 0 0
    0 -4.241904 -3.541925 -0.450254 -0.956840 0.000099 -0.290617 0 0
    0 -4.319791 -3.121633 -0.306804 -0.473489 -0.877898 -0.071435 0 0
  phy
    0 -0.880656 -5.661733 0.966559 -0.142041 -0.977362 -0.156805 0 0
    0 -5.513784 -1.530729 -0.611944 -0.034457 0.997671 -0.058859 0 0
    0 -4.319791 -3.121633 -0.306804 -0.473489 -0.877898 -0.071435 0 0
  phy
    0 -4.319791 -3.121633 -0.306804 -0.473489 -0.877898 -0.071435 0 0
    0 -4.241904 -3.541925 -0.450254 -0.956840 0.000099 -0.290617 0 0
    0 -0.880656 -5.661733 0.966559 -0.142041 -0.977362 -0.156805 0 0
  phy
    0 5.331587 -4.881670 -0.819089 -0.551680 -0.832656 0.048303 0 0
    0 5.355718 -4.729468 -0.385633 -0.162601 0.984703 0.062612 0 0
    0 0.503353 -6.588237 1.068335 0.009624 -0.999947 -0.003568 0 0
  phy
    0 0.503353 -6.588237 1.068335 0.009624 -0.999947 -0.003568 0 0
    0 0.482494 -6.651570 0.373090 -0.551680 -0.832656 0.048303 0 0
    0 5.331587 -4.881670 -0.819089 -0.551680 -0.832656 0.048303 0 0
  phy
    0 0.503353 -6.588237 1.068335 0.009624 -0.999947 -0.003568 0 0
    0 5.355718 -4.729468 -0.385633 -0.162601 0.984703 0.062612 0 0
    0 0.893794 -5.905638 1.081906 0.009624 -0.999947 -0.003568 0 0
  phy
    0 -0.880656 -5.661733 0.966559 -0.142041 -0.977362 -0.156805 0 0
    0 0.482494 -6.651570 0.373090 -0.551680 -0.832656 0.048303 0 0
    0 0.503353 -6.588237 1.068335 0.009624 -0.999947 -0.003568 0 0
  phy
    0 0.503353 -6.588237 1.068335 0.009624 -0.999947 -0.003568 0 0
    0 0.561243 -4.996556 1.089469 -0.164277 0.984803 -0.056362 0 0
    0 -0.880656 -5.661733 0.966559 -0.142041 -0.977362 -0.156805 0 0
  phy
    0 0.503353 -6.588237 1.068335 0.009624 -0.999947 -0.003568 0 0
    0 0.893794 -5.905638 1.081906 0.009624 -0.999947 -0.003568 0 0
    0 0.561243 -4.996556 1.089469 -0.164277 0.984803 -0.056362 0 0
  phy
    0 -4.010697 3.446075 -1.304524 -0.539602 0.824339 -0.171157 0 0
    0 -4.242890 3.482916 -0.908431 -0.055968 0.994404 -0.089600 0 0
    0 0.676085 5.942866 -0.311459 -0.882216 0.194596 -0.428751 0 0
  phy
    0 -4.242890 3.482916 -0.908431 -0.055968 0.994404 -0.089600 0 0
    0 -4.193939 3.475222 -0.449118 0.016310 -0.997989 -0.061258 0 0
    0 0.676085 5.942866 -0.311459 -0.882216 0.194596 -0.428751 0 0
  phy
    0 -4.242890 3.482916 -0.908431 -0.055968 0.994404 -0.089600 0 0
    0 -4.010697 3.446075 -1.304524 -0.539602 0.824339 -0.171157 0 0
    0 -5.513784 -1.530729 -0.611944 -0.034457 0.997671 -0.058859 0 0
  phy
    0 -4.242890 3.482916 -0.908431 -0.055968 0.994404 -0.089600 0 0
    0 -5.513784 -1.530729 -0.611944 -0.034457 0.997671 -0.058859 0 0
    0 -4.193939 3.475222 -0.449118 0.016310 -0.997989 -0.061258 0 0
  phy
    0 -3.844912 -2.940639 -1.505827 0.492688 -0.860882 -0.127049 0 0
    0 -3.227460 2.983064 -1.453422 0.179731 -0.983672 0.009301 0 0
    0 -3.370422 -3.063020 -1.505842 0.008851 0.999722 0.021835 0 0
  phy
    0 -3.227460 2.983064 -1.453422 0.179731 -0.983672 0.009301 0 0
    0 -2.089123 2.804997 -1.452460 0.008851 0.999722 0.021835 0 0
    0 -3.370422 -3.063020 -1.505842 0.008851 0.999722 0.021835 0 0
  phy
    0 -3.227460 2.983064 -1.453422 0.179731 -0.983672 0.009301 0 0
    0 -4.010697 3.446075 -1.304524 -0.539602 0.824339 -0.171157 0 0
    0 0.762687 5.521013 -0.983169 -0.071793 0.993504 0.088289 0 0
  phy
    0 -3.227460 2.983064 -1.453422 0.179731 -0.983672 0.009301 0 0
    0 0.762687 5.521013 -0.983169 -0.071793 0.993504 0.088289 0 0
    0 -2.089123 2.804997 -1.452460 0.008851 0.999722 0.021835 0 0
  phy
    0 4.593603 -4.551634 -1.261533 -0.030354 0.998879 0.036316 0 0
    0 -3.741496 -3.535068 -1.189027 -0.434348 -0.900657 -0.012615 0 0
    0 -3.370422 -3.063020 -1.505842 0.008851 0.999722 0.021835 0 0
  phy
    0 -3.741496 -3.535068 -1.189027 -0.434348 -0.900657 -0.012615 0 0
    0 4.593603 -4.551634 -1.261533 -0.030354 0.998879 0.036316 0 0
    0 0.482494 -6.651570 0.373090 -0.551680 -0.832656 0.048303 0 0
  phy
    0 -3.741496 -3.535068 -1.189027 -0.434348 -0.900657 -0.012615 0 0
    0 -4.241945 -3.542006 -1.117621 -0.956840 0.000099 -0.290617 0 0
    0 -3.370422 -3.063020 -1.505842 0.008851 0.999722 0.021835 0 0
  phy
    0 -4.241945 -3.542006 -1.117621 -0.956840 0.000099 -0.290617 0 0
    0 -3.741496 -3.535068 -1.189027 -0.434348 -0.900657 -0.012615 0 0
    0 0.482494 -6.651570 0.373090 -0.551680 -0.832656 0.048303 0 0
  phy
    0 -4.241945 -3.542006 -1.117621 -0.956840 0.000099 -0.290617 0 0
    0 -3.844912 -2.940639 -1.505827 0.492688 -0.860882 -0.127049 0 0
    0 -3.370422 -3.063020 -1.505842 0.008851 0.999722 0.021835 0 0
  phy
    0 5.676529 3.399094 -0.104763 -0.088484 -0.989652 0.112959 0 0
    0 5.064248 3.362413 0.137860 0.363201 0.930725 0.042846 0 0
    0 5.004421 2.899634 0.315698 -0.333078 -0.942119 0.038344 0 0
  phy
    0 5.004421 2.899634 0.315698 -0.333078 -0.942119 0.038344 0 0
    0 5.469726 1.355002 0.626325 -0.162601 0.984703 0.062612 0 0
    0 5.676529 3.399094 -0.104763 -0.088484 -0.989652 0.112959 0 0
  phy
    0 5.676529 3.399094 -0.104763 -0.088484 -0.989652 0.112959 0 0
    0 0.995846 5.881937 -0.749546 -0.502893 0.795286 0.338555 0 0
    0 0.676085 5.942866 -0.311459 -0.882216 0.194596 -0.428751 0 0
  phy
    0 5.676529 3.399094 -0.104763 -0.088484 -0.989652 0.112959 0 0
    0 5.469726 1.355002 0.626325 -0.162601 0.984703 0.062612 0 0
    0 6.173858 1.201822 0.238102 -0.162601 0.984703 0.062612 0 0
  phy
    0 0.995846 5.881937 -0.749546 -0.502893 0.795286 0.338555 0 0
    0 5.676529 3.399094 -0.104763 -0.088484 -0.989652 0.112959 0 0
    0 5.050878 3.293805 -0.659897 -0.502893 0.795286 0.338555 0 0
  phy
    0 5.676529 3.399094 -0.104763 -0.088484 -0.989652 0.112959 0 0
    0 6.173858 1.201822 0.238102 -0.162601 0.984703 0.062612 0 0
    0 5.905905 1.474895 -0.594862 0.099032 -0.993586 0.054592 0 0
  phy
    0 5.676529 3.399094 -0.104763 -0.088484 -0.989652 0.112959 0 0
    0 5.905905 1.474895 -0.594862 0.099032 -0.993586 0.054592 0 0
    0 5.050878 3.293805 -0.659897 -0.502893 0.795286 0.338555 0 0
  phy
    0 0.762687 5.521013 -0.983169 -0.071793 0.993504 0.088289 0 0
    0 5.413942 1.267626 -0.814425 -0.090856 0.995092 0.039213 0 0
    0 4.105353 -3.266997 -1.340758 0.008851 0.999722 0.021835 0 0
  phy
    0 5.413942 1.267626 -0.814425 -0.090856 0.995092 0.039213 0 0
    0 0.762687 5.521013 -0.983169 -0.071793 0.993504 0.088289 0 0
    0 5.050878 3.293805 -0.659897 -0.502893 0.795286 0.338555 0 0
  phy
    0 4.105353 -3.266997 -1.340758 0.008851 0.999722 0.021835 0 0
    0 5.413942 1.267626 -0.814425 -0.090856 0.995092 0.039213 0 0
    0 5.355669 -4.729565 -1.183036 -0.551680 -0.832656 0.048303 0 0
  phy
    0 5.905905 1.474895 -0.594862 0.099032 -0.993586 0.054592 0 0
    0 5.413942 1.267626 -0.814425 -0.090856 0.995092 0.039213 0 0
    0 5.050878 3.293805 -0.659897 -0.502893 0.795286 0.338555 0 0
  phy
    0 5.413942 1.267626 -0.814425 -0.090856 0.995092 0.039213 0 0
    0 5.905905 1.474895 -0.594862 0.099032 -0.993586 0.054592 0 0
    0 5.355669 -4.729565 -1.183036 -0.551680 -0.832656 0.048303 0 0
  phy
    0 0.068477 3.979606 0.436742 -0.068503 -0.988893 -0.131903 0 0
    0 -3.789549 3.411181 -0.181589 -0.034457 0.997671 -0.058859 0 0
    0 -0.880656 -5.661733 0.966559 -0.142041 -0.977362 -0.156805 0 0
  phy
    0 -0.880656 -5.661733 0.966559 -0.142041 -0.977362 -0.156805 0 0
    0 0.287915 -4.669685 1.065166 -0.164277 0.984803 -0.056362 0 0
    0 0.068477 3.979606 0.436742 -0.068503 -0.988893 -0.131903 0 0
  phy
    0 -4.241904 -3.541925 -0.450254 -0.956840 0.000099 -0.290617 0 0
    0 0.482494 -6.651570 0.373090 -0.551680 -0.832656 0.048303 0 0
    0 -0.880656 -5.661733 0.966559 -0.142041 -0.977362 -0.156805 0 0
  phy
    0 -0.880656 -5.661733 0.966559 -0.142041 -0.977362 -0.156805 0 0
    0 -4.835477 -1.406957 -0.286291 -0.034457 0.997671 -0.058859 0 0
    0 -5.513784 -1.530729 -0.611944 -0.034457 0.997671 -0.058859 0 0
  phy
    0 0.561243 -4.996556 1.089469 -0.164277 0.984803 -0.056362 0 0
    0 0.287915 -4.669685 1.065166 -0.164277 0.984803 -0.056362 0 0
    0 -0.880656 -5.661733 0.966559 -0.142041 -0.977362 -0.156805 0 0
  phy
    0 -3.789549 3.411181 -0.181589 -0.034457 0.997671 -0.058859 0 0
    0 -4.835477 -1.406957 -0.286291 -0.034457 0.997671 -0.058859 0 0
    0 -0.880656 -5.661733 0.966559 -0.142041 -0.977362 -0.156805 0 0
  phy
    0 0.995846 5.881937 -0.749546 -0.502893 0.795286 0.338555 0 0
    0 -4.010697 3.446075 -1.304524 -0.539602 0.824339 -0.171157 0 0
    0 0.676085 5.942866 -0.311459 -0.882216 0.194596 -0.428751 0 0
  phy
    0 0.762687 5.521013 -0.983169 -0.071793 0.993504 0.088289 0 0
    0 -4.010697 3.446075 -1.304524 -0.539602 0.824339 -0.171157 0 0
    0 0.995846 5.881937 -0.749546 -0.502893 0.795286 0.338555 0 0
  phy
    0 -3.789549 3.411181 -0.181589 -0.034457 0.997671 -0.058859 0 0
    0 -4.193939 3.475222 -0.449118 0.016310 -0.997989 -0.061258 0 0
    0 -5.513784 -1.530729 -0.611944 -0.034457 0.997671 -0.058859 0 0
  phy
    0 -5.513784 -1.530729 -0.611944 -0.034457 0.997671 -0.058859 0 0
    0 -4.835477 -1.406957 -0.286291 -0.034457 0.997671 -0.058859 0 0
    0 -3.789549 3.411181 -0.181589 -0.034457 0.997671 -0.058859 0 0
  phy
    0 -4.241945 -3.542006 -1.117621 -0.956840 0.000099 -0.290617 0 0
    0 0.482494 -6.651570 0.373090 -0.551680 -0.832656 0.048303 0 0
    0 -4.241904 -3.541925 -0.450254 -0.956840 0.000099 -0.290617 0 0
  phy
    0 -5.403977 -2.029298 -0.738435 -0.956840 0.000099 -0.290617 0 0
    0 -4.241945 -3.542006 -1.117621 -0.956840 0.000099 -0.290617 0 0
    0 -4.241904 -3.541925 -0.450254 -0.956840 0.000099 -0.290617 0 0
  phy
    0 5.905905 1.474895 -0.594862 0.099032 -0.993586 0.054592 0 0
    0 6.173858 1.201822 0.238102 -0.162601 0.984703 0.062612 0 0
    0 5.540713 -3.974790 -0.860840 -0.376664 -0.787861 0.487237 0 0
  phy
    0 5.540713 -3.974790 -0.860840 -0.376664 -0.787861 0.487237 0 0
    0 5.355669 -4.729565 -1.183036 -0.551680 -0.832656 0.048303 0 0
    0 5.905905 1.474895 -0.594862 0.099032 -0.993586 0.054592 0 0
  phy
    0 5.540713 -3.974790 -0.860840 -0.376664 -0.787861 0.487237 0 0
    0 5.355718 -4.729468 -0.385633 -0.162601 0.984703 0.062612 0 0
    0 5.331587 -4.881670 -0.819089 -0.551680 -0.832656 0.048303 0 0
  phy
    0 5.331587 -4.881670 -0.819089 -0.551680 -0.832656 0.048303 0 0
    0 5.355669 -4.729565 -1.183036 -0.551680 -0.832656 0.048303 0 0
    0 5.540713 -3.974790 -0.860840 -0.376664 -0.787861 0.487237 0 0
  phy
    0 6.173858 1.201822 0.238102 -0.162601 0.984703 0.062612 0 0
    0 5.355718 -4.729468 -0.385633 -0.162601 0.984703 0.062612 0 0
    0 5.540713 -3.974790 -0.860840 -0.376664 -0.787861 0.487237 0 0
  phy
    0 0.762687 5.521013 -0.983169 -0.071793 0.993504 0.088289 0 0
    0 0.995846 5.881937 -0.749546 -0.502893 0.795286 0.338555 0 0
    0 5.050878 3.293805 -0.659897 -0.502893 0.795286 0.338555 0 0
  phy
    0 0.762687 5.521013 -0.983169 -0.071793 0.993504 0.088289 0 0
    0 4.105353 -3.266997 -1.340758 0.008851 0.999722 0.021835 0 0
    0 -2.089123 2.804997 -1.452460 0.008851 0.999722 0.021835 0 0
  phy
    0 4.593603 -4.551634 -1.261533 -0.030354 0.998879 0.036316 0 0
    0 5.355669 -4.729565 -1.183036 -0.551680 -0.832656 0.048303 0 0
    0 0.482494 -6.651570 0.373090 -0.551680 -0.832656 0.048303 0 0
  phy
    0 4.593603 -4.551634 -1.261533 -0.030354 0.998879 0.036316 0 0
    0 4.105353 -3.266997 -1.340758 0.008851 0.999722 0.021835 0 0
    0 5.355669 -4.729565 -1.183036 -0.551680 -0.832656 0.048303 0 0
  phy
    0 4.105353 -3.266997 -1.340758 0.008851 0.999722 0.021835 0 0
    0 4.593603 -4.551634 -1.261533 -0.030354 0.998879 0.036316 0 0
    0 -3.370422 -3.063020 -1.505842 0.008851 0.999722 0.021835 0 0
  phy
    0 5.331587 -4.881670 -0.819089 -0.551680 -0.832656 0.048303 0 0
    0 0.482494 -6.651570 0.373090 -0.551680 -0.832656 0.048303 0 0
    0 5.355669 -4.729565 -1.183036 -0.551680 -0.832656 0.048303 0 0
  phy
    0 6.173858 1.201822 0.238102 -0.162601 0.984703 0.062612 0 0
    0 5.469726 1.355002 0.626325 -0.162601 0.984703 0.062612 0 0
    0 5.355718 -4.729468 -0.385633 -0.162601 0.984703 0.062612 0 0
  phy
    0 -2.089123 2.804997 -1.452460 0.008851 0.999722 0.021835 0 0
    0 4.105353 -3.266997 -1.340758 0.008851 0.999722 0.021835 0 0
    0 -3.370422 -3.063020 -1.505842 0.008851 0.999722 0.021835 0 0
end
