
$cd gatling
$mostlyopaque
$ambientboost

$modelname fofpons/gatling_top

$model gatling gatling_top_reference

$surfaceprop metal

$contents solid

$maxeyedeflection 90

$cdmaterials models/jessev92/fof/weapons/gatling
$cdmaterials models/jessev92/fof/weapons
$cdmaterials models/fofpons/gatling
$cdmaterials models/fofpons

$attachment "muzzle" "gatling.gun_pitch" 0 4.9 36.68 rotate -90 0 0
$attachment "eject" "gatling.base" 2.8 5.6 -21 rotate 0 -15 0
$attachment "aimrotation" "gatling.base" 0 0 0 rotate -90 0 0
$attachment "l_hand" "gatling.l_hand" 0 0 0 rotate -90 0 0
$attachment "r_hand" "gatling.r_hand" 0 0 0 rotate -90 0 0

$bbox -34.942 -10.64 -0.069 39.038 8.622 32.236

$definebone "gatling.base" "" 0 0 0 0 0 89.999983 0 0 0 0 0 0
$definebone "gatling.gun_yaw" "gatling.base" 0 8.434931 -0.052025 0 0 0 0 0 0 0 0 0
$definebone "gatling.gun_pitch" "gatling.gun_yaw" 0 -0.002207 -0.008672 0 0 0 0 0 0 0 0 0
$definebone "gatling.barrels" "gatling.gun_pitch" 0 1.110526 29.059147 0 0 0 0 0 0 0 0 0
$definebone "gatling.lever" "gatling.gun_pitch" 0 0.178053 -27.700426 0 0 0 0 0 0 0 0 0
$definebone "gatling.l_hand" "gatling.gun_pitch" 0 2.493216 -34.881577 0 0 0 0 0 0 0 0 0
$definebone "gatling.r_hand" "gatling.gun_pitch" -8.203174 7.487929 -33.768333 0 0 0 0 0 0 0 0 0

$poseparameter "aim_yaw" -60 60 0

$animation "gdelta" "gatling_top_anims\gdelta.smd" {
	fps 30
}

$animation "mid_right" "gatling_top_anims\mid_right.smd" {
	fps 30
	// this subtract line guesses the animation name and frame index. there is no way to determine which $animation and which frame was used. change as needed.
	subtract "gdelta" 0
}

$animation "mid_center" "gatling_top_anims\mid_center.smd" {
	fps 30
	// this subtract line guesses the animation name and frame index. there is no way to determine which $animation and which frame was used. change as needed.
	subtract "gdelta" 0
}

$animation "mid_left" "gatling_top_anims\mid_left.smd" {
	fps 30
	// this subtract line guesses the animation name and frame index. there is no way to determine which $animation and which frame was used. change as needed.
	subtract "gdelta" 0
}

$sequence "idle" {
	"gatling_top_anims\idle.smd"
	activity "act_bunker_gun_active_idle" 1
	fadein 0.2
	fadeout 0.2
	snap
	fps 30
	loop
}

$sequence "fire" {
	"gatling_top_anims\fire.smd"
	activity "act_bunker_gun_fire" 1
	{ event ae_npc_muzzleflash 0 "shotgun muzzle" }
	{ event 5003 0 "2" }
	{ event 6001 2 "1" }
	fadein 0.2
	fadeout 0.2
	fps 60
}

$sequence "idle_inactive" {
	"gatling_top_anims\idle_inactive.smd"
	activity "act_bunker_gun_inactive_idle" 1
	fadein 0.2
	fadeout 0.2
	fps 30
}

$sequence "activate" {
	"gatling_top_anims\activate.smd"
	activity "act_bunker_gun_activate" 1
	fadein 0.2
	fadeout 0.2
	fps 30
}

$sequence "retract" {
	"gatling_top_anims\retract.smd"
	activity "act_bunker_gun_retract" 1
	fadein 0.2
	fadeout 0.2
	fps 30
}

$sequence "aim" {
	"mid_right"
	"mid_center"
	"mid_left"
	autoplay
	blend "aim_yaw" -60 60
	blendwidth 3
	delta
	fadein 0.2
	fadeout 0.2
	fps 30
	// this subtract line guesses the animation name and frame index. there is no way to determine which $animation and which frame was used. change as needed.
	subtract "gdelta" 0
}

$collisionmodel "gatling_top_physics.smd"
{
	$mass 1
	$inertia 1
	$damping 0
	$rotdamping 0
	$rootbone " "

}

$keyvalues
{
	bone_followers 
	{
		"bone" "gatling.gun_pitch"
	}
}
