
vertexlitgeneric
{

	$basetexture models/fofpons/dynamite/cigar_d
	$bumpmap models/fofpons/dynamite/cigar_b
	$lightwarptexture dev/identitylightwarp

	$halflambert 1
	$ambientocclusion 1

	$surfaceprop carpet
	
	$selfillum 1
	$selfillummask models/fofpons/dynamite/cigar_i

	$phong 1
	$phongexponent 1
	$phongboost 0.1
	$phongfresnelranges "[ 0.2 1 8 ]"
	$phongalbedotint 1

	$rimlight 1
	$rimlightexponent 0.01
	$rimlightboost 0.05

}
