
vertexlitgeneric
{

	$basetexture models/fofpons/deringer/deringer_d
	$bumpmap models/fofpons/deringer/deringer_b
	$lightwarptexture dev/identitylightwarp

	$halflambert 1
	$ambientocclusion 1

	$surfaceprop weapon

	// $envmap env_cubemap
	// $envmaptint "[ 0.1 0.1 0.15 ]"
	// $envmapconstrast 1
	// $envmapsaturation 0.25
	// $envmapmask models/fofpons/deringer/deringer_x
	// $envmapfresnelminmaxexp "[ 0 5 0.4 ]"

	$phong 1
	// $phongexponent 8
	$phongexponenttexture models/fofpons/deringer/deringer_x
	$phongfresnelranges "[ 10 10 30 ]"
	$phongboost 1
	$phongalbedotint 1

	$rimlight 1
	$rimlightexponent 512
	$rimexponent 512
	$rimlightboost 0.1

	$detail models/fofpons/deringer/deringer_dt_gold
	$detailscale 1
	$detailblendfactor 0
	$detailblendmode 1	

}