
vertexlitgeneric
{

	$basetexture models/fofpons/dynamite/dynamite_yellow_d
	$bumpmap dev/bump_normal
	$lightwarptexture dev/identitylightwarp

	$halflambert 1
	$ambientocclusion 1

	$surfaceprop weapon

	// $envmap env_cubemap
	// $envmaptint "[ 0.1 0.1 0.15 ]"
	// $envmapconstrast 1
	// $envmapsaturation 0.25
	// $envmapmask models/fofpons/deringer/deringer_x
	// $envmapfresnelminmaxexp "[ 0 5 0.4 ]"

	$phong 1
	$phongexponent 1
	$phongboost 0.1
	$phongexponenttexture models/fofpons/dynamite/dynamite_x
	$phongfresnelranges "[ 0.2 1 8 ]"
	$phongalbedotint 1

	$rimlight 1
	$rimlightexponent 0.01
	$rimlightboost 0.05

}
