
vertexlitgeneric
{

	$basetexture models/fofpons/bow/fire_arrow
	$bumpmap dev/bump_normal
	$lightwarptexture dev/identitylightwarp

	$halflambert 1
	$ambientocclusion 1

	$surfaceprop wood
	
	$nocull 1
	$alphatest 1

}
