
vertexlitgeneric
{

	$basetexture models/fofpons/sawnoff/sawnoff_d
	$bumpmap models/fofpons/sawnoff/sawnoff_b
	$lightwarptexture dev/identitylightwarp

	$halflambert 1
	$ambientocclusion 1

	$surfaceprop weapon

	// $envmap env_cubemap
	// $envmaptint "[ 0.1 0.1 0.1 ]"
	// $envmapconstrast 0.5
	// $envmapsaturation 0.1
	// $envmapmask models/fofpons/sawnoff/sawnoff_x

	$phong 1
	$phongexponent 32
	$phongexponenttexture models/fofpons/sawnoff/sawnoff_x
	$phongfresnelranges "[ 0.75 0.5 1 ]"
	$phongboost 0.2
	$phongalbedotint 1

	$rimlight 1
	$rimlightexponent 512
	$rimexponent 512
	$rimlightboost 0.1

	$detail models/fofpons/sawnoff/sawnoff_dt_gold
	$detailscale 1
	$detailblendfactor 0
	$detailblendmode 1

}