
vertexlitgeneric
{

	$basetexture models/fofpons/sharps/scope_d
	$bumpmap dev/bump_normal
	$lightwarptexture dev/identitylightwarp

	$halflambert 1
	$ambientocclusion 1

	$surfaceprop weapon

	$phong 1
	$phongexponent 16
	$phongexponenttexture models/fofpons/sharps/scope_x
	$phongfresnelranges "[ 0.75 0.5 1 ]"
	$phongboost 0.2
	$phongalbedotint 1

	$rimlight 1
	$rimlightexponent 512
	$rimexponent 512
	$rimlightboost 0.1

}
