
vertexlitgeneric
{

	$basetexture models/fofpons/m1893/m1893_d
	$bumpmap models/fofpons/m1893/m1893_b
	$lightwarptexture dev/identitylightwarp

	$halflambert 1
	$ambientocclusion 1

	$surfaceprop weapon

	// $envmap env_cubemap
	// $envmaptint "[ 0.1 0.1 0.1 ]"
	// $envmapconstrast 0.5
	// $envmapsaturation 0.1
	// $envmapmask models/fofpons/m1893/m1893_x

	$phong 1
	$phongexponent 16
	$phongexponenttexture models/fofpons/m1893/m1893_x
	$phongfresnelranges "[ 0.75 0.5 1 ]"
	$phongboost 2
	$phongalbedotint 1

	$rimlight 1
	$rimlightexponent 512
	$rimexponent 512
	$rimlightboost 0.1

}
