
vertexlitgeneric
{

	$basetexture models/fofpons/hands/v_hands_d
	$bumpmap models/fofpons/hands/v_hands_b
	$lightwarptexture models/jessev92/detail/w_skin
	// $lightwarptexture dev/identitylightwarp

	$halflambert 1
	$ambientocclusion 1

	$surfaceprop flesh

	// $envmap env_cubemap
	// $envmaptint "[ 0.1 0.1 0.1 ]"
	// $envmapconstrast 0.5
	// $envmapsaturation 0.1
	// $envmapmask models/fofpons/coltnavy/carbine_x

	$phong 1
	$phongexponent 0.5
	$phongfresnelranges "[ 3 5 8 ]"
	$phongboost 0.01
	$phongalbedotint 1

	$rimlight 1
	$rimlightexponent 0.01
	$rimexponent 512
	$rimlightboost 0.03

	$detail models/weapons/c_arms_citizen/skin_detail
	$detailscale 4
	$detailblendfactor 0
	$detailblendmode 1

}
