
vertexlitgeneric
{

	$basetexture models/fofpons/knife/knife_d
	$bumpmap models/fofpons/knife/knife_b
	$lightwarptexture dev/identitylightwarp

	$halflambert 1
	$ambientocclusion 1

	$surfaceprop weapon

	// $envmap env_cubemap
	// $envmaptint "[ 0.1 0.1 0.1 ]"
	// $envmapconstrast 1
	// $envmapsaturation 0.25
	// $envmapmask models/fofpons/carbine/carbine_x

	$phong 1
	// $phongexponent 8
	$phongexponenttexture models/fofpons/knife/knife_x
	$phongfresnelranges "[ 0.75 0.5 1 ]"
	$phongboost 1
	$phongalbedotint 1

	$rimlight 1
	$rimlightexponent 512
	$rimexponent 512
	$rimlightboost 0.1

}