// Created by Crowbar 0.29.0.0
version 1
nodes
  0 "aks74" -1
  1 "magazine" -1
  2 "bolt_cover" -1
  3 "mag_release" -1
  4 "trigger" -1
  5 "fire_selector" -1
  6 "L_Armdummy" -1
  7 "L_Upperarm" 6
  8 "L_Forearm" 7
  9 "L_Wrist" 8
  10 "L_Thumb1" 9
  11 "L_Thumb2" 10
  12 "L_Thumb3" 11
  13 "L_Index1" 9
  14 "L_Index2" 13
  15 "L_Index3" 14
  16 "L_Mid1" 9
  17 "L_Mid2" 16
  18 "L_Mid3" 17
  19 "L_Ring1" 9
  20 "L_Ring2" 19
  21 "L_Ring3" 20
  22 "L_Pinky1" 9
  23 "L_Pinky2" 22
  24 "L_Pinky3" 23
  25 "R_Armdummy" -1
  26 "R_Upperarm" 25
  27 "R_Forearm" 26
  28 "R_Wrist" 27
  29 "R_Thumb1" 28
  30 "R_Thumb2" 29
  31 "R_Thumb3" 30
  32 "R_Index1" 28
  33 "R_Index2" 32
  34 "R_Index3" 33
  35 "R_Mid1" 28
  36 "R_Mid2" 35
  37 "R_Mid3" 36
  38 "R_Ring1" 28
  39 "R_Ring2" 38
  40 "R_Ring3" 39
  41 "R_Pinky1" 28
  42 "R_Pinky2" 41
  43 "R_Pinky3" 42
end
skeleton
  time 0
    0 3.484577 -13.713998 -3.569732 -3.141592 0.000000 -0.000103
    1 3.412220 -12.767357 -6.595062 -3.141592 0.000000 -0.000103
    2 4.058300 -13.123844 -3.156971 -3.141592 0.000000 -0.000103
    3 3.411653 -10.853236 -5.393741 -3.141592 0.000000 -0.000103
    4 3.406422 -9.224280 -4.049804 -2.865126 0.000706 -0.000265
    5 4.263234 -7.981904 -3.788143 -2.837356 0.000000 -0.000103
    6 10.234738 11.539141 -1.935469 -0.983901 1.491799 -0.982535
    7 -0.023288 0.041601 0.000000 0.111337 0.345719 -0.912980
    8 11.072351 -0.043445 -0.000003 0.000000 0.000000 -0.707862
    9 8.108975 0.000000 0.000000 0.120132 -0.342868 0.063925
    10 0.758958 -0.993291 -0.533611 0.404120 0.537661 -0.276538
    11 1.920300 0.000001 0.000000 -0.187555 -0.202893 0.803971
    12 0.858252 0.000000 0.000000 0.000000 0.000000 -0.069433
    13 2.931401 -0.842324 0.160553 -0.047263 0.235136 -0.121894
    14 1.836086 0.000000 0.000000 -1.214521 1.252471 -1.274338
    15 0.853993 0.000000 0.000000 0.013581 0.539202 0.042666
    16 2.964059 -0.072900 0.178523 -0.297073 1.127761 -0.393156
    17 1.814736 0.000000 0.000000 -2.793622 1.166831 -2.793249
    18 0.982325 0.000000 0.000000 -0.005669 0.389640 -0.008645
    19 2.910364 0.632510 0.212797 -0.417799 1.151945 -0.487006
    20 1.751858 0.000000 0.000000 -2.729942 1.147579 -2.760100
    21 0.853992 0.000000 0.000000 0.000000 0.043633 0.000000
    22 2.899449 1.342927 0.078013 -0.795597 1.116239 -0.951530
    23 1.152892 0.000000 0.000000 -0.447128 1.179451 -0.271135
    24 0.748463 0.000000 0.000000 0.053723 0.815957 0.023761
    25 -12.140588 -7.554104 -13.397293 0.325924 0.391024 0.846477
    26 -0.023288 0.041601 0.000004 -0.337095 -0.758602 -1.077979
    27 11.072356 -0.043445 -0.000003 0.000000 0.000000 -0.796736
    28 8.108978 0.000004 -0.000002 -2.778242 0.214842 0.305264
    29 0.788881 0.969696 -0.533610 -2.944391 0.299283 0.441520
    30 1.920298 0.000001 -0.000001 -0.591147 0.064934 -0.068696
    31 0.858251 0.000000 0.000001 0.000000 0.000000 -0.069433
    32 2.955716 0.752579 0.160553 3.045728 0.210209 -0.065736
    33 1.836088 0.000002 -0.000001 0.507277 -1.307861 -0.485021
    34 0.853994 -0.000002 0.000000 0.262689 -0.378691 -0.021654
    35 2.964907 -0.017483 0.178523 3.015207 0.183723 -0.052473
    36 1.814737 -0.000001 -0.000001 1.912099 -1.361853 -1.882983
    37 0.982324 0.000001 0.000000 0.007439 -0.230158 0.020055
    38 2.889732 -0.720929 0.212798 3.062889 0.474378 -0.051897
    39 1.751860 0.000001 -0.000002 2.547254 -1.362432 -2.508565
    40 0.853992 0.000001 0.000001 -0.031122 -0.197782 -0.114036
    41 2.857167 -1.430683 0.078014 -3.008558 0.702809 0.040165
    42 1.152892 0.000000 0.000000 0.790141 -1.470107 -0.658583
    43 0.748465 0.000001 -0.000001 0.000000 -0.314159 -0.057080
  time 1
    0 3.484577 -13.713998 -3.569732 -3.141592 0.000000 -0.000103
    1 3.412220 -12.767357 -6.595062 -3.141592 0.000000 -0.000103
    2 4.058300 -13.123844 -3.156971 -3.141592 0.000000 -0.000103
    3 3.411653 -10.853236 -5.393741 -3.141592 0.000000 -0.000103
    4 3.406422 -9.224280 -4.049804 -2.865126 0.000706 -0.000265
    5 4.263234 -7.981904 -3.788143 -2.837356 0.000000 -0.000103
    6 10.234738 11.539141 -1.935469 -0.983901 1.491799 -0.982535
    7 -0.023288 0.041601 0.000000 0.111337 0.345719 -0.912980
    8 11.072351 -0.043445 -0.000003 0.000000 0.000000 -0.707862
    9 8.108975 0.000000 0.000000 0.120132 -0.342868 0.063925
    10 0.758958 -0.993291 -0.533611 0.404120 0.537661 -0.276538
    11 1.920300 0.000001 0.000000 -0.187555 -0.202893 0.803971
    12 0.858252 0.000000 0.000000 0.000000 0.000000 -0.069433
    13 2.931401 -0.842324 0.160553 -0.047263 0.235136 -0.121894
    14 1.836086 0.000000 0.000000 -1.214521 1.252471 -1.274338
    15 0.853993 0.000000 0.000000 0.013581 0.539202 0.042666
    16 2.964059 -0.072900 0.178523 -0.297073 1.127761 -0.393156
    17 1.814736 0.000000 0.000000 -2.793622 1.166831 -2.793249
    18 0.982325 0.000000 0.000000 -0.005669 0.389640 -0.008645
    19 2.910364 0.632510 0.212797 -0.417799 1.151945 -0.487006
    20 1.751858 0.000000 0.000000 -2.729942 1.147579 -2.760100
    21 0.853992 0.000000 0.000000 0.000000 0.043633 0.000000
    22 2.899449 1.342927 0.078013 -0.795597 1.116239 -0.951530
    23 1.152892 0.000000 0.000000 -0.447128 1.179451 -0.271135
    24 0.748463 0.000000 0.000000 0.053723 0.815957 0.023761
    25 -12.140588 -7.554104 -13.397293 0.325924 0.391024 0.846477
    26 -0.023288 0.041601 0.000004 -0.337095 -0.758602 -1.077979
    27 11.072356 -0.043445 -0.000003 0.000000 0.000000 -0.796736
    28 8.108978 0.000004 -0.000002 -2.778242 0.214842 0.305264
    29 0.788881 0.969696 -0.533610 -2.944391 0.299283 0.441520
    30 1.920298 0.000001 -0.000001 -0.591147 0.064934 -0.068696
    31 0.858251 0.000000 0.000001 0.000000 0.000000 -0.069433
    32 2.955716 0.752579 0.160553 3.045728 0.210209 -0.065736
    33 1.836088 0.000002 -0.000001 0.507277 -1.307861 -0.485021
    34 0.853994 -0.000002 0.000000 0.262689 -0.378691 -0.021654
    35 2.964907 -0.017483 0.178523 3.015207 0.183723 -0.052473
    36 1.814737 -0.000001 -0.000001 1.912099 -1.361853 -1.882983
    37 0.982324 0.000001 0.000000 0.007439 -0.230158 0.020055
    38 2.889732 -0.720929 0.212798 3.062889 0.474378 -0.051897
    39 1.751860 0.000001 -0.000002 2.547254 -1.362432 -2.508565
    40 0.853992 0.000001 0.000001 -0.031122 -0.197782 -0.114036
    41 2.857167 -1.430683 0.078014 -3.008558 0.702809 0.040165
    42 1.152892 0.000000 0.000000 0.790141 -1.470107 -0.658583
    43 0.748465 0.000001 -0.000001 0.000000 -0.314159 -0.057080
  time 2
    0 3.484577 -13.713998 -3.569732 -3.141592 0.000000 -0.000103
    1 3.412220 -12.767357 -6.595062 -3.141592 0.000000 -0.000103
    2 4.058300 -13.123844 -3.156971 -3.141592 0.000000 -0.000103
    3 3.411653 -10.853236 -5.393741 -3.141592 0.000000 -0.000103
    4 3.406422 -9.224280 -4.049804 -2.865126 0.000706 -0.000265
    5 4.263234 -7.981904 -3.788143 -2.837356 0.000000 -0.000103
    6 10.234738 11.539141 -1.935469 -0.983901 1.491799 -0.982535
    7 -0.023288 0.041601 0.000000 0.111337 0.345719 -0.912980
    8 11.072351 -0.043445 -0.000003 0.000000 0.000000 -0.707862
    9 8.108975 0.000000 0.000000 0.120132 -0.342868 0.063925
    10 0.758958 -0.993291 -0.533611 0.404120 0.537661 -0.276538
    11 1.920300 0.000001 0.000000 -0.187555 -0.202893 0.803971
    12 0.858252 0.000000 0.000000 0.000000 0.000000 -0.069433
    13 2.931401 -0.842324 0.160553 -0.047263 0.235136 -0.121894
    14 1.836086 0.000000 0.000000 -1.214521 1.252471 -1.274338
    15 0.853993 0.000000 0.000000 0.013581 0.539202 0.042666
    16 2.964059 -0.072900 0.178523 -0.297073 1.127761 -0.393156
    17 1.814736 0.000000 0.000000 -2.793622 1.166831 -2.793249
    18 0.982325 0.000000 0.000000 -0.005669 0.389640 -0.008645
    19 2.910364 0.632510 0.212797 -0.417799 1.151945 -0.487006
    20 1.751858 0.000000 0.000000 -2.729942 1.147579 -2.760100
    21 0.853992 0.000000 0.000000 0.000000 0.043633 0.000000
    22 2.899449 1.342927 0.078013 -0.795597 1.116239 -0.951530
    23 1.152892 0.000000 0.000000 -0.447128 1.179451 -0.271135
    24 0.748463 0.000000 0.000000 0.053723 0.815957 0.023761
    25 -12.140588 -7.554104 -13.397293 0.325924 0.391024 0.846477
    26 -0.023288 0.041601 0.000004 -0.337095 -0.758602 -1.077979
    27 11.072356 -0.043445 -0.000003 0.000000 0.000000 -0.796736
    28 8.108978 0.000004 -0.000002 -2.778242 0.214842 0.305264
    29 0.788881 0.969696 -0.533610 -2.944391 0.299283 0.441520
    30 1.920298 0.000001 -0.000001 -0.591147 0.064934 -0.068696
    31 0.858251 0.000000 0.000001 0.000000 0.000000 -0.069433
    32 2.955716 0.752579 0.160553 3.045728 0.210209 -0.065736
    33 1.836088 0.000002 -0.000001 0.507277 -1.307861 -0.485021
    34 0.853994 -0.000002 0.000000 0.262689 -0.378691 -0.021654
    35 2.964907 -0.017483 0.178523 3.015207 0.183723 -0.052473
    36 1.814737 -0.000001 -0.000001 1.912099 -1.361853 -1.882983
    37 0.982324 0.000001 0.000000 0.007439 -0.230158 0.020055
    38 2.889732 -0.720929 0.212798 3.062889 0.474378 -0.051897
    39 1.751860 0.000001 -0.000002 2.547254 -1.362432 -2.508565
    40 0.853992 0.000001 0.000001 -0.031122 -0.197782 -0.114036
    41 2.857167 -1.430683 0.078014 -3.008558 0.702809 0.040165
    42 1.152892 0.000000 0.000000 0.790141 -1.470107 -0.658583
    43 0.748465 0.000001 -0.000001 0.000000 -0.314159 -0.057080
  time 3
    0 3.539266 -13.557743 -3.468166 -3.178573 0.000000 -0.008838
    1 3.474722 -12.724387 -6.524747 -3.178573 0.000000 -0.008838
    2 4.136427 -10.444075 -3.164784 -3.178573 0.000000 -0.008838
    3 3.493687 -10.767296 -5.393741 -3.178606 0.000000 -0.008838
    4 3.507987 -9.083651 -4.108400 -2.902165 0.000706 -0.009000
    5 4.368706 -7.845181 -3.893615 -2.874351 0.000000 -0.008838
    6 10.234738 11.539141 -1.935469 -0.983901 1.491799 -0.982535
    7 -0.023288 0.041601 0.000000 0.109168 0.338912 -0.899582
    8 11.072351 -0.043445 -0.000003 0.000000 0.000000 -0.709017
    9 8.108975 0.000000 0.000000 0.133989 -0.322729 0.012923
    10 0.758958 -0.993291 -0.533611 0.404120 0.537661 -0.276538
    11 1.920300 0.000001 0.000000 -0.187555 -0.202893 0.803971
    12 0.858252 0.000000 0.000000 0.000000 0.000000 -0.069433
    13 2.931401 -0.842324 0.160553 -0.047263 0.235097 -0.121894
    14 1.836086 0.000000 0.000000 -1.214521 1.252471 -1.274378
    15 0.853993 0.000000 0.000000 0.013581 0.539202 0.042666
    16 2.964059 -0.072900 0.178523 -0.297073 1.127761 -0.393156
    17 1.814736 0.000000 0.000000 -2.793622 1.166831 -2.793249
    18 0.982325 0.000000 0.000000 -0.005669 0.389640 -0.008645
    19 2.910364 0.632510 0.212797 -0.417799 1.151945 -0.487006
    20 1.751858 0.000000 0.000000 -2.729942 1.147579 -2.760100
    21 0.853992 0.000000 0.000000 0.000000 0.043633 0.000000
    22 2.899449 1.342927 0.078013 -0.795597 1.116239 -0.951530
    23 1.152892 0.000000 0.000000 -0.447128 1.179451 -0.271135
    24 0.748463 0.000000 0.000000 0.053723 0.815957 0.023761
    25 -12.140588 -7.554104 -13.397293 0.325924 0.391024 0.846477
    26 -0.023288 0.041601 0.000004 -0.336580 -0.770140 -1.081530
    27 11.072356 -0.043445 -0.000003 0.000000 0.000000 -0.778221
    28 8.108978 0.000004 -0.000002 -2.811610 0.200803 0.284514
    29 0.788881 0.969696 -0.533610 -2.944391 0.299283 0.441520
    30 1.920298 0.000001 -0.000001 -0.591147 0.064934 -0.068696
    31 0.858251 0.000000 0.000001 0.000000 0.000000 -0.069433
    32 2.955716 0.752579 0.160553 3.045728 0.210209 -0.065736
    33 1.836088 0.000002 -0.000001 0.507277 -1.307861 -0.485021
    34 0.853994 -0.000002 0.000000 0.262689 -0.378691 -0.021654
    35 2.964907 -0.017483 0.178523 3.015207 0.183723 -0.052473
    36 1.814737 -0.000001 -0.000001 1.912099 -1.361853 -1.882983
    37 0.982324 0.000001 0.000000 0.007439 -0.230158 0.020055
    38 2.889732 -0.720929 0.212798 3.062889 0.474378 -0.051897
    39 1.751860 0.000001 -0.000002 2.547254 -1.362432 -2.508565
    40 0.853992 0.000001 0.000001 -0.031122 -0.197782 -0.114036
    41 2.857167 -1.430683 0.078014 -3.008558 0.702809 0.040165
    42 1.152892 0.000000 0.000000 0.790141 -1.470107 -0.658583
    43 0.748465 0.000001 -0.000001 0.000000 -0.314159 -0.057080
  time 4
    0 3.484577 -13.249140 -3.718174 -3.141661 0.000000 -0.000103
    1 3.412220 -12.310312 -6.743504 -3.141661 0.000000 -0.000103
    2 4.058300 -7.627583 -3.305413 -3.141661 0.000000 -0.000103
    3 3.411653 -10.392284 -5.546090 -3.141644 0.000000 -0.000103
    4 3.406422 -8.767235 -4.202153 -2.883102 0.000706 -0.000265
    5 4.263234 -7.528765 -3.936585 -2.837439 0.000000 -0.000103
    6 10.234738 11.539141 -1.935469 -0.983901 1.491799 -0.982535
    7 -0.023288 0.041601 0.000000 0.129865 0.348236 -0.849513
    8 11.072351 -0.043445 -0.000003 0.000000 0.000000 -0.813658
    9 8.108975 0.000000 0.000000 0.129061 -0.348487 0.107739
    10 0.758958 -0.993291 -0.533611 0.404120 0.537661 -0.276538
    11 1.920300 0.000001 0.000000 -0.187555 -0.202893 0.803971
    12 0.858252 0.000000 0.000000 0.000000 0.000000 -0.069433
    13 2.931401 -0.842324 0.160553 -0.048330 0.240969 -0.122397
    14 1.836086 0.000000 0.000000 -1.263159 1.254197 -1.321182
    15 0.853993 0.000000 0.000000 0.013581 0.539202 0.042666
    16 2.964059 -0.072900 0.178523 -0.297073 1.127761 -0.393156
    17 1.814736 0.000000 0.000000 -2.793622 1.166831 -2.793249
    18 0.982325 0.000000 0.000000 -0.005669 0.389640 -0.008645
    19 2.910364 0.632510 0.212797 -0.417799 1.151945 -0.487006
    20 1.751858 0.000000 0.000000 -2.729942 1.147579 -2.760100
    21 0.853992 0.000000 0.000000 0.000000 0.043633 0.000000
    22 2.899449 1.342927 0.078013 -0.795597 1.116239 -0.951530
    23 1.152892 0.000000 0.000000 -0.447128 1.179451 -0.271135
    24 0.748463 0.000000 0.000000 0.053723 0.815957 0.023761
    25 -12.140588 -7.554104 -13.397293 0.325924 0.391024 0.846477
    26 -0.023288 0.041601 0.000004 -0.366721 -0.754957 -1.006236
    27 11.072356 -0.043445 -0.000003 0.000000 0.000000 -0.866153
    28 8.108978 0.000004 -0.000002 -2.803156 0.217659 0.319003
    29 0.788881 0.969696 -0.533610 -2.944391 0.299283 0.441520
    30 1.920298 0.000001 -0.000001 -0.591147 0.064934 -0.068696
    31 0.858251 0.000000 0.000001 0.000000 0.000000 -0.069433
    32 2.955716 0.752579 0.160553 3.045728 0.210209 -0.065736
    33 1.836088 0.000002 -0.000001 0.507277 -1.307861 -0.485021
    34 0.853994 -0.000002 0.000000 0.262689 -0.378691 -0.021654
    35 2.964907 -0.017483 0.178523 3.015207 0.183723 -0.052473
    36 1.814737 -0.000001 -0.000001 1.912099 -1.361853 -1.882983
    37 0.982324 0.000001 0.000000 0.007439 -0.230158 0.020055
    38 2.889732 -0.720929 0.212798 3.062889 0.474378 -0.051897
    39 1.751860 0.000001 -0.000002 2.547254 -1.362432 -2.508565
    40 0.853992 0.000001 0.000001 -0.031122 -0.197782 -0.114036
    41 2.857167 -1.430683 0.078014 -3.008558 0.702809 0.040165
    42 1.152892 0.000000 0.000000 0.790141 -1.470107 -0.658583
    43 0.748465 0.000001 -0.000001 0.000000 -0.314159 -0.057080
  time 5
    0 3.449419 -13.178825 -3.835365 -3.121444 0.000000 0.003820
    1 3.361437 -12.173589 -6.841163 -3.121444 0.000000 0.003820
    2 4.003611 -9.721396 -3.344477 -3.121444 0.000000 0.003820
    3 3.356964 -10.282906 -5.600779 -3.121433 0.000000 0.003820
    4 3.343920 -8.677388 -4.225591 -2.898644 0.000706 0.003658
    5 4.196826 -7.446731 -3.936585 -2.817209 0.000000 0.003820
    6 10.234738 11.539141 -1.935469 -0.983901 1.491799 -0.982535
    7 -0.023288 0.041601 0.000000 0.137332 0.353305 -0.836941
    8 11.072351 -0.043445 -0.000003 0.000000 0.000000 -0.844875
    9 8.108975 0.000000 0.000000 0.123921 -0.361153 0.148309
    10 0.758958 -0.993291 -0.533611 0.404120 0.537661 -0.276538
    11 1.920300 0.000001 0.000000 -0.187555 -0.202893 0.803971
    12 0.858252 0.000000 0.000000 0.000000 0.000000 -0.069433
    13 2.931401 -0.842324 0.160553 -0.049360 0.246802 -0.122888
    14 1.836086 0.000000 0.000000 -1.312313 1.255262 -1.368386
    15 0.853993 0.000000 0.000000 0.013581 0.539202 0.042666
    16 2.964059 -0.072900 0.178523 -0.297073 1.127761 -0.393156
    17 1.814736 0.000000 0.000000 -2.793622 1.166831 -2.793249
    18 0.982325 0.000000 0.000000 -0.005669 0.389640 -0.008645
    19 2.910364 0.632510 0.212797 -0.417799 1.151945 -0.487006
    20 1.751858 0.000000 0.000000 -2.729942 1.147579 -2.760100
    21 0.853992 0.000000 0.000000 0.000000 0.043633 0.000000
    22 2.899449 1.342927 0.078013 -0.795597 1.116239 -0.951530
    23 1.152892 0.000000 0.000000 -0.447128 1.179451 -0.271135
    24 0.748463 0.000000 0.000000 0.053723 0.815957 0.023761
    25 -12.140588 -7.554104 -13.397293 0.325924 0.391024 0.846477
    26 -0.023288 0.041601 0.000004 -0.377124 -0.746999 -0.979619
    27 11.072356 -0.043445 -0.000003 0.000000 0.000000 -0.901654
    28 8.108978 0.000004 -0.000002 -2.793613 0.226641 0.335717
    29 0.788881 0.969696 -0.533610 -2.944391 0.299283 0.441520
    30 1.920298 0.000001 -0.000001 -0.591147 0.064934 -0.068696
    31 0.858251 0.000000 0.000001 0.000000 0.000000 -0.069433
    32 2.955716 0.752579 0.160553 3.045728 0.210209 -0.065736
    33 1.836088 0.000002 -0.000001 0.507277 -1.307861 -0.485021
    34 0.853994 -0.000002 0.000000 0.262689 -0.378691 -0.021654
    35 2.964907 -0.017483 0.178523 3.015207 0.183723 -0.052473
    36 1.814737 -0.000001 -0.000001 1.912099 -1.361853 -1.882983
    37 0.982324 0.000001 0.000000 0.007439 -0.230158 0.020055
    38 2.889732 -0.720929 0.212798 3.062889 0.474378 -0.051897
    39 1.751860 0.000001 -0.000002 2.547254 -1.362432 -2.508565
    40 0.853992 0.000001 0.000001 -0.031122 -0.197782 -0.114036
    41 2.857167 -1.430683 0.078014 -3.008558 0.702809 0.040165
    42 1.152892 0.000000 0.000000 0.790141 -1.470107 -0.658583
    43 0.748465 0.000001 -0.000001 0.000000 -0.314159 -0.057080
  time 6
    0 3.414262 -13.307735 -3.819740 -3.116438 0.000000 0.003349
    1 3.326280 -12.286873 -6.817725 -3.116439 0.000000 0.003349
    2 3.980173 -12.721488 -3.387447 -3.116439 0.000000 0.003349
    3 3.325713 -10.396191 -5.569528 -3.116477 0.000000 0.003349
    4 3.312669 -8.810205 -4.182621 -2.947318 0.000706 0.003240
    5 4.165575 -7.575642 -3.893615 -2.812175 0.000000 0.003349
    6 10.234738 11.539141 -1.935469 -0.983901 1.491799 -0.982535
    7 -0.023288 0.041601 0.000000 0.133365 0.354348 -0.853732
    8 11.072351 -0.043445 -0.000003 0.000000 0.000000 -0.819388
    9 8.108975 0.000000 0.000000 0.119761 -0.361404 0.144705
    10 0.758958 -0.993291 -0.533611 0.404120 0.537661 -0.276538
    11 1.920300 0.000001 0.000000 -0.187555 -0.202893 0.803971
    12 0.858252 0.000000 0.000000 0.000000 0.000000 -0.069433
    13 2.931401 -0.842324 0.160553 -0.047263 0.235097 -0.121894
    14 1.836086 0.000000 0.000000 -1.214521 1.252471 -1.274338
    15 0.853993 0.000000 0.000000 0.013581 0.539202 0.042666
    16 2.964059 -0.072900 0.178523 -0.297073 1.127761 -0.393156
    17 1.814736 0.000000 0.000000 -2.793622 1.166831 -2.793249
    18 0.982325 0.000000 0.000000 -0.005669 0.389640 -0.008645
    19 2.910364 0.632510 0.212797 -0.417799 1.151945 -0.487006
    20 1.751858 0.000000 0.000000 -2.729942 1.147579 -2.760100
    21 0.853992 0.000000 0.000000 0.000000 0.043633 0.000000
    22 2.899449 1.342927 0.078013 -0.795597 1.116239 -0.951530
    23 1.152892 0.000000 0.000000 -0.447128 1.179451 -0.271135
    24 0.748463 0.000000 0.000000 0.053723 0.815957 0.023761
    25 -12.140588 -7.554104 -13.397293 0.325924 0.391024 0.846477
    26 -0.023288 0.041601 0.000004 -0.373097 -0.745404 -0.993267
    27 11.072356 -0.043445 -0.000003 0.000000 0.000000 -0.895697
    28 8.108978 0.000004 -0.000002 -2.782950 0.228748 0.339754
    29 0.788881 0.969696 -0.533610 -2.944391 0.299283 0.441520
    30 1.920298 0.000001 -0.000001 -0.591147 0.064934 -0.068696
    31 0.858251 0.000000 0.000001 0.000000 0.000000 -0.069433
    32 2.955716 0.752579 0.160553 3.045728 0.210209 -0.065736
    33 1.836088 0.000002 -0.000001 0.507277 -1.307861 -0.485021
    34 0.853994 -0.000002 0.000000 0.262689 -0.378691 -0.021654
    35 2.964907 -0.017483 0.178523 3.015207 0.183723 -0.052473
    36 1.814737 -0.000001 -0.000001 1.912099 -1.361853 -1.882983
    37 0.982324 0.000001 0.000000 0.007439 -0.230158 0.020055
    38 2.889732 -0.720929 0.212798 3.062889 0.474378 -0.051897
    39 1.751860 0.000001 -0.000002 2.547254 -1.362432 -2.508565
    40 0.853992 0.000001 0.000001 -0.031122 -0.197782 -0.114036
    41 2.857167 -1.430683 0.078014 -3.008558 0.702809 0.040165
    42 1.152892 0.000000 0.000000 0.790141 -1.470107 -0.658583
    43 0.748465 0.000001 -0.000001 0.000000 -0.314159 -0.057080
  time 7
    0 3.386917 -13.503054 -3.749425 -3.118323 0.000000 0.001205
    1 3.298935 -12.486098 -6.751317 -3.118323 0.000000 0.001205
    2 3.948922 -12.932432 -3.313226 -3.118323 0.000000 0.001205
    3 3.302275 -10.611041 -5.507026 -3.118310 0.000000 0.001205
    4 3.300950 -9.013336 -4.120119 -3.020763 0.000706 0.001043
    5 4.142137 -7.778773 -3.831113 -2.814059 0.000000 0.001205
    6 10.234738 11.539141 -1.935469 -0.983901 1.491799 -0.982535
    7 -0.023288 0.041601 0.000000 0.124700 0.353569 -0.881921
    8 11.072351 -0.043445 -0.000003 0.000000 0.000000 -0.770553
    9 8.108975 0.000000 0.000000 0.116661 -0.356500 0.121585
    10 0.758958 -0.993291 -0.533611 0.404120 0.537661 -0.276538
    11 1.920300 0.000001 0.000000 -0.187555 -0.202893 0.803971
    12 0.858252 0.000000 0.000000 0.000000 0.000000 -0.069433
    13 2.931401 -0.842324 0.160553 -0.037496 0.179355 -0.117376
    14 1.836086 0.000000 0.000000 -0.801330 1.203122 -0.879312
    15 0.853993 0.000000 0.000000 0.013581 0.539202 0.042666
    16 2.964059 -0.072900 0.178523 -0.297073 1.127761 -0.393156
    17 1.814736 0.000000 0.000000 -2.793622 1.166831 -2.793249
    18 0.982325 0.000000 0.000000 -0.005669 0.389640 -0.008645
    19 2.910364 0.632510 0.212797 -0.417799 1.151945 -0.487006
    20 1.751858 0.000000 0.000000 -2.729942 1.147579 -2.760100
    21 0.853992 0.000000 0.000000 0.000000 0.043633 0.000000
    22 2.899449 1.342927 0.078013 -0.795597 1.116239 -0.951530
    23 1.152892 0.000000 0.000000 -0.447128 1.179451 -0.271135
    24 0.748463 0.000000 0.000000 0.053723 0.815957 0.023761
    25 -12.140588 -7.554104 -13.397293 0.325924 0.391024 0.846477
    26 -0.023288 0.041601 0.000004 -0.363078 -0.746676 -1.022780
    27 11.072356 -0.043445 -0.000003 0.000000 0.000000 -0.871923
    28 8.108978 0.000004 -0.000002 -2.773086 0.227573 0.337417
    29 0.788881 0.969696 -0.533610 -2.944391 0.299283 0.441520
    30 1.920298 0.000001 -0.000001 -0.591147 0.064934 -0.068696
    31 0.858251 0.000000 0.000001 0.000000 0.000000 -0.069433
    32 2.955716 0.752579 0.160553 3.045728 0.210209 -0.065736
    33 1.836088 0.000002 -0.000001 0.507277 -1.307861 -0.485021
    34 0.853994 -0.000002 0.000000 0.262689 -0.378691 -0.021654
    35 2.964907 -0.017483 0.178523 3.015207 0.183723 -0.052473
    36 1.814737 -0.000001 -0.000001 1.912099 -1.361853 -1.882983
    37 0.982324 0.000001 0.000000 0.007439 -0.230158 0.020055
    38 2.889732 -0.720929 0.212798 3.062889 0.474378 -0.051897
    39 1.751860 0.000001 -0.000002 2.547254 -1.362432 -2.508565
    40 0.853992 0.000001 0.000001 -0.031122 -0.197782 -0.114036
    41 2.857167 -1.430683 0.078014 -3.008558 0.702809 0.040165
    42 1.152892 0.000000 0.000000 0.790141 -1.470107 -0.658583
    43 0.748465 0.000001 -0.000001 0.000000 -0.314159 -0.057080
  time 8
    0 3.359573 -13.651496 -3.702549 -3.118680 0.000000 -0.000103
    1 3.287216 -12.638447 -6.704440 -3.118680 0.000000 -0.000103
    2 3.929390 -13.069155 -3.278068 -3.118680 0.000000 -0.000103
    3 3.282743 -10.755577 -5.456243 -3.118671 0.000000 -0.000103
    4 3.281418 -9.157872 -4.081055 -3.110602 0.000706 -0.000265
    5 4.134324 -7.919402 -3.788143 -2.814430 0.000000 -0.000103
    6 10.234738 11.539141 -1.935469 -0.983901 1.491799 -0.982535
    7 -0.023288 0.041601 0.000000 0.118492 0.353197 -0.902670
    8 11.072351 -0.043445 -0.000003 0.000000 0.000000 -0.734760
    9 8.108975 0.000000 0.000000 0.114197 -0.353584 0.105558
    10 0.758958 -0.993291 -0.533611 0.404120 0.537661 -0.276538
    11 1.920300 0.000001 0.000000 -0.187555 -0.202893 0.803971
    12 0.858252 0.000000 0.000000 0.000000 0.000000 -0.069433
    13 2.931401 -0.842324 0.160553 -0.024780 0.103950 -0.112258
    14 1.836086 0.000000 0.000000 -0.439696 1.073260 -0.542542
    15 0.853993 0.000000 0.000000 0.013581 0.539202 0.042666
    16 2.964059 -0.072900 0.178523 -0.297073 1.127761 -0.393156
    17 1.814736 0.000000 0.000000 -2.793622 1.166831 -2.793249
    18 0.982325 0.000000 0.000000 -0.005669 0.389640 -0.008645
    19 2.910364 0.632510 0.212797 -0.417799 1.151945 -0.487006
    20 1.751858 0.000000 0.000000 -2.729942 1.147579 -2.760100
    21 0.853992 0.000000 0.000000 0.000000 0.043633 0.000000
    22 2.899449 1.342927 0.078013 -0.795597 1.116239 -0.951530
    23 1.152892 0.000000 0.000000 -0.447128 1.179451 -0.271135
    24 0.748463 0.000000 0.000000 0.053723 0.815957 0.023761
    25 -12.140588 -7.554104 -13.397293 0.325924 0.391024 0.846477
    26 -0.023288 0.041601 0.000004 -0.355887 -0.747215 -1.043304
    27 11.072356 -0.043445 -0.000003 0.000000 0.000000 -0.855420
    28 8.108978 0.000004 -0.000002 -2.765465 0.226974 0.335930
    29 0.788881 0.969696 -0.533610 -2.944391 0.299283 0.441520
    30 1.920298 0.000001 -0.000001 -0.591147 0.064934 -0.068696
    31 0.858251 0.000000 0.000001 0.000000 0.000000 -0.069433
    32 2.955716 0.752579 0.160553 3.045728 0.210209 -0.065736
    33 1.836088 0.000002 -0.000001 0.507277 -1.307861 -0.485021
    34 0.853994 -0.000002 0.000000 0.262689 -0.378691 -0.021654
    35 2.964907 -0.017483 0.178523 3.015207 0.183723 -0.052473
    36 1.814737 -0.000001 -0.000001 1.912099 -1.361853 -1.882983
    37 0.982324 0.000001 0.000000 0.007439 -0.230158 0.020055
    38 2.889732 -0.720929 0.212798 3.062889 0.474378 -0.051897
    39 1.751860 0.000001 -0.000002 2.547254 -1.362432 -2.508565
    40 0.853992 0.000001 0.000001 -0.031122 -0.197782 -0.114036
    41 2.857167 -1.430683 0.078014 -3.008558 0.702809 0.040165
    42 1.152892 0.000000 0.000000 0.790141 -1.470107 -0.658583
    43 0.748465 0.000001 -0.000001 0.000000 -0.314159 -0.057080
  time 9
    0 3.347854 -13.713998 -3.694736 -3.116108 0.000000 -0.000103
    1 3.263778 -12.697042 -6.688815 -3.116108 0.000000 -0.000103
    2 3.921577 -13.135563 -3.262443 -3.116108 0.000000 -0.000103
    3 3.271024 -10.814172 -5.440618 -3.116142 0.000000 -0.000103
    4 3.269699 -9.220374 -4.057617 -3.108044 0.000706 -0.000265
    5 4.122605 -7.989717 -3.768611 -2.811873 0.000000 -0.000103
    6 10.234738 11.539141 -1.935469 -0.983901 1.491799 -0.982535
    7 -0.023288 0.041601 0.000000 0.116287 0.353665 -0.911675
    8 11.072351 -0.043445 -0.000003 0.000000 0.000000 -0.720691
    9 8.108975 0.000000 0.000000 0.112157 -0.353816 0.102997
    10 0.758958 -0.993291 -0.533611 0.404120 0.537661 -0.276538
    11 1.920300 0.000001 0.000000 -0.187555 -0.202893 0.803971
    12 0.858252 0.000000 0.000000 0.000000 0.000000 -0.069433
    13 2.931401 -0.842324 0.160553 -0.024780 0.103950 -0.112258
    14 1.836086 0.000000 0.000000 -0.439696 1.073260 -0.542542
    15 0.853993 0.000000 0.000000 0.013581 0.539202 0.042666
    16 2.964059 -0.072900 0.178523 -0.297073 1.127761 -0.393156
    17 1.814736 0.000000 0.000000 -2.793622 1.166831 -2.793249
    18 0.982325 0.000000 0.000000 -0.005669 0.389640 -0.008645
    19 2.910364 0.632510 0.212797 -0.417799 1.151945 -0.487006
    20 1.751858 0.000000 0.000000 -2.729942 1.147579 -2.760100
    21 0.853992 0.000000 0.000000 0.000000 0.043633 0.000000
    22 2.899449 1.342927 0.078013 -0.795597 1.116239 -0.951530
    23 1.152892 0.000000 0.000000 -0.447128 1.179451 -0.271135
    24 0.748463 0.000000 0.000000 0.053723 0.815957 0.023761
    25 -12.140588 -7.554104 -13.397293 0.325924 0.391024 0.846477
    26 -0.023288 0.041601 0.000004 -0.353394 -0.746503 -1.050506
    27 11.072356 -0.043445 -0.000003 0.000000 0.000000 -0.851181
    28 8.108978 0.000004 -0.000002 -2.760309 0.227817 0.337063
    29 0.788881 0.969696 -0.533610 -2.944391 0.299283 0.441520
    30 1.920298 0.000001 -0.000001 -0.591147 0.064934 -0.068696
    31 0.858251 0.000000 0.000001 0.000000 0.000000 -0.069433
    32 2.955716 0.752579 0.160553 3.045728 0.210209 -0.065736
    33 1.836088 0.000002 -0.000001 0.507277 -1.307861 -0.485021
    34 0.853994 -0.000002 0.000000 0.262689 -0.378691 -0.021654
    35 2.964907 -0.017483 0.178523 3.015207 0.183723 -0.052473
    36 1.814737 -0.000001 -0.000001 1.912099 -1.361853 -1.882983
    37 0.982324 0.000001 0.000000 0.007439 -0.230158 0.020055
    38 2.889732 -0.720929 0.212798 3.062889 0.474378 -0.051897
    39 1.751860 0.000001 -0.000002 2.547254 -1.362432 -2.508565
    40 0.853992 0.000001 0.000001 -0.031122 -0.197782 -0.114036
    41 2.857167 -1.430683 0.078014 -3.008558 0.702809 0.040165
    42 1.152892 0.000000 0.000000 0.790141 -1.470107 -0.658583
    43 0.748465 0.000001 -0.000001 0.000000 -0.314159 -0.057080
  time 10
    0 3.340041 -13.768687 -3.683017 -3.114829 0.000000 -0.000103
    1 3.263778 -12.736106 -6.681002 -3.114829 0.000000 -0.000103
    2 3.913764 -13.190252 -3.250724 -3.114829 0.000000 -0.000103
    3 3.267117 -10.861049 -5.424992 -3.114825 0.000000 -0.000103
    4 3.265793 -9.267250 -4.049804 -3.106751 0.000706 -0.000265
    5 4.110886 -8.028780 -3.752986 -2.810566 0.000000 -0.000103
    6 10.234738 11.539141 -1.935469 -0.983901 1.491799 -0.982535
    7 -0.023288 0.041601 0.000000 0.114417 0.353773 -0.918548
    8 11.072351 -0.043445 -0.000003 0.000000 0.000000 -0.709359
    9 8.108975 0.000000 0.000000 0.110779 -0.353700 0.099905
    10 0.758958 -0.993291 -0.533611 0.404120 0.537661 -0.276538
    11 1.920300 0.000001 0.000000 -0.187555 -0.202893 0.803971
    12 0.858252 0.000000 0.000000 0.000000 0.000000 -0.069433
    13 2.931401 -0.842324 0.160553 -0.024780 0.103950 -0.112258
    14 1.836086 0.000000 0.000000 -0.439696 1.073260 -0.542542
    15 0.853993 0.000000 0.000000 0.013581 0.539202 0.042666
    16 2.964059 -0.072900 0.178523 -0.297073 1.127761 -0.393156
    17 1.814736 0.000000 0.000000 -2.793622 1.166831 -2.793249
    18 0.982325 0.000000 0.000000 -0.005669 0.389640 -0.008645
    19 2.910364 0.632510 0.212797 -0.417799 1.151945 -0.487006
    20 1.751858 0.000000 0.000000 -2.729942 1.147579 -2.760100
    21 0.853992 0.000000 0.000000 0.000000 0.043633 0.000000
    22 2.899449 1.342927 0.078013 -0.795597 1.116239 -0.951530
    23 1.152892 0.000000 0.000000 -0.447128 1.179451 -0.271135
    24 0.748463 0.000000 0.000000 0.053723 0.815957 0.023761
    25 -12.140588 -7.554104 -13.397293 0.325924 0.391024 0.846477
    26 -0.023288 0.041601 0.000004 -0.350985 -0.746288 -1.056801
    27 11.072356 -0.043445 -0.000003 0.000000 0.000000 -0.846324
    28 8.108978 0.000004 -0.000002 -2.756754 0.228083 0.337063
    29 0.788881 0.969696 -0.533610 -2.944391 0.299283 0.441520
    30 1.920298 0.000001 -0.000001 -0.591147 0.064934 -0.068696
    31 0.858251 0.000000 0.000001 0.000000 0.000000 -0.069433
    32 2.955716 0.752579 0.160553 3.045728 0.210209 -0.065736
    33 1.836088 0.000002 -0.000001 0.507277 -1.307861 -0.485021
    34 0.853994 -0.000002 0.000000 0.262689 -0.378691 -0.021654
    35 2.964907 -0.017483 0.178523 3.015207 0.183723 -0.052473
    36 1.814737 -0.000001 -0.000001 1.912099 -1.361853 -1.882983
    37 0.982324 0.000001 0.000000 0.007439 -0.230158 0.020055
    38 2.889732 -0.720929 0.212798 3.062889 0.474378 -0.051897
    39 1.751860 0.000001 -0.000002 2.547254 -1.362432 -2.508565
    40 0.853992 0.000001 0.000001 -0.031122 -0.197782 -0.114036
    41 2.857167 -1.430683 0.078014 -3.008558 0.702809 0.040165
    42 1.152892 0.000000 0.000000 0.790141 -1.470107 -0.658583
    43 0.748465 0.000001 -0.000001 0.000000 -0.314159 -0.057080
  time 11
    0 3.340041 -13.803844 -3.671298 -3.114816 0.000000 -0.000103
    1 3.263778 -12.775170 -6.669283 -3.114816 0.000000 -0.000103
    2 3.913764 -13.225410 -3.242911 -3.114816 0.000000 -0.000103
    3 3.267117 -10.892300 -5.409367 -3.114825 0.000000 -0.000103
    4 3.265793 -9.306314 -4.038085 -3.106751 0.000706 -0.000265
    5 4.110886 -8.071750 -3.741266 -2.810552 0.000000 -0.000103
    6 10.234738 11.539141 -1.935469 -0.983901 1.491799 -0.982535
    7 -0.023288 0.041601 0.000000 0.112751 0.353605 -0.923986
    8 11.072351 -0.043445 -0.000003 0.000000 0.000000 -0.700036
    9 8.108975 0.000000 0.000000 0.110117 -0.353256 0.095752
    10 0.758958 -0.993291 -0.533611 0.404120 0.537661 -0.276538
    11 1.920300 0.000001 0.000000 -0.187555 -0.202893 0.803971
    12 0.858252 0.000000 0.000000 0.000000 0.000000 -0.069433
    13 2.931401 -0.842324 0.160553 -0.024780 0.103950 -0.112258
    14 1.836086 0.000000 0.000000 -0.439696 1.073260 -0.542542
    15 0.853993 0.000000 0.000000 0.013581 0.539202 0.042666
    16 2.964059 -0.072900 0.178523 -0.297073 1.127761 -0.393156
    17 1.814736 0.000000 0.000000 -2.793622 1.166831 -2.793249
    18 0.982325 0.000000 0.000000 -0.005669 0.389640 -0.008645
    19 2.910364 0.632510 0.212797 -0.417799 1.151945 -0.487006
    20 1.751858 0.000000 0.000000 -2.729942 1.147579 -2.760100
    21 0.853992 0.000000 0.000000 0.000000 0.043633 0.000000
    22 2.899449 1.342927 0.078013 -0.795597 1.116239 -0.951530
    23 1.152892 0.000000 0.000000 -0.447128 1.179451 -0.271135
    24 0.748463 0.000000 0.000000 0.053723 0.815957 0.023761
    25 -12.140588 -7.554104 -13.397293 0.325924 0.391024 0.846477
    26 -0.023288 0.041601 0.000004 -0.348708 -0.746568 -1.062291
    27 11.072356 -0.043445 -0.000003 0.000000 0.000000 -0.840877
    28 8.108978 0.000004 -0.000002 -2.754929 0.227817 0.336000
    29 0.788881 0.969696 -0.533610 -2.944391 0.299283 0.441520
    30 1.920298 0.000001 -0.000001 -0.591147 0.064934 -0.068696
    31 0.858251 0.000000 0.000001 0.000000 0.000000 -0.069433
    32 2.955716 0.752579 0.160553 3.045728 0.210209 -0.065736
    33 1.836088 0.000002 -0.000001 0.507277 -1.307861 -0.485021
    34 0.853994 -0.000002 0.000000 0.262689 -0.378691 -0.021654
    35 2.964907 -0.017483 0.178523 3.015207 0.183723 -0.052473
    36 1.814737 -0.000001 -0.000001 1.912099 -1.361853 -1.882983
    37 0.982324 0.000001 0.000000 0.007439 -0.230158 0.020055
    38 2.889732 -0.720929 0.212798 3.062889 0.474378 -0.051897
    39 1.751860 0.000001 -0.000002 2.547254 -1.362432 -2.508565
    40 0.853992 0.000001 0.000001 -0.031122 -0.197782 -0.114036
    41 2.857167 -1.430683 0.078014 -3.008558 0.702809 0.040165
    42 1.152892 0.000000 0.000000 0.790141 -1.470107 -0.658583
    43 0.748465 0.000001 -0.000001 0.000000 -0.314159 -0.057080
  time 12
    0 3.347854 -13.827283 -3.655672 -3.116067 0.000000 -0.000103
    1 3.263778 -12.798608 -6.657564 -3.116067 0.000000 -0.000103
    2 3.921577 -13.248848 -3.231192 -3.116067 0.000000 -0.000103
    3 3.271024 -10.919644 -5.409367 -3.116116 0.000000 -0.000103
    4 3.269699 -9.325846 -4.030272 -3.108003 0.000706 -0.000265
    5 4.122605 -8.087376 -3.737360 -2.811831 0.000000 -0.000103
    6 10.234738 11.539141 -1.935469 -0.983901 1.491799 -0.982535
    7 -0.023288 0.041601 0.000000 0.111589 0.353102 -0.927205
    8 11.072351 -0.043445 -0.000003 0.000000 0.000000 -0.693921
    9 8.108975 0.000000 0.000000 0.110117 -0.352426 0.091408
    10 0.758958 -0.993291 -0.533611 0.404120 0.537661 -0.276538
    11 1.920300 0.000001 0.000000 -0.187555 -0.202893 0.803971
    12 0.858252 0.000000 0.000000 0.000000 0.000000 -0.069433
    13 2.931401 -0.842324 0.160553 -0.024780 0.103950 -0.112258
    14 1.836086 0.000000 0.000000 -0.439696 1.073260 -0.542542
    15 0.853993 0.000000 0.000000 0.013581 0.539202 0.042666
    16 2.964059 -0.072900 0.178523 -0.297073 1.127761 -0.393156
    17 1.814736 0.000000 0.000000 -2.793622 1.166831 -2.793249
    18 0.982325 0.000000 0.000000 -0.005669 0.389640 -0.008645
    19 2.910364 0.632510 0.212797 -0.417799 1.151945 -0.487006
    20 1.751858 0.000000 0.000000 -2.729942 1.147579 -2.760100
    21 0.853992 0.000000 0.000000 0.000000 0.043633 0.000000
    22 2.899449 1.342927 0.078013 -0.795597 1.116239 -0.951530
    23 1.152892 0.000000 0.000000 -0.447128 1.179451 -0.271135
    24 0.748463 0.000000 0.000000 0.053723 0.815957 0.023761
    25 -12.140588 -7.554104 -13.397293 0.325924 0.391024 0.846477
    26 -0.023288 0.041601 0.000004 -0.346563 -0.747344 -1.066975
    27 11.072356 -0.043445 -0.000003 0.000000 0.000000 -0.834893
    28 8.108978 0.000004 -0.000002 -2.754673 0.226996 0.333734
    29 0.788881 0.969696 -0.533610 -2.944391 0.299283 0.441520
    30 1.920298 0.000001 -0.000001 -0.591147 0.064934 -0.068696
    31 0.858251 0.000000 0.000001 0.000000 0.000000 -0.069433
    32 2.955716 0.752579 0.160553 3.045728 0.210209 -0.065736
    33 1.836088 0.000002 -0.000001 0.507277 -1.307861 -0.485021
    34 0.853994 -0.000002 0.000000 0.262689 -0.378691 -0.021654
    35 2.964907 -0.017483 0.178523 3.015207 0.183723 -0.052473
    36 1.814737 -0.000001 -0.000001 1.912099 -1.361853 -1.882983
    37 0.982324 0.000001 0.000000 0.007439 -0.230158 0.020055
    38 2.889732 -0.720929 0.212798 3.062889 0.474378 -0.051897
    39 1.751860 0.000001 -0.000002 2.547254 -1.362432 -2.508565
    40 0.853992 0.000001 0.000001 -0.031122 -0.197782 -0.114036
    41 2.857167 -1.430683 0.078014 -3.008558 0.702809 0.040165
    42 1.152892 0.000000 0.000000 0.790141 -1.470107 -0.658583
    43 0.748465 0.000001 -0.000001 0.000000 -0.314159 -0.057080
  time 13
    0 3.359573 -13.831189 -3.643953 -3.118625 0.000000 -0.000103
    1 3.287216 -12.814233 -6.641938 -3.118625 0.000000 -0.000103
    2 3.929390 -13.252754 -3.215567 -3.118625 0.000000 -0.000103
    3 3.282743 -10.923551 -5.401554 -3.118671 0.000000 -0.000103
    4 3.281418 -9.329752 -4.030272 -3.110561 0.000706 -0.000265
    5 4.134324 -8.091282 -3.737360 -2.814375 0.000000 -0.000103
    6 10.234738 11.539141 -1.935469 -0.983901 1.491799 -0.982535
    7 -0.023288 0.041601 0.000000 0.110834 0.352275 -0.928379
    8 11.072351 -0.043445 -0.000003 0.000000 0.000000 -0.690842
    9 8.108975 0.000000 0.000000 0.110832 -0.351248 0.086704
    10 0.758958 -0.993291 -0.533611 0.404120 0.537661 -0.276538
    11 1.920300 0.000001 0.000000 -0.187555 -0.202893 0.803971
    12 0.858252 0.000000 0.000000 0.000000 0.000000 -0.069433
    13 2.931401 -0.842324 0.160553 -0.024780 0.103950 -0.112258
    14 1.836086 0.000000 0.000000 -0.439696 1.073260 -0.542542
    15 0.853993 0.000000 0.000000 0.013581 0.539202 0.042666
    16 2.964059 -0.072900 0.178523 -0.297073 1.127761 -0.393156
    17 1.814736 0.000000 0.000000 -2.793622 1.166831 -2.793249
    18 0.982325 0.000000 0.000000 -0.005669 0.389640 -0.008645
    19 2.910364 0.632510 0.212797 -0.417799 1.151945 -0.487006
    20 1.751858 0.000000 0.000000 -2.729942 1.147579 -2.760100
    21 0.853992 0.000000 0.000000 0.000000 0.043633 0.000000
    22 2.899449 1.342927 0.078013 -0.795597 1.116239 -0.951530
    23 1.152892 0.000000 0.000000 -0.447128 1.179451 -0.271135
    24 0.748463 0.000000 0.000000 0.053723 0.815957 0.023761
    25 -12.140588 -7.554104 -13.397293 0.325924 0.391024 0.846477
    26 -0.023288 0.041601 0.000004 -0.344705 -0.748509 -1.070424
    27 11.072356 -0.043445 -0.000003 0.000000 0.000000 -0.828989
    28 8.108978 0.000004 -0.000002 -2.756114 0.225643 0.330689
    29 0.788881 0.969696 -0.533610 -2.944391 0.299283 0.441520
    30 1.920298 0.000001 -0.000001 -0.591147 0.064934 -0.068696
    31 0.858251 0.000000 0.000001 0.000000 0.000000 -0.069433
    32 2.955716 0.752579 0.160553 3.045728 0.210209 -0.065736
    33 1.836088 0.000002 -0.000001 0.507277 -1.307861 -0.485021
    34 0.853994 -0.000002 0.000000 0.262689 -0.378691 -0.021654
    35 2.964907 -0.017483 0.178523 3.015207 0.183723 -0.052473
    36 1.814737 -0.000001 -0.000001 1.912099 -1.361853 -1.882983
    37 0.982324 0.000001 0.000000 0.007439 -0.230158 0.020055
    38 2.889732 -0.720929 0.212798 3.062889 0.474378 -0.051897
    39 1.751860 0.000001 -0.000002 2.547254 -1.362432 -2.508565
    40 0.853992 0.000001 0.000001 -0.031122 -0.197782 -0.114036
    41 2.857167 -1.430683 0.078014 -3.008558 0.702809 0.040165
    42 1.152892 0.000000 0.000000 0.790141 -1.470107 -0.658583
    43 0.748465 0.000001 -0.000001 0.000000 -0.314159 -0.057080
  time 14
    0 3.386917 -13.815563 -3.620515 -3.122462 0.000000 -0.000103
    1 3.298935 -12.818140 -6.634125 -3.122462 0.000000 -0.000103
    2 3.948922 -13.241035 -3.196035 -3.122462 0.000000 -0.000103
    3 3.302275 -10.923551 -5.393741 -3.122491 0.000000 -0.000103
    4 3.308763 -9.325846 -4.030272 -3.114398 0.000706 -0.000265
    5 4.157762 -8.083470 -3.741266 -2.818226 0.000000 -0.000103
    6 10.234738 11.539141 -1.935469 -0.983901 1.491799 -0.982535
    7 -0.023288 0.041601 0.000000 0.110390 0.351100 -0.927509
    8 11.072351 -0.043445 -0.000003 0.000000 0.000000 -0.690757
    9 8.108975 0.000000 0.000000 0.112210 -0.349703 0.081583
    10 0.758958 -0.993291 -0.533611 0.404120 0.537661 -0.276538
    11 1.920300 0.000001 0.000000 -0.187555 -0.202893 0.803971
    12 0.858252 0.000000 0.000000 0.000000 0.000000 -0.069433
    13 2.931401 -0.842324 0.160553 -0.024780 0.103950 -0.112258
    14 1.836086 0.000000 0.000000 -0.439696 1.073260 -0.542542
    15 0.853993 0.000000 0.000000 0.013581 0.539202 0.042666
    16 2.964059 -0.072900 0.178523 -0.297073 1.127761 -0.393156
    17 1.814736 0.000000 0.000000 -2.793622 1.166831 -2.793249
    18 0.982325 0.000000 0.000000 -0.005669 0.389640 -0.008645
    19 2.910364 0.632510 0.212797 -0.417799 1.151945 -0.487006
    20 1.751858 0.000000 0.000000 -2.729942 1.147579 -2.760100
    21 0.853992 0.000000 0.000000 0.000000 0.043633 0.000000
    22 2.899449 1.342927 0.078013 -0.795597 1.116239 -0.951530
    23 1.152892 0.000000 0.000000 -0.447128 1.179451 -0.271135
    24 0.748463 0.000000 0.000000 0.053723 0.815957 0.023761
    25 -12.140588 -7.554104 -13.397293 0.325924 0.391024 0.846477
    26 -0.023288 0.041601 0.000004 -0.342488 -0.750385 -1.073849
    27 11.072356 -0.043445 -0.000003 0.000000 0.000000 -0.821262
    28 8.108978 0.000004 -0.000002 -2.759188 0.223758 0.325660
    29 0.788881 0.969696 -0.533610 -2.944391 0.299283 0.441520
    30 1.920298 0.000001 -0.000001 -0.591147 0.064934 -0.068696
    31 0.858251 0.000000 0.000001 0.000000 0.000000 -0.069433
    32 2.955716 0.752579 0.160553 3.045728 0.210209 -0.065736
    33 1.836088 0.000002 -0.000001 0.507277 -1.307861 -0.485021
    34 0.853994 -0.000002 0.000000 0.262689 -0.378691 -0.021654
    35 2.964907 -0.017483 0.178523 3.015207 0.183723 -0.052473
    36 1.814737 -0.000001 -0.000001 1.912099 -1.361853 -1.882983
    37 0.982324 0.000001 0.000000 0.007439 -0.230158 0.020055
    38 2.889732 -0.720929 0.212798 3.062889 0.474378 -0.051897
    39 1.751860 0.000001 -0.000002 2.547254 -1.362432 -2.508565
    40 0.853992 0.000001 0.000001 -0.031122 -0.197782 -0.114036
    41 2.857167 -1.430683 0.078014 -3.008558 0.702809 0.040165
    42 1.152892 0.000000 0.000000 0.790141 -1.470107 -0.658583
    43 0.748465 0.000001 -0.000001 0.000000 -0.314159 -0.057080
  time 15
    0 3.414262 -13.799938 -3.608796 -3.127564 0.000000 -0.000103
    1 3.326280 -12.810327 -6.618500 -3.127564 0.000000 -0.000103
    2 3.984079 -13.217597 -3.188222 -3.127564 0.000000 -0.000103
    3 3.333526 -10.915738 -5.393741 -3.127576 0.000000 -0.000103
    4 3.332201 -9.306314 -4.030272 -3.119487 0.000706 -0.000265
    5 4.185107 -8.071750 -3.749079 -2.823328 0.000000 -0.000103
    6 10.234738 11.539141 -1.935469 -0.983901 1.491799 -0.982535
    7 -0.023288 0.041601 0.000000 0.110342 0.349650 -0.924638
    8 11.072351 -0.043445 -0.000003 0.000000 0.000000 -0.693536
    9 8.108975 0.000000 0.000000 0.114250 -0.347792 0.076083
    10 0.758958 -0.993291 -0.533611 0.404120 0.537661 -0.276538
    11 1.920300 0.000001 0.000000 -0.187555 -0.202893 0.803971
    12 0.858252 0.000000 0.000000 0.000000 0.000000 -0.069433
    13 2.931401 -0.842324 0.160553 -0.024780 0.103950 -0.112258
    14 1.836086 0.000000 0.000000 -0.439696 1.073260 -0.542542
    15 0.853993 0.000000 0.000000 0.013581 0.539202 0.042666
    16 2.964059 -0.072900 0.178523 -0.297073 1.127761 -0.393156
    17 1.814736 0.000000 0.000000 -2.793622 1.166831 -2.793249
    18 0.982325 0.000000 0.000000 -0.005669 0.389640 -0.008645
    19 2.910364 0.632510 0.212797 -0.417799 1.151945 -0.487006
    20 1.751858 0.000000 0.000000 -2.729942 1.147579 -2.760100
    21 0.853992 0.000000 0.000000 0.000000 0.043633 0.000000
    22 2.899449 1.342927 0.078013 -0.795597 1.116239 -0.951530
    23 1.152892 0.000000 0.000000 -0.447128 1.179451 -0.271135
    24 0.748463 0.000000 0.000000 0.053723 0.815957 0.023761
    25 -12.140588 -7.554104 -13.397293 0.325924 0.391024 0.846477
    26 -0.023288 0.041601 0.000004 -0.340618 -0.752607 -1.075990
    27 11.072356 -0.043445 -0.000003 0.000000 0.000000 -0.813668
    28 8.108978 0.000004 -0.000002 -2.763928 0.221341 0.319995
    29 0.788881 0.969696 -0.533610 -2.944391 0.299283 0.441520
    30 1.920298 0.000001 -0.000001 -0.591147 0.064934 -0.068696
    31 0.858251 0.000000 0.000001 0.000000 0.000000 -0.069433
    32 2.955716 0.752579 0.160553 3.045728 0.210209 -0.065736
    33 1.836088 0.000002 -0.000001 0.507277 -1.307861 -0.485021
    34 0.853994 -0.000002 0.000000 0.262689 -0.378691 -0.021654
    35 2.964907 -0.017483 0.178523 3.015207 0.183723 -0.052473
    36 1.814737 -0.000001 -0.000001 1.912099 -1.361853 -1.882983
    37 0.982324 0.000001 0.000000 0.007439 -0.230158 0.020055
    38 2.889732 -0.720929 0.212798 3.062889 0.474378 -0.051897
    39 1.751860 0.000001 -0.000002 2.547254 -1.362432 -2.508565
    40 0.853992 0.000001 0.000001 -0.031122 -0.197782 -0.114036
    41 2.857167 -1.430683 0.078014 -3.008558 0.702809 0.040165
    42 1.152892 0.000000 0.000000 0.790141 -1.470107 -0.658583
    43 0.748465 0.000001 -0.000001 0.000000 -0.314159 -0.057080
  time 16
    0 3.449419 -13.764781 -3.589264 -3.133946 0.000000 -0.000103
    1 3.373156 -12.794701 -6.606781 -3.133959 0.000000 -0.000103
    2 4.011423 -13.178533 -3.164784 -3.133959 0.000000 -0.000103
    3 3.368683 -10.888393 -5.393741 -3.134003 0.000000 -0.000103
    4 3.363452 -9.267250 -4.038085 -3.125869 0.000706 -0.000265
    5 4.224170 -8.028780 -3.768611 -2.829723 0.000000 -0.000103
    6 10.234738 11.539141 -1.935469 -0.983901 1.491799 -0.982535
    7 -0.023288 0.041601 0.000000 0.110666 0.347840 -0.919897
    8 11.072351 -0.043445 -0.000003 0.000000 0.000000 -0.699096
    9 8.108975 0.000000 0.000000 0.116926 -0.345552 0.070032
    10 0.758958 -0.993291 -0.533611 0.404120 0.537661 -0.276538
    11 1.920300 0.000001 0.000000 -0.187555 -0.202893 0.803971
    12 0.858252 0.000000 0.000000 0.000000 0.000000 -0.069433
    13 2.931401 -0.842324 0.160553 -0.024780 0.103950 -0.112258
    14 1.836086 0.000000 0.000000 -0.439696 1.073260 -0.542542
    15 0.853993 0.000000 0.000000 0.013581 0.539202 0.042666
    16 2.964059 -0.072900 0.178523 -0.297073 1.127761 -0.393156
    17 1.814736 0.000000 0.000000 -2.793622 1.166831 -2.793249
    18 0.982325 0.000000 0.000000 -0.005669 0.389640 -0.008645
    19 2.910364 0.632510 0.212797 -0.417799 1.151945 -0.487006
    20 1.751858 0.000000 0.000000 -2.729942 1.147579 -2.760100
    21 0.853992 0.000000 0.000000 0.000000 0.043633 0.000000
    22 2.899449 1.342927 0.078013 -0.795597 1.116239 -0.951530
    23 1.152892 0.000000 0.000000 -0.447128 1.179451 -0.271135
    24 0.748463 0.000000 0.000000 0.053723 0.815957 0.023761
    25 -12.140588 -7.554104 -13.397293 0.325924 0.391024 0.846477
    26 -0.023288 0.041601 0.000004 -0.338833 -0.755367 -1.077450
    27 11.072356 -0.043445 -0.000003 0.000000 0.000000 -0.805484
    28 8.108978 0.000004 -0.000002 -2.770268 0.218324 0.312984
    29 0.788881 0.969696 -0.533610 -2.944391 0.299283 0.441520
    30 1.920298 0.000001 -0.000001 -0.591147 0.064934 -0.068696
    31 0.858251 0.000000 0.000001 0.000000 0.000000 -0.069433
    32 2.955716 0.752579 0.160553 3.045728 0.210209 -0.065736
    33 1.836088 0.000002 -0.000001 0.507277 -1.307861 -0.485021
    34 0.853994 -0.000002 0.000000 0.262689 -0.378691 -0.021654
    35 2.964907 -0.017483 0.178523 3.015207 0.183723 -0.052473
    36 1.814737 -0.000001 -0.000001 1.912099 -1.361853 -1.882983
    37 0.982324 0.000001 0.000000 0.007439 -0.230158 0.020055
    38 2.889732 -0.720929 0.212798 3.062889 0.474378 -0.051897
    39 1.751860 0.000001 -0.000002 2.547254 -1.362432 -2.508565
    40 0.853992 0.000001 0.000001 -0.031122 -0.197782 -0.114036
    41 2.857167 -1.430683 0.078014 -3.008558 0.702809 0.040165
    42 1.152892 0.000000 0.000000 0.790141 -1.470107 -0.658583
    43 0.748465 0.000001 -0.000001 0.000000 -0.314159 -0.057080
  time 17
    0 3.484577 -13.713998 -3.569732 -3.141592 0.000000 -0.000103
    1 3.412220 -12.767357 -6.595062 -3.141592 0.000000 -0.000103
    2 4.058300 -13.123844 -3.156971 -3.141592 0.000000 -0.000103
    3 3.411653 -10.853236 -5.393741 -3.141592 0.000000 -0.000103
    4 3.406422 -9.224280 -4.049804 -3.133530 0.000706 -0.000265
    5 4.263234 -7.981904 -3.788143 -2.837356 0.000000 -0.000103
    6 10.234738 11.539141 -1.935469 -0.983901 1.491799 -0.982535
    7 -0.023288 0.041601 0.000000 0.111337 0.345719 -0.912980
    8 11.072351 -0.043445 -0.000003 0.000000 0.000000 -0.707862
    9 8.108975 0.000000 0.000000 0.120132 -0.342868 0.063925
    10 0.758958 -0.993291 -0.533611 0.404120 0.537661 -0.276538
    11 1.920300 0.000001 0.000000 -0.187555 -0.202893 0.803971
    12 0.858252 0.000000 0.000000 0.000000 0.000000 -0.069433
    13 2.931401 -0.842324 0.160553 -0.024780 0.103950 -0.112258
    14 1.836086 0.000000 0.000000 -0.439696 1.073260 -0.542542
    15 0.853993 0.000000 0.000000 0.013581 0.539202 0.042666
    16 2.964059 -0.072900 0.178523 -0.297073 1.127761 -0.393156
    17 1.814736 0.000000 0.000000 -2.793622 1.166831 -2.793249
    18 0.982325 0.000000 0.000000 -0.005669 0.389640 -0.008645
    19 2.910364 0.632510 0.212797 -0.417799 1.151945 -0.487006
    20 1.751858 0.000000 0.000000 -2.729942 1.147579 -2.760100
    21 0.853992 0.000000 0.000000 0.000000 0.043633 0.000000
    22 2.899449 1.342927 0.078013 -0.795597 1.116239 -0.951530
    23 1.152892 0.000000 0.000000 -0.447128 1.179451 -0.271135
    24 0.748463 0.000000 0.000000 0.053723 0.815957 0.023761
    25 -12.140588 -7.554104 -13.397293 0.325924 0.391024 0.846477
    26 -0.023288 0.041601 0.000004 -0.337095 -0.758602 -1.077979
    27 11.072356 -0.043445 -0.000003 0.000000 0.000000 -0.796736
    28 8.108978 0.000004 -0.000002 -2.778242 0.214842 0.305264
    29 0.788881 0.969696 -0.533610 -2.944391 0.299283 0.441520
    30 1.920298 0.000001 -0.000001 -0.591147 0.064934 -0.068696
    31 0.858251 0.000000 0.000001 0.000000 0.000000 -0.069433
    32 2.955716 0.752579 0.160553 3.045728 0.210209 -0.065736
    33 1.836088 0.000002 -0.000001 0.507277 -1.307861 -0.485021
    34 0.853994 -0.000002 0.000000 0.262689 -0.378691 -0.021654
    35 2.964907 -0.017483 0.178523 3.015207 0.183723 -0.052473
    36 1.814737 -0.000001 -0.000001 1.912099 -1.361853 -1.882983
    37 0.982324 0.000001 0.000000 0.007439 -0.230158 0.020055
    38 2.889732 -0.720929 0.212798 3.062889 0.474378 -0.051897
    39 1.751860 0.000001 -0.000002 2.547254 -1.362432 -2.508565
    40 0.853992 0.000001 0.000001 -0.031122 -0.197782 -0.114036
    41 2.857167 -1.430683 0.078014 -3.008558 0.702809 0.040165
    42 1.152892 0.000000 0.000000 0.790141 -1.470107 -0.658583
    43 0.748465 0.000001 -0.000001 0.000000 -0.314159 -0.057080
end
