
VertexLitGeneric
{

	$baseTexture				models/jessev92/hl2/weapons/mrc/mrcframe_d
	$bumpmap					dev/bump_normal

	$halflambert				1
	$ambientocclusion			1

	$phong						1
	$phongexponent				0.25
	$phongalbedotint			1
	$phongalbedoboost			1
 	$phongfresnelranges			"[ 1 1 1 ]"
	
	$rimlight					1
	$rimlightexponent			34.5
	$rimlightboost				0.2
	
	$detail						detail/metal_detail_01
	$detailscale				24
	$detailblendfactor			0.95
	$detailblendmode			0
	
}
