VertexLitGeneric
{
	"$baseTexture" "models/jessev92/halo/reach/weapons/grenade_launcher/display"

	"$translucent" "0"
	"$nocull"		"1"
	"$selfillum" "1"
	"$selfillummaskscale" "4"
	"$rimlight" "1"
	"$rimlightexponent" "4"	
	"$rimlightboost" "2"
	"$glowcolor" "1"
	
	"$detail" "models/jessev92/halo/reach/weapons/srs99/scanline"
	"$detailscale" "65"
	"$detailblendfactor" "1"
	"$detailblendmode" "7"

			"Proxies" 
	{
		UniformNoise
		{
			resultVar	$alpha
			minVal	.9
			maxVal	1
		}
	}
}
