
VertexLitGeneric
{

	$basetexture					models/jessev92/hitman/weapons/safari/scopelens
	$bumpmap						dev/bump_normal
	$lightwarptexture				dev/identitylightwarp
	
	$ambientocclusion				1
	$halflambert					1
	
	$phong							1
	$phongboost						0.3
	$phongexponent					75
	$phongexponenttexture			dev/bump_dudv
	$phongfresnelranges				"[ 0.2 1.2 8 ]"
	$phongalbedotint				1

	$detail							detail/metal_detail_01
	$detailscale					2
	$detailblendfactor				0.2
	$detailblendmode				0
	
}
