{
	"title"		:	"[V92B-W] BF2142 Parachute",
	"type"		:	"weapon",
	"tags"		:	[ "roleplay", "realism" ],
	"ignore"	:
	[
		"*.psd",
		"*.vcproj",
		"*.svn*",
		"*.txt*",
		"*.dua*",
		"*-temp-*",
		"*.ztmp*"
	]
}