
VertexLitGeneric
{

	$basetexture 				models/jessev92/bms/props_marines/mil_flashlight_d
	$bumpmap 					models/jessev92/bms/props_marines/mil_flashlight_b
	
	$halflambert				1
	$ambientocclusion			1

}
