VertexLitGeneric
{
	"$baseTexture" "models/jessev92/haloreach/weapons/ma37/5"

	"$translucent" "1"
	"$nocull"		"1"
	"$selfillum" "1"
	"$selfillummaskscale" "4"
	"$additive" "1"
	"$rimlight" "1"
	"$rimlightexponent" "4"	
	"$rimlightboost" "2"
	"$glowcolor" "1"
	

}