
VertexLitGeneric
{

	$basetexture				models/ins1ons/ak47/sights_d
	$bumpmap					models/ins1ons/ak47/sights_b
	
	$ambientocclusion			1
	$halflambert				1
	
	$phong						1
	$phongalbedotint			1
	$phongtint					"[ 0.6 0.8 1 ]"
	$phongboost					0.1
	$phongexponent				45
	$phongfresnelranges			"[ 1 3 6 ]"
	$phongexponenttexture		models/ins1ons/ak47/sights_x
	
	$detail						detail/metal_detail_01
	$detailscale				1
	$detailblendfactor			0.2
	$detailblendmode			0
	
}
