
VertexLitGeneric
{

	$basetexture				models/ins1ons/ak47/w_ak47_d
	$bumpmap					dev/bump_normal
	
	$ambientocclusion			1
	$halflambert				1
	
	$phong						1
	$phongalbedotint			1
	$phongtint					"[ 0.6 0.8 1 ]"
	$phongboost					0.01
	$phongexponent				45
	$phongfresnelranges			"[ 1 2.5 7 ]"
	$phongexponenttexture		models/ins1ons/ak47/w_ak47_x
	
	$detail						detail/metal_detail_01
	$detailscale				12
	$detailblendfactor			0.9
	$detailblendmode			0
	
}
