// Created by Crowbar 0.29.0.0
version 1
nodes
  0 "L_Armdummy" -1
  1 "L_Upperarm" 0
  2 "L_Forearm" 1
  3 "L_Wrist" 2
  4 "L_Thumb1" 3
  5 "L_Thumb2" 4
  6 "L_Thumb3" 5
  7 "L_Index1" 3
  8 "L_Index2" 7
  9 "L_Index3" 8
  10 "L_Mid1" 3
  11 "L_Mid2" 10
  12 "L_Mid3" 11
  13 "L_Ring1" 3
  14 "L_Ring2" 13
  15 "L_Ring3" 14
  16 "L_Pinky1" 3
  17 "L_Pinky2" 16
  18 "L_Pinky3" 17
  19 "R_Armdummy" -1
  20 "R_Upperarm" 19
  21 "R_Forearm" 20
  22 "R_Wrist" 21
  23 "R_Thumb1" 22
  24 "R_Thumb2" 23
  25 "R_Thumb3" 24
  26 "R_Index1" 22
  27 "R_Index2" 26
  28 "R_Index3" 27
  29 "R_Mid1" 22
  30 "R_Mid2" 29
  31 "R_Mid3" 30
  32 "R_Ring1" 22
  33 "R_Ring2" 32
  34 "R_Ring3" 33
  35 "R_Pinky1" 22
  36 "R_Pinky2" 35
  37 "R_Pinky3" 36
  38 "fnc_mag" -1
  39 "fnc_bullets" 38
  40 "fnc_body" -1
  41 "fnc_bolt" 40
  42 "fnc_magrel" 40
  43 "fnc_stock" 40
  44 "fnc_trigger" 40
end
skeleton
  time 0
    0 11.677303 -7.334586 -12.317145 3.130657 0.745697 -3.756458
    1 -0.023288 0.041601 0.000000 0.182010 0.498026 -1.252509
    2 11.072353 -0.043445 0.000000 0.000000 0.000000 -0.761592
    3 8.108976 0.000000 0.000000 -0.642734 -0.357093 0.712836
    4 0.758958 -0.993292 -0.533611 -0.240227 0.106469 -0.623766
    5 1.920298 0.000000 0.000000 0.000000 0.000000 -0.100257
    6 0.858253 0.000000 0.000000 0.000000 0.000000 -0.295882
    7 2.931401 -0.842324 0.160553 0.000000 0.762671 -0.014689
    8 1.836089 0.000000 0.000000 0.000000 0.827867 0.000000
    9 0.853993 0.000000 0.000000 0.002756 0.113413 0.024347
    10 2.964057 -0.072899 0.178523 0.000000 1.085502 -0.014689
    11 1.814735 0.000000 0.000000 -0.009449 0.834610 -0.027786
    12 0.982325 0.000000 0.000000 0.000000 0.095993 0.021736
    13 2.910362 0.632510 0.212797 0.012781 1.079809 0.032659
    14 1.751858 0.000000 0.000000 0.000000 1.043933 -0.036569
    15 0.853993 0.000000 0.000000 0.000000 0.043633 0.000000
    16 2.899448 1.342927 0.078013 0.000000 1.432784 -0.014689
    17 1.152892 0.000000 0.000000 0.008984 0.595879 0.061634
    18 0.748463 0.000000 0.000000 0.000000 0.314159 -0.057080
    19 -3.991144 9.938654 -4.645036 0.000000 1.570796 -6.283136
    20 -0.023288 0.041602 0.000000 0.013066 0.023673 -0.901438
    21 11.072352 -0.043444 0.000000 0.000000 0.000000 -1.219067
    22 8.108975 0.000001 0.000000 -3.136755 -0.026602 0.534536
    23 0.788882 0.969696 -0.533611 -4.008508 0.406324 -0.072793
    24 1.920301 0.000001 0.000000 0.000000 0.000000 0.398791
    25 0.858251 0.000000 0.000001 0.000000 0.000000 -0.069433
    26 2.955714 0.752579 0.160553 -3.141592 0.069813 -0.015796
    27 1.836087 0.000000 0.000000 3.141497 -1.225715 3.141497
    28 0.853994 0.000000 0.000000 -0.002756 -0.113413 0.024347
    29 2.964905 -0.017483 0.178523 -3.141592 1.412554 -0.015796
    30 1.814736 0.000000 0.000000 3.093155 -1.438889 -3.114332
    31 0.982326 0.000000 0.000000 0.000000 -0.095993 0.021736
    32 2.889732 -0.720928 0.212797 5.839557 1.503554 2.646996
    33 1.751860 0.000000 0.000000 0.000000 -1.449456 -0.036569
    34 0.853992 0.000000 0.000001 0.000000 -0.043633 0.000000
    35 2.857166 -1.430682 0.078012 5.485523 1.403972 2.335179
    36 1.152892 -0.000001 0.000000 -0.012349 -0.934509 0.066608
    37 0.748465 0.000000 -0.000001 0.000000 -0.314159 -0.057080
    38 -3.685177 -13.590738 -7.388296 0.000000 0.000000 3.141511
    39 0.015362 -0.367279 3.264110 0.000000 0.000000 0.000000
    40 -3.716433 -8.226953 -6.186446 0.000000 0.000000 3.141511
    41 1.161873 5.818736 3.126734 0.000000 0.000000 0.000000
    42 0.646842 3.478493 1.008943 0.000000 0.000000 0.000000
    43 0.687481 -2.802067 2.063477 0.000000 0.000000 0.000000
    44 -0.031590 1.952037 0.620499 -0.393760 0.000000 0.000000
  time 1
    0 11.677303 -6.791601 -12.274175 3.083245 0.719932 -3.788263
    1 -0.023288 0.041601 0.000000 0.181998 0.498026 -1.252509
    2 11.072353 -0.043445 0.000000 0.000000 0.000000 -0.761592
    3 8.108976 0.000000 0.000000 -0.642695 -0.357093 0.712836
    4 0.758958 -0.993292 -0.533611 -0.240227 0.106469 -0.623766
    5 1.920298 0.000000 0.000000 0.000000 0.000000 -0.100257
    6 0.858253 0.000000 0.000000 0.000000 0.000000 -0.295882
    7 2.931401 -0.842324 0.160553 0.000000 0.762671 -0.014689
    8 1.836089 0.000000 0.000000 0.000000 0.827867 0.000000
    9 0.853993 0.000000 0.000000 0.002756 0.113413 0.024347
    10 2.964057 -0.072899 0.178523 0.000000 1.085535 -0.014689
    11 1.814735 0.000000 0.000000 -0.009449 0.834610 -0.027786
    12 0.982325 0.000000 0.000000 0.000000 0.095993 0.021736
    13 2.910362 0.632510 0.212797 0.012781 1.079809 0.032659
    14 1.751858 0.000000 0.000000 0.000000 1.043933 -0.036569
    15 0.853993 0.000000 0.000000 0.000000 0.043633 0.000000
    16 2.899448 1.342927 0.078013 0.000000 1.432784 -0.014689
    17 1.152892 0.000000 0.000000 0.008984 0.595879 0.061634
    18 0.748463 0.000000 0.000000 0.000000 0.314159 -0.057080
    19 -3.991144 10.130066 -3.855950 -4.712244 1.527076 -4.712388
    20 -0.023288 0.041602 0.000000 0.013066 0.023673 -0.901438
    21 11.072352 -0.043444 0.000000 0.000000 0.000000 -1.219067
    22 8.108975 0.000001 0.000000 -3.136755 -0.026602 0.534536
    23 0.788882 0.969696 -0.533611 -4.008508 0.406324 -0.072793
    24 1.920301 0.000001 0.000000 0.000000 0.000000 0.398791
    25 0.858251 0.000000 0.000001 0.000000 0.000000 -0.069433
    26 2.955714 0.752579 0.160553 -3.141592 0.069813 -0.015796
    27 1.836087 0.000000 0.000000 3.141497 -1.225715 3.141497
    28 0.853994 0.000000 0.000000 -0.002756 -0.113413 0.024347
    29 2.964905 -0.017483 0.178523 -3.141592 1.412554 -0.015796
    30 1.814736 0.000000 0.000000 3.093155 -1.438889 -3.114332
    31 0.982326 0.000000 0.000000 0.000000 -0.095993 0.021736
    32 2.889732 -0.720928 0.212797 5.839557 1.503554 2.646996
    33 1.751860 0.000000 0.000000 0.000000 -1.449456 -0.036569
    34 0.853992 0.000000 0.000001 0.000000 -0.043633 0.000000
    35 2.857166 -1.430682 0.078012 5.485523 1.403972 2.335179
    36 1.152892 -0.000001 0.000000 -0.012349 -0.934509 0.066608
    37 0.748465 0.000000 -0.000001 0.000000 -0.314159 -0.057080
    38 -3.685177 -13.254790 -7.622678 -0.043624 0.000000 3.141511
    39 0.015362 -0.367279 3.264110 0.000000 0.000000 0.000000
    40 -3.716433 -7.949601 -6.186446 -0.043624 0.000000 3.141511
    41 1.161873 3.510072 3.126734 0.000000 0.000000 0.000000
    42 0.646842 3.478493 1.008943 0.000000 0.000000 0.000000
    43 0.687481 -2.802067 2.063477 0.000000 0.000000 0.000000
    44 -0.031590 1.952037 0.620499 -0.393760 0.000000 0.000000
  time 2
    0 11.677303 -5.756413 -12.434336 3.123569 0.741971 -3.761414
    1 -0.023288 0.041601 0.000000 0.181998 0.498026 -1.252509
    2 11.072353 -0.043445 0.000000 0.000000 0.000000 -0.761592
    3 8.108976 0.000000 0.000000 -0.642714 -0.357093 0.712836
    4 0.758958 -0.993292 -0.533611 -0.240227 0.106469 -0.623766
    5 1.920298 0.000000 0.000000 0.000000 0.000000 -0.100257
    6 0.858253 0.000000 0.000000 0.000000 0.000000 -0.295882
    7 2.931401 -0.842324 0.160553 0.000000 0.762671 -0.014689
    8 1.836089 0.000000 0.000000 0.000000 0.827867 0.000000
    9 0.853993 0.000000 0.000000 0.002756 0.113413 0.024347
    10 2.964057 -0.072899 0.178523 0.000000 1.085535 -0.014689
    11 1.814735 0.000000 0.000000 -0.009449 0.834610 -0.027786
    12 0.982325 0.000000 0.000000 0.000000 0.095993 0.021736
    13 2.910362 0.632510 0.212797 0.012781 1.079809 0.032659
    14 1.751858 0.000000 0.000000 0.000000 1.043933 -0.036569
    15 0.853993 0.000000 0.000000 0.000000 0.043633 0.000000
    16 2.899448 1.342927 0.078013 0.000000 1.432784 -0.014689
    17 1.152892 0.000000 0.000000 0.008984 0.595879 0.061634
    18 0.748463 0.000000 0.000000 0.000000 0.314159 -0.057080
    19 -3.991144 11.466044 -4.652849 -4.712244 1.564324 -4.712388
    20 -0.023288 0.041602 0.000000 0.013066 0.023673 -0.901438
    21 11.072352 -0.043444 0.000000 0.000000 0.000000 -1.219067
    22 8.108975 0.000001 0.000000 -3.136755 -0.026602 0.534536
    23 0.788882 0.969696 -0.533611 -4.008508 0.406324 -0.072793
    24 1.920301 0.000001 0.000000 0.000000 0.000000 0.398791
    25 0.858251 0.000000 0.000001 0.000000 0.000000 -0.069433
    26 2.955714 0.752579 0.160553 -3.141592 0.069813 -0.015796
    27 1.836087 0.000000 0.000000 3.141497 -1.225715 3.141497
    28 0.853994 0.000000 0.000000 -0.002756 -0.113413 0.024347
    29 2.964905 -0.017483 0.178523 -3.141592 1.412554 -0.015796
    30 1.814736 0.000000 0.000000 3.093155 -1.438889 -3.114332
    31 0.982326 0.000000 0.000000 0.000000 -0.095993 0.021736
    32 2.889732 -0.720928 0.212797 5.839557 1.503554 2.646996
    33 1.751860 0.000000 0.000000 0.000000 -1.449456 -0.036569
    34 0.853992 0.000000 0.000001 0.000000 -0.043633 0.000000
    35 2.857166 -1.430682 0.078012 5.485523 1.403972 2.335179
    36 1.152892 -0.000001 0.000000 -0.012349 -0.934509 0.066608
    37 0.748465 0.000000 -0.000001 0.000000 -0.314159 -0.057080
    38 -3.685177 -12.043816 -7.548457 -0.006400 0.000000 3.141511
    39 0.015362 -0.367279 3.264110 0.000000 0.000000 0.000000
    40 -3.716433 -6.687844 -6.311450 -0.006400 0.000000 3.141511
    41 1.161873 3.510072 3.126734 0.000000 0.000000 0.000000
    42 0.646842 3.478493 1.008943 0.000000 0.000000 0.000000
    43 0.687481 -2.802067 2.063477 0.000000 0.000000 0.000000
    44 -0.031590 1.952037 0.620499 -0.393760 0.000000 0.000000
  time 3
    0 11.677303 -5.068892 -12.602310 -3.097995 0.772432 -3.719180
    1 -0.023288 0.041601 0.000000 0.181998 0.498026 -1.252509
    2 11.072353 -0.043445 0.000000 0.000000 0.000000 -0.761592
    3 8.108976 0.000000 0.000000 -0.642714 -0.357093 0.712836
    4 0.758958 -0.993292 -0.533611 -0.240227 0.106469 -0.623766
    5 1.920298 0.000000 0.000000 0.000000 0.000000 -0.100257
    6 0.858253 0.000000 0.000000 0.000000 0.000000 -0.295882
    7 2.931401 -0.842324 0.160553 0.000000 0.762671 -0.014689
    8 1.836089 0.000000 0.000000 0.000000 0.827867 0.000000
    9 0.853993 0.000000 0.000000 0.002756 0.113413 0.024347
    10 2.964057 -0.072899 0.178523 0.000000 1.085535 -0.014689
    11 1.814735 0.000000 0.000000 -0.009449 0.834610 -0.027786
    12 0.982325 0.000000 0.000000 0.000000 0.095993 0.021736
    13 2.910362 0.632510 0.212797 0.012781 1.079809 0.032659
    14 1.751858 0.000000 0.000000 0.000000 1.043933 -0.036569
    15 0.853993 0.000000 0.000000 0.000000 0.043633 0.000000
    16 2.899448 1.342927 0.078013 0.000000 1.432784 -0.014689
    17 1.152892 0.000000 0.000000 0.008984 0.595879 0.061634
    18 0.748463 0.000000 0.000000 0.000000 0.314159 -0.057080
    19 -3.991144 12.548108 -5.754445 -1.570844 1.523097 -1.570892
    20 -0.023288 0.041602 0.000000 0.013066 0.023673 -0.901438
    21 11.072352 -0.043444 0.000000 0.000000 0.000000 -1.219067
    22 8.108975 0.000001 0.000000 -3.136755 -0.026602 0.534536
    23 0.788882 0.969696 -0.533611 -4.008508 0.406324 -0.072793
    24 1.920301 0.000001 0.000000 0.000000 0.000000 0.398791
    25 0.858251 0.000000 0.000001 0.000000 0.000000 -0.069433
    26 2.955714 0.752579 0.160553 -3.141592 0.069813 -0.015796
    27 1.836087 0.000000 0.000000 3.141497 -1.217107 3.141497
    28 0.853994 0.000000 0.000000 -0.002756 -0.113413 0.024347
    29 2.964905 -0.017483 0.178523 -3.141592 1.412554 -0.015796
    30 1.814736 0.000000 0.000000 3.093155 -1.438889 -3.114332
    31 0.982326 0.000000 0.000000 0.000000 -0.095993 0.021736
    32 2.889732 -0.720928 0.212797 5.839557 1.503554 2.646996
    33 1.751860 0.000000 0.000000 0.000000 -1.449456 -0.036569
    34 0.853992 0.000000 0.000001 0.000000 -0.043633 0.000000
    35 2.857166 -1.430682 0.078012 5.485523 1.403972 2.335179
    36 1.152892 -0.000001 0.000000 -0.012349 -0.934509 0.066608
    37 0.748465 0.000000 -0.000001 0.000000 -0.314159 -0.057080
    38 -3.685177 -11.086755 -7.380483 0.047606 0.000000 3.141511
    39 0.015362 -0.367279 3.264110 0.000000 0.000000 0.000000
    40 -3.716433 -5.672188 -6.432547 0.047606 0.000000 3.141511
    41 1.161873 3.740548 3.126734 0.000000 0.000000 0.000000
    42 0.646842 3.478493 1.008943 0.000000 0.000000 0.000000
    43 0.687481 -2.802067 2.063477 0.000000 0.000000 0.000000
    44 -0.031590 1.952037 0.620499 -0.401972 0.000000 0.000000
  time 4
    0 11.677303 -5.576720 -12.606217 -3.089854 0.776188 -3.713485
    1 -0.023288 0.041601 0.000000 0.181998 0.498026 -1.252509
    2 11.072353 -0.043445 0.000000 0.000000 0.000000 -0.761592
    3 8.108976 0.000000 0.000000 -0.642714 -0.357093 0.712836
    4 0.758958 -0.993292 -0.533611 -0.240227 0.106469 -0.623766
    5 1.920298 0.000000 0.000000 0.000000 0.000000 -0.100257
    6 0.858253 0.000000 0.000000 0.000000 0.000000 -0.295882
    7 2.931401 -0.842324 0.160553 0.000000 0.762671 -0.014689
    8 1.836089 0.000000 0.000000 0.000000 0.827867 0.000000
    9 0.853993 0.000000 0.000000 0.002756 0.113413 0.024347
    10 2.964057 -0.072899 0.178523 0.000000 1.085502 -0.014689
    11 1.814735 0.000000 0.000000 -0.009449 0.834610 -0.027786
    12 0.982325 0.000000 0.000000 0.000000 0.095993 0.021736
    13 2.910362 0.632510 0.212797 0.012781 1.079809 0.032659
    14 1.751858 0.000000 0.000000 0.000000 1.043933 -0.036569
    15 0.853993 0.000000 0.000000 0.000000 0.043633 0.000000
    16 2.899448 1.342927 0.078013 0.000000 1.432784 -0.014689
    17 1.152892 0.000000 0.000000 0.008984 0.595879 0.061634
    18 0.748463 0.000000 0.000000 0.000000 0.314159 -0.057080
    19 -3.991144 12.087157 -5.879449 -1.570940 1.516194 -1.570988
    20 -0.023288 0.041602 0.000000 0.013066 0.023673 -0.901438
    21 11.072352 -0.043444 0.000000 0.000000 0.000000 -1.219067
    22 8.108975 0.000001 0.000000 -3.136755 -0.026602 0.534536
    23 0.788882 0.969696 -0.533611 -4.008508 0.406324 -0.072793
    24 1.920301 0.000001 0.000000 0.000000 0.000000 0.398791
    25 0.858251 0.000000 0.000001 0.000000 0.000000 -0.069433
    26 2.955714 0.752579 0.160553 -3.141592 0.069813 -0.015796
    27 1.836087 0.000000 0.000000 3.141497 -1.198208 3.141497
    28 0.853994 0.000000 0.000000 -0.002756 -0.113413 0.024347
    29 2.964905 -0.017483 0.178523 -3.141592 1.412554 -0.015796
    30 1.814736 0.000000 0.000000 3.093059 -1.438889 -3.114332
    31 0.982326 0.000000 0.000000 0.000000 -0.095993 0.021736
    32 2.889732 -0.720928 0.212797 5.839557 1.503554 2.646996
    33 1.751860 0.000000 0.000000 0.000000 -1.449456 -0.036569
    34 0.853992 0.000000 0.000001 0.000000 -0.043633 0.000000
    35 2.857166 -1.430682 0.078012 5.485523 1.403972 2.335179
    36 1.152892 -0.000001 0.000000 -0.012349 -0.934509 0.066608
    37 0.748465 0.000000 -0.000001 0.000000 -0.314159 -0.057080
    38 -3.685177 -11.555520 -7.341419 0.054512 0.000000 3.141511
    39 0.015362 -0.367279 3.264110 0.000000 0.000000 0.000000
    40 -3.716433 -6.133139 -6.432547 0.054512 0.000000 3.141511
    41 1.161873 4.205406 3.126734 0.000000 0.000000 0.000000
    42 0.646842 3.478493 1.008943 0.000000 0.000000 0.000000
    43 0.687481 -2.802067 2.063477 0.000000 0.000000 0.000000
    44 -0.031590 1.952037 0.620499 -0.420019 0.000000 0.000000
  time 5
    0 11.677303 -5.975170 -12.586685 -3.091865 0.775280 -3.714890
    1 -0.023288 0.041601 0.000000 0.182010 0.498026 -1.252509
    2 11.072353 -0.043445 0.000000 0.000000 0.000000 -0.761592
    3 8.108976 0.000000 0.000000 -0.642714 -0.357093 0.712836
    4 0.758958 -0.993292 -0.533611 -0.240227 0.106469 -0.623766
    5 1.920298 0.000000 0.000000 0.000000 0.000000 -0.100257
    6 0.858253 0.000000 0.000000 0.000000 0.000000 -0.295882
    7 2.931401 -0.842324 0.160553 0.000000 0.762671 -0.014689
    8 1.836089 0.000000 0.000000 0.000000 0.827867 0.000000
    9 0.853993 0.000000 0.000000 0.002756 0.113413 0.024347
    10 2.964057 -0.072899 0.178523 0.000000 1.085502 -0.014689
    11 1.814735 0.000000 0.000000 -0.009449 0.834610 -0.027786
    12 0.982325 0.000000 0.000000 0.000000 0.095993 0.021736
    13 2.910362 0.632510 0.212797 0.012781 1.079809 0.032659
    14 1.751858 0.000000 0.000000 0.000000 1.043933 -0.036569
    15 0.853993 0.000000 0.000000 0.000000 0.043633 0.000000
    16 2.899448 1.342927 0.078013 0.000000 1.432784 -0.014689
    17 1.152892 0.000000 0.000000 0.008984 0.595879 0.061634
    18 0.748463 0.000000 0.000000 0.000000 0.314159 -0.057080
    19 -3.991144 11.676988 -5.832572 -1.570940 1.517920 -1.570796
    20 -0.023288 0.041602 0.000000 0.013066 0.023673 -0.901438
    21 11.072352 -0.043444 0.000000 0.000000 0.000000 -1.219067
    22 8.108975 0.000001 0.000000 -3.136755 -0.026602 0.534536
    23 0.788882 0.969696 -0.533611 -4.008508 0.406324 -0.072793
    24 1.920301 0.000001 0.000000 0.000000 0.000000 0.398791
    25 0.858251 0.000000 0.000001 0.000000 0.000000 -0.069433
    26 2.955714 0.752579 0.160553 -3.141592 0.069813 -0.015796
    27 1.836087 0.000000 0.000000 3.141497 -1.179232 3.141497
    28 0.853994 0.000000 0.000000 -0.002756 -0.113413 0.024347
    29 2.964905 -0.017483 0.178523 -3.141592 1.412554 -0.015796
    30 1.814736 0.000000 0.000000 3.093155 -1.438889 -3.114332
    31 0.982326 0.000000 0.000000 0.000000 -0.095993 0.021736
    32 2.889732 -0.720928 0.212797 5.839557 1.503554 2.646996
    33 1.751860 0.000000 0.000000 0.000000 -1.449456 -0.036569
    34 0.853992 0.000000 0.000001 0.000000 -0.043633 0.000000
    35 2.857166 -1.430682 0.078012 5.485523 1.403972 2.335179
    36 1.152892 -0.000001 0.000000 -0.012349 -0.934509 0.066608
    37 0.748465 0.000000 -0.000001 0.000000 -0.314159 -0.057080
    38 -3.685177 -11.961782 -7.333606 0.052818 0.000000 3.141511
    39 0.015362 -0.367279 3.264110 0.000000 0.000000 0.000000
    40 -3.716433 -6.543308 -6.416922 0.052818 0.000000 3.141511
    41 1.161873 4.896833 3.126734 0.000000 0.000000 0.000000
    42 0.646842 3.478493 1.008943 0.000000 0.000000 0.000000
    43 0.687481 -2.802067 2.063477 0.000000 0.000000 0.000000
    44 -0.031590 1.952037 0.620499 -0.438065 0.000000 0.000000
  time 6
    0 11.677303 -6.272054 -12.547621 -3.103838 0.769677 -3.723248
    1 -0.023288 0.041601 0.000000 0.181998 0.498026 -1.252509
    2 11.072353 -0.043445 0.000000 0.000000 0.000000 -0.761592
    3 8.108976 0.000000 0.000000 -0.642714 -0.357093 0.712836
    4 0.758958 -0.993292 -0.533611 -0.240227 0.106469 -0.623766
    5 1.920298 0.000000 0.000000 0.000000 0.000000 -0.100257
    6 0.858253 0.000000 0.000000 0.000000 0.000000 -0.295882
    7 2.931401 -0.842324 0.160553 0.000000 0.762671 -0.014689
    8 1.836089 0.000000 0.000000 0.000000 0.827867 0.000000
    9 0.853993 0.000000 0.000000 0.002756 0.113413 0.024347
    10 2.964057 -0.072899 0.178523 0.000000 1.085502 -0.014689
    11 1.814735 0.000000 0.000000 -0.009449 0.834610 -0.027786
    12 0.982325 0.000000 0.000000 0.000000 0.095993 0.021736
    13 2.910362 0.632510 0.212797 0.012781 1.079809 0.032659
    14 1.751858 0.000000 0.000000 0.000000 1.043933 -0.036569
    15 0.853993 0.000000 0.000000 0.000000 0.043633 0.000000
    16 2.899448 1.342927 0.078013 0.000000 1.432784 -0.014689
    17 1.152892 0.000000 0.000000 0.008984 0.595879 0.061634
    18 0.748463 0.000000 0.000000 0.000000 0.314159 -0.057080
    19 -3.991144 11.309789 -5.609909 -1.570844 1.528179 -7.853884
    20 -0.023288 0.041602 0.000000 0.013066 0.023673 -0.901438
    21 11.072352 -0.043444 0.000000 0.000000 0.000000 -1.219067
    22 8.108975 0.000001 0.000000 -3.136755 -0.026602 0.534536
    23 0.788882 0.969696 -0.533611 -4.008508 0.406324 -0.072793
    24 1.920301 0.000001 0.000000 0.000000 0.000000 0.398791
    25 0.858251 0.000000 0.000001 0.000000 0.000000 -0.069433
    26 2.955714 0.752579 0.160553 -3.141592 0.069813 -0.015796
    27 1.836087 0.000000 0.000000 3.141497 -1.170663 3.141497
    28 0.853994 0.000000 0.000000 -0.002756 -0.113413 0.024347
    29 2.964905 -0.017483 0.178523 -3.141592 1.412554 -0.015796
    30 1.814736 0.000000 0.000000 3.093059 -1.438889 -3.114332
    31 0.982326 0.000000 0.000000 0.000000 -0.095993 0.021736
    32 2.889732 -0.720928 0.212797 5.839557 1.503554 2.646996
    33 1.751860 0.000000 0.000000 0.000000 -1.449456 -0.036569
    34 0.853992 0.000000 0.000001 0.000000 -0.043633 0.000000
    35 2.857166 -1.430682 0.078012 5.485523 1.403972 2.335179
    36 1.152892 -0.000001 0.000000 -0.012349 -0.934509 0.066608
    37 0.748465 0.000000 -0.000001 0.000000 -0.314159 -0.057080
    38 -3.685177 -12.313355 -7.357045 0.042553 0.000000 3.141511
    39 0.015362 -0.367279 3.264110 0.000000 0.000000 0.000000
    40 -3.716433 -6.902694 -6.381765 0.042553 0.000000 3.141511
    41 1.161873 5.818736 3.126734 0.000000 0.000000 0.000000
    42 0.646842 3.478493 1.008943 0.000000 0.000000 0.000000
    43 0.687481 -2.802067 2.063477 0.000000 0.000000 0.000000
    44 -0.031590 1.952037 0.620499 -0.446291 0.000000 0.000000
  time 7
    0 11.677303 -6.494717 -12.492932 -3.120600 0.761631 -3.734787
    1 -0.023288 0.041601 0.000000 0.182010 0.498026 -1.252509
    2 11.072353 -0.043445 0.000000 0.000000 0.000000 -0.761592
    3 8.108976 0.000000 0.000000 -0.642714 -0.357093 0.712836
    4 0.758958 -0.993292 -0.533611 -0.240227 0.106469 -0.623766
    5 1.920298 0.000000 0.000000 0.000000 0.000000 -0.100257
    6 0.858253 0.000000 0.000000 0.000000 0.000000 -0.295882
    7 2.931401 -0.842324 0.160553 0.000000 0.762671 -0.014689
    8 1.836089 0.000000 0.000000 0.000000 0.827867 0.000000
    9 0.853993 0.000000 0.000000 0.002756 0.113413 0.024347
    10 2.964057 -0.072899 0.178523 0.000000 1.085535 -0.014689
    11 1.814735 0.000000 0.000000 -0.009449 0.834610 -0.027786
    12 0.982325 0.000000 0.000000 0.000000 0.095993 0.021736
    13 2.910362 0.632510 0.212797 0.012781 1.079809 0.032659
    14 1.751858 0.000000 0.000000 0.000000 1.043933 -0.036569
    15 0.853993 0.000000 0.000000 0.000000 0.043633 0.000000
    16 2.899448 1.342927 0.078013 0.000000 1.432784 -0.014689
    17 1.152892 0.000000 0.000000 0.008984 0.595879 0.061634
    18 0.748463 0.000000 0.000000 0.000000 0.314159 -0.057080
    19 -3.991144 10.985561 -5.305212 -1.570940 1.542608 -1.570988
    20 -0.023288 0.041602 0.000000 0.013066 0.023673 -0.901438
    21 11.072352 -0.043444 0.000000 0.000000 0.000000 -1.219067
    22 8.108975 0.000001 0.000000 -3.136755 -0.026602 0.534536
    23 0.788882 0.969696 -0.533611 -4.008508 0.406324 -0.072793
    24 1.920301 0.000001 0.000000 0.000000 0.000000 0.398791
    25 0.858251 0.000000 0.000001 0.000000 0.000000 -0.069433
    26 2.955714 0.752579 0.160553 -3.141592 0.069813 -0.015796
    27 1.836087 0.000000 0.000000 3.141497 -1.182714 3.141497
    28 0.853994 0.000000 0.000000 -0.002756 -0.113413 0.024347
    29 2.964905 -0.017483 0.178523 -3.141592 1.412554 -0.015796
    30 1.814736 0.000000 0.000000 3.093155 -1.438889 -3.114332
    31 0.982326 0.000000 0.000000 0.000000 -0.095993 0.021736
    32 2.889732 -0.720928 0.212797 5.839557 1.503554 2.646996
    33 1.751860 0.000000 0.000000 0.000000 -1.449456 -0.036569
    34 0.853992 0.000000 0.000001 0.000000 -0.043633 0.000000
    35 2.857166 -1.430682 0.078012 5.485523 1.403972 2.335179
    36 1.152892 -0.000001 0.000000 -0.012349 -0.934509 0.066608
    37 0.748465 0.000000 -0.000001 0.000000 -0.314159 -0.057080
    38 -3.685177 -12.610239 -7.392202 0.028074 0.000000 3.141511
    39 0.015362 -0.367279 3.264110 0.000000 0.000000 0.000000
    40 -3.716433 -7.215204 -6.342701 0.028074 0.000000 3.141511
    41 1.161873 5.818736 3.126734 0.000000 0.000000 0.000000
    42 0.646842 3.478493 1.008943 0.000000 0.000000 0.000000
    43 0.687481 -2.802067 2.063477 0.000000 0.000000 0.000000
    44 -0.031590 1.952037 0.620499 -0.434796 0.000000 0.000000
  time 8
    0 11.677303 -6.674410 -12.442149 -3.136883 0.753554 -3.745955
    1 -0.023288 0.041601 0.000000 0.181998 0.498026 -1.252509
    2 11.072353 -0.043445 0.000000 0.000000 0.000000 -0.761592
    3 8.108976 0.000000 0.000000 -0.642714 -0.357093 0.712836
    4 0.758958 -0.993292 -0.533611 -0.240227 0.106469 -0.623766
    5 1.920298 0.000000 0.000000 0.000000 0.000000 -0.100257
    6 0.858253 0.000000 0.000000 0.000000 0.000000 -0.295882
    7 2.931401 -0.842324 0.160553 0.000000 0.762671 -0.014689
    8 1.836089 0.000000 0.000000 0.000000 0.827867 0.000000
    9 0.853993 0.000000 0.000000 0.002756 0.113413 0.024347
    10 2.964057 -0.072899 0.178523 0.000000 1.085535 -0.014689
    11 1.814735 0.000000 0.000000 -0.009449 0.834610 -0.027786
    12 0.982325 0.000000 0.000000 0.000000 0.095993 0.021736
    13 2.910362 0.632510 0.212797 0.012781 1.079809 0.032659
    14 1.751858 0.000000 0.000000 0.000000 1.043933 -0.036569
    15 0.853993 0.000000 0.000000 0.000000 0.043633 0.000000
    16 2.899448 1.342927 0.078013 0.000000 1.432784 -0.014689
    17 1.152892 0.000000 0.000000 0.008984 0.595879 0.061634
    18 0.748463 0.000000 0.000000 0.000000 0.314159 -0.057080
    19 -3.991144 10.700396 -5.004422 -1.570940 1.557038 -1.570988
    20 -0.023288 0.041602 0.000000 0.013066 0.023673 -0.901438
    21 11.072352 -0.043444 0.000000 0.000000 0.000000 -1.219067
    22 8.108975 0.000001 0.000000 -3.136755 -0.026602 0.534536
    23 0.788882 0.969696 -0.533611 -4.008508 0.406324 -0.072793
    24 1.920301 0.000001 0.000000 0.000000 0.000000 0.398791
    25 0.858251 0.000000 0.000001 0.000000 0.000000 -0.069433
    26 2.955714 0.752579 0.160553 -3.141592 0.069813 -0.015796
    27 1.836087 0.000000 0.000000 3.141497 -1.225715 3.141497
    28 0.853994 0.000000 0.000000 -0.002756 -0.113413 0.024347
    29 2.964905 -0.017483 0.178523 -3.141592 1.412554 -0.015796
    30 1.814736 0.000000 0.000000 3.093059 -1.438889 -3.114332
    31 0.982326 0.000000 0.000000 0.000000 -0.095993 0.021736
    32 2.889732 -0.720928 0.212797 5.839557 1.503554 2.646996
    33 1.751860 0.000000 0.000000 0.000000 -1.449456 -0.036569
    34 0.853992 0.000000 0.000001 0.000000 -0.043633 0.000000
    35 2.857166 -1.430682 0.078012 5.485523 1.403972 2.335179
    36 1.152892 -0.000001 0.000000 -0.012349 -0.934509 0.066608
    37 0.748465 0.000000 -0.000001 0.000000 -0.314159 -0.057080
    38 -3.685177 -12.864153 -7.427359 0.013726 0.000000 3.141511
    39 0.015362 -0.367279 3.264110 0.000000 0.000000 0.000000
    40 -3.716433 -7.484743 -6.299731 0.013726 0.000000 3.141511
    41 1.161873 5.818736 3.126734 0.000000 0.000000 0.000000
    42 0.646842 3.478493 1.008943 0.000000 0.000000 0.000000
    43 0.687481 -2.802067 2.063477 0.000000 0.000000 0.000000
    44 -0.031590 1.952037 0.620499 -0.393760 0.000000 0.000000
  time 9
    0 11.677303 -6.846290 -12.403085 3.134967 0.747951 -3.753574
    1 -0.023288 0.041601 0.000000 0.181998 0.498026 -1.252509
    2 11.072353 -0.043445 0.000000 0.000000 0.000000 -0.761592
    3 8.108976 0.000000 0.000000 -0.642714 -0.357093 0.712836
    4 0.758958 -0.993292 -0.533611 -0.240227 0.106469 -0.623766
    5 1.920298 0.000000 0.000000 0.000000 0.000000 -0.100257
    6 0.858253 0.000000 0.000000 0.000000 0.000000 -0.295882
    7 2.931401 -0.842324 0.160553 0.000000 0.762671 -0.014689
    8 1.836089 0.000000 0.000000 0.000000 0.827867 0.000000
    9 0.853993 0.000000 0.000000 0.002756 0.113413 0.024347
    10 2.964057 -0.072899 0.178523 0.000000 1.085535 -0.014689
    11 1.814735 0.000000 0.000000 -0.009449 0.834610 -0.027786
    12 0.982325 0.000000 0.000000 0.000000 0.095993 0.021736
    13 2.910362 0.632510 0.212797 0.012781 1.079809 0.032659
    14 1.751858 0.000000 0.000000 0.000000 1.043933 -0.036569
    15 0.853993 0.000000 0.000000 0.000000 0.043633 0.000000
    16 2.899448 1.342927 0.078013 0.000000 1.432784 -0.014689
    17 1.152892 0.000000 0.000000 0.008984 0.595879 0.061634
    18 0.748463 0.000000 0.000000 0.000000 0.314159 -0.057080
    19 -3.991144 10.454295 -4.797385 -1.570940 1.566817 -1.570988
    20 -0.023288 0.041602 0.000000 0.013066 0.023673 -0.901438
    21 11.072352 -0.043444 0.000000 0.000000 0.000000 -1.219067
    22 8.108975 0.000001 0.000000 -3.136755 -0.026602 0.534536
    23 0.788882 0.969696 -0.533611 -4.008508 0.406324 -0.072793
    24 1.920301 0.000001 0.000000 0.000000 0.000000 0.398791
    25 0.858251 0.000000 0.000001 0.000000 0.000000 -0.069433
    26 2.955714 0.752579 0.160553 -3.141592 0.069813 -0.015796
    27 1.836087 0.000000 0.000000 3.141497 -1.328397 3.141497
    28 0.853994 0.000000 0.000000 -0.002756 -0.113413 0.024347
    29 2.964905 -0.017483 0.178523 -3.141592 1.412554 -0.015796
    30 1.814736 0.000000 0.000000 3.093155 -1.438889 -3.114332
    31 0.982326 0.000000 0.000000 0.000000 -0.095993 0.021736
    32 2.889732 -0.720928 0.212797 5.839557 1.503554 2.646996
    33 1.751860 0.000000 0.000000 0.000000 -1.449456 -0.036569
    34 0.853992 0.000000 0.000001 0.000000 -0.043633 0.000000
    35 2.857166 -1.430682 0.078012 5.485523 1.403972 2.335179
    36 1.152892 -0.000001 0.000000 -0.012349 -0.934509 0.066608
    37 0.748465 0.000000 -0.000001 0.000000 -0.314159 -0.057080
    38 -3.685177 -13.082910 -7.446891 0.003895 0.000000 3.141511
    39 0.015362 -0.367279 3.264110 0.000000 0.000000 0.000000
    40 -3.716433 -7.715219 -6.268480 0.003895 0.000000 3.141511
    41 1.161873 5.818736 3.126734 0.000000 0.000000 0.000000
    42 0.646842 3.478493 1.008943 0.000000 0.000000 0.000000
    43 0.687481 -2.802067 2.063477 0.000000 0.000000 0.000000
    44 -0.031590 1.952037 0.620499 -0.324858 0.000000 0.000000
  time 10
    0 11.677303 -7.006451 -12.375741 3.129029 0.744852 -3.757642
    1 -0.023288 0.041601 0.000000 0.181998 0.498026 -1.252509
    2 11.072353 -0.043445 0.000000 0.000000 0.000000 -0.761592
    3 8.108976 0.000000 0.000000 -0.642714 -0.357093 0.712836
    4 0.758958 -0.993292 -0.533611 -0.240227 0.106469 -0.623766
    5 1.920298 0.000000 0.000000 0.000000 0.000000 -0.100257
    6 0.858253 0.000000 0.000000 0.000000 0.000000 -0.295882
    7 2.931401 -0.842324 0.160553 0.000000 0.762671 -0.014689
    8 1.836089 0.000000 0.000000 0.000000 0.827867 0.000000
    9 0.853993 0.000000 0.000000 0.002756 0.113413 0.024347
    10 2.964057 -0.072899 0.178523 0.000000 1.085535 -0.014689
    11 1.814735 0.000000 0.000000 -0.009449 0.834610 -0.027786
    12 0.982325 0.000000 0.000000 0.000000 0.095993 0.021736
    13 2.910362 0.632510 0.212797 0.012781 1.079809 0.032659
    14 1.751858 0.000000 0.000000 0.000000 1.043933 -0.036569
    15 0.853993 0.000000 0.000000 0.000000 0.043633 0.000000
    16 2.899448 1.342927 0.078013 0.000000 1.432784 -0.014689
    17 1.152892 0.000000 0.000000 0.008984 0.595879 0.061634
    18 0.748463 0.000000 0.000000 0.000000 0.314159 -0.057080
    19 -3.991144 10.251163 -4.680193 -4.712244 1.569310 -4.712388
    20 -0.023288 0.041602 0.000000 0.013066 0.023673 -0.901438
    21 11.072352 -0.043444 0.000000 0.000000 0.000000 -1.219067
    22 8.108975 0.000001 0.000000 -3.136755 -0.026602 0.534536
    23 0.788882 0.969696 -0.533611 -4.008508 0.406324 -0.072793
    24 1.920301 0.000001 0.000000 0.000000 0.000000 0.398791
    25 0.858251 0.000000 0.000001 0.000000 0.000000 -0.069433
    26 2.955714 0.752579 0.160553 -3.141592 0.069813 -0.015796
    27 1.836087 0.000000 0.000000 -3.141497 -1.489192 3.141497
    28 0.853994 0.000000 0.000000 -0.002756 -0.113413 0.024347
    29 2.964905 -0.017483 0.178523 -3.141592 1.412554 -0.015796
    30 1.814736 0.000000 0.000000 3.093155 -1.438889 -3.114332
    31 0.982326 0.000000 0.000000 0.000000 -0.095993 0.021736
    32 2.889732 -0.720928 0.212797 5.839557 1.503554 2.646996
    33 1.751860 0.000000 0.000000 0.000000 -1.449456 -0.036569
    34 0.853992 0.000000 0.000001 0.000000 -0.043633 0.000000
    35 2.857166 -1.430682 0.078012 5.485523 1.403972 2.335179
    36 1.152892 -0.000001 0.000000 -0.012349 -0.934509 0.066608
    37 0.748465 0.000000 -0.000001 0.000000 -0.314159 -0.057080
    38 -3.685177 -13.270416 -7.454704 -0.001419 0.000000 3.141511
    39 0.015362 -0.367279 3.264110 0.000000 0.000000 0.000000
    40 -3.716433 -7.910537 -6.245042 -0.001419 0.000000 3.141511
    41 1.161873 5.818736 3.126734 0.000000 0.000000 0.000000
    42 0.646842 3.478493 1.008943 0.000000 0.000000 0.000000
    43 0.687481 -2.802067 2.063477 0.000000 0.000000 0.000000
    44 -0.031590 1.952037 0.620499 -0.236248 0.000000 0.000000
  time 11
    0 11.677303 -7.139268 -12.352303 3.124910 0.742691 -3.760379
    1 -0.023288 0.041601 0.000000 0.181998 0.498041 -1.252509
    2 11.072353 -0.043445 0.000000 0.000000 0.000000 -0.761592
    3 8.108976 0.000000 0.000000 -0.642714 -0.357093 0.712836
    4 0.758958 -0.993292 -0.533611 -0.240227 0.106469 -0.623766
    5 1.920298 0.000000 0.000000 0.000000 0.000000 -0.100257
    6 0.858253 0.000000 0.000000 0.000000 0.000000 -0.295870
    7 2.931401 -0.842324 0.160553 0.000000 0.762671 -0.014689
    8 1.836089 0.000000 0.000000 0.000000 0.827867 0.000000
    9 0.853993 0.000000 0.000000 0.002756 0.113413 0.024347
    10 2.964057 -0.072899 0.178523 0.000000 1.085502 -0.014689
    11 1.814735 0.000000 0.000000 -0.009449 0.834610 -0.027786
    12 0.982325 0.000000 0.000000 0.000000 0.095993 0.021736
    13 2.910362 0.632510 0.212797 0.012781 1.079809 0.032659
    14 1.751858 0.000000 0.000000 0.000000 1.043933 -0.036569
    15 0.853993 0.000000 0.000000 0.000000 0.043633 0.000000
    16 2.899448 1.342927 0.078013 0.000000 1.432784 -0.014689
    17 1.152892 0.000000 0.000000 0.008984 0.595879 0.061634
    18 0.748463 0.000000 0.000000 0.000000 0.314159 -0.057080
    19 -3.991144 10.091002 -4.590347 -4.712244 1.565619 -4.712388
    20 -0.023288 0.041602 0.000000 0.013066 0.023673 -0.901438
    21 11.072352 -0.043444 0.000000 0.000000 0.000000 -1.219067
    22 8.108975 0.000001 0.000000 -3.136755 -0.026602 0.534536
    23 0.788882 0.969696 -0.533611 -4.008508 0.406324 -0.072793
    24 1.920301 0.000001 0.000000 0.000000 0.000000 0.398791
    25 0.858251 0.000000 0.000001 0.000000 0.000000 -0.069433
    26 2.955714 0.752579 0.160553 -3.141592 0.069813 -0.015796
    27 1.836087 0.000000 0.000000 0.000000 -1.468265 0.000000
    28 0.853994 0.000000 0.000000 -0.002756 -0.113413 0.024347
    29 2.964905 -0.017483 0.178523 -3.141592 1.412554 -0.015796
    30 1.814736 0.000000 0.000000 3.093155 -1.438889 -3.114332
    31 0.982326 0.000000 0.000000 0.000000 -0.095993 0.021736
    32 2.889732 -0.720928 0.212797 5.839557 1.503554 2.646996
    33 1.751860 0.000000 0.000000 0.000000 -1.449456 -0.036569
    34 0.853992 0.000000 0.000001 0.000000 -0.043633 0.000000
    35 2.857166 -1.430682 0.078012 5.485523 1.403972 2.335179
    36 1.152892 -0.000001 0.000000 -0.012349 -0.934509 0.066608
    37 0.748465 0.000000 -0.000001 0.000000 -0.314159 -0.057080
    38 -3.685177 -13.422764 -7.454704 -0.005169 0.000000 3.141511
    39 0.015362 -0.367279 3.264110 0.000000 0.000000 0.000000
    40 -3.716433 -8.062886 -6.225510 -0.005169 0.000000 3.141511
    41 1.161873 5.818736 3.126734 0.000000 0.000000 0.000000
    42 0.646842 3.478493 1.008943 0.000000 0.000000 0.000000
    43 0.687481 -2.802067 2.063477 0.000000 0.000000 0.000000
    44 -0.031590 1.952037 0.620499 -0.127971 0.000000 0.000000
  time 12
    0 11.677303 -7.240833 -12.336677 3.122516 0.741439 -3.762080
    1 -0.023288 0.041601 0.000000 0.181998 0.498026 -1.252509
    2 11.072353 -0.043445 0.000000 0.000000 0.000000 -0.761592
    3 8.108976 0.000000 0.000000 -0.642714 -0.357093 0.712836
    4 0.758958 -0.993292 -0.533611 -0.240227 0.106469 -0.623766
    5 1.920298 0.000000 0.000000 0.000000 0.000000 -0.100257
    6 0.858253 0.000000 0.000000 0.000000 0.000000 -0.295882
    7 2.931401 -0.842324 0.160553 0.000000 0.762671 -0.014689
    8 1.836089 0.000000 0.000000 0.000000 0.827867 0.000000
    9 0.853993 0.000000 0.000000 0.002756 0.113413 0.024347
    10 2.964057 -0.072899 0.178523 0.000000 1.085535 -0.014689
    11 1.814735 0.000000 0.000000 -0.009449 0.834610 -0.027786
    12 0.982325 0.000000 0.000000 0.000000 0.095993 0.021736
    13 2.910362 0.632510 0.212797 0.012781 1.079809 0.032659
    14 1.751858 0.000000 0.000000 0.000000 1.043933 -0.036569
    15 0.853993 0.000000 0.000000 0.000000 0.043633 0.000000
    16 2.899448 1.342927 0.078013 0.000000 1.432784 -0.014689
    17 1.152892 0.000000 0.000000 0.008984 0.595879 0.061634
    18 0.748463 0.000000 0.000000 0.000000 0.314159 -0.057080
    19 -3.991144 9.973811 -4.539564 -4.712340 1.563461 -4.712388
    20 -0.023288 0.041602 0.000000 0.013066 0.023673 -0.901438
    21 11.072352 -0.043444 0.000000 0.000000 0.000000 -1.219067
    22 8.108975 0.000001 0.000000 -3.136755 -0.026602 0.534536
    23 0.788882 0.969696 -0.533611 -4.008508 0.406324 -0.072793
    24 1.920301 0.000001 0.000000 0.000000 0.000000 0.398791
    25 0.858251 0.000000 0.000001 0.000000 0.000000 -0.069433
    26 2.955714 0.752579 0.160553 -3.141592 0.069813 -0.015796
    27 1.836087 0.000000 0.000000 0.000000 -1.295917 0.000000
    28 0.853994 0.000000 0.000000 -0.002756 -0.113413 0.024347
    29 2.964905 -0.017483 0.178523 -3.141592 1.412554 -0.015796
    30 1.814736 0.000000 0.000000 3.093059 -1.438889 -3.114332
    31 0.982326 0.000000 0.000000 0.000000 -0.095993 0.021736
    32 2.889732 -0.720928 0.212797 5.839557 1.503554 2.646996
    33 1.751860 0.000000 0.000000 0.000000 -1.449456 -0.036569
    34 0.853992 0.000000 0.000001 0.000000 -0.043633 0.000000
    35 2.857166 -1.430682 0.078012 5.485523 1.403972 2.335179
    36 1.152892 -0.000001 0.000000 -0.012349 -0.934509 0.066608
    37 0.748465 0.000000 -0.000001 0.000000 -0.314159 -0.057080
    38 -3.685177 -13.532143 -7.450798 -0.007312 0.000000 3.141511
    39 0.015362 -0.367279 3.264110 0.000000 0.000000 0.000000
    40 -3.716433 -8.176170 -6.209884 -0.007312 0.000000 3.141511
    41 1.161873 5.818736 3.126734 0.000000 0.000000 0.000000
    42 0.646842 3.478493 1.008943 0.000000 0.000000 0.000000
    43 0.687481 -2.802067 2.063477 0.000000 0.000000 0.000000
    44 -0.031590 1.952037 0.620499 0.000000 0.000000 0.000000
  time 13
    0 11.677303 -7.311148 -12.324958 3.121845 0.741126 -3.762376
    1 -0.023288 0.041601 0.000000 0.181998 0.498026 -1.252509
    2 11.072353 -0.043445 0.000000 0.000000 0.000000 -0.761592
    3 8.108976 0.000000 0.000000 -0.642714 -0.357093 0.712836
    4 0.758958 -0.993292 -0.533611 -0.240227 0.106469 -0.623766
    5 1.920298 0.000000 0.000000 0.000000 0.000000 -0.100257
    6 0.858253 0.000000 0.000000 0.000000 0.000000 -0.295870
    7 2.931401 -0.842324 0.160553 0.000000 0.762671 -0.014689
    8 1.836089 0.000000 0.000000 0.000000 0.827867 0.000000
    9 0.853993 0.000000 0.000000 0.002756 0.113413 0.024347
    10 2.964057 -0.072899 0.178523 0.000000 1.085502 -0.014689
    11 1.814735 0.000000 0.000000 -0.009449 0.834610 -0.027786
    12 0.982325 0.000000 0.000000 0.000000 0.095993 0.021736
    13 2.910362 0.632510 0.212797 0.012781 1.079809 0.032659
    14 1.751858 0.000000 0.000000 0.000000 1.043933 -0.036569
    15 0.853993 0.000000 0.000000 0.000000 0.043633 0.000000
    16 2.899448 1.342927 0.078013 0.000000 1.432784 -0.014689
    17 1.152892 0.000000 0.000000 0.008984 0.595879 0.061634
    18 0.748463 0.000000 0.000000 0.000000 0.314159 -0.057080
    19 -3.991144 9.899590 -4.516126 -4.712244 1.562838 -4.712388
    20 -0.023288 0.041602 0.000000 0.013066 0.023673 -0.901438
    21 11.072352 -0.043444 0.000000 0.000000 0.000000 -1.219067
    22 8.108975 0.000001 0.000000 -3.136755 -0.026602 0.534536
    23 0.788882 0.969696 -0.533611 -4.008508 0.406324 -0.072793
    24 1.920301 0.000001 0.000000 0.000000 0.000000 0.398791
    25 0.858251 0.000000 0.000001 0.000000 0.000000 -0.069433
    26 2.955714 0.752579 0.160553 -3.141592 0.069813 -0.015796
    27 1.836087 0.000000 0.000000 0.000000 -1.295917 0.000000
    28 0.853994 0.000000 0.000000 -0.002756 -0.113413 0.024347
    29 2.964905 -0.017483 0.178523 -3.141592 1.412554 -0.015796
    30 1.814736 0.000000 0.000000 3.093155 -1.438889 -3.114332
    31 0.982326 0.000000 0.000000 0.000000 -0.095993 0.021736
    32 2.889732 -0.720928 0.212797 5.839557 1.503554 2.646996
    33 1.751860 0.000000 0.000000 0.000000 -1.449456 -0.036569
    34 0.853992 0.000000 0.000001 0.000000 -0.043633 0.000000
    35 2.857166 -1.430682 0.078012 5.485523 1.403972 2.335179
    36 1.152892 -0.000001 0.000000 -0.012349 -0.934509 0.066608
    37 0.748465 0.000000 -0.000001 0.000000 -0.314159 -0.057080
    38 -3.685177 -13.606364 -7.442985 -0.007862 0.000000 3.141511
    39 0.015362 -0.367279 3.264110 0.000000 0.000000 0.000000
    40 -3.716433 -8.250391 -6.198165 -0.007862 0.000000 3.141511
    41 1.161873 5.818736 3.126734 0.000000 0.000000 0.000000
    42 0.646842 3.478493 1.008943 0.000000 0.000000 0.000000
    43 0.687481 -2.802067 2.063477 0.000000 0.000000 0.000000
    44 -0.031590 1.952037 0.620499 0.000000 0.000000 0.000000
  time 14
    0 11.677303 -7.350212 -12.317145 3.122994 0.741721 -3.761710
    1 -0.023288 0.041601 0.000000 0.181998 0.498026 -1.252509
    2 11.072353 -0.043445 0.000000 0.000000 0.000000 -0.761592
    3 8.108976 0.000000 0.000000 -0.642714 -0.357093 0.712836
    4 0.758958 -0.993292 -0.533611 -0.240227 0.106469 -0.623766
    5 1.920298 0.000000 0.000000 0.000000 0.000000 -0.100257
    6 0.858253 0.000000 0.000000 0.000000 0.000000 -0.295882
    7 2.931401 -0.842324 0.160553 0.000000 0.762671 -0.014689
    8 1.836089 0.000000 0.000000 0.000000 0.827867 0.000000
    9 0.853993 0.000000 0.000000 0.002756 0.113413 0.024347
    10 2.964057 -0.072899 0.178523 0.000000 1.085502 -0.014689
    11 1.814735 0.000000 0.000000 -0.009449 0.834610 -0.027786
    12 0.982325 0.000000 0.000000 0.000000 0.095993 0.021736
    13 2.910362 0.632510 0.212797 0.012781 1.079809 0.032659
    14 1.751858 0.000000 0.000000 0.000000 1.043933 -0.036569
    15 0.853993 0.000000 0.000000 0.000000 0.043633 0.000000
    16 2.899448 1.342927 0.078013 0.000000 1.432784 -0.014689
    17 1.152892 0.000000 0.000000 0.008984 0.595879 0.061634
    18 0.748463 0.000000 0.000000 0.000000 0.314159 -0.057080
    19 -3.991144 9.868339 -4.527845 -4.712244 1.563941 -4.712388
    20 -0.023288 0.041602 0.000000 0.013066 0.023673 -0.901438
    21 11.072352 -0.043444 0.000000 0.000000 0.000000 -1.219067
    22 8.108975 0.000001 0.000000 -3.136755 -0.026602 0.534536
    23 0.788882 0.969696 -0.533611 -4.008508 0.406324 -0.072793
    24 1.920301 0.000001 0.000000 0.000000 0.000000 0.398791
    25 0.858251 0.000000 0.000001 0.000000 0.000000 -0.069433
    26 2.955714 0.752579 0.160553 -3.141592 0.069813 -0.015796
    27 1.836087 0.000000 0.000000 0.000000 -1.295917 0.000000
    28 0.853994 0.000000 0.000000 -0.002756 -0.113413 0.024347
    29 2.964905 -0.017483 0.178523 -3.141592 1.412554 -0.015796
    30 1.814736 0.000000 0.000000 3.093155 -1.438889 -3.114332
    31 0.982326 0.000000 0.000000 0.000000 -0.095993 0.021736
    32 2.889732 -0.720928 0.212797 5.839557 1.503554 2.646996
    33 1.751860 0.000000 0.000000 0.000000 -1.449456 -0.036569
    34 0.853992 0.000000 0.000001 0.000000 -0.043633 0.000000
    35 2.857166 -1.430682 0.078012 5.485523 1.403972 2.335179
    36 1.152892 -0.000001 0.000000 -0.012349 -0.934509 0.066608
    37 0.748465 0.000000 -0.000001 0.000000 -0.314159 -0.057080
    38 -3.685177 -13.637615 -7.431266 -0.006834 0.000000 3.141511
    39 0.015362 -0.367279 3.264110 0.000000 0.000000 0.000000
    40 -3.716433 -8.281642 -6.190353 -0.006834 0.000000 3.141511
    41 1.161873 5.818736 3.126734 0.000000 0.000000 0.000000
    42 0.646842 3.478493 1.008943 0.000000 0.000000 0.000000
    43 0.687481 -2.802067 2.063477 0.000000 0.000000 0.000000
    44 -0.031590 1.952037 0.620499 0.000000 0.000000 0.000000
  time 15
    0 11.677303 -7.358024 -12.313239 3.125964 0.743255 -3.759713
    1 -0.023288 0.041601 0.000000 0.181998 0.498026 -1.252509
    2 11.072353 -0.043445 0.000000 0.000000 0.000000 -0.761592
    3 8.108976 0.000000 0.000000 -0.642695 -0.357093 0.712836
    4 0.758958 -0.993292 -0.533611 -0.240227 0.106469 -0.623766
    5 1.920298 0.000000 0.000000 0.000000 0.000000 -0.100257
    6 0.858253 0.000000 0.000000 0.000000 0.000000 -0.295882
    7 2.931401 -0.842324 0.160553 0.000000 0.762671 -0.014689
    8 1.836089 0.000000 0.000000 0.000000 0.827867 0.000000
    9 0.853993 0.000000 0.000000 0.002756 0.113413 0.024347
    10 2.964057 -0.072899 0.178523 0.000000 1.085502 -0.014689
    11 1.814735 0.000000 0.000000 -0.009449 0.834610 -0.027786
    12 0.982325 0.000000 0.000000 0.000000 0.095993 0.021736
    13 2.910362 0.632510 0.212797 0.012781 1.079809 0.032659
    14 1.751858 0.000000 0.000000 0.000000 1.043933 -0.036569
    15 0.853993 0.000000 0.000000 0.000000 0.043633 0.000000
    16 2.899448 1.342927 0.078013 0.000000 1.432784 -0.014689
    17 1.152892 0.000000 0.000000 0.008984 0.595879 0.061634
    18 0.748463 0.000000 0.000000 0.000000 0.314159 -0.057080
    19 -3.991144 9.883965 -4.570815 -4.712244 1.566529 -4.712388
    20 -0.023288 0.041602 0.000000 0.013066 0.023673 -0.901438
    21 11.072352 -0.043444 0.000000 0.000000 0.000000 -1.219067
    22 8.108975 0.000001 0.000000 -3.136755 -0.026602 0.534536
    23 0.788882 0.969696 -0.533611 -4.008508 0.406324 -0.072793
    24 1.920301 0.000001 0.000000 0.000000 0.000000 0.398791
    25 0.858251 0.000000 0.000001 0.000000 0.000000 -0.069433
    26 2.955714 0.752579 0.160553 -3.141592 0.069813 -0.015796
    27 1.836087 0.000000 0.000000 0.000000 -1.295917 0.000000
    28 0.853994 0.000000 0.000000 -0.002756 -0.113413 0.024347
    29 2.964905 -0.017483 0.178523 -3.141592 1.412554 -0.015796
    30 1.814736 0.000000 0.000000 3.093155 -1.438889 -3.114332
    31 0.982326 0.000000 0.000000 0.000000 -0.095993 0.021736
    32 2.889732 -0.720928 0.212797 5.839557 1.503554 2.646996
    33 1.751860 0.000000 0.000000 0.000000 -1.449456 -0.036569
    34 0.853992 0.000000 0.000001 0.000000 -0.043633 0.000000
    35 2.857166 -1.430682 0.078012 5.485523 1.403972 2.335179
    36 1.152892 -0.000001 0.000000 -0.012349 -0.934509 0.066608
    37 0.748465 0.000000 -0.000001 0.000000 -0.314159 -0.057080
    38 -3.685177 -13.633708 -7.411734 -0.004199 0.000000 3.141511
    39 0.015362 -0.367279 3.264110 0.000000 0.000000 0.000000
    40 -3.716433 -8.273830 -6.186446 -0.004199 0.000000 3.141511
    41 1.161873 5.818736 3.126734 0.000000 0.000000 0.000000
    42 0.646842 3.478493 1.008943 0.000000 0.000000 0.000000
    43 0.687481 -2.802067 2.063477 0.000000 0.000000 0.000000
    44 -0.031590 1.952037 0.620499 0.000000 0.000000 0.000000
  time 16
    0 11.677303 -7.334586 -12.317145 3.130657 0.745697 -3.756458
    1 -0.023288 0.041601 0.000000 0.182010 0.498026 -1.252509
    2 11.072353 -0.043445 0.000000 0.000000 0.000000 -0.761592
    3 8.108976 0.000000 0.000000 -0.642734 -0.357093 0.712836
    4 0.758958 -0.993292 -0.533611 -0.240227 0.106469 -0.623766
    5 1.920298 0.000000 0.000000 0.000000 0.000000 -0.100257
    6 0.858253 0.000000 0.000000 0.000000 0.000000 -0.295882
    7 2.931401 -0.842324 0.160553 0.000000 0.762671 -0.014689
    8 1.836089 0.000000 0.000000 0.000000 0.827867 0.000000
    9 0.853993 0.000000 0.000000 0.002756 0.113413 0.024347
    10 2.964057 -0.072899 0.178523 0.000000 1.085502 -0.014689
    11 1.814735 0.000000 0.000000 -0.009449 0.834610 -0.027786
    12 0.982325 0.000000 0.000000 0.000000 0.095993 0.021736
    13 2.910362 0.632510 0.212797 0.012781 1.079809 0.032659
    14 1.751858 0.000000 0.000000 0.000000 1.043933 -0.036569
    15 0.853993 0.000000 0.000000 0.000000 0.043633 0.000000
    16 2.899448 1.342927 0.078013 0.000000 1.432784 -0.014689
    17 1.152892 0.000000 0.000000 0.008984 0.595879 0.061634
    18 0.748463 0.000000 0.000000 0.000000 0.314159 -0.057080
    19 -3.991144 9.938654 -4.645036 0.000000 1.570796 -6.283136
    20 -0.023288 0.041602 0.000000 0.013066 0.023673 -0.901438
    21 11.072352 -0.043444 0.000000 0.000000 0.000000 -1.219067
    22 8.108975 0.000001 0.000000 -3.136755 -0.026602 0.534536
    23 0.788882 0.969696 -0.533611 -4.008508 0.406324 -0.072793
    24 1.920301 0.000001 0.000000 0.000000 0.000000 0.398791
    25 0.858251 0.000000 0.000001 0.000000 0.000000 -0.069433
    26 2.955714 0.752579 0.160553 -3.141592 0.069813 -0.015796
    27 1.836087 0.000000 0.000000 0.000000 -1.295917 0.000000
    28 0.853994 0.000000 0.000000 -0.002756 -0.113413 0.024347
    29 2.964905 -0.017483 0.178523 -3.141592 1.412554 -0.015796
    30 1.814736 0.000000 0.000000 3.093155 -1.438889 -3.114332
    31 0.982326 0.000000 0.000000 0.000000 -0.095993 0.021736
    32 2.889732 -0.720928 0.212797 5.839557 1.503554 2.646996
    33 1.751860 0.000000 0.000000 0.000000 -1.449456 -0.036569
    34 0.853992 0.000000 0.000001 0.000000 -0.043633 0.000000
    35 2.857166 -1.430682 0.078012 5.485523 1.403972 2.335179
    36 1.152892 -0.000001 0.000000 -0.012349 -0.934509 0.066608
    37 0.748465 0.000000 -0.000001 0.000000 -0.314159 -0.057080
    38 -3.685177 -13.590738 -7.388296 0.000000 0.000000 3.141511
    39 0.015362 -0.367279 3.264110 0.000000 0.000000 0.000000
    40 -3.716433 -8.226953 -6.186446 0.000000 0.000000 3.141511
    41 1.161873 5.818736 3.126734 0.000000 0.000000 0.000000
    42 0.646842 3.478493 1.008943 0.000000 0.000000 0.000000
    43 0.687481 -2.802067 2.063477 0.000000 0.000000 0.000000
    44 -0.031590 1.952037 0.620499 0.000000 0.000000 0.000000
  time 17
    0 11.677303 -7.334586 -12.317145 3.130657 0.745697 -3.756458
    1 -0.023288 0.041601 0.000000 0.182010 0.498026 -1.252509
    2 11.072353 -0.043445 0.000000 0.000000 0.000000 -0.761592
    3 8.108976 0.000000 0.000000 -0.642734 -0.357093 0.712836
    4 0.758958 -0.993292 -0.533611 -0.240227 0.106469 -0.623766
    5 1.920298 0.000000 0.000000 0.000000 0.000000 -0.100257
    6 0.858253 0.000000 0.000000 0.000000 0.000000 -0.295882
    7 2.931401 -0.842324 0.160553 0.000000 0.762671 -0.014689
    8 1.836089 0.000000 0.000000 0.000000 0.827867 0.000000
    9 0.853993 0.000000 0.000000 0.002756 0.113413 0.024347
    10 2.964057 -0.072899 0.178523 0.000000 1.085502 -0.014689
    11 1.814735 0.000000 0.000000 -0.009449 0.834610 -0.027786
    12 0.982325 0.000000 0.000000 0.000000 0.095993 0.021736
    13 2.910362 0.632510 0.212797 0.012781 1.079809 0.032659
    14 1.751858 0.000000 0.000000 0.000000 1.043933 -0.036569
    15 0.853993 0.000000 0.000000 0.000000 0.043633 0.000000
    16 2.899448 1.342927 0.078013 0.000000 1.432784 -0.014689
    17 1.152892 0.000000 0.000000 0.008984 0.595879 0.061634
    18 0.748463 0.000000 0.000000 0.000000 0.314159 -0.057080
    19 -3.991144 9.938654 -4.645036 0.000000 1.570796 -6.283136
    20 -0.023288 0.041602 0.000000 0.013066 0.023673 -0.901438
    21 11.072352 -0.043444 0.000000 0.000000 0.000000 -1.219067
    22 8.108975 0.000001 0.000000 -3.136755 -0.026602 0.534536
    23 0.788882 0.969696 -0.533611 -4.008508 0.406324 -0.072793
    24 1.920301 0.000001 0.000000 0.000000 0.000000 0.398791
    25 0.858251 0.000000 0.000001 0.000000 0.000000 -0.069433
    26 2.955714 0.752579 0.160553 -3.141592 0.069813 -0.015796
    27 1.836087 0.000000 0.000000 0.000000 -1.295917 0.000000
    28 0.853994 0.000000 0.000000 -0.002756 -0.113413 0.024347
    29 2.964905 -0.017483 0.178523 -3.141592 1.412554 -0.015796
    30 1.814736 0.000000 0.000000 3.093155 -1.438889 -3.114332
    31 0.982326 0.000000 0.000000 0.000000 -0.095993 0.021736
    32 2.889732 -0.720928 0.212797 5.839557 1.503554 2.646996
    33 1.751860 0.000000 0.000000 0.000000 -1.449456 -0.036569
    34 0.853992 0.000000 0.000001 0.000000 -0.043633 0.000000
    35 2.857166 -1.430682 0.078012 5.485523 1.403972 2.335179
    36 1.152892 -0.000001 0.000000 -0.012349 -0.934509 0.066608
    37 0.748465 0.000000 -0.000001 0.000000 -0.314159 -0.057080
    38 -3.685177 -13.590738 -7.388296 0.000000 0.000000 3.141511
    39 0.015362 -0.367279 3.264110 0.000000 0.000000 0.000000
    40 -3.716433 -8.226953 -6.186446 0.000000 0.000000 3.141511
    41 1.161873 5.818736 3.126734 0.000000 0.000000 0.000000
    42 0.646842 3.478493 1.008943 0.000000 0.000000 0.000000
    43 0.687481 -2.802067 2.063477 0.000000 0.000000 0.000000
    44 -0.031590 1.952037 0.620499 0.000000 0.000000 0.000000
  time 18
    0 11.677303 -7.334586 -12.317145 3.130657 0.745697 -3.756458
    1 -0.023288 0.041601 0.000000 0.182010 0.498026 -1.252509
    2 11.072353 -0.043445 0.000000 0.000000 0.000000 -0.761592
    3 8.108976 0.000000 0.000000 -0.642734 -0.357093 0.712836
    4 0.758958 -0.993292 -0.533611 -0.240227 0.106469 -0.623766
    5 1.920298 0.000000 0.000000 0.000000 0.000000 -0.100257
    6 0.858253 0.000000 0.000000 0.000000 0.000000 -0.295882
    7 2.931401 -0.842324 0.160553 0.000000 0.762671 -0.014689
    8 1.836089 0.000000 0.000000 0.000000 0.827867 0.000000
    9 0.853993 0.000000 0.000000 0.002756 0.113413 0.024347
    10 2.964057 -0.072899 0.178523 0.000000 1.085502 -0.014689
    11 1.814735 0.000000 0.000000 -0.009449 0.834610 -0.027786
    12 0.982325 0.000000 0.000000 0.000000 0.095993 0.021736
    13 2.910362 0.632510 0.212797 0.012781 1.079809 0.032659
    14 1.751858 0.000000 0.000000 0.000000 1.043933 -0.036569
    15 0.853993 0.000000 0.000000 0.000000 0.043633 0.000000
    16 2.899448 1.342927 0.078013 0.000000 1.432784 -0.014689
    17 1.152892 0.000000 0.000000 0.008984 0.595879 0.061634
    18 0.748463 0.000000 0.000000 0.000000 0.314159 -0.057080
    19 -3.991144 9.938654 -4.645036 0.000000 1.570796 -6.283136
    20 -0.023288 0.041602 0.000000 0.013066 0.023673 -0.901438
    21 11.072352 -0.043444 0.000000 0.000000 0.000000 -1.219067
    22 8.108975 0.000001 0.000000 -3.136755 -0.026602 0.534536
    23 0.788882 0.969696 -0.533611 -4.008508 0.406324 -0.072793
    24 1.920301 0.000001 0.000000 0.000000 0.000000 0.398791
    25 0.858251 0.000000 0.000001 0.000000 0.000000 -0.069433
    26 2.955714 0.752579 0.160553 -3.141592 0.069813 -0.015796
    27 1.836087 0.000000 0.000000 0.000000 -1.295917 0.000000
    28 0.853994 0.000000 0.000000 -0.002756 -0.113413 0.024347
    29 2.964905 -0.017483 0.178523 -3.141592 1.412554 -0.015796
    30 1.814736 0.000000 0.000000 3.093155 -1.438889 -3.114332
    31 0.982326 0.000000 0.000000 0.000000 -0.095993 0.021736
    32 2.889732 -0.720928 0.212797 5.839557 1.503554 2.646996
    33 1.751860 0.000000 0.000000 0.000000 -1.449456 -0.036569
    34 0.853992 0.000000 0.000001 0.000000 -0.043633 0.000000
    35 2.857166 -1.430682 0.078012 5.485523 1.403972 2.335179
    36 1.152892 -0.000001 0.000000 -0.012349 -0.934509 0.066608
    37 0.748465 0.000000 -0.000001 0.000000 -0.314159 -0.057080
    38 -3.685177 -13.590738 -7.388296 0.000000 0.000000 3.141511
    39 0.015362 -0.367279 3.264110 0.000000 0.000000 0.000000
    40 -3.716433 -8.226953 -6.186446 0.000000 0.000000 3.141511
    41 1.161873 5.818736 3.126734 0.000000 0.000000 0.000000
    42 0.646842 3.478493 1.008943 0.000000 0.000000 0.000000
    43 0.687481 -2.802067 2.063477 0.000000 0.000000 0.000000
    44 -0.031590 1.952037 0.620499 0.000000 0.000000 0.000000
  time 19
    0 11.677303 -7.334586 -12.317145 3.130657 0.745697 -3.756458
    1 -0.023288 0.041601 0.000000 0.182010 0.498026 -1.252509
    2 11.072353 -0.043445 0.000000 0.000000 0.000000 -0.761592
    3 8.108976 0.000000 0.000000 -0.642734 -0.357093 0.712836
    4 0.758958 -0.993292 -0.533611 -0.240227 0.106469 -0.623766
    5 1.920298 0.000000 0.000000 0.000000 0.000000 -0.100257
    6 0.858253 0.000000 0.000000 0.000000 0.000000 -0.295882
    7 2.931401 -0.842324 0.160553 0.000000 0.762671 -0.014689
    8 1.836089 0.000000 0.000000 0.000000 0.827867 0.000000
    9 0.853993 0.000000 0.000000 0.002756 0.113413 0.024347
    10 2.964057 -0.072899 0.178523 0.000000 1.085502 -0.014689
    11 1.814735 0.000000 0.000000 -0.009449 0.834610 -0.027786
    12 0.982325 0.000000 0.000000 0.000000 0.095993 0.021736
    13 2.910362 0.632510 0.212797 0.012781 1.079809 0.032659
    14 1.751858 0.000000 0.000000 0.000000 1.043933 -0.036569
    15 0.853993 0.000000 0.000000 0.000000 0.043633 0.000000
    16 2.899448 1.342927 0.078013 0.000000 1.432784 -0.014689
    17 1.152892 0.000000 0.000000 0.008984 0.595879 0.061634
    18 0.748463 0.000000 0.000000 0.000000 0.314159 -0.057080
    19 -3.991144 9.938654 -4.645036 0.000000 1.570796 -6.283136
    20 -0.023288 0.041602 0.000000 0.013066 0.023673 -0.901438
    21 11.072352 -0.043444 0.000000 0.000000 0.000000 -1.219067
    22 8.108975 0.000001 0.000000 -3.136755 -0.026602 0.534536
    23 0.788882 0.969696 -0.533611 -4.008508 0.406324 -0.072793
    24 1.920301 0.000001 0.000000 0.000000 0.000000 0.398791
    25 0.858251 0.000000 0.000001 0.000000 0.000000 -0.069433
    26 2.955714 0.752579 0.160553 -3.141592 0.069813 -0.015796
    27 1.836087 0.000000 0.000000 0.000000 -1.295917 0.000000
    28 0.853994 0.000000 0.000000 -0.002756 -0.113413 0.024347
    29 2.964905 -0.017483 0.178523 -3.141592 1.412554 -0.015796
    30 1.814736 0.000000 0.000000 3.093155 -1.438889 -3.114332
    31 0.982326 0.000000 0.000000 0.000000 -0.095993 0.021736
    32 2.889732 -0.720928 0.212797 5.839557 1.503554 2.646996
    33 1.751860 0.000000 0.000000 0.000000 -1.449456 -0.036569
    34 0.853992 0.000000 0.000001 0.000000 -0.043633 0.000000
    35 2.857166 -1.430682 0.078012 5.485523 1.403972 2.335179
    36 1.152892 -0.000001 0.000000 -0.012349 -0.934509 0.066608
    37 0.748465 0.000000 -0.000001 0.000000 -0.314159 -0.057080
    38 -3.685177 -13.590738 -7.388296 0.000000 0.000000 3.141511
    39 0.015362 -0.367279 3.264110 0.000000 0.000000 0.000000
    40 -3.716433 -8.226953 -6.186446 0.000000 0.000000 3.141511
    41 1.161873 5.818736 3.126734 0.000000 0.000000 0.000000
    42 0.646842 3.478493 1.008943 0.000000 0.000000 0.000000
    43 0.687481 -2.802067 2.063477 0.000000 0.000000 0.000000
    44 -0.031590 1.952037 0.620499 0.000000 0.000000 0.000000
  time 20
    0 11.677303 -7.334586 -12.317145 3.130657 0.745697 -3.756458
    1 -0.023288 0.041601 0.000000 0.182010 0.498026 -1.252509
    2 11.072353 -0.043445 0.000000 0.000000 0.000000 -0.761592
    3 8.108976 0.000000 0.000000 -0.642734 -0.357093 0.712836
    4 0.758958 -0.993292 -0.533611 -0.240227 0.106469 -0.623778
    5 1.920298 0.000000 0.000000 0.000000 0.000000 -0.100257
    6 0.858253 0.000000 0.000000 0.000000 0.000000 -0.295882
    7 2.931401 -0.842324 0.160553 0.000000 0.762671 -0.014689
    8 1.836089 0.000000 0.000000 0.000000 0.827867 0.000000
    9 0.853993 0.000000 0.000000 0.002756 0.113413 0.024347
    10 2.964057 -0.072899 0.178523 0.000000 1.085502 -0.014689
    11 1.814735 0.000000 0.000000 -0.009449 0.834610 -0.027786
    12 0.982325 0.000000 0.000000 0.000000 0.095993 0.021736
    13 2.910362 0.632510 0.212797 0.012781 1.079809 0.032659
    14 1.751858 0.000000 0.000000 0.000000 1.043933 -0.036569
    15 0.853993 0.000000 0.000000 0.000000 0.043633 0.000000
    16 2.899448 1.342927 0.078013 0.000000 1.432784 -0.014689
    17 1.152892 0.000000 0.000000 0.008984 0.595879 0.061634
    18 0.748463 0.000000 0.000000 0.000000 0.314159 -0.057080
    19 -3.991144 9.938654 -4.645036 0.000000 1.570796 -6.283136
    20 -0.023288 0.041602 0.000000 0.013066 0.023673 -0.901438
    21 11.072352 -0.043444 0.000000 0.000000 0.000000 -1.219067
    22 8.108975 0.000001 0.000000 -3.136755 -0.026602 0.534536
    23 0.788882 0.969696 -0.533611 -4.008508 0.406324 -0.072793
    24 1.920301 0.000001 0.000000 0.000000 0.000000 0.398791
    25 0.858251 0.000000 0.000001 0.000000 0.000000 -0.069433
    26 2.955714 0.752579 0.160553 -3.141592 0.069813 -0.015796
    27 1.836087 0.000000 0.000000 0.000000 -1.295917 0.000000
    28 0.853994 0.000000 0.000000 -0.002756 -0.113413 0.024347
    29 2.964905 -0.017483 0.178523 -3.141592 1.412554 -0.015796
    30 1.814736 0.000000 0.000000 3.093155 -1.438889 -3.114332
    31 0.982326 0.000000 0.000000 0.000000 -0.095993 0.021736
    32 2.889732 -0.720928 0.212797 5.839557 1.503554 2.646996
    33 1.751860 0.000000 0.000000 0.000000 -1.449456 -0.036569
    34 0.853992 0.000000 0.000001 0.000000 -0.043633 0.000000
    35 2.857166 -1.430682 0.078012 5.485523 1.403972 2.335179
    36 1.152892 -0.000001 0.000000 -0.012349 -0.934509 0.066608
    37 0.748465 0.000000 -0.000001 0.000000 -0.314159 -0.057080
    38 -3.685177 -13.590738 -7.388296 0.000000 0.000000 3.141511
    39 0.015362 -0.367279 3.264110 0.000000 0.000000 0.000000
    40 -3.716433 -8.226953 -6.186446 0.000000 0.000000 3.141511
    41 1.161873 5.818736 3.126734 0.000000 0.000000 0.000000
    42 0.646842 3.478493 1.008943 0.000000 0.000000 0.000000
    43 0.687481 -2.802067 2.063477 0.000000 0.000000 0.000000
    44 -0.031590 1.952037 0.620499 0.000000 0.000000 0.000000
end
