"VertexLitGeneric"
{
	"$basetexture" "models/shells/3006"
        "$bumpmap" "models/shells/3006_normal"
	"$model" 1
	"$envmap" "env_cubemap"
//	"$envmapcontrast" 0.1
	"$envmapsaturation" 0.9
	"$envmaptint" "{ 131 120 61}"
}
