
VertexLitGeneric
{

	$baseTexture				models/jessev92/hl2/weapons/92fs/slide_d
	$bumpmap					models/jessev92/hl2/weapons/92fs/slide_b

	$halflambert				1
	$ambientocclusion			1
	$nocull						0

	$phong						1
	$phongexponent				69
	$phongboost					0.1
 	$phongfresnelranges			"[ 8 4 8 ]"
	$phongalbedotint			1
	
	$detail						detail/metal_detail_01
	$detailscale				24
	$detailblendfactor			0.95
	$detailblendmode			0
	
}
