VertexLitGeneric
{
	"$baseTexture" "models/jessev92/haloreach/weapons/srs99/scanline"


	"$selfillum" "1"
	"$selfillummaskscale" "10"
	"$additive" "0"
	

	"$detail" "models/jessev92/haloreach/weapons/srs99/scanline"
	"$detailscale" "65"
	"$detailblendfactor" "0.35"
	"$detailblendmode" "0"

			"Proxies" 
	{
		UniformNoise
		{
			resultVar	$alpha
			minVal	.07
			maxVal	.1
		}
		"TextureScroll"
		{
			"texturescrollvar" "$basetexturetransform"
			"texturescrollrate" 0.1
			"texturescrollangle" -90	
		}
	}
}