VertexLitGeneric
{
	"$baseTexture" "models/jessev92/haloreach/weapons/srs99/sniper_scope"
	"$alpha" "1"
	"$nocull"		"1"
	"$selfillum_envmapmask_alpha" 1
	"$selfillum" "1"
	"$selfillummaskscale" "4"
	"$glowcolor" "1"

	"$detail" "models/jessev92/haloreach/weapons/srs99/scanline"
	"$detailscale" "65"
	"$detailblendfactor" "0.35"
	"$detailblendmode" "0"
	"$additive" "1"
	

}