VertexLitGeneric
{
	"$baseTexture" "models/jessev92/haloreach/weapons/srs99/storm_sniper_rifle_lens_d"
	"$bumpmap" "models/jessev92/haloreach/weapons/srs99/storm_sniper_rifle_lens_n"
	
	"$translucent"	"1"
	"$envmap" "models/jessev92/haloreach/common/cubemap_visors_2"
	"$envmaptint" "[.5 .5 .5]"


	"$phong" "1"
	"$phongboost" "4"
	"$phongexponent" "10"
	"$phongexponenttexture" "models/jessev92/haloreach/common/halosp"
	"$phongalbedotint" "1"
	"$phongtint" "[0 0.5 1]"
	"$phongfresnelranges"	"[2 2 10]"
	
	"Proxies" 
	{
		UniformNoise
		{
			resultVar	$alpha
			minVal	.1
			maxVal	.1
		}
	}
}
