// Created by Crowbar 0.29.0.0
version 1
nodes
  0 "ValveBiped" -1
  1 "ValveBiped.weapon_bone" 0
  2 "ValveBiped.weapon_bone_Clip" 1
  3 "ValveBiped.flash" 1
end
skeleton
  time 0
    0 0.000000 0.000000 0.000000 1.570676 0.000060 -0.000061
    1 1.227019 4.371634 5.825668 0.000000 0.000000 0.000000
    2 -0.997082 -4.566531 4.826196 0.000000 0.000000 0.000000
    3 -0.953014 -0.069423 24.446213 0.000000 0.000000 0.000000
  time 1
    0 0.000000 0.000000 0.000000 1.570676 0.000060 -0.000061
    1 1.227019 4.371634 5.825668 0.000000 0.000000 0.000000
    2 -0.997082 -4.566531 4.826196 0.000000 0.000000 0.000000
    3 -0.953014 -0.069423 24.446213 0.000000 0.000000 0.000000
  time 2
    0 0.000000 0.000000 0.000000 1.570676 0.000060 -0.000061
    1 1.227019 4.371634 5.825668 0.000000 0.000000 0.000000
    2 -0.997082 -4.566531 4.826196 0.000000 0.000000 0.000000
    3 -0.953014 -0.069423 24.446213 0.000000 0.000000 0.000000
  time 3
    0 0.000000 0.000000 0.000000 1.570676 0.000060 -0.000061
    1 1.227019 4.371634 5.825668 0.000000 0.000000 0.000000
    2 -0.997082 -4.566531 4.826196 0.000000 0.000000 0.000000
    3 -0.953014 -0.069423 24.446213 0.000000 0.000000 0.000000
end
