// Created by Crowbar 0.24.0.0
version 1
nodes
  0 "polymsh1" -1
  1 "polymsh_detached" 0
  2 "polymsh_detached1" 0
  3 "polymsh_detached2" 0
  4 "l arm base" -1
  5 "l upperarm" 4
  6 "l forearm" 5
  7 "l hand" 6
  8 "l finger0" 7
  9 "l finger01" 8
  10 "l finger02" 9
  11 "l finger1" 7
  12 "l finger11" 11
  13 "l finger12" 12
  14 "l finger3" 7
  15 "l finger31" 14
  16 "l finger32" 15
  17 "l finger4" 7
  18 "l finger41" 17
  19 "l finger42" 18
  20 "l finger2" 7
  21 "l finger21" 20
  22 "l finger22" 21
  23 "l sleeve help" 6
  24 "l cuff" 23
  25 "r arm base" -1
  26 "r upperarm" 25
  27 "r forearm" 26
  28 "r hand" 27
  29 "r finger0" 28
  30 "r finger01" 29
  31 "r finger02" 30
  32 "r finger1" 28
  33 "r finger11" 32
  34 "r finger12" 33
  35 "r finger3" 28
  36 "r finger31" 35
  37 "r finger32" 36
  38 "r finger4" 28
  39 "r finger41" 38
  40 "r finger42" 39
  41 "r finger2" 28
  42 "r finger21" 41
  43 "r finger22" 42
  44 "r sleeve help" 27
  45 "r cuff" 44
  46 "weapon" -1
end
skeleton
  time 0
    0 -4.265925 -19.410347 -6.499187 1.570796 0.000000 -0.000079
    1 -0.006660 0.337219 4.384488 0.000000 0.000000 0.000000
    2 -0.006660 0.293999 2.752374 0.246631 0.000000 0.000000
    3 -0.006660 1.042511 2.142976 0.000000 0.000000 0.000000
    4 15.132813 -20.000000 -12.078125 -1.919857 0.000000 -1.570796
    5 0.000000 0.000001 0.000002 0.739790 0.929949 0.957195
    6 11.703224 -0.000051 0.000023 -0.000002 0.000003 -0.940648
    7 11.501116 -0.000059 0.000032 -2.242358 -0.351027 0.512720
    8 0.949228 0.526683 -0.818566 1.218642 0.700708 -0.024979
    9 1.978558 -0.000009 0.000000 0.000001 -0.000004 0.258992
    10 1.087181 0.000005 -0.000004 -0.000003 0.000000 -0.318564
    11 3.863441 -0.167474 -1.277058 0.201230 -0.155208 1.099048
    12 1.666012 0.000002 0.000000 0.000003 -0.000002 1.555320
    13 1.292521 0.000007 0.000000 -0.000006 0.000007 0.270582
    14 3.927893 -0.566339 0.452260 0.056623 -0.078693 1.416162
    15 1.705974 -0.000004 -0.000001 0.000001 0.000001 1.471814
    16 1.292522 0.000000 -0.000003 0.000001 0.000002 0.873162
    17 3.772598 -0.311803 1.300303 -0.090729 -0.047626 1.187226
    18 1.408097 -0.000004 0.000001 -0.000004 -0.000002 2.038980
    19 0.986795 -0.000004 -0.000002 0.000003 -0.000001 0.219430
    20 3.851017 -0.476111 -0.459795 0.124882 -0.135855 1.384532
    21 2.007648 0.000002 -0.000003 0.000002 0.000000 1.517031
    22 1.270737 0.000001 -0.000002 -0.000001 0.000003 0.034542
    23 5.679941 -0.078302 -0.132353 1.619888 -1.570792 0.000000
    24 0.236202 -3.846334 -0.007086 0.040104 0.000001 -0.000003
    25 -13.281250 -2.773438 2.111328 1.570792 -0.002895 -4.709494
    26 0.000000 0.000000 0.000000 0.353893 0.359373 1.361331
    27 -11.703230 -0.000004 -0.000090 0.000006 0.000003 -1.506545
    28 -11.501110 -0.000001 -0.000004 -1.527214 -0.497213 0.671951
    29 -0.949223 -0.526691 0.818566 2.039111 0.416550 0.555245
    30 -1.978558 0.000003 -0.000002 -0.000002 -0.000001 0.608066
    31 -1.087188 0.000001 -0.000001 0.000001 0.000000 0.510659
    32 -3.863440 0.167448 1.277064 0.211429 0.203736 0.054708
    33 -1.666018 -0.000002 0.000002 -0.000003 0.000002 0.792158
    34 -1.292521 -0.000002 -0.000002 0.000001 -0.000003 1.169378
    35 -3.927895 0.566317 -0.452254 -0.108297 -0.034867 1.000385
    36 -1.705971 0.000000 0.000005 0.000001 -0.000006 1.560063
    37 -1.292522 -0.000001 0.000005 0.000003 0.000003 0.259169
    38 -3.772601 0.311782 -1.300296 -0.160117 0.071001 1.138462
    39 -1.408095 0.000002 -0.000006 -0.000002 -0.000003 1.377597
    40 -0.986792 -0.000002 -0.000001 0.000000 0.000004 0.512612
    41 -3.851023 0.476089 0.459802 0.014947 -0.075267 0.645165
    42 -2.007647 0.000002 -0.000002 -0.000001 0.000001 1.777937
    43 -1.270733 0.000002 -0.000002 -0.000004 -0.000003 0.494876
    44 -5.679935 0.078273 0.132370 1.619888 -1.570792 0.000000
    45 0.000006 3.838817 -0.000001 0.000000 0.000001 0.000001
    46 -4.265446 -19.406691 -6.499466 1.570796 0.000000 -1.570822
  time 1
    0 -4.105764 -16.097745 -7.268742 1.509424 -0.097129 -0.031883
    1 -0.006660 0.337219 4.384488 0.000000 0.000000 0.000000
    2 -0.006660 0.293999 2.752374 0.246631 0.000000 0.000000
    3 -0.006660 1.042511 2.142976 0.000000 0.000000 0.000000
    4 15.132813 -20.000000 -12.078125 -1.919857 0.000000 -1.570796
    5 0.000000 0.000001 0.000002 1.032266 0.944772 1.301118
    6 11.703224 -0.000051 0.000023 -0.000002 0.000003 -1.121912
    7 11.501116 -0.000059 0.000032 -2.081813 -0.468007 0.590866
    8 0.949228 0.526683 -0.818566 1.218642 0.700708 -0.024979
    9 1.978558 -0.000009 0.000000 0.000001 -0.000004 0.258992
    10 1.087181 0.000005 -0.000004 -0.000003 0.000000 -0.318564
    11 3.863441 -0.167474 -1.277058 0.201230 -0.155208 1.099048
    12 1.666012 0.000002 0.000000 0.000003 -0.000002 1.555320
    13 1.292521 0.000007 0.000000 -0.000006 0.000007 0.270582
    14 3.927893 -0.566339 0.452260 0.056623 -0.078693 1.416162
    15 1.705974 -0.000004 -0.000001 0.000001 0.000001 1.471814
    16 1.292522 0.000000 -0.000003 0.000001 0.000002 0.873162
    17 3.772598 -0.311803 1.300303 -0.090729 -0.047626 1.187226
    18 1.408097 -0.000004 0.000001 -0.000004 -0.000002 2.038980
    19 0.986795 -0.000004 -0.000002 0.000003 -0.000001 0.219430
    20 3.851017 -0.476111 -0.459795 0.124882 -0.135855 1.384532
    21 2.007648 0.000002 -0.000003 0.000002 0.000000 1.517031
    22 1.270737 0.000001 -0.000002 -0.000001 0.000003 0.034542
    23 5.679941 -0.078302 -0.132353 1.619888 -1.570792 0.000000
    24 0.236202 -3.846334 -0.007086 0.040104 0.000001 -0.000003
    25 -13.281250 -2.773438 2.111328 1.570792 -0.002895 -4.709494
    26 0.000000 0.000000 0.000000 0.449763 0.371617 1.690040
    27 -11.703230 -0.000004 -0.000090 0.000006 0.000003 -1.699709
    28 -11.501110 -0.000001 -0.000004 -1.451427 -0.525832 0.446333
    29 -0.949223 -0.526691 0.818566 2.039111 0.416550 0.555245
    30 -1.978558 0.000003 -0.000002 -0.000002 -0.000001 0.608066
    31 -1.087188 0.000001 -0.000001 0.000001 0.000000 0.510659
    32 -3.863440 0.167448 1.277064 0.211429 0.203736 0.054708
    33 -1.666018 -0.000002 0.000002 -0.000003 0.000002 0.792158
    34 -1.292521 -0.000002 -0.000002 0.000001 -0.000003 1.169378
    35 -3.927895 0.566317 -0.452254 -0.108297 -0.034867 1.000385
    36 -1.705971 0.000000 0.000005 0.000001 -0.000006 1.560063
    37 -1.292522 -0.000001 0.000005 0.000003 0.000003 0.259169
    38 -3.772601 0.311782 -1.300296 -0.160117 0.071001 1.138462
    39 -1.408095 0.000002 -0.000006 -0.000002 -0.000003 1.377597
    40 -0.986792 -0.000002 -0.000001 0.000000 0.000004 0.512612
    41 -3.851023 0.476089 0.459802 0.014947 -0.075267 0.645165
    42 -2.007647 0.000002 -0.000002 -0.000001 0.000001 1.777937
    43 -1.270733 0.000002 -0.000002 -0.000004 -0.000003 0.494876
    44 -5.679935 0.078273 0.132370 1.619888 -1.570792 0.000000
    45 0.000006 3.838817 -0.000001 0.000000 0.000001 0.000001
    46 -4.105285 -16.097996 -7.269021 1.668096 -0.061025 -1.608545
  time 2
    0 -4.054981 -14.675827 -7.323431 1.505282 -0.108434 -0.043018
    1 -0.006660 0.337219 4.384488 0.000000 0.000000 0.000000
    2 -0.006660 0.293999 2.752374 0.246631 0.000000 0.000000
    3 -0.006660 1.042511 2.142976 0.000000 0.000000 0.000000
    4 15.132813 -20.000000 -12.078125 -1.919857 0.000000 -1.570796
    5 0.000000 0.000001 0.000002 1.156611 0.949975 1.469487
    6 11.703224 -0.000051 0.000023 -0.000002 0.000003 -1.170819
    7 11.501116 -0.000059 0.000032 -2.010856 -0.527458 0.578279
    8 0.949228 0.526683 -0.818566 1.218642 0.700708 -0.024979
    9 1.978558 -0.000009 0.000000 0.000001 -0.000004 0.258992
    10 1.087181 0.000005 -0.000004 -0.000003 0.000000 -0.318564
    11 3.863441 -0.167474 -1.277058 0.201230 -0.155208 1.099048
    12 1.666012 0.000002 0.000000 0.000003 -0.000002 1.555320
    13 1.292521 0.000007 0.000000 -0.000006 0.000007 0.270582
    14 3.927893 -0.566339 0.452260 0.056623 -0.078693 1.416162
    15 1.705974 -0.000004 -0.000001 0.000001 0.000001 1.471814
    16 1.292522 0.000000 -0.000003 0.000001 0.000002 0.873162
    17 3.772598 -0.311803 1.300303 -0.090729 -0.047626 1.187226
    18 1.408097 -0.000004 0.000001 -0.000004 -0.000002 2.038980
    19 0.986795 -0.000004 -0.000002 0.000003 -0.000001 0.219430
    20 3.851017 -0.476111 -0.459795 0.124882 -0.135855 1.384532
    21 2.007648 0.000002 -0.000003 0.000002 0.000000 1.517031
    22 1.270737 0.000001 -0.000002 -0.000001 0.000003 0.034542
    23 5.679941 -0.078302 -0.132353 1.619888 -1.570792 0.000000
    24 0.236202 -3.846334 -0.007086 0.040104 0.000001 -0.000003
    25 -13.281250 -2.773438 2.111328 1.570792 -0.002895 -4.709494
    26 0.000000 0.000000 0.000000 0.498695 0.376803 1.829258
    27 -11.703230 -0.000004 -0.000090 0.000006 0.000003 -1.780633
    28 -11.501110 -0.000001 -0.000004 -1.389942 -0.543790 0.370187
    29 -0.949223 -0.526691 0.818566 2.039111 0.416550 0.555245
    30 -1.978558 0.000003 -0.000002 -0.000002 -0.000001 0.608066
    31 -1.087188 0.000001 -0.000001 0.000001 0.000000 0.510659
    32 -3.863440 0.167448 1.277064 0.211429 0.203736 0.054708
    33 -1.666018 -0.000002 0.000002 -0.000003 0.000002 0.792158
    34 -1.292521 -0.000002 -0.000002 0.000001 -0.000003 1.169378
    35 -3.927895 0.566317 -0.452254 -0.108297 -0.034867 1.000385
    36 -1.705971 0.000000 0.000005 0.000001 -0.000006 1.560063
    37 -1.292522 -0.000001 0.000005 0.000003 0.000003 0.259169
    38 -3.772601 0.311782 -1.300296 -0.160117 0.071001 1.138462
    39 -1.408095 0.000002 -0.000006 -0.000002 -0.000003 1.377597
    40 -0.986792 -0.000002 -0.000001 0.000000 0.000004 0.512612
    41 -3.851023 0.476089 0.459802 0.014947 -0.075267 0.645165
    42 -2.007647 0.000002 -0.000002 -0.000001 0.000001 1.777937
    43 -1.270733 0.000002 -0.000002 -0.000004 -0.000003 0.494876
    44 -5.679935 0.078273 0.132370 1.619888 -1.570792 0.000000
    45 0.000006 3.838817 -0.000001 0.000000 0.000001 0.000001
    46 -4.054502 -14.676078 -7.323710 1.679463 -0.065146 -1.620827
  time 3
    0 -4.078419 -14.703172 -6.854667 1.543253 -0.056622 -0.041626
    1 -0.006660 0.337219 4.384488 0.000000 0.000000 0.000000
    2 -0.006660 0.293999 2.752374 0.246631 0.000000 0.000000
    3 -0.006660 1.042511 2.142976 0.000000 0.000000 0.000000
    4 15.132813 -20.000000 -12.078125 -1.919857 0.000000 -1.570796
    5 0.000000 0.000001 0.000002 1.154296 0.947734 1.459787
    6 11.703224 -0.000051 0.000023 -0.000002 0.000003 -1.174293
    7 11.501116 -0.000059 0.000032 -2.075113 -0.531934 0.571472
    8 0.949228 0.526683 -0.818566 1.218642 0.700708 -0.024979
    9 1.978558 -0.000009 0.000000 0.000001 -0.000004 0.258992
    10 1.087181 0.000005 -0.000004 -0.000003 0.000000 -0.318564
    11 3.863441 -0.167474 -1.277058 0.201230 -0.155208 1.099048
    12 1.666012 0.000002 0.000000 0.000003 -0.000002 1.555320
    13 1.292521 0.000007 0.000000 -0.000006 0.000007 0.270582
    14 3.927893 -0.566339 0.452260 0.056623 -0.078693 1.416162
    15 1.705974 -0.000004 -0.000001 0.000001 0.000001 1.471814
    16 1.292522 0.000000 -0.000003 0.000001 0.000002 0.873162
    17 3.772598 -0.311803 1.300303 -0.090729 -0.047626 1.187226
    18 1.408097 -0.000004 0.000001 -0.000004 -0.000002 2.038980
    19 0.986795 -0.000004 -0.000002 0.000003 -0.000001 0.219430
    20 3.851017 -0.476111 -0.459795 0.124882 -0.135855 1.384532
    21 2.007648 0.000002 -0.000003 0.000002 0.000000 1.517031
    22 1.270737 0.000001 -0.000002 -0.000001 0.000003 0.034542
    23 5.679941 -0.078302 -0.132353 1.619888 -1.570792 0.000000
    24 0.236202 -3.846334 -0.007086 0.040104 0.000001 -0.000003
    25 -13.281250 -2.773438 2.111328 1.570792 -0.002895 -4.709494
    26 0.000000 0.000000 0.000000 0.521571 0.376499 1.812289
    27 -11.703230 -0.000004 -0.000090 0.000006 0.000003 -1.822434
    28 -11.501110 -0.000001 -0.000004 -1.379793 -0.597723 0.474261
    29 -0.949223 -0.526691 0.818566 2.039111 0.416550 0.555245
    30 -1.978558 0.000003 -0.000002 -0.000002 -0.000001 0.608066
    31 -1.087188 0.000001 -0.000001 0.000001 0.000000 0.510659
    32 -3.863440 0.167448 1.277064 0.211429 0.203736 0.054708
    33 -1.666018 -0.000002 0.000002 -0.000003 0.000002 0.792158
    34 -1.292521 -0.000002 -0.000002 0.000001 -0.000003 1.169378
    35 -3.927895 0.566317 -0.452254 -0.108297 -0.034867 1.000385
    36 -1.705971 0.000000 0.000005 0.000001 -0.000006 1.560063
    37 -1.292522 -0.000001 0.000005 0.000003 0.000003 0.259169
    38 -3.772601 0.311782 -1.300296 -0.160117 0.071001 1.138462
    39 -1.408095 0.000002 -0.000006 -0.000002 -0.000003 1.377597
    40 -0.986792 -0.000002 -0.000001 0.000000 0.000004 0.512612
    41 -3.851023 0.476089 0.459802 0.014947 -0.075267 0.645165
    42 -2.007647 0.000002 -0.000002 -0.000001 0.000001 1.777937
    43 -1.270733 0.000002 -0.000002 -0.000004 -0.000003 0.494876
    44 -5.679935 0.078273 0.132370 1.619888 -1.570792 0.000000
    45 0.000006 3.838817 -0.000001 0.000000 0.000001 0.000001
    46 -4.077940 -14.703422 -6.858852 1.627453 -0.027476 -1.614059
  time 4
    0 -4.105764 -14.875052 -6.448404 1.577155 -0.009547 -0.035989
    1 -0.006660 0.337219 4.384488 0.000000 0.000000 0.000000
    2 -0.006660 0.293999 2.752374 0.246631 0.000000 0.000000
    3 -0.006660 1.042511 2.142976 0.000000 0.000000 0.000000
    4 15.132813 -20.000000 -12.078125 -1.919857 0.000000 -1.570796
    5 0.000000 0.000001 0.000002 1.140964 0.945184 1.436388
    6 11.703224 -0.000051 0.000023 -0.000002 0.000003 -1.173682
    7 11.501116 -0.000059 0.000032 -2.138052 -0.532819 0.566312
    8 0.949228 0.526683 -0.818566 1.218642 0.700708 -0.024979
    9 1.978558 -0.000009 0.000000 0.000001 -0.000004 0.258992
    10 1.087181 0.000005 -0.000004 -0.000003 0.000000 -0.318564
    11 3.863441 -0.167474 -1.277058 0.201230 -0.155208 1.099048
    12 1.666012 0.000002 0.000000 0.000003 -0.000002 1.555320
    13 1.292521 0.000007 0.000000 -0.000006 0.000007 0.270582
    14 3.927893 -0.566339 0.452260 0.056623 -0.078693 1.416162
    15 1.705974 -0.000004 -0.000001 0.000001 0.000001 1.471814
    16 1.292522 0.000000 -0.000003 0.000001 0.000002 0.873162
    17 3.772598 -0.311803 1.300303 -0.090729 -0.047626 1.187226
    18 1.408097 -0.000004 0.000001 -0.000004 -0.000002 2.038980
    19 0.986795 -0.000004 -0.000002 0.000003 -0.000001 0.219430
    20 3.851017 -0.476111 -0.459795 0.124882 -0.135855 1.384532
    21 2.007648 0.000002 -0.000003 0.000002 0.000000 1.517031
    22 1.270737 0.000001 -0.000002 -0.000001 0.000003 0.034542
    23 5.679941 -0.078302 -0.132353 1.619888 -1.570792 0.000000
    24 0.236202 -3.846334 -0.007086 0.040104 0.000001 -0.000003
    25 -13.281250 -2.773438 2.111328 1.570792 -0.002895 -4.709494
    26 0.000000 0.000000 0.000000 0.535344 0.375951 1.777423
    27 -11.703230 -0.000004 -0.000090 0.000006 0.000003 -1.847520
    28 -11.501110 -0.000001 -0.000004 -1.385394 -0.641083 0.581154
    29 -0.949223 -0.526691 0.818566 2.039111 0.416550 0.555245
    30 -1.978558 0.000003 -0.000002 -0.000002 -0.000001 0.608066
    31 -1.087188 0.000001 -0.000001 0.000001 0.000000 0.510659
    32 -3.863440 0.167448 1.277064 0.211429 0.203736 0.054708
    33 -1.666018 -0.000002 0.000002 -0.000003 0.000002 0.792158
    34 -1.292521 -0.000002 -0.000002 0.000001 -0.000003 1.169378
    35 -3.927895 0.566317 -0.452254 -0.108297 -0.034867 1.000385
    36 -1.705971 0.000000 0.000005 0.000001 -0.000006 1.560063
    37 -1.292522 -0.000001 0.000005 0.000003 0.000003 0.259169
    38 -3.772601 0.311782 -1.300296 -0.160117 0.071001 1.138462
    39 -1.408095 0.000002 -0.000006 -0.000002 -0.000003 1.377597
    40 -0.986792 -0.000002 -0.000001 0.000000 0.000004 0.512612
    41 -3.851023 0.476089 0.459802 0.014947 -0.075267 0.645165
    42 -2.007647 0.000002 -0.000002 -0.000001 0.000001 1.777937
    43 -1.270733 0.000002 -0.000002 -0.000004 -0.000003 0.494876
    44 -5.679935 0.078273 0.132370 1.619888 -1.570792 0.000000
    45 0.000006 3.838817 -0.000001 0.000000 0.000001 0.000001
    46 -4.105285 -14.875303 -6.448683 1.580304 0.006399 -1.606728
  time 5
    0 -4.105764 -14.835988 -6.303869 1.590381 0.007667 -0.034249
    1 -0.006660 0.337219 4.384488 0.000000 0.000000 0.000000
    2 -0.006660 0.293999 2.752374 0.246631 0.000000 0.000000
    3 -0.006660 1.042511 2.142976 0.000000 0.000000 0.000000
    4 15.132813 -20.000000 -12.078125 -1.919857 0.000000 -1.570796
    5 0.000000 0.000001 0.000002 1.145328 0.943973 1.443799
    6 11.703224 -0.000051 0.000023 -0.000002 0.000003 -1.177878
    7 11.501116 -0.000059 0.000032 -2.153081 -0.537801 0.561018
    8 0.949228 0.526683 -0.818566 1.218642 0.700708 -0.024979
    9 1.978558 -0.000009 0.000000 0.000001 -0.000004 0.258992
    10 1.087181 0.000005 -0.000004 -0.000003 0.000000 -0.318564
    11 3.863441 -0.167474 -1.277058 0.201230 -0.155208 1.099048
    12 1.666012 0.000002 0.000000 0.000003 -0.000002 1.555320
    13 1.292521 0.000007 0.000000 -0.000006 0.000007 0.270582
    14 3.927893 -0.566339 0.452260 0.056623 -0.078693 1.416162
    15 1.705974 -0.000004 -0.000001 0.000001 0.000001 1.471814
    16 1.292522 0.000000 -0.000003 0.000001 0.000002 0.873162
    17 3.772598 -0.311803 1.300303 -0.090729 -0.047626 1.187226
    18 1.408097 -0.000004 0.000001 -0.000004 -0.000002 2.038980
    19 0.986795 -0.000004 -0.000002 0.000003 -0.000001 0.219430
    20 3.851017 -0.476111 -0.459795 0.124882 -0.135855 1.384532
    21 2.007648 0.000002 -0.000003 0.000002 0.000000 1.517031
    22 1.270737 0.000001 -0.000002 -0.000001 0.000003 0.034542
    23 5.679941 -0.078302 -0.132353 1.619888 -1.570792 0.000000
    24 0.236202 -3.846334 -0.007086 0.040104 0.000001 -0.000003
    25 -13.281250 -2.773438 2.111328 1.570792 -0.002895 -4.709494
    26 0.000000 0.000000 0.000000 0.544627 0.376468 1.773864
    27 -11.703230 -0.000004 -0.000090 0.000006 0.000003 -1.861331
    28 -11.501110 -0.000001 -0.000004 -1.383879 -0.659518 0.616372
    29 -0.949223 -0.526691 0.818566 2.039111 0.416550 0.555245
    30 -1.978558 0.000003 -0.000002 -0.000002 -0.000001 0.608066
    31 -1.087188 0.000001 -0.000001 0.000001 0.000000 0.510659
    32 -3.863440 0.167448 1.277064 0.211429 0.203736 0.054708
    33 -1.666018 -0.000002 0.000002 -0.000003 0.000002 0.792158
    34 -1.292521 -0.000002 -0.000002 0.000001 -0.000003 1.169378
    35 -3.927895 0.566317 -0.452254 -0.108297 -0.034867 1.000385
    36 -1.705971 0.000000 0.000005 0.000001 -0.000006 1.560063
    37 -1.292522 -0.000001 0.000005 0.000003 0.000003 0.259169
    38 -3.772601 0.311782 -1.300296 -0.160117 0.071001 1.138462
    39 -1.408095 0.000002 -0.000006 -0.000002 -0.000003 1.377597
    40 -0.986792 -0.000002 -0.000001 0.000000 0.000004 0.512612
    41 -3.851023 0.476089 0.459802 0.014947 -0.075267 0.645165
    42 -2.007647 0.000002 -0.000002 -0.000001 0.000001 1.777937
    43 -1.270733 0.000002 -0.000002 -0.000004 -0.000003 0.494876
    44 -5.679935 0.078273 0.132370 1.619888 -1.570792 0.000000
    45 0.000006 3.838817 -0.000001 0.000000 0.000001 0.000001
    46 -4.105285 -14.836239 -6.304147 1.563146 0.019631 -1.605161
  time 6
    0 -4.105764 -15.058651 -6.249179 1.597358 0.016701 -0.031535
    1 -0.006660 0.337219 4.384488 0.000000 0.000000 0.000000
    2 -0.006660 0.293999 2.752374 0.246631 0.000000 0.000000
    3 -0.006660 1.042511 2.142976 0.000000 0.000000 0.000000
    4 15.132813 -20.000000 -12.078125 -1.919857 0.000000 -1.570796
    5 0.000000 0.000001 0.000002 1.126297 0.941655 1.421433
    6 11.703224 -0.000051 0.000023 -0.000002 0.000003 -1.174182
    7 11.501116 -0.000059 0.000032 -2.170161 -0.529835 0.561558
    8 0.949228 0.526683 -0.818566 1.218642 0.700708 -0.024979
    9 1.978558 -0.000009 0.000000 0.000001 -0.000004 0.258992
    10 1.087181 0.000005 -0.000004 -0.000003 0.000000 -0.318564
    11 3.863441 -0.167474 -1.277058 0.201230 -0.155208 1.099048
    12 1.666012 0.000002 0.000000 0.000003 -0.000002 1.555320
    13 1.292521 0.000007 0.000000 -0.000006 0.000007 0.270582
    14 3.927893 -0.566339 0.452260 0.056623 -0.078693 1.416162
    15 1.705974 -0.000004 -0.000001 0.000001 0.000001 1.471814
    16 1.292522 0.000000 -0.000003 0.000001 0.000002 0.873162
    17 3.772598 -0.311803 1.300303 -0.090729 -0.047626 1.187226
    18 1.408097 -0.000004 0.000001 -0.000004 -0.000002 2.038980
    19 0.986795 -0.000004 -0.000002 0.000003 -0.000001 0.219430
    20 3.851017 -0.476111 -0.459795 0.124882 -0.135855 1.384532
    21 2.007648 0.000002 -0.000003 0.000002 0.000000 1.517031
    22 1.270737 0.000001 -0.000002 -0.000001 0.000003 0.034542
    23 5.679941 -0.078302 -0.132353 1.619888 -1.570792 0.000000
    24 0.236202 -3.846334 -0.007086 0.040104 0.000001 -0.000003
    25 -13.281250 -2.773438 2.111328 1.570792 -0.002895 -4.709494
    26 0.000000 0.000000 0.000000 0.538540 0.376332 1.747678
    27 -11.703230 -0.000004 -0.000090 0.000006 0.000003 -1.851720
    28 -11.501110 -0.000001 -0.000004 -1.396334 -0.661721 0.645950
    29 -0.949223 -0.526691 0.818566 2.039111 0.416550 0.555245
    30 -1.978558 0.000003 -0.000002 -0.000002 -0.000001 0.608066
    31 -1.087188 0.000001 -0.000001 0.000001 0.000000 0.510659
    32 -3.863440 0.167448 1.277064 0.211429 0.203736 0.054708
    33 -1.666018 -0.000002 0.000002 -0.000003 0.000002 0.792158
    34 -1.292521 -0.000002 -0.000002 0.000001 -0.000003 1.169378
    35 -3.927895 0.566317 -0.452254 -0.108297 -0.034867 1.000385
    36 -1.705971 0.000000 0.000005 0.000001 -0.000006 1.560063
    37 -1.292522 -0.000001 0.000005 0.000003 0.000003 0.259169
    38 -3.772601 0.311782 -1.300296 -0.160117 0.071001 1.138462
    39 -1.408095 0.000002 -0.000006 -0.000002 -0.000003 1.377597
    40 -0.986792 -0.000002 -0.000001 0.000000 0.000004 0.512612
    41 -3.851023 0.476089 0.459802 0.014947 -0.075267 0.645165
    42 -2.007647 0.000002 -0.000002 -0.000001 0.000001 1.777937
    43 -1.270733 0.000002 -0.000002 -0.000004 -0.000003 0.494876
    44 -5.679935 0.078273 0.132370 1.619888 -1.570792 0.000000
    45 0.000006 3.838817 -0.000001 0.000000 0.000001 0.000001
    46 -4.105285 -15.058902 -6.249458 1.554067 0.026572 -1.602780
  time 7
    0 -4.101857 -15.488352 -6.264805 1.599211 0.019216 -0.028473
    1 -0.006660 0.337219 4.384488 0.000000 0.000000 0.000000
    2 -0.006660 0.293999 2.752374 0.246631 0.000000 0.000000
    3 -0.006660 1.042511 2.142976 0.000000 0.000000 0.000000
    4 15.132813 -20.000000 -12.078125 -1.919857 0.000000 -1.570796
    5 0.000000 0.000001 0.000002 1.089178 0.938474 1.377421
    6 11.703224 -0.000051 0.000023 -0.000002 0.000003 -1.163177
    7 11.501116 -0.000059 0.000032 -2.186545 -0.511628 0.564664
    8 0.949228 0.526683 -0.818566 1.218642 0.700708 -0.024979
    9 1.978558 -0.000009 0.000000 0.000001 -0.000004 0.258992
    10 1.087181 0.000005 -0.000004 -0.000003 0.000000 -0.318564
    11 3.863441 -0.167474 -1.277058 0.201230 -0.155208 1.099048
    12 1.666012 0.000002 0.000000 0.000003 -0.000002 1.555320
    13 1.292521 0.000007 0.000000 -0.000006 0.000007 0.270582
    14 3.927893 -0.566339 0.452260 0.056623 -0.078693 1.416162
    15 1.705974 -0.000004 -0.000001 0.000001 0.000001 1.471814
    16 1.292522 0.000000 -0.000003 0.000001 0.000002 0.873162
    17 3.772598 -0.311803 1.300303 -0.090729 -0.047626 1.187226
    18 1.408097 -0.000004 0.000001 -0.000004 -0.000002 2.038980
    19 0.986795 -0.000004 -0.000002 0.000003 -0.000001 0.219430
    20 3.851017 -0.476111 -0.459795 0.124882 -0.135855 1.384532
    21 2.007648 0.000002 -0.000003 0.000002 0.000000 1.517031
    22 1.270737 0.000001 -0.000002 -0.000001 0.000003 0.034542
    23 5.679941 -0.078302 -0.132353 1.619888 -1.570792 0.000000
    24 0.236202 -3.846334 -0.007086 0.040104 0.000001 -0.000003
    25 -13.281250 -2.773438 2.111328 1.570792 -0.002895 -4.709494
    26 0.000000 0.000000 0.000000 0.520691 0.375602 1.705352
    27 -11.703230 -0.000004 -0.000090 0.000006 0.000003 -1.823589
    28 -11.501110 -0.000001 -0.000004 -1.417093 -0.650613 0.667893
    29 -0.949223 -0.526691 0.818566 2.039111 0.416550 0.555245
    30 -1.978558 0.000003 -0.000002 -0.000002 -0.000001 0.608066
    31 -1.087188 0.000001 -0.000001 0.000001 0.000000 0.510659
    32 -3.863440 0.167448 1.277064 0.211429 0.203736 0.054708
    33 -1.666018 -0.000002 0.000002 -0.000003 0.000002 0.792158
    34 -1.292521 -0.000002 -0.000002 0.000001 -0.000003 1.169378
    35 -3.927895 0.566317 -0.452254 -0.108297 -0.034867 1.000385
    36 -1.705971 0.000000 0.000005 0.000001 -0.000006 1.560063
    37 -1.292522 -0.000001 0.000005 0.000003 0.000003 0.259169
    38 -3.772601 0.311782 -1.300296 -0.160117 0.071001 1.138462
    39 -1.408095 0.000002 -0.000006 -0.000002 -0.000003 1.377597
    40 -0.986792 -0.000002 -0.000001 0.000000 0.000004 0.512612
    41 -3.851023 0.476089 0.459802 0.014947 -0.075267 0.645165
    42 -2.007647 0.000002 -0.000002 -0.000001 0.000001 1.777937
    43 -1.270733 0.000002 -0.000002 -0.000004 -0.000003 0.494876
    44 -5.679935 0.078273 0.132370 1.619888 -1.570792 0.000000
    45 0.000006 3.838817 -0.000001 0.000000 0.000001 0.000001
    46 -4.101378 -15.488603 -6.265084 1.551601 0.028452 -1.599835
  time 8
    0 -4.101857 -16.062588 -6.335119 1.597285 0.016799 -0.025202
    1 -0.006660 0.337219 4.384488 0.000000 0.000000 0.000000
    2 -0.006660 0.293999 2.752374 0.246631 0.000000 0.000000
    3 -0.006660 1.042511 2.142976 0.000000 0.000000 0.000000
    4 15.132813 -20.000000 -12.078125 -1.919857 0.000000 -1.570796
    5 0.000000 0.000001 0.000002 1.039453 0.934701 1.320160
    6 11.703224 -0.000051 0.000023 -0.000002 0.000003 -1.145087
    7 11.501116 -0.000059 0.000032 -2.199172 -0.486189 0.566636
    8 0.949228 0.526683 -0.818566 1.218642 0.700708 -0.024979
    9 1.978558 -0.000009 0.000000 0.000001 -0.000004 0.258992
    10 1.087181 0.000005 -0.000004 -0.000003 0.000000 -0.318564
    11 3.863441 -0.167474 -1.277058 0.201230 -0.155208 1.099048
    12 1.666012 0.000002 0.000000 0.000003 -0.000002 1.555320
    13 1.292521 0.000007 0.000000 -0.000006 0.000007 0.270582
    14 3.927893 -0.566339 0.452260 0.056623 -0.078693 1.416162
    15 1.705974 -0.000004 -0.000001 0.000001 0.000001 1.471814
    16 1.292522 0.000000 -0.000003 0.000001 0.000002 0.873162
    17 3.772598 -0.311803 1.300303 -0.090729 -0.047626 1.187226
    18 1.408097 -0.000004 0.000001 -0.000004 -0.000002 2.038980
    19 0.986795 -0.000004 -0.000002 0.000003 -0.000001 0.219430
    20 3.851017 -0.476111 -0.459795 0.124882 -0.135855 1.384532
    21 2.007648 0.000002 -0.000003 0.000002 0.000000 1.517031
    22 1.270737 0.000001 -0.000002 -0.000001 0.000003 0.034542
    23 5.679941 -0.078302 -0.132353 1.619888 -1.570792 0.000000
    24 0.236202 -3.846334 -0.007086 0.040104 0.000001 -0.000003
    25 -13.281250 -2.773438 2.111328 1.570792 -0.002895 -4.709494
    26 0.000000 0.000000 0.000000 0.494978 0.374506 1.652786
    27 -11.703230 -0.000004 -0.000090 0.000006 0.000003 -1.780548
    28 -11.501110 -0.000001 -0.000004 -1.441015 -0.629975 0.679793
    29 -0.949223 -0.526691 0.818566 2.039111 0.416550 0.555245
    30 -1.978558 0.000003 -0.000002 -0.000002 -0.000001 0.608066
    31 -1.087188 0.000001 -0.000001 0.000001 0.000000 0.510659
    32 -3.863440 0.167448 1.277064 0.211429 0.203736 0.054708
    33 -1.666018 -0.000002 0.000002 -0.000003 0.000002 0.792158
    34 -1.292521 -0.000002 -0.000002 0.000001 -0.000003 1.169378
    35 -3.927895 0.566317 -0.452254 -0.108297 -0.034867 1.000385
    36 -1.705971 0.000000 0.000005 0.000001 -0.000006 1.560063
    37 -1.292522 -0.000001 0.000005 0.000003 0.000003 0.259169
    38 -3.772601 0.311782 -1.300296 -0.160117 0.071001 1.138462
    39 -1.408095 0.000002 -0.000006 -0.000002 -0.000003 1.377597
    40 -0.986792 -0.000002 -0.000001 0.000000 0.000004 0.512612
    41 -3.851023 0.476089 0.459802 0.014947 -0.075267 0.645165
    42 -2.007647 0.000002 -0.000002 -0.000001 0.000001 1.777937
    43 -1.270733 0.000002 -0.000002 -0.000004 -0.000003 0.494876
    44 -5.679935 0.078273 0.132370 1.619888 -1.570792 0.000000
    45 0.000006 3.838817 -0.000001 0.000000 0.000001 0.000001
    46 -4.101378 -16.058933 -6.335398 1.554031 0.026536 -1.596451
  time 9
    0 -4.097951 -16.714952 -6.436685 1.592852 0.011183 -0.021862
    1 -0.006660 0.337219 4.384488 0.000000 0.000000 0.000000
    2 -0.006660 0.293999 2.752374 0.246631 0.000000 0.000000
    3 -0.006660 1.042511 2.142976 0.000000 0.000000 0.000000
    4 15.132813 -20.000000 -12.078125 -1.919857 0.000000 -1.570796
    5 0.000000 0.000001 0.000002 0.982248 0.930889 1.256208
    6 11.703224 -0.000051 0.000023 -0.000002 0.000003 -1.119689
    7 11.501116 -0.000059 0.000032 -2.206686 -0.456679 0.564773
    8 0.949228 0.526683 -0.818566 1.218642 0.700708 -0.024979
    9 1.978558 -0.000009 0.000000 0.000001 -0.000004 0.258992
    10 1.087181 0.000005 -0.000004 -0.000003 0.000000 -0.318564
    11 3.863441 -0.167474 -1.277058 0.201230 -0.155208 1.099048
    12 1.666012 0.000002 0.000000 0.000003 -0.000002 1.555320
    13 1.292521 0.000007 0.000000 -0.000006 0.000007 0.270582
    14 3.927893 -0.566339 0.452260 0.056623 -0.078693 1.416162
    15 1.705974 -0.000004 -0.000001 0.000001 0.000001 1.471814
    16 1.292522 0.000000 -0.000003 0.000001 0.000002 0.873162
    17 3.772598 -0.311803 1.300303 -0.090729 -0.047626 1.187226
    18 1.408097 -0.000004 0.000001 -0.000004 -0.000002 2.038980
    19 0.986795 -0.000004 -0.000002 0.000003 -0.000001 0.219430
    20 3.851017 -0.476111 -0.459795 0.124882 -0.135855 1.384532
    21 2.007648 0.000002 -0.000003 0.000002 0.000000 1.517031
    22 1.270737 0.000001 -0.000002 -0.000001 0.000003 0.034542
    23 5.679941 -0.078302 -0.132353 1.619888 -1.570792 0.000000
    24 0.236202 -3.846334 -0.007086 0.040104 0.000001 -0.000003
    25 -13.281250 -2.773438 2.111328 1.570792 -0.002895 -4.709494
    26 0.000000 0.000000 0.000000 0.465313 0.373168 1.595343
    27 -11.703230 -0.000004 -0.000090 0.000006 0.000003 -1.727050
    28 -11.501110 -0.000001 -0.000004 -1.464476 -0.603887 0.681650
    29 -0.949223 -0.526691 0.818566 2.039111 0.416550 0.555245
    30 -1.978558 0.000003 -0.000002 -0.000002 -0.000001 0.608066
    31 -1.087188 0.000001 -0.000001 0.000001 0.000000 0.510659
    32 -3.863440 0.167448 1.277064 0.211429 0.203736 0.054708
    33 -1.666018 -0.000002 0.000002 -0.000003 0.000002 0.792158
    34 -1.292521 -0.000002 -0.000002 0.000001 -0.000003 1.169378
    35 -3.927895 0.566317 -0.452254 -0.108297 -0.034867 1.000385
    36 -1.705971 0.000000 0.000005 0.000001 -0.000006 1.560063
    37 -1.292522 -0.000001 0.000005 0.000003 0.000003 0.259169
    38 -3.772601 0.311782 -1.300296 -0.160117 0.071001 1.138462
    39 -1.408095 0.000002 -0.000006 -0.000002 -0.000003 1.377597
    40 -0.986792 -0.000002 -0.000001 0.000000 0.000004 0.512612
    41 -3.851023 0.476089 0.459802 0.014947 -0.075267 0.645165
    42 -2.007647 0.000002 -0.000002 -0.000001 0.000001 1.777937
    43 -1.270733 0.000002 -0.000002 -0.000004 -0.000003 0.494876
    44 -5.679935 0.078273 0.132370 1.619888 -1.570792 0.000000
    45 0.000006 3.838817 -0.000001 0.000000 0.000001 0.000001
    46 -4.097472 -16.715203 -6.436964 1.559643 0.022089 -1.592942
  time 10
    0 -4.097951 -17.390754 -6.542157 1.587184 0.003980 -0.018591
    1 -0.006660 0.337219 4.384488 0.000000 0.000000 0.000000
    2 -0.006660 0.293999 2.752374 0.246631 0.000000 0.000000
    3 -0.006660 1.042511 2.142976 0.000000 0.000000 0.000000
    4 15.132813 -20.000000 -12.078125 -1.919857 0.000000 -1.570796
    5 0.000000 0.000001 0.000002 0.923211 0.927026 1.191582
    6 11.703224 -0.000051 0.000023 -0.000002 0.000003 -1.089205
    7 11.501116 -0.000059 0.000032 -2.209629 -0.426384 0.558857
    8 0.949228 0.526683 -0.818566 1.218642 0.700708 -0.024979
    9 1.978558 -0.000009 0.000000 0.000001 -0.000004 0.258992
    10 1.087181 0.000005 -0.000004 -0.000003 0.000000 -0.318564
    11 3.863441 -0.167474 -1.277058 0.201230 -0.155208 1.099048
    12 1.666012 0.000002 0.000000 0.000003 -0.000002 1.555320
    13 1.292521 0.000007 0.000000 -0.000006 0.000007 0.270582
    14 3.927893 -0.566339 0.452260 0.056623 -0.078693 1.416162
    15 1.705974 -0.000004 -0.000001 0.000001 0.000001 1.471814
    16 1.292522 0.000000 -0.000003 0.000001 0.000002 0.873162
    17 3.772598 -0.311803 1.300303 -0.090729 -0.047626 1.187226
    18 1.408097 -0.000004 0.000001 -0.000004 -0.000002 2.038980
    19 0.986795 -0.000004 -0.000002 0.000003 -0.000001 0.219430
    20 3.851017 -0.476111 -0.459795 0.124882 -0.135855 1.384532
    21 2.007648 0.000002 -0.000003 0.000002 0.000000 1.517031
    22 1.270737 0.000001 -0.000002 -0.000001 0.000003 0.034542
    23 5.679941 -0.078302 -0.132353 1.619888 -1.570792 0.000000
    24 0.236202 -3.846334 -0.007086 0.040104 0.000001 -0.000003
    25 -13.281250 -2.773438 2.111328 1.570792 -0.002895 -4.709494
    26 0.000000 0.000000 0.000000 0.435164 0.371769 1.537657
    27 -11.703230 -0.000004 -0.000090 0.000006 0.000003 -1.667942
    28 -11.501110 -0.000001 -0.000004 -1.485367 -0.576340 0.675047
    29 -0.949223 -0.526691 0.818566 2.039111 0.416550 0.555245
    30 -1.978558 0.000003 -0.000002 -0.000002 -0.000001 0.608066
    31 -1.087188 0.000001 -0.000001 0.000001 0.000000 0.510659
    32 -3.863440 0.167448 1.277064 0.211429 0.203736 0.054708
    33 -1.666018 -0.000002 0.000002 -0.000003 0.000002 0.792158
    34 -1.292521 -0.000002 -0.000002 0.000001 -0.000003 1.169378
    35 -3.927895 0.566317 -0.452254 -0.108297 -0.034867 1.000385
    36 -1.705971 0.000000 0.000005 0.000001 -0.000006 1.560063
    37 -1.292522 -0.000001 0.000005 0.000003 0.000003 0.259169
    38 -3.772601 0.311782 -1.300296 -0.160117 0.071001 1.138462
    39 -1.408095 0.000002 -0.000006 -0.000002 -0.000003 1.377597
    40 -0.986792 -0.000002 -0.000001 0.000000 0.000004 0.512612
    41 -3.851023 0.476089 0.459802 0.014947 -0.075267 0.645165
    42 -2.007647 0.000002 -0.000002 -0.000001 0.000001 1.777937
    43 -1.270733 0.000002 -0.000002 -0.000004 -0.000003 0.494876
    44 -5.679935 0.078273 0.132370 1.619888 -1.570792 0.000000
    45 0.000006 3.838817 -0.000001 0.000000 0.000001 0.000001
    46 -4.097472 -17.391004 -6.542436 1.566828 0.016377 -1.589433
  time 11
    0 -4.097951 -18.027492 -6.647629 1.581406 -0.003101 -0.015320
    1 -0.006660 0.337219 4.384488 0.000000 0.000000 0.000000
    2 -0.006660 0.293999 2.752374 0.246631 0.000000 0.000000
    3 -0.006660 1.042511 2.142976 0.000000 0.000000 0.000000
    4 15.132813 -20.000000 -12.078125 -1.919857 0.000000 -1.570796
    5 0.000000 0.000001 0.000002 0.867710 0.923342 1.131357
    6 11.703224 -0.000051 0.000023 -0.000002 0.000003 -1.056637
    7 11.501116 -0.000059 0.000032 -2.209707 -0.398416 0.549889
    8 0.949228 0.526683 -0.818566 1.218642 0.700708 -0.024979
    9 1.978558 -0.000009 0.000000 0.000001 -0.000004 0.258992
    10 1.087181 0.000005 -0.000004 -0.000003 0.000000 -0.318564
    11 3.863441 -0.167474 -1.277058 0.201230 -0.155208 1.099048
    12 1.666012 0.000002 0.000000 0.000003 -0.000002 1.555320
    13 1.292521 0.000007 0.000000 -0.000006 0.000007 0.270582
    14 3.927893 -0.566339 0.452260 0.056623 -0.078693 1.416162
    15 1.705974 -0.000004 -0.000001 0.000001 0.000001 1.471814
    16 1.292522 0.000000 -0.000003 0.000001 0.000002 0.873162
    17 3.772598 -0.311803 1.300303 -0.090729 -0.047626 1.187226
    18 1.408097 -0.000004 0.000001 -0.000004 -0.000002 2.038980
    19 0.986795 -0.000004 -0.000002 0.000003 -0.000001 0.219430
    20 3.851017 -0.476111 -0.459795 0.124882 -0.135855 1.384532
    21 2.007648 0.000002 -0.000003 0.000002 0.000000 1.517031
    22 1.270737 0.000001 -0.000002 -0.000001 0.000003 0.034542
    23 5.679941 -0.078302 -0.132353 1.619888 -1.570792 0.000000
    24 0.236202 -3.846334 -0.007086 0.040104 0.000001 -0.000003
    25 -13.281250 -2.773438 2.111328 1.570792 -0.002895 -4.709494
    26 0.000000 0.000000 0.000000 0.407583 0.370385 1.484164
    27 -11.703230 -0.000004 -0.000090 0.000006 0.000003 -1.609483
    28 -11.501110 -0.000001 -0.000004 -1.502435 -0.550759 0.663766
    29 -0.949223 -0.526691 0.818566 2.039111 0.416550 0.555245
    30 -1.978558 0.000003 -0.000002 -0.000002 -0.000001 0.608066
    31 -1.087188 0.000001 -0.000001 0.000001 0.000000 0.510659
    32 -3.863440 0.167448 1.277064 0.211909 0.203197 0.057211
    33 -1.666018 -0.000002 0.000002 -0.000003 0.000002 0.777266
    34 -1.292521 -0.000002 -0.000002 0.000001 -0.000003 1.147839
    35 -3.927895 0.566317 -0.452254 -0.108297 -0.034867 1.000385
    36 -1.705971 0.000000 0.000005 0.000001 -0.000006 1.560063
    37 -1.292522 -0.000001 0.000005 0.000003 0.000003 0.259169
    38 -3.772601 0.311782 -1.300296 -0.160117 0.071001 1.138462
    39 -1.408095 0.000002 -0.000006 -0.000002 -0.000003 1.377597
    40 -0.986792 -0.000002 -0.000001 0.000000 0.000004 0.512612
    41 -3.851023 0.476089 0.459802 0.014947 -0.075267 0.645165
    42 -2.007647 0.000002 -0.000002 -0.000001 0.000001 1.777937
    43 -1.270733 0.000002 -0.000002 -0.000004 -0.000003 0.494876
    44 -5.679935 0.078273 0.132370 1.619888 -1.570792 0.000000
    45 0.000006 3.838817 -0.000001 0.000000 0.000001 0.000001
    46 -4.097472 -18.027743 -6.647908 1.573834 0.010665 -1.586174
  time 12
    0 -4.101857 -18.566571 -6.733569 1.576937 -0.008424 -0.012397
    1 -0.006660 0.337219 4.384488 0.000000 0.000000 0.000000
    2 -0.006660 0.293999 2.752374 0.208088 0.000000 0.000000
    3 -0.006660 1.042511 2.142976 0.000000 0.000000 0.000000
    4 15.132813 -20.000000 -12.078125 -1.919857 0.000000 -1.570796
    5 0.000000 0.000001 0.000002 0.820440 0.920677 1.079980
    6 11.703224 -0.000051 0.000023 -0.000002 0.000003 -1.025014
    7 11.501116 -0.000059 0.000032 -2.209242 -0.375531 0.539246
    8 0.949228 0.526683 -0.818566 1.218642 0.700708 -0.024979
    9 1.978558 -0.000009 0.000000 0.000001 -0.000004 0.258992
    10 1.087181 0.000005 -0.000004 -0.000003 0.000000 -0.318564
    11 3.863441 -0.167474 -1.277058 0.201230 -0.155208 1.099048
    12 1.666012 0.000002 0.000000 0.000003 -0.000002 1.555320
    13 1.292521 0.000007 0.000000 -0.000006 0.000007 0.270582
    14 3.927893 -0.566339 0.452260 0.056623 -0.078693 1.416162
    15 1.705974 -0.000004 -0.000001 0.000001 0.000001 1.471814
    16 1.292522 0.000000 -0.000003 0.000001 0.000002 0.873162
    17 3.772598 -0.311803 1.300303 -0.090729 -0.047626 1.187226
    18 1.408097 -0.000004 0.000001 -0.000004 -0.000002 2.038980
    19 0.986795 -0.000004 -0.000002 0.000003 -0.000001 0.219430
    20 3.851017 -0.476111 -0.459795 0.124882 -0.135855 1.384532
    21 2.007648 0.000002 -0.000003 0.000002 0.000000 1.517031
    22 1.270737 0.000001 -0.000002 -0.000001 0.000003 0.034542
    23 5.679941 -0.078302 -0.132353 1.619888 -1.570792 0.000000
    24 0.236202 -3.846334 -0.007086 0.040104 0.000001 -0.000003
    25 -13.281250 -2.773438 2.111328 1.570792 -0.002895 -4.709494
    26 0.000000 0.000000 0.000000 0.385084 0.369183 1.439010
    27 -11.703230 -0.000004 -0.000090 0.000006 0.000003 -1.558380
    28 -11.501110 -0.000001 -0.000004 -1.515220 -0.530061 0.652347
    29 -0.949223 -0.526691 0.818566 2.039111 0.416550 0.555245
    30 -1.978558 0.000003 -0.000002 -0.000002 -0.000001 0.608066
    31 -1.087188 0.000001 -0.000001 0.000001 0.000000 0.510659
    32 -3.863440 0.167448 1.277064 0.212880 0.202119 0.062181
    33 -1.666018 -0.000002 0.000002 -0.000003 0.000002 0.747482
    34 -1.292521 -0.000002 -0.000002 0.000001 -0.000003 1.104762
    35 -3.927895 0.566317 -0.452254 -0.108297 -0.034867 1.000385
    36 -1.705971 0.000000 0.000005 0.000001 -0.000006 1.560063
    37 -1.292522 -0.000001 0.000005 0.000003 0.000003 0.259169
    38 -3.772601 0.311782 -1.300296 -0.160117 0.071001 1.138462
    39 -1.408095 0.000002 -0.000006 -0.000002 -0.000003 1.377597
    40 -0.986792 -0.000002 -0.000001 0.000000 0.000004 0.512612
    41 -3.851023 0.476089 0.459802 0.014947 -0.075267 0.645165
    42 -2.007647 0.000002 -0.000002 -0.000001 0.000001 1.777937
    43 -1.270733 0.000002 -0.000002 -0.000004 -0.000003 0.494876
    44 -5.679935 0.078273 0.132370 1.619888 -1.570792 0.000000
    45 0.000006 3.838817 -0.000001 0.000000 0.000001 0.000001
    46 -4.101378 -18.562915 -6.733848 1.579196 0.006146 -1.583229
  time 13
    0 -4.105764 -18.941582 -6.772633 1.575011 -0.010353 -0.010031
    1 -0.006660 0.337219 4.384488 0.000000 0.000000 0.000000
    2 -0.006660 0.293999 2.752374 0.123297 0.000000 0.000000
    3 -0.006660 1.042511 2.142976 0.000000 0.000000 0.000000
    4 15.132813 -20.000000 -12.078125 -1.919857 0.000000 -1.570796
    5 0.000000 0.000001 0.000002 0.787378 0.918783 1.043513
    6 11.703224 -0.000051 0.000023 -0.000002 0.000003 -1.001116
    7 11.501116 -0.000059 0.000032 -2.210520 -0.360257 0.530197
    8 0.949228 0.526683 -0.818566 1.218642 0.700708 -0.024979
    9 1.978558 -0.000009 0.000000 0.000001 -0.000004 0.258992
    10 1.087181 0.000005 -0.000004 -0.000003 0.000000 -0.318564
    11 3.863441 -0.167474 -1.277058 0.201230 -0.155208 1.099048
    12 1.666012 0.000002 0.000000 0.000003 -0.000002 1.555320
    13 1.292521 0.000007 0.000000 -0.000006 0.000007 0.270582
    14 3.927893 -0.566339 0.452260 0.056623 -0.078693 1.416162
    15 1.705974 -0.000004 -0.000001 0.000001 0.000001 1.471814
    16 1.292522 0.000000 -0.000003 0.000001 0.000002 0.873162
    17 3.772598 -0.311803 1.300303 -0.090729 -0.047626 1.187226
    18 1.408097 -0.000004 0.000001 -0.000004 -0.000002 2.038980
    19 0.986795 -0.000004 -0.000002 0.000003 -0.000001 0.219430
    20 3.851017 -0.476111 -0.459795 0.124882 -0.135855 1.384532
    21 2.007648 0.000002 -0.000003 0.000002 0.000000 1.517031
    22 1.270737 0.000001 -0.000002 -0.000001 0.000003 0.034542
    23 5.679941 -0.078302 -0.132353 1.619888 -1.570792 0.000000
    24 0.236202 -3.846334 -0.007086 0.040104 0.000001 -0.000003
    25 -13.281250 -2.773438 2.111328 1.570792 -0.002895 -4.709494
    26 0.000000 0.000000 0.000000 0.370108 0.368225 1.406778
    27 -11.703230 -0.000004 -0.000090 0.000006 0.000003 -1.522865
    28 -11.501110 -0.000001 -0.000004 -1.523128 -0.516809 0.646500
    29 -0.949223 -0.526691 0.818566 2.039111 0.416550 0.555245
    30 -1.978558 0.000003 -0.000002 -0.000002 -0.000001 0.608066
    31 -1.087188 0.000001 -0.000001 0.000001 0.000000 0.510659
    32 -3.863440 0.167448 1.277064 0.214330 0.200501 0.069620
    33 -1.666018 -0.000002 0.000002 -0.000003 0.000002 0.702806
    34 -1.292521 -0.000002 -0.000002 0.000001 -0.000003 1.040145
    35 -3.927895 0.566317 -0.452254 -0.108297 -0.034867 1.000385
    36 -1.705971 0.000000 0.000005 0.000001 -0.000006 1.560063
    37 -1.292522 -0.000001 0.000005 0.000003 0.000003 0.259169
    38 -3.772601 0.311782 -1.300296 -0.160117 0.071001 1.138462
    39 -1.408095 0.000002 -0.000006 -0.000002 -0.000003 1.377597
    40 -0.986792 -0.000002 -0.000001 0.000000 0.000004 0.512612
    41 -3.851023 0.476089 0.459802 0.014947 -0.075267 0.645165
    42 -2.007647 0.000002 -0.000002 -0.000001 0.000001 1.777937
    43 -1.270733 0.000002 -0.000002 -0.000004 -0.000003 0.494876
    44 -5.679935 0.078273 0.132370 1.619888 -1.570792 0.000000
    45 0.000006 3.838817 -0.000001 0.000000 0.000001 0.000001
    46 -4.105285 -18.941833 -6.772912 1.581127 0.004230 -1.580848
  time 14
    0 -4.113576 -19.191590 -6.780446 1.574684 -0.009962 -0.008082
    1 -0.006660 0.337219 4.384488 0.000000 0.000000 0.000000
    2 -0.006660 0.293999 2.752374 0.038518 0.000000 0.000000
    3 -0.006660 1.042511 2.142976 0.000000 0.000000 0.000000
    4 15.132813 -20.000000 -12.078125 -1.919857 0.000000 -1.570796
    5 0.000000 0.000001 0.000002 0.765461 0.917727 1.018543
    6 11.703224 -0.000051 0.000023 -0.000002 0.000003 -0.984165
    7 11.501116 -0.000059 0.000032 -2.213425 -0.350850 0.523336
    8 0.949228 0.526683 -0.818566 1.218642 0.700708 -0.024979
    9 1.978558 -0.000009 0.000000 0.000001 -0.000004 0.258992
    10 1.087181 0.000005 -0.000004 -0.000003 0.000000 -0.318564
    11 3.863441 -0.167474 -1.277058 0.201230 -0.155208 1.099048
    12 1.666012 0.000002 0.000000 0.000003 -0.000002 1.555320
    13 1.292521 0.000007 0.000000 -0.000006 0.000007 0.270582
    14 3.927893 -0.566339 0.452260 0.056623 -0.078693 1.416162
    15 1.705974 -0.000004 -0.000001 0.000001 0.000001 1.471814
    16 1.292522 0.000000 -0.000003 0.000001 0.000002 0.873162
    17 3.772598 -0.311803 1.300303 -0.090729 -0.047626 1.187226
    18 1.408097 -0.000004 0.000001 -0.000004 -0.000002 2.038980
    19 0.986795 -0.000004 -0.000002 0.000003 -0.000001 0.219430
    20 3.851017 -0.476111 -0.459795 0.124882 -0.135855 1.384532
    21 2.007648 0.000002 -0.000003 0.000002 0.000000 1.517031
    22 1.270737 0.000001 -0.000002 -0.000001 0.000003 0.034542
    23 5.679941 -0.078302 -0.132353 1.619888 -1.570792 0.000000
    24 0.236202 -3.846334 -0.007086 0.040104 0.000001 -0.000003
    25 -13.281250 -2.773438 2.111328 1.570792 -0.002895 -4.709494
    26 0.000000 0.000000 0.000000 0.360699 0.367404 1.384883
    27 -11.703230 -0.000004 -0.000090 0.000006 0.000003 -1.500485
    28 -11.501110 -0.000001 -0.000004 -1.527543 -0.508887 0.645469
    29 -0.949223 -0.526691 0.818566 2.039111 0.416550 0.555245
    30 -1.978558 0.000003 -0.000002 -0.000002 -0.000001 0.608066
    31 -1.087188 0.000001 -0.000001 0.000001 0.000000 0.510659
    32 -3.863440 0.167448 1.277064 0.216271 0.198331 0.079560
    33 -1.666018 -0.000002 0.000002 -0.000003 0.000002 0.643199
    34 -1.292521 -0.000002 -0.000002 0.000001 -0.000003 0.953990
    35 -3.927895 0.566317 -0.452254 -0.108297 -0.034867 1.000385
    36 -1.705971 0.000000 0.000005 0.000001 -0.000006 1.560063
    37 -1.292522 -0.000001 0.000005 0.000003 0.000003 0.259169
    38 -3.772601 0.311782 -1.300296 -0.160117 0.071001 1.138462
    39 -1.408095 0.000002 -0.000006 -0.000002 -0.000003 1.377597
    40 -0.986792 -0.000002 -0.000001 0.000000 0.000004 0.512612
    41 -3.851023 0.476089 0.459802 0.014947 -0.075267 0.645165
    42 -2.007647 0.000002 -0.000002 -0.000001 0.000001 1.777937
    43 -1.270733 0.000002 -0.000002 -0.000004 -0.000003 0.494876
    44 -5.679935 0.078273 0.132370 1.619888 -1.570792 0.000000
    45 0.000006 3.838817 -0.000001 0.000000 0.000001 0.000001
    46 -4.113098 -19.187934 -6.780725 1.580698 0.003868 -1.578843
  time 15
    0 -4.125295 -19.386908 -6.772633 1.574357 -0.009352 -0.006412
    1 -0.006660 0.337219 4.384488 0.000000 0.000000 0.000000
    2 -0.006660 0.293999 2.752374 0.000000 0.000000 0.000000
    3 -0.006660 1.042511 2.142976 0.000000 0.000000 0.000000
    4 15.132813 -20.000000 -12.078125 -1.919857 0.000000 -1.570796
    5 0.000000 0.000001 0.000002 0.747613 0.917328 0.997345
    6 11.703224 -0.000051 0.000023 -0.000002 0.000003 -0.969159
    7 11.501116 -0.000059 0.000032 -2.216291 -0.343643 0.517204
    8 0.949228 0.526683 -0.818566 1.218642 0.700708 -0.024979
    9 1.978558 -0.000009 0.000000 0.000001 -0.000004 0.258992
    10 1.087181 0.000005 -0.000004 -0.000003 0.000000 -0.318564
    11 3.863441 -0.167474 -1.277058 0.201230 -0.155208 1.099048
    12 1.666012 0.000002 0.000000 0.000003 -0.000002 1.555320
    13 1.292521 0.000007 0.000000 -0.000006 0.000007 0.270582
    14 3.927893 -0.566339 0.452260 0.056623 -0.078693 1.416162
    15 1.705974 -0.000004 -0.000001 0.000001 0.000001 1.471814
    16 1.292522 0.000000 -0.000003 0.000001 0.000002 0.873162
    17 3.772598 -0.311803 1.300303 -0.090729 -0.047626 1.187226
    18 1.408097 -0.000004 0.000001 -0.000004 -0.000002 2.038980
    19 0.986795 -0.000004 -0.000002 0.000003 -0.000001 0.219430
    20 3.851017 -0.476111 -0.459795 0.124882 -0.135855 1.384532
    21 2.007648 0.000002 -0.000003 0.000002 0.000000 1.517031
    22 1.270737 0.000001 -0.000002 -0.000001 0.000003 0.034542
    23 5.679941 -0.078302 -0.132353 1.619888 -1.570792 0.000000
    24 0.236202 -3.846334 -0.007086 0.040104 0.000001 -0.000003
    25 -13.281250 -2.773438 2.111328 1.570792 -0.002895 -4.709494
    26 0.000000 0.000000 0.000000 0.353318 0.366552 1.367329
    27 -11.703230 -0.000004 -0.000090 0.000006 0.000003 -1.482981
    28 -11.501110 -0.000001 -0.000004 -1.530773 -0.502425 0.644987
    29 -0.949223 -0.526691 0.818566 2.039111 0.416550 0.555245
    30 -1.978558 0.000003 -0.000002 -0.000002 -0.000001 0.608066
    31 -1.087188 0.000001 -0.000001 0.000001 0.000000 0.510659
    32 -3.863440 0.167448 1.277064 0.218692 0.195635 0.092004
    33 -1.666018 -0.000002 0.000002 -0.000003 0.000002 0.568699
    34 -1.292521 -0.000002 -0.000002 0.000001 -0.000003 0.846296
    35 -3.927895 0.566317 -0.452254 -0.108297 -0.034867 1.000385
    36 -1.705971 0.000000 0.000005 0.000001 -0.000006 1.560063
    37 -1.292522 -0.000001 0.000005 0.000003 0.000003 0.259169
    38 -3.772601 0.311782 -1.300296 -0.160117 0.071001 1.138462
    39 -1.408095 0.000002 -0.000006 -0.000002 -0.000003 1.377597
    40 -0.986792 -0.000002 -0.000001 0.000000 0.000004 0.512612
    41 -3.851023 0.476089 0.459802 0.014947 -0.075267 0.645165
    42 -2.007647 0.000002 -0.000002 -0.000001 0.000001 1.777937
    43 -1.270733 0.000002 -0.000002 -0.000004 -0.000003 0.494876
    44 -5.679935 0.078273 0.132370 1.619888 -1.570792 0.000000
    45 0.000006 3.838817 -0.000001 0.000000 0.000001 0.000001
    46 -4.124817 -19.387159 -6.772912 1.580126 0.003543 -1.577151
  time 16
    0 -4.137015 -19.539257 -6.764820 1.573921 -0.008595 -0.004742
    1 -0.006660 0.337219 4.384488 0.000000 0.000000 0.000000
    2 -0.006660 0.293999 2.752374 0.000000 0.000000 0.000000
    3 -0.006660 1.042511 2.142976 0.000000 0.000000 0.000000
    4 15.132813 -20.000000 -12.078125 -1.919857 0.000000 -1.570796
    5 0.000000 0.000001 0.000002 0.733799 0.917328 0.979965
    6 11.703224 -0.000051 0.000023 -0.000002 0.000003 -0.956626
    7 11.501116 -0.000059 0.000032 -2.219119 -0.338459 0.512261
    8 0.949228 0.526683 -0.818566 1.218642 0.700708 -0.024979
    9 1.978558 -0.000009 0.000000 0.000001 -0.000004 0.258992
    10 1.087181 0.000005 -0.000004 -0.000003 0.000000 -0.318564
    11 3.863441 -0.167474 -1.277058 0.201230 -0.155208 1.099048
    12 1.666012 0.000002 0.000000 0.000003 -0.000002 1.555320
    13 1.292521 0.000007 0.000000 -0.000006 0.000007 0.270582
    14 3.927893 -0.566339 0.452260 0.056623 -0.078693 1.416162
    15 1.705974 -0.000004 -0.000001 0.000001 0.000001 1.471814
    16 1.292522 0.000000 -0.000003 0.000001 0.000002 0.873162
    17 3.772598 -0.311803 1.300303 -0.090729 -0.047626 1.187226
    18 1.408097 -0.000004 0.000001 -0.000004 -0.000002 2.038980
    19 0.986795 -0.000004 -0.000002 0.000003 -0.000001 0.219430
    20 3.851017 -0.476111 -0.459795 0.124882 -0.135855 1.384532
    21 2.007648 0.000002 -0.000003 0.000002 0.000000 1.517031
    22 1.270737 0.000001 -0.000002 -0.000001 0.000003 0.034542
    23 5.679941 -0.078302 -0.132353 1.619888 -1.570792 0.000000
    24 0.236202 -3.846334 -0.007086 0.040104 0.000001 -0.000003
    25 -13.281250 -2.773438 2.111328 1.570792 -0.002895 -4.709494
    26 0.000000 0.000000 0.000000 0.347680 0.365655 1.353822
    27 -11.703230 -0.000004 -0.000090 0.000006 0.000003 -1.470100
    28 -11.501110 -0.000001 -0.000004 -1.532947 -0.497273 0.645125
    29 -0.949223 -0.526691 0.818566 2.039111 0.416550 0.555245
    30 -1.978558 0.000003 -0.000002 -0.000002 -0.000001 0.608066
    31 -1.087188 0.000001 -0.000001 0.000001 0.000000 0.510659
    32 -3.863440 0.167448 1.277064 0.221604 0.192387 0.106915
    33 -1.666018 -0.000002 0.000002 -0.000003 0.000002 0.479308
    34 -1.292521 -0.000002 -0.000002 0.000001 -0.000003 0.717063
    35 -3.927895 0.566317 -0.452254 -0.108297 -0.034867 1.000385
    36 -1.705971 0.000000 0.000005 0.000001 -0.000006 1.560063
    37 -1.292522 -0.000001 0.000005 0.000003 0.000003 0.259169
    38 -3.772601 0.311782 -1.300296 -0.160117 0.071001 1.138462
    39 -1.408095 0.000002 -0.000006 -0.000002 -0.000003 1.377597
    40 -0.986792 -0.000002 -0.000001 0.000000 0.000004 0.512612
    41 -3.851023 0.476089 0.459802 0.014947 -0.075267 0.645165
    42 -2.007647 0.000002 -0.000002 -0.000001 0.000001 1.777937
    43 -1.270733 0.000002 -0.000002 -0.000004 -0.000003 0.494876
    44 -5.679935 0.078273 0.132370 1.619888 -1.570792 0.000000
    45 0.000006 3.838817 -0.000001 0.000000 0.000001 0.000001
    46 -4.136536 -19.539508 -6.765099 1.579375 0.003109 -1.575584
  time 17
    0 -4.148734 -19.652541 -6.749195 1.573558 -0.007716 -0.003350
    1 -0.006660 0.337219 4.384488 0.000000 0.000000 0.000000
    2 -0.006660 0.293999 2.752374 0.000000 0.000000 0.000000
    3 -0.006660 1.042511 2.142976 0.000000 0.000000 0.000000
    4 15.132813 -20.000000 -12.078125 -1.919857 0.000000 -1.570796
    5 0.000000 0.000001 0.000002 0.723520 0.917740 0.966132
    6 11.703224 -0.000051 0.000023 -0.000002 0.000003 -0.946511
    7 11.501116 -0.000059 0.000032 -2.221946 -0.335045 0.508344
    8 0.949228 0.526683 -0.818566 1.218642 0.700708 -0.024979
    9 1.978558 -0.000009 0.000000 0.000001 -0.000004 0.258992
    10 1.087181 0.000005 -0.000004 -0.000003 0.000000 -0.318564
    11 3.863441 -0.167474 -1.277058 0.201230 -0.155208 1.099048
    12 1.666012 0.000002 0.000000 0.000003 -0.000002 1.555320
    13 1.292521 0.000007 0.000000 -0.000006 0.000007 0.270582
    14 3.927893 -0.566339 0.452260 0.056623 -0.078693 1.416162
    15 1.705974 -0.000004 -0.000001 0.000001 0.000001 1.471814
    16 1.292522 0.000000 -0.000003 0.000001 0.000002 0.873162
    17 3.772598 -0.311803 1.300303 -0.090729 -0.047626 1.187226
    18 1.408097 -0.000004 0.000001 -0.000004 -0.000002 2.038980
    19 0.986795 -0.000004 -0.000002 0.000003 -0.000001 0.219430
    20 3.851017 -0.476111 -0.459795 0.124882 -0.135855 1.384532
    21 2.007648 0.000002 -0.000003 0.000002 0.000000 1.517031
    22 1.270737 0.000001 -0.000002 -0.000001 0.000003 0.034542
    23 5.679941 -0.078302 -0.132353 1.619888 -1.570792 0.000000
    24 0.236202 -3.846334 -0.007086 0.040104 0.000001 -0.000003
    25 -13.281250 -2.773438 2.111328 1.570792 -0.002895 -4.709494
    26 0.000000 0.000000 0.000000 0.343640 0.364742 1.343874
    27 -11.703230 -0.000004 -0.000090 0.000006 0.000003 -1.461531
    28 -11.501110 -0.000001 -0.000004 -1.534265 -0.493401 0.646019
    29 -0.949223 -0.526691 0.818566 2.039111 0.416550 0.555245
    30 -1.978558 0.000003 -0.000002 -0.000002 -0.000001 0.608066
    31 -1.087188 0.000001 -0.000001 0.000001 0.000000 0.510659
    32 -3.863440 0.167448 1.277064 0.224972 0.188624 0.124259
    33 -1.666018 -0.000002 0.000002 -0.000003 0.000002 0.375064
    34 -1.292521 -0.000002 -0.000002 0.000001 -0.000003 0.566341
    35 -3.927895 0.566317 -0.452254 -0.108297 -0.034867 1.000385
    36 -1.705971 0.000000 0.000005 0.000001 -0.000006 1.560063
    37 -1.292522 -0.000001 0.000005 0.000003 0.000003 0.259169
    38 -3.772601 0.311782 -1.300296 -0.160117 0.071001 1.138462
    39 -1.408095 0.000002 -0.000006 -0.000002 -0.000003 1.377597
    40 -0.986792 -0.000002 -0.000001 0.000000 0.000004 0.512612
    41 -3.851023 0.476089 0.459802 0.014947 -0.075267 0.645165
    42 -2.007647 0.000002 -0.000002 -0.000001 0.000001 1.777937
    43 -1.270733 0.000002 -0.000002 -0.000004 -0.000003 0.494876
    44 -5.679935 0.078273 0.132370 1.619888 -1.570792 0.000000
    45 0.000006 3.838817 -0.000001 0.000000 0.000001 0.000001
    46 -4.148255 -19.648886 -6.749474 1.578481 0.002748 -1.574143
  time 18
    0 -4.164359 -19.722856 -6.729663 1.573122 -0.006739 -0.002097
    1 -0.006660 0.337219 4.384488 0.000000 0.000000 0.000000
    2 -0.006660 0.293999 2.752374 0.000000 0.000000 0.000000
    3 -0.006660 1.042511 2.142976 0.000000 0.000000 0.000000
    4 15.132813 -20.000000 -12.078125 -1.919857 0.000000 -1.570796
    5 0.000000 0.000001 0.000002 0.716498 0.918500 0.955623
    6 11.703224 -0.000051 0.000023 -0.000002 0.000003 -0.938786
    7 11.501116 -0.000059 0.000032 -2.224735 -0.333149 0.505481
    8 0.949228 0.526683 -0.818566 1.218642 0.700708 -0.024979
    9 1.978558 -0.000009 0.000000 0.000001 -0.000004 0.258992
    10 1.087181 0.000005 -0.000004 -0.000003 0.000000 -0.318564
    11 3.863441 -0.167474 -1.277058 0.201230 -0.155208 1.099048
    12 1.666012 0.000002 0.000000 0.000003 -0.000002 1.555320
    13 1.292521 0.000007 0.000000 -0.000006 0.000007 0.270582
    14 3.927893 -0.566339 0.452260 0.056623 -0.078693 1.416162
    15 1.705974 -0.000004 -0.000001 0.000001 0.000001 1.471814
    16 1.292522 0.000000 -0.000003 0.000001 0.000002 0.873162
    17 3.772598 -0.311803 1.300303 -0.090729 -0.047626 1.187226
    18 1.408097 -0.000004 0.000001 -0.000004 -0.000002 2.038980
    19 0.986795 -0.000004 -0.000002 0.000003 -0.000001 0.219430
    20 3.851017 -0.476111 -0.459795 0.124882 -0.135855 1.384532
    21 2.007648 0.000002 -0.000003 0.000002 0.000000 1.517031
    22 1.270737 0.000001 -0.000002 -0.000001 0.000003 0.034542
    23 5.679941 -0.078302 -0.132353 1.619888 -1.570792 0.000000
    24 0.236202 -3.846334 -0.007086 0.040104 0.000001 -0.000003
    25 -13.281250 -2.773438 2.111328 1.570792 -0.002895 -4.709494
    26 0.000000 0.000000 0.000000 0.341036 0.363845 1.337193
    27 -11.703230 -0.000004 -0.000090 0.000006 0.000003 -1.456880
    28 -11.501110 -0.000001 -0.000004 -1.534924 -0.490572 0.647532
    29 -0.949223 -0.526691 0.818566 2.039111 0.416550 0.555245
    30 -1.978558 0.000003 -0.000002 -0.000002 -0.000001 0.608066
    31 -1.087188 0.000001 -0.000001 0.000001 0.000000 0.510659
    32 -3.863440 0.167448 1.277064 0.224972 0.188624 0.124259
    33 -1.666018 -0.000002 0.000002 -0.000003 0.000002 0.375064
    34 -1.292521 -0.000002 -0.000002 0.000001 -0.000003 0.566341
    35 -3.927895 0.566317 -0.452254 -0.108297 -0.034867 1.000385
    36 -1.705971 0.000000 0.000005 0.000001 -0.000006 1.560063
    37 -1.292522 -0.000001 0.000005 0.000003 0.000003 0.259169
    38 -3.772601 0.311782 -1.300296 -0.160117 0.071001 1.138462
    39 -1.408095 0.000002 -0.000006 -0.000002 -0.000003 1.377597
    40 -0.986792 -0.000002 -0.000001 0.000000 0.000004 0.512612
    41 -3.851023 0.476089 0.459802 0.014947 -0.075267 0.645165
    42 -2.007647 0.000002 -0.000002 -0.000001 0.000001 1.777937
    43 -1.270733 0.000002 -0.000002 -0.000004 -0.000003 0.494876
    44 -5.679935 0.078273 0.132370 1.619888 -1.570792 0.000000
    45 0.000006 3.838817 -0.000001 0.000000 0.000001 0.000001
    46 -4.163880 -19.723107 -6.729942 1.577552 0.002350 -1.572953
  time 19
    0 -4.179985 -19.761920 -6.702318 1.572722 -0.005738 -0.001123
    1 -0.006660 0.337219 4.384488 0.000000 0.000000 0.000000
    2 -0.006660 0.293999 2.752374 0.000000 0.000000 0.000000
    3 -0.006660 1.042511 2.142976 0.000000 0.000000 0.000000
    4 15.132813 -20.000000 -12.078125 -1.919857 0.000000 -1.570796
    5 0.000000 0.000001 0.000002 0.712390 0.919530 0.947988
    6 11.703224 -0.000051 0.000023 -0.000002 0.000003 -0.933256
    7 11.501116 -0.000059 0.000032 -2.227446 -0.332618 0.503671
    8 0.949228 0.526683 -0.818566 1.218642 0.700708 -0.024979
    9 1.978558 -0.000009 0.000000 0.000001 -0.000004 0.258992
    10 1.087181 0.000005 -0.000004 -0.000003 0.000000 -0.318564
    11 3.863441 -0.167474 -1.277058 0.201230 -0.155208 1.099048
    12 1.666012 0.000002 0.000000 0.000003 -0.000002 1.555320
    13 1.292521 0.000007 0.000000 -0.000006 0.000007 0.270582
    14 3.927893 -0.566339 0.452260 0.056623 -0.078693 1.416162
    15 1.705974 -0.000004 -0.000001 0.000001 0.000001 1.471814
    16 1.292522 0.000000 -0.000003 0.000001 0.000002 0.873162
    17 3.772598 -0.311803 1.300303 -0.090729 -0.047626 1.187226
    18 1.408097 -0.000004 0.000001 -0.000004 -0.000002 2.038980
    19 0.986795 -0.000004 -0.000002 0.000003 -0.000001 0.219430
    20 3.851017 -0.476111 -0.459795 0.124882 -0.135855 1.384532
    21 2.007648 0.000002 -0.000003 0.000002 0.000000 1.517031
    22 1.270737 0.000001 -0.000002 -0.000001 0.000003 0.034542
    23 5.679941 -0.078302 -0.132353 1.619888 -1.570792 0.000000
    24 0.236202 -3.846334 -0.007086 0.040104 0.000001 -0.000003
    25 -13.281250 -2.773438 2.111328 1.570792 -0.002895 -4.709494
    26 0.000000 0.000000 0.000000 0.339707 0.362993 1.333439
    27 -11.703230 -0.000004 -0.000090 0.000006 0.000003 -1.455696
    28 -11.501110 -0.000001 -0.000004 -1.534990 -0.488726 0.649733
    29 -0.949223 -0.526691 0.818566 2.039111 0.416550 0.555245
    30 -1.978558 0.000003 -0.000002 -0.000002 -0.000001 0.608066
    31 -1.087188 0.000001 -0.000001 0.000001 0.000000 0.510659
    32 -3.863440 0.167448 1.277064 0.224972 0.188624 0.124259
    33 -1.666018 -0.000002 0.000002 -0.000003 0.000002 0.375064
    34 -1.292521 -0.000002 -0.000002 0.000001 -0.000003 0.566341
    35 -3.927895 0.566317 -0.452254 -0.108297 -0.034867 1.000385
    36 -1.705971 0.000000 0.000005 0.000001 -0.000006 1.560063
    37 -1.292522 -0.000001 0.000005 0.000003 0.000003 0.259169
    38 -3.772601 0.311782 -1.300296 -0.160117 0.071001 1.138462
    39 -1.408095 0.000002 -0.000006 -0.000002 -0.000003 1.377597
    40 -0.986792 -0.000002 -0.000001 0.000000 0.000004 0.512612
    41 -3.851023 0.476089 0.459802 0.014947 -0.075267 0.645165
    42 -2.007647 0.000002 -0.000002 -0.000001 0.000001 1.777937
    43 -1.270733 0.000002 -0.000002 -0.000004 -0.000003 0.494876
    44 -5.679935 0.078273 0.132370 1.619888 -1.570792 0.000000
    45 0.000006 3.838817 -0.000001 0.000000 0.000001 0.000001
    46 -4.179506 -19.762171 -6.702597 1.576515 0.001880 -1.571950
  time 20
    0 -4.195610 -19.773639 -6.671067 1.572286 -0.004737 -0.000288
    1 -0.006660 0.337219 4.384488 0.000000 0.000000 0.000000
    2 -0.006660 0.293999 2.752374 0.000000 0.000000 0.000000
    3 -0.006660 1.042511 2.142976 0.000000 0.000000 0.000000
    4 15.132813 -20.000000 -12.078125 -1.919857 0.000000 -1.570796
    5 0.000000 0.000001 0.000002 0.710863 0.920792 0.943093
    6 11.703224 -0.000051 0.000023 -0.000002 0.000003 -0.929699
    7 11.501116 -0.000059 0.000032 -2.230119 -0.333199 0.502834
    8 0.949228 0.526683 -0.818566 1.218642 0.700708 -0.024979
    9 1.978558 -0.000009 0.000000 0.000001 -0.000004 0.258992
    10 1.087181 0.000005 -0.000004 -0.000003 0.000000 -0.318564
    11 3.863441 -0.167474 -1.277058 0.201230 -0.155208 1.099048
    12 1.666012 0.000002 0.000000 0.000003 -0.000002 1.555320
    13 1.292521 0.000007 0.000000 -0.000006 0.000007 0.270582
    14 3.927893 -0.566339 0.452260 0.056623 -0.078693 1.416162
    15 1.705974 -0.000004 -0.000001 0.000001 0.000001 1.471814
    16 1.292522 0.000000 -0.000003 0.000001 0.000002 0.873162
    17 3.772598 -0.311803 1.300303 -0.090729 -0.047626 1.187226
    18 1.408097 -0.000004 0.000001 -0.000004 -0.000002 2.038980
    19 0.986795 -0.000004 -0.000002 0.000003 -0.000001 0.219430
    20 3.851017 -0.476111 -0.459795 0.124882 -0.135855 1.384532
    21 2.007648 0.000002 -0.000003 0.000002 0.000000 1.517031
    22 1.270737 0.000001 -0.000002 -0.000001 0.000003 0.034542
    23 5.679941 -0.078302 -0.132353 1.619888 -1.570792 0.000000
    24 0.236202 -3.846334 -0.007086 0.040104 0.000001 -0.000003
    25 -13.281250 -2.773438 2.111328 1.570792 -0.002895 -4.709494
    26 0.000000 0.000000 0.000000 0.339474 0.362172 1.332171
    27 -11.703230 -0.000004 -0.000090 0.000006 0.000003 -1.457472
    28 -11.501110 -0.000001 -0.000004 -1.534595 -0.487832 0.652416
    29 -0.949223 -0.526691 0.818566 2.039111 0.416550 0.555245
    30 -1.978558 0.000003 -0.000002 -0.000002 -0.000001 0.608066
    31 -1.087188 0.000001 -0.000001 0.000001 0.000000 0.510659
    32 -3.863440 0.167448 1.277064 0.224972 0.188624 0.124259
    33 -1.666018 -0.000002 0.000002 -0.000003 0.000002 0.375064
    34 -1.292521 -0.000002 -0.000002 0.000001 -0.000003 0.566341
    35 -3.927895 0.566317 -0.452254 -0.108297 -0.034867 1.000385
    36 -1.705971 0.000000 0.000005 0.000001 -0.000006 1.560063
    37 -1.292522 -0.000001 0.000005 0.000003 0.000003 0.259169
    38 -3.772601 0.311782 -1.300296 -0.160117 0.071001 1.138462
    39 -1.408095 0.000002 -0.000006 -0.000002 -0.000003 1.377597
    40 -0.986792 -0.000002 -0.000001 0.000000 0.000004 0.512612
    41 -3.851023 0.476089 0.459802 0.014947 -0.075267 0.645165
    42 -2.007647 0.000002 -0.000002 -0.000001 0.000001 1.777937
    43 -1.270733 0.000002 -0.000002 -0.000004 -0.000003 0.494876
    44 -5.679935 0.078273 0.132370 1.619888 -1.570792 0.000000
    45 0.000006 3.838817 -0.000001 0.000000 0.000001 0.000001
    46 -4.195131 -19.773890 -6.671346 1.575514 0.001482 -1.571135
  time 21
    0 -4.207329 -19.758013 -6.643723 1.571959 -0.003736 0.000269
    1 -0.006660 0.337219 4.384488 0.000000 0.000000 0.000000
    2 -0.006660 0.293999 2.752374 0.000000 0.000000 0.000000
    3 -0.006660 1.042511 2.142976 0.000000 0.000000 0.000000
    4 15.132813 -20.000000 -12.078125 -1.919857 0.000000 -1.570796
    5 0.000000 0.000001 0.000002 0.711588 0.922196 0.940623
    6 11.703224 -0.000051 0.000023 -0.000002 0.000003 -0.928032
    7 11.501116 -0.000059 0.000032 -2.232675 -0.334717 0.502861
    8 0.949228 0.526683 -0.818566 1.218642 0.700708 -0.024979
    9 1.978558 -0.000009 0.000000 0.000001 -0.000004 0.258992
    10 1.087181 0.000005 -0.000004 -0.000003 0.000000 -0.318564
    11 3.863441 -0.167474 -1.277058 0.201230 -0.155208 1.099048
    12 1.666012 0.000002 0.000000 0.000003 -0.000002 1.555320
    13 1.292521 0.000007 0.000000 -0.000006 0.000007 0.270582
    14 3.927893 -0.566339 0.452260 0.056623 -0.078693 1.416162
    15 1.705974 -0.000004 -0.000001 0.000001 0.000001 1.471814
    16 1.292522 0.000000 -0.000003 0.000001 0.000002 0.873162
    17 3.772598 -0.311803 1.300303 -0.090729 -0.047626 1.187226
    18 1.408097 -0.000004 0.000001 -0.000004 -0.000002 2.038980
    19 0.986795 -0.000004 -0.000002 0.000003 -0.000001 0.219430
    20 3.851017 -0.476111 -0.459795 0.124882 -0.135855 1.384532
    21 2.007648 0.000002 -0.000003 0.000002 0.000000 1.517031
    22 1.270737 0.000001 -0.000002 -0.000001 0.000003 0.034542
    23 5.679941 -0.078302 -0.132353 1.619888 -1.570792 0.000000
    24 0.236202 -3.846334 -0.007086 0.040104 0.000001 -0.000003
    25 -13.281250 -2.773438 2.111328 1.570792 -0.002895 -4.709494
    26 0.000000 0.000000 0.000000 0.340174 0.361441 1.333146
    27 -11.703230 -0.000004 -0.000090 0.000006 0.000003 -1.461728
    28 -11.501110 -0.000001 -0.000004 -1.533870 -0.487713 0.655511
    29 -0.949223 -0.526691 0.818566 2.039111 0.416550 0.555245
    30 -1.978558 0.000003 -0.000002 -0.000002 -0.000001 0.608066
    31 -1.087188 0.000001 -0.000001 0.000001 0.000000 0.510659
    32 -3.863440 0.167448 1.277064 0.224972 0.188624 0.124259
    33 -1.666018 -0.000002 0.000002 -0.000003 0.000002 0.375064
    34 -1.292521 -0.000002 -0.000002 0.000001 -0.000003 0.566341
    35 -3.927895 0.566317 -0.452254 -0.108297 -0.034867 1.000385
    36 -1.705971 0.000000 0.000005 0.000001 -0.000006 1.560063
    37 -1.292522 -0.000001 0.000005 0.000003 0.000003 0.259169
    38 -3.772601 0.311782 -1.300296 -0.160117 0.071001 1.138462
    39 -1.408095 0.000002 -0.000006 -0.000002 -0.000003 1.377597
    40 -0.986792 -0.000002 -0.000001 0.000000 0.000004 0.512612
    41 -3.851023 0.476089 0.459802 0.014947 -0.075267 0.645165
    42 -2.007647 0.000002 -0.000002 -0.000001 0.000001 1.777937
    43 -1.270733 0.000002 -0.000002 -0.000004 -0.000003 0.494876
    44 -5.679935 0.078273 0.132370 1.619888 -1.570792 0.000000
    45 0.000006 3.838817 -0.000001 0.000000 0.000001 0.000001
    46 -4.206850 -19.758264 -6.644002 1.574514 0.001157 -1.570571
  time 22
    0 -4.222955 -19.718950 -6.612472 1.571559 -0.002808 0.000617
    1 -0.006660 0.337219 4.384488 0.000000 0.000000 0.000000
    2 -0.006660 0.293999 2.752374 0.000000 0.000000 0.000000
    3 -0.006660 1.042511 2.142976 0.000000 0.000000 0.000000
    4 15.132813 -20.000000 -12.078125 -1.919857 0.000000 -1.570796
    5 0.000000 0.000001 0.000002 0.714221 0.923716 0.940309
    6 11.703224 -0.000051 0.000023 -0.000002 0.000003 -0.927977
    7 11.501116 -0.000059 0.000032 -2.235038 -0.336967 0.503644
    8 0.949228 0.526683 -0.818566 1.218642 0.700708 -0.024979
    9 1.978558 -0.000009 0.000000 0.000001 -0.000004 0.258992
    10 1.087181 0.000005 -0.000004 -0.000003 0.000000 -0.318564
    11 3.863441 -0.167474 -1.277058 0.201230 -0.155208 1.099048
    12 1.666012 0.000002 0.000000 0.000003 -0.000002 1.555320
    13 1.292521 0.000007 0.000000 -0.000006 0.000007 0.270582
    14 3.927893 -0.566339 0.452260 0.056623 -0.078693 1.416162
    15 1.705974 -0.000004 -0.000001 0.000001 0.000001 1.471814
    16 1.292522 0.000000 -0.000003 0.000001 0.000002 0.873162
    17 3.772598 -0.311803 1.300303 -0.090729 -0.047626 1.187226
    18 1.408097 -0.000004 0.000001 -0.000004 -0.000002 2.038980
    19 0.986795 -0.000004 -0.000002 0.000003 -0.000001 0.219430
    20 3.851017 -0.476111 -0.459795 0.124882 -0.135855 1.384532
    21 2.007648 0.000002 -0.000003 0.000002 0.000000 1.517031
    22 1.270737 0.000001 -0.000002 -0.000001 0.000003 0.034542
    23 5.679941 -0.078302 -0.132353 1.619888 -1.570792 0.000000
    24 0.236202 -3.846334 -0.007086 0.040104 0.000001 -0.000003
    25 -13.281250 -2.773438 2.111328 1.570792 -0.002895 -4.709494
    26 0.000000 0.000000 0.000000 0.341683 0.360787 1.335926
    27 -11.703230 -0.000004 -0.000090 0.000006 0.000003 -1.467957
    28 -11.501110 -0.000001 -0.000004 -1.532881 -0.488368 0.658744
    29 -0.949223 -0.526691 0.818566 2.039111 0.416550 0.555245
    30 -1.978558 0.000003 -0.000002 -0.000002 -0.000001 0.608066
    31 -1.087188 0.000001 -0.000001 0.000001 0.000000 0.510659
    32 -3.863440 0.167448 1.277064 0.224972 0.188624 0.124259
    33 -1.666018 -0.000002 0.000002 -0.000003 0.000002 0.375064
    34 -1.292521 -0.000002 -0.000002 0.000001 -0.000003 0.566341
    35 -3.927895 0.566317 -0.452254 -0.108297 -0.034867 1.000385
    36 -1.705971 0.000000 0.000005 0.000001 -0.000006 1.560063
    37 -1.292522 -0.000001 0.000005 0.000003 0.000003 0.259169
    38 -3.772601 0.311782 -1.300296 -0.160117 0.071001 1.138462
    39 -1.408095 0.000002 -0.000006 -0.000002 -0.000003 1.377597
    40 -0.986792 -0.000002 -0.000001 0.000000 0.000004 0.512612
    41 -3.851023 0.476089 0.459802 0.014947 -0.075267 0.645165
    42 -2.007647 0.000002 -0.000002 -0.000001 0.000001 1.777937
    43 -1.270733 0.000002 -0.000002 -0.000004 -0.000003 0.494876
    44 -5.679935 0.078273 0.132370 1.619888 -1.570792 0.000000
    45 0.000006 3.838817 -0.000001 0.000000 0.000001 0.000001
    46 -4.222476 -19.719200 -6.612751 1.573548 0.000832 -1.570195
  time 23
    0 -4.234674 -19.668167 -6.581221 1.571305 -0.001929 0.000826
    1 -0.006660 0.337219 4.384488 0.000000 0.000000 0.000000
    2 -0.006660 0.293999 2.752374 0.000000 0.000000 0.000000
    3 -0.006660 1.042511 2.142976 0.000000 0.000000 0.000000
    4 15.132813 -20.000000 -12.078125 -1.919857 0.000000 -1.570796
    5 0.000000 0.000001 0.000002 0.718419 0.925248 0.941881
    6 11.703224 -0.000051 0.000023 -0.000002 0.000003 -0.929283
    7 11.501116 -0.000059 0.000032 -2.237207 -0.339723 0.505076
    8 0.949228 0.526683 -0.818566 1.218642 0.700708 -0.024979
    9 1.978558 -0.000009 0.000000 0.000001 -0.000004 0.258992
    10 1.087181 0.000005 -0.000004 -0.000003 0.000000 -0.318564
    11 3.863441 -0.167474 -1.277058 0.201230 -0.155208 1.099048
    12 1.666012 0.000002 0.000000 0.000003 -0.000002 1.555320
    13 1.292521 0.000007 0.000000 -0.000006 0.000007 0.270582
    14 3.927893 -0.566339 0.452260 0.056623 -0.078693 1.416162
    15 1.705974 -0.000004 -0.000001 0.000001 0.000001 1.471814
    16 1.292522 0.000000 -0.000003 0.000001 0.000002 0.873162
    17 3.772598 -0.311803 1.300303 -0.090729 -0.047626 1.187226
    18 1.408097 -0.000004 0.000001 -0.000004 -0.000002 2.038980
    19 0.986795 -0.000004 -0.000002 0.000003 -0.000001 0.219430
    20 3.851017 -0.476111 -0.459795 0.124882 -0.135855 1.384532
    21 2.007648 0.000002 -0.000003 0.000002 0.000000 1.517031
    22 1.270737 0.000001 -0.000002 -0.000001 0.000003 0.034542
    23 5.679941 -0.078302 -0.132353 1.619888 -1.570792 0.000000
    24 0.236202 -3.846334 -0.007086 0.040104 0.000001 -0.000003
    25 -13.281250 -2.773438 2.111328 1.570792 -0.002895 -4.709494
    26 0.000000 0.000000 0.000000 0.343819 0.360255 1.340168
    27 -11.703230 -0.000004 -0.000090 0.000006 0.000003 -1.475652
    28 -11.501110 -0.000001 -0.000004 -1.531695 -0.489619 0.662115
    29 -0.949223 -0.526691 0.818566 2.039111 0.416550 0.555245
    30 -1.978558 0.000003 -0.000002 -0.000002 -0.000001 0.608066
    31 -1.087188 0.000001 -0.000001 0.000001 0.000000 0.510659
    32 -3.863440 0.167448 1.277064 0.224972 0.188624 0.124259
    33 -1.666018 -0.000002 0.000002 -0.000003 0.000002 0.375064
    34 -1.292521 -0.000002 -0.000002 0.000001 -0.000003 0.566341
    35 -3.927895 0.566317 -0.452254 -0.108297 -0.034867 1.000385
    36 -1.705971 0.000000 0.000005 0.000001 -0.000006 1.560063
    37 -1.292522 -0.000001 0.000005 0.000003 0.000003 0.259169
    38 -3.772601 0.311782 -1.300296 -0.160117 0.071001 1.138462
    39 -1.408095 0.000002 -0.000006 -0.000002 -0.000003 1.377597
    40 -0.986792 -0.000002 -0.000001 0.000000 0.000004 0.512612
    41 -3.851023 0.476089 0.459802 0.014947 -0.075267 0.645165
    42 -2.007647 0.000002 -0.000002 -0.000001 0.000001 1.777937
    43 -1.270733 0.000002 -0.000002 -0.000004 -0.000003 0.494876
    44 -5.679935 0.078273 0.132370 1.619888 -1.570792 0.000000
    45 0.000006 3.838817 -0.000001 0.000000 0.000001 0.000001
    46 -4.234195 -19.664511 -6.581500 1.572726 0.000506 -1.570007
  time 24
    0 -4.246393 -19.601759 -6.549970 1.571087 -0.001221 0.000756
    1 -0.006660 0.337219 4.384488 0.000000 0.000000 0.000000
    2 -0.006660 0.293999 2.752374 0.000000 0.000000 0.000000
    3 -0.006660 1.042511 2.142976 0.000000 0.000000 0.000000
    4 15.132813 -20.000000 -12.078125 -1.919857 0.000000 -1.570796
    5 0.000000 0.000001 0.000002 0.723787 0.926742 0.944979
    6 11.703224 -0.000051 0.000023 -0.000002 0.000003 -0.931672
    7 11.501116 -0.000059 0.000032 -2.239104 -0.342859 0.506966
    8 0.949228 0.526683 -0.818566 1.218642 0.700708 -0.024979
    9 1.978558 -0.000009 0.000000 0.000001 -0.000004 0.258992
    10 1.087181 0.000005 -0.000004 -0.000003 0.000000 -0.318564
    11 3.863441 -0.167474 -1.277058 0.201230 -0.155208 1.099048
    12 1.666012 0.000002 0.000000 0.000003 -0.000002 1.555320
    13 1.292521 0.000007 0.000000 -0.000006 0.000007 0.270582
    14 3.927893 -0.566339 0.452260 0.056623 -0.078693 1.416162
    15 1.705974 -0.000004 -0.000001 0.000001 0.000001 1.471814
    16 1.292522 0.000000 -0.000003 0.000001 0.000002 0.873162
    17 3.772598 -0.311803 1.300303 -0.090729 -0.047626 1.187226
    18 1.408097 -0.000004 0.000001 -0.000004 -0.000002 2.038980
    19 0.986795 -0.000004 -0.000002 0.000003 -0.000001 0.219430
    20 3.851017 -0.476111 -0.459795 0.124882 -0.135855 1.384532
    21 2.007648 0.000002 -0.000003 0.000002 0.000000 1.517031
    22 1.270737 0.000001 -0.000002 -0.000001 0.000003 0.034542
    23 5.679941 -0.078302 -0.132353 1.619888 -1.570792 0.000000
    24 0.236202 -3.846334 -0.007086 0.040104 0.000001 -0.000003
    25 -13.281250 -2.773438 2.111328 1.570792 -0.002895 -4.709494
    26 0.000000 0.000000 0.000000 0.346441 0.359860 1.345532
    27 -11.703230 -0.000004 -0.000090 0.000006 0.000003 -1.484278
    28 -11.501110 -0.000001 -0.000004 -1.530443 -0.491465 0.665348
    29 -0.949223 -0.526691 0.818566 2.039111 0.416550 0.555245
    30 -1.978558 0.000003 -0.000002 -0.000002 -0.000001 0.608066
    31 -1.087188 0.000001 -0.000001 0.000001 0.000000 0.510659
    32 -3.863440 0.167448 1.277064 0.224972 0.188624 0.124259
    33 -1.666018 -0.000002 0.000002 -0.000003 0.000002 0.375064
    34 -1.292521 -0.000002 -0.000002 0.000001 -0.000003 0.566341
    35 -3.927895 0.566317 -0.452254 -0.108297 -0.034867 1.000385
    36 -1.705971 0.000000 0.000005 0.000001 -0.000006 1.560063
    37 -1.292522 -0.000001 0.000005 0.000003 0.000003 0.259169
    38 -3.772601 0.311782 -1.300296 -0.160117 0.071001 1.138462
    39 -1.408095 0.000002 -0.000006 -0.000002 -0.000003 1.377597
    40 -0.986792 -0.000002 -0.000001 0.000000 0.000004 0.512612
    41 -3.851023 0.476089 0.459802 0.014947 -0.075267 0.645165
    42 -2.007647 0.000002 -0.000002 -0.000001 0.000001 1.777937
    43 -1.270733 0.000002 -0.000002 -0.000004 -0.000003 0.494876
    44 -5.679935 0.078273 0.132370 1.619888 -1.570792 0.000000
    45 0.000006 3.838817 -0.000001 0.000000 0.000001 0.000001
    46 -4.245914 -19.598103 -6.550249 1.571976 0.000253 -1.570070
  time 25
    0 -4.254206 -19.515818 -6.526532 1.570905 -0.000586 0.000478
    1 -0.006660 0.337219 4.384488 0.000000 0.000000 0.000000
    2 -0.006660 0.293999 2.752374 0.000000 0.000000 0.000000
    3 -0.006660 1.042511 2.142976 0.000000 0.000000 0.000000
    4 15.132813 -20.000000 -12.078125 -1.919857 0.000000 -1.570796
    5 0.000000 0.000001 0.000002 0.730720 0.928301 0.949965
    6 11.703224 -0.000051 0.000023 -0.000002 0.000003 -0.935340
    7 11.501116 -0.000059 0.000032 -2.240809 -0.346526 0.509479
    8 0.949228 0.526683 -0.818566 1.218642 0.700708 -0.024979
    9 1.978558 -0.000009 0.000000 0.000001 -0.000004 0.258992
    10 1.087181 0.000005 -0.000004 -0.000003 0.000000 -0.318564
    11 3.863441 -0.167474 -1.277058 0.201230 -0.155208 1.099048
    12 1.666012 0.000002 0.000000 0.000003 -0.000002 1.555320
    13 1.292521 0.000007 0.000000 -0.000006 0.000007 0.270582
    14 3.927893 -0.566339 0.452260 0.056623 -0.078693 1.416162
    15 1.705974 -0.000004 -0.000001 0.000001 0.000001 1.471814
    16 1.292522 0.000000 -0.000003 0.000001 0.000002 0.873162
    17 3.772598 -0.311803 1.300303 -0.090729 -0.047626 1.187226
    18 1.408097 -0.000004 0.000001 -0.000004 -0.000002 2.038980
    19 0.986795 -0.000004 -0.000002 0.000003 -0.000001 0.219430
    20 3.851017 -0.476111 -0.459795 0.124882 -0.135855 1.384532
    21 2.007648 0.000002 -0.000003 0.000002 0.000000 1.517031
    22 1.270737 0.000001 -0.000002 -0.000001 0.000003 0.034542
    23 5.679941 -0.078302 -0.132353 1.619888 -1.570792 0.000000
    24 0.236202 -3.846334 -0.007086 0.040104 0.000001 -0.000003
    25 -13.281250 -2.773438 2.111328 1.570792 -0.002895 -4.709494
    26 0.000000 0.000000 0.000000 0.349727 0.359571 1.352407
    27 -11.703230 -0.000004 -0.000090 0.000006 0.000003 -1.494312
    28 -11.501110 -0.000001 -0.000004 -1.528927 -0.493937 0.668581
    29 -0.949223 -0.526691 0.818566 2.039111 0.416550 0.555245
    30 -1.978558 0.000003 -0.000002 -0.000002 -0.000001 0.608066
    31 -1.087188 0.000001 -0.000001 0.000001 0.000000 0.510659
    32 -3.863440 0.167448 1.277064 0.224972 0.188624 0.124259
    33 -1.666018 -0.000002 0.000002 -0.000003 0.000002 0.375064
    34 -1.292521 -0.000002 -0.000002 0.000001 -0.000003 0.566341
    35 -3.927895 0.566317 -0.452254 -0.108297 -0.034867 1.000385
    36 -1.705971 0.000000 0.000005 0.000001 -0.000006 1.560063
    37 -1.292522 -0.000001 0.000005 0.000003 0.000003 0.259169
    38 -3.772601 0.311782 -1.300296 -0.160117 0.071001 1.138462
    39 -1.408095 0.000002 -0.000006 -0.000002 -0.000003 1.377597
    40 -0.986792 -0.000002 -0.000001 0.000000 0.000004 0.512612
    41 -3.851023 0.476089 0.459802 0.014947 -0.075267 0.645165
    42 -2.007647 0.000002 -0.000002 -0.000001 0.000001 1.777937
    43 -1.270733 0.000002 -0.000002 -0.000004 -0.000003 0.494876
    44 -5.679935 0.078273 0.132370 1.619888 -1.570792 0.000000
    45 0.000006 3.838817 -0.000001 0.000000 0.000001 0.000001
    46 -4.253727 -19.516069 -6.526811 1.571368 0.000145 -1.570383
  time 26
    0 -4.265925 -19.410347 -6.499187 1.570796 0.000000 -0.000079
    1 -0.006660 0.337219 4.384488 0.000000 0.000000 0.000000
    2 -0.006660 0.293999 2.752374 0.000000 0.000000 0.000000
    3 -0.006660 1.042511 2.142976 0.000000 0.000000 0.000000
    4 15.132813 -20.000000 -12.078125 -1.919857 0.000000 -1.570796
    5 0.000000 0.000001 0.000002 0.739790 0.929949 0.957195
    6 11.703224 -0.000051 0.000023 -0.000002 0.000003 -0.940648
    7 11.501116 -0.000059 0.000032 -2.242358 -0.351027 0.512720
    8 0.949228 0.526683 -0.818566 1.218642 0.700708 -0.024979
    9 1.978558 -0.000009 0.000000 0.000001 -0.000004 0.258992
    10 1.087181 0.000005 -0.000004 -0.000003 0.000000 -0.318564
    11 3.863441 -0.167474 -1.277058 0.201230 -0.155208 1.099048
    12 1.666012 0.000002 0.000000 0.000003 -0.000002 1.555320
    13 1.292521 0.000007 0.000000 -0.000006 0.000007 0.270582
    14 3.927893 -0.566339 0.452260 0.056623 -0.078693 1.416162
    15 1.705974 -0.000004 -0.000001 0.000001 0.000001 1.471814
    16 1.292522 0.000000 -0.000003 0.000001 0.000002 0.873162
    17 3.772598 -0.311803 1.300303 -0.090729 -0.047626 1.187226
    18 1.408097 -0.000004 0.000001 -0.000004 -0.000002 2.038980
    19 0.986795 -0.000004 -0.000002 0.000003 -0.000001 0.219430
    20 3.851017 -0.476111 -0.459795 0.124882 -0.135855 1.384532
    21 2.007648 0.000002 -0.000003 0.000002 0.000000 1.517031
    22 1.270737 0.000001 -0.000002 -0.000001 0.000003 0.034542
    23 5.679941 -0.078302 -0.132353 1.619888 -1.570792 0.000000
    24 0.236202 -3.846334 -0.007086 0.040104 0.000001 -0.000003
    25 -13.281250 -2.773438 2.111328 1.570792 -0.002895 -4.709494
    26 0.000000 0.000000 0.000000 0.353893 0.359373 1.361331
    27 -11.703230 -0.000004 -0.000090 0.000006 0.000003 -1.506545
    28 -11.501110 -0.000001 -0.000004 -1.527214 -0.497213 0.671951
    29 -0.949223 -0.526691 0.818566 2.039111 0.416550 0.555245
    30 -1.978558 0.000003 -0.000002 -0.000002 -0.000001 0.608066
    31 -1.087188 0.000001 -0.000001 0.000001 0.000000 0.510659
    32 -3.863440 0.167448 1.277064 0.224972 0.188624 0.124259
    33 -1.666018 -0.000002 0.000002 -0.000003 0.000002 0.375064
    34 -1.292521 -0.000002 -0.000002 0.000001 -0.000003 0.566341
    35 -3.927895 0.566317 -0.452254 -0.108297 -0.034867 1.000385
    36 -1.705971 0.000000 0.000005 0.000001 -0.000006 1.560063
    37 -1.292522 -0.000001 0.000005 0.000003 0.000003 0.259169
    38 -3.772601 0.311782 -1.300296 -0.160117 0.071001 1.138462
    39 -1.408095 0.000002 -0.000006 -0.000002 -0.000003 1.377597
    40 -0.986792 -0.000002 -0.000001 0.000000 0.000004 0.512612
    41 -3.851023 0.476089 0.459802 0.014947 -0.075267 0.645165
    42 -2.007647 0.000002 -0.000002 -0.000001 0.000001 1.777937
    43 -1.270733 0.000002 -0.000002 -0.000004 -0.000003 0.494876
    44 -5.679935 0.078273 0.132370 1.619888 -1.570792 0.000000
    45 0.000006 3.838817 -0.000001 0.000000 0.000001 0.000001
    46 -4.265446 -19.406691 -6.499466 1.570796 0.000000 -1.570822
end
