
VertexLitGeneric
{

	$baseTexture			models/jessev92/kanelynch/characters/robber/breen_sheet_d
	$bumpmap				models/breen/breen_sheet_normal
	$lightwarptexture		models/jessev92/detail/w_gen

	$halflambert 			1
	$ambientocclusion		1
	
	$phong					1
	$phongexponenttexture	models/jessev92/detail/x_gen
	$phongboost				0.1
	$phongfresnelranges		"[ 0.04 0.4 1 ]"
	
}
