
//	Action Half-Life 2, Weapons, MP5k, 9x19mm Bullet
//	Texture @ AHL2 Team
//	Shaders @ Reverend V92
//	Update: 2017/04/05

VertexLitGeneric
{

	$basetexture models/jessev92/ahl2/ammo/9mm/shell_9mm_d
	$bumpmap models/jessev92/ahl2/ammo/9mm/shell_9mm_b
	$lightwarptexture dev/identitylightwarp

	$nocull 0
	$halflambert 1
	$ambientocclusion 1
	$alphatest 0

	$phong 1
	$phongexponent 5
	$phongboost 2
	$phongfresnelranges "[ 1 1 1 ]"
	
	$rimlight 1
	$rimlightexponent 4
	$rimlightboost 0.25

	$detail detail/metal_detail_01
	$detailscale 1
	$detailblendfactor 1
	$detailblendmode 0

}
