version 1
nodes
  0 "Gatling.Base"  -1
  1 "Gatling.Gun_Yaw"   0
  2 "Gatling.Gun_Pitch"   1
  3 "Gatling.Barrels"   2
  4 "Gatling.Lever"   2
  5 "Gatling.L_hand"   2
  6 "Gatling.R_hand"   2
  7 "SMDImport"  -1
end
skeleton
time 0
  0 0.000000 0.000000 0.000000 1.570796 -0.000000 1.570796
  1 0.000000 8.434931 -0.052025 0.000000 -0.000000 0.000000
  2 0.000000 -0.002207 -0.008672 0.000000 -0.000000 0.000000
  3 0.000000 1.110525 29.059151 0.000000 -0.000000 0.000000
  4 0.000000 0.178053 -27.700426 0.000000 -0.000000 0.000000
  5 0.000000 2.493217 -34.881577 0.000000 -0.000000 0.000000
  6 -8.203174 7.487929 -33.768341 0.000000 -0.000000 0.000000
  7 0.000000 0.000000 0.000000 0.000000 -0.000000 0.000000
time 1
  0 0.000000 0.000000 0.000000 1.570796 -0.000000 1.570796
  1 0.000000 8.434931 -0.052025 0.000000 -0.000000 0.000000
  2 0.000000 -0.002207 -0.008672 0.000000 -0.000000 0.000000
  3 0.000000 1.110525 29.059149 -0.000000 -0.000000 -0.020944
  4 0.000000 0.178053 -27.700424 0.209440 0.000000 0.000000
  5 0.000000 2.493217 -34.881577 0.000000 -0.000000 0.000000
  6 -8.203174 7.487929 -33.768341 0.000000 -0.000000 0.000000
  7 0.000000 0.000000 0.000000 0.000000 -0.000000 0.000000
time 2
  0 0.000000 0.000000 0.000000 1.570796 -0.000000 1.570796
  1 0.000000 8.434931 -0.052025 0.000000 -0.000000 0.000000
  2 0.000000 -0.002207 -0.008672 0.000000 -0.000000 0.000000
  3 0.000000 1.110525 29.059149 0.000000 0.000000 -0.041888
  4 0.000000 0.178053 -27.700428 0.418879 -0.000000 0.000000
  5 0.000000 2.493217 -34.881577 0.000000 -0.000000 0.000000
  6 -8.203174 7.487929 -33.768341 0.000000 -0.000000 0.000000
  7 0.000000 0.000000 0.000000 0.000000 -0.000000 0.000000
time 3
  0 0.000000 0.000000 0.000000 1.570796 -0.000000 1.570796
  1 0.000000 8.434931 -0.052025 0.000000 -0.000000 0.000000
  2 0.000000 -0.002207 -0.008672 0.000000 -0.000000 0.000000
  3 0.000000 1.110525 29.059147 0.000000 0.000000 -0.062832
  4 0.000000 0.178053 -27.700426 0.628319 -0.000000 0.000000
  5 0.000000 2.493217 -34.881577 0.000000 -0.000000 0.000000
  6 -8.203174 7.487929 -33.768341 0.000000 -0.000000 0.000000
  7 0.000000 0.000000 0.000000 0.000000 -0.000000 0.000000
time 4
  0 0.000000 0.000000 0.000000 1.570796 -0.000000 1.570796
  1 0.000000 8.434931 -0.052025 0.000000 -0.000000 0.000000
  2 0.000000 -0.002207 -0.008672 0.000000 -0.000000 0.000000
  3 0.000000 1.110525 29.059151 0.000000 0.000000 -0.083776
  4 0.000000 0.178053 -27.700428 0.837758 0.000000 0.000000
  5 0.000000 2.493217 -34.881577 0.000000 -0.000000 0.000000
  6 -8.203174 7.487929 -33.768341 0.000000 -0.000000 0.000000
  7 0.000000 0.000000 0.000000 0.000000 -0.000000 0.000000
time 5
  0 0.000000 0.000000 0.000000 1.570796 -0.000000 1.570796
  1 0.000000 8.434931 -0.052025 0.000000 -0.000000 0.000000
  2 0.000000 -0.002207 -0.008672 0.000000 -0.000000 0.000000
  3 0.000000 1.110525 29.059153 0.000000 0.000000 -0.104720
  4 0.000000 0.178053 -27.700426 1.047198 -0.000000 -0.000000
  5 0.000000 2.493217 -34.881577 0.000000 -0.000000 0.000000
  6 -8.203174 7.487929 -33.768341 0.000000 -0.000000 0.000000
  7 0.000000 0.000000 0.000000 0.000000 -0.000000 0.000000
time 6
  0 0.000000 0.000000 0.000000 1.570796 -0.000000 1.570796
  1 0.000000 8.434931 -0.052025 0.000000 -0.000000 0.000000
  2 0.000000 -0.002207 -0.008672 0.000000 -0.000000 0.000000
  3 0.000000 1.110525 29.059151 0.000000 0.000000 -0.125664
  4 0.000000 0.178053 -27.700428 1.256637 0.000000 0.000000
  5 0.000000 2.493217 -34.881577 0.000000 -0.000000 0.000000
  6 -8.203174 7.487929 -33.768341 0.000000 -0.000000 0.000000
  7 0.000000 0.000000 0.000000 0.000000 -0.000000 0.000000
time 7
  0 0.000000 0.000000 0.000000 1.570796 -0.000000 1.570796
  1 0.000000 8.434931 -0.052025 0.000000 -0.000000 0.000000
  2 0.000000 -0.002207 -0.008672 0.000000 -0.000000 0.000000
  3 0.000000 1.110525 29.059151 0.000000 0.000000 -0.146608
  4 0.000000 0.178053 -27.700426 1.466077 -0.000000 0.000000
  5 0.000000 2.493217 -34.881577 0.000000 -0.000000 0.000000
  6 -8.203174 7.487929 -33.768341 0.000000 -0.000000 0.000000
  7 0.000000 0.000000 0.000000 0.000000 -0.000000 0.000000
time 8
  0 0.000000 0.000000 0.000000 1.570796 -0.000000 1.570796
  1 0.000000 8.434931 -0.052025 0.000000 -0.000000 0.000000
  2 0.000000 -0.002207 -0.008672 0.000000 -0.000000 0.000000
  3 0.000000 1.110525 29.059158 0.000000 0.000000 -0.167552
  4 0.000000 0.178053 -27.700430 1.675516 -0.000000 0.000000
  5 0.000000 2.493217 -34.881577 0.000000 -0.000000 0.000000
  6 -8.203174 7.487929 -33.768341 0.000000 -0.000000 0.000000
  7 0.000000 0.000000 0.000000 0.000000 -0.000000 0.000000
time 9
  0 0.000000 0.000000 0.000000 1.570796 -0.000000 1.570796
  1 0.000000 8.434931 -0.052025 0.000000 -0.000000 0.000000
  2 0.000000 -0.002207 -0.008672 0.000000 -0.000000 0.000000
  3 0.000000 1.110525 29.059151 0.000000 0.000000 -0.188496
  4 0.000000 0.178053 -27.700426 1.884956 -0.000000 -0.000000
  5 0.000000 2.493217 -34.881577 0.000000 -0.000000 0.000000
  6 -8.203174 7.487929 -33.768341 0.000000 -0.000000 0.000000
  7 0.000000 0.000000 0.000000 0.000000 -0.000000 0.000000
time 10
  0 0.000000 0.000000 0.000000 1.570796 -0.000000 1.570796
  1 0.000000 8.434931 -0.052025 0.000000 -0.000000 0.000000
  2 0.000000 -0.002207 -0.008672 0.000000 -0.000000 0.000000
  3 0.000000 1.110525 29.059151 0.000000 0.000000 -0.209440
  4 0.000000 0.178053 -27.700424 2.094395 -0.000000 0.000000
  5 0.000000 2.493217 -34.881577 0.000000 -0.000000 0.000000
  6 -8.203174 7.487929 -33.768341 0.000000 -0.000000 0.000000
  7 0.000000 0.000000 0.000000 0.000000 -0.000000 0.000000
time 11
  0 0.000000 0.000000 0.000000 1.570796 -0.000000 1.570796
  1 0.000000 8.434931 -0.052025 0.000000 -0.000000 0.000000
  2 0.000000 -0.002207 -0.008672 0.000000 -0.000000 0.000000
  3 0.000000 1.110525 29.059153 0.000000 -0.000000 -0.230383
  4 0.000000 0.178053 -27.700426 2.303834 0.000000 -0.000000
  5 0.000000 2.493217 -34.881577 0.000000 -0.000000 0.000000
  6 -8.203174 7.487929 -33.768341 0.000000 -0.000000 0.000000
  7 0.000000 0.000000 0.000000 0.000000 -0.000000 0.000000
time 12
  0 0.000000 0.000000 0.000000 1.570796 -0.000000 1.570796
  1 0.000000 8.434931 -0.052025 0.000000 -0.000000 0.000000
  2 0.000000 -0.002207 -0.008672 0.000000 -0.000000 0.000000
  3 0.000000 1.110525 29.059153 0.000000 0.000000 -0.251327
  4 0.000000 0.178053 -27.700430 2.513274 -0.000000 0.000000
  5 0.000000 2.493217 -34.881577 0.000000 -0.000000 0.000000
  6 -8.203174 7.487929 -33.768341 0.000000 -0.000000 0.000000
  7 0.000000 0.000000 0.000000 0.000000 -0.000000 0.000000
time 13
  0 0.000000 0.000000 0.000000 1.570796 -0.000000 1.570796
  1 0.000000 8.434931 -0.052025 0.000000 -0.000000 0.000000
  2 0.000000 -0.002207 -0.008672 0.000000 -0.000000 0.000000
  3 0.000000 1.110525 29.059151 0.000000 0.000000 -0.272271
  4 0.000000 0.178053 -27.700426 2.722713 -0.000000 0.000000
  5 0.000000 2.493217 -34.881577 0.000000 -0.000000 0.000000
  6 -8.203174 7.487929 -33.768341 0.000000 -0.000000 0.000000
  7 0.000000 0.000000 0.000000 0.000000 -0.000000 0.000000
time 14
  0 0.000000 0.000000 0.000000 1.570796 -0.000000 1.570796
  1 0.000000 8.434931 -0.052025 0.000000 -0.000000 0.000000
  2 0.000000 -0.002207 -0.008672 0.000000 -0.000000 0.000000
  3 0.000000 1.110524 29.059147 0.000000 0.000000 -0.293215
  4 0.000000 0.178053 -27.700424 2.932153 -0.000000 -0.000000
  5 0.000000 2.493217 -34.881577 0.000000 -0.000000 0.000000
  6 -8.203174 7.487929 -33.768341 0.000000 -0.000000 0.000000
  7 0.000000 0.000000 0.000000 0.000000 -0.000000 0.000000
time 15
  0 0.000000 0.000000 0.000000 1.570796 -0.000000 1.570796
  1 0.000000 8.434931 -0.052025 0.000000 -0.000000 0.000000
  2 0.000000 -0.002207 -0.008672 0.000000 -0.000000 0.000000
  3 0.000000 1.110525 29.059149 0.000000 0.000000 -0.314159
  4 0.000000 0.178053 -27.700426 3.141593 -0.000000 0.000000
  5 0.000000 2.493217 -34.881577 0.000000 -0.000000 0.000000
  6 -8.203174 7.487929 -33.768341 0.000000 -0.000000 0.000000
  7 0.000000 0.000000 0.000000 0.000000 -0.000000 0.000000
time 16
  0 0.000000 0.000000 0.000000 1.570796 -0.000000 1.570796
  1 0.000000 8.434931 -0.052025 0.000000 -0.000000 0.000000
  2 0.000000 -0.002207 -0.008672 0.000000 -0.000000 0.000000
  3 0.000000 1.110525 29.059153 0.000000 -0.000000 -0.335103
  4 0.000000 0.178053 -27.700428 -2.932153 0.000000 -0.000000
  5 0.000000 2.493217 -34.881577 0.000000 -0.000000 0.000000
  6 -8.203174 7.487929 -33.768341 0.000000 -0.000000 0.000000
  7 0.000000 0.000000 0.000000 0.000000 -0.000000 0.000000
time 17
  0 0.000000 0.000000 0.000000 1.570796 -0.000000 1.570796
  1 0.000000 8.434931 -0.052025 0.000000 -0.000000 0.000000
  2 0.000000 -0.002207 -0.008672 0.000000 -0.000000 0.000000
  3 0.000000 1.110525 29.059151 0.000000 0.000000 -0.356047
  4 0.000000 0.178053 -27.700426 -2.722714 -0.000000 0.000000
  5 0.000000 2.493217 -34.881577 0.000000 -0.000000 0.000000
  6 -8.203174 7.487929 -33.768341 0.000000 -0.000000 0.000000
  7 0.000000 0.000000 0.000000 0.000000 -0.000000 0.000000
time 18
  0 0.000000 0.000000 0.000000 1.570796 -0.000000 1.570796
  1 0.000000 8.434931 -0.052025 0.000000 -0.000000 0.000000
  2 0.000000 -0.002207 -0.008672 0.000000 -0.000000 0.000000
  3 0.000000 1.110525 29.059151 0.000000 0.000000 -0.376991
  4 0.000000 0.178053 -27.700424 -2.513274 -0.000000 0.000000
  5 0.000000 2.493217 -34.881577 0.000000 -0.000000 0.000000
  6 -8.203174 7.487929 -33.768341 0.000000 -0.000000 0.000000
  7 0.000000 0.000000 0.000000 0.000000 -0.000000 0.000000
time 19
  0 0.000000 0.000000 0.000000 1.570796 -0.000000 1.570796
  1 0.000000 8.434931 -0.052025 0.000000 -0.000000 0.000000
  2 0.000000 -0.002207 -0.008672 0.000000 -0.000000 0.000000
  3 0.000000 1.110525 29.059151 0.000000 0.000000 -0.397935
  4 0.000000 0.178053 -27.700426 -2.303834 0.000000 0.000000
  5 0.000000 2.493217 -34.881577 0.000000 -0.000000 0.000000
  6 -8.203174 7.487929 -33.768341 0.000000 -0.000000 0.000000
  7 0.000000 0.000000 0.000000 0.000000 -0.000000 0.000000
time 20
  0 0.000000 0.000000 0.000000 1.570796 -0.000000 1.570796
  1 0.000000 8.434931 -0.052025 0.000000 -0.000000 0.000000
  2 0.000000 -0.002207 -0.008672 0.000000 -0.000000 0.000000
  3 0.000000 1.110525 29.059151 0.000000 0.000000 -0.418879
  4 0.000000 0.178053 -27.700426 -2.094395 -0.000000 0.000000
  5 0.000000 2.493217 -34.881577 0.000000 -0.000000 0.000000
  6 -8.203174 7.487929 -33.768341 0.000000 -0.000000 0.000000
  7 0.000000 0.000000 0.000000 0.000000 -0.000000 0.000000
time 21
  0 0.000000 0.000000 0.000000 1.570796 -0.000000 1.570796
  1 0.000000 8.434931 -0.052025 0.000000 -0.000000 0.000000
  2 0.000000 -0.002207 -0.008672 0.000000 -0.000000 0.000000
  3 0.000000 1.110525 29.059151 -0.000000 -0.000000 -0.439823
  4 0.000000 0.178053 -27.700424 -1.884955 0.000000 0.000000
  5 0.000000 2.493217 -34.881577 0.000000 -0.000000 0.000000
  6 -8.203174 7.487929 -33.768341 0.000000 -0.000000 0.000000
  7 0.000000 0.000000 0.000000 0.000000 -0.000000 0.000000
time 22
  0 0.000000 0.000000 0.000000 1.570796 -0.000000 1.570796
  1 0.000000 8.434931 -0.052025 0.000000 -0.000000 0.000000
  2 0.000000 -0.002207 -0.008672 0.000000 -0.000000 0.000000
  3 0.000000 1.110525 29.059151 0.000000 -0.000000 -0.460767
  4 0.000000 0.178053 -27.700424 -1.675516 0.000000 0.000000
  5 0.000000 2.493217 -34.881577 0.000000 -0.000000 0.000000
  6 -8.203174 7.487929 -33.768341 0.000000 -0.000000 0.000000
  7 0.000000 0.000000 0.000000 0.000000 -0.000000 0.000000
time 23
  0 0.000000 0.000000 0.000000 1.570796 -0.000000 1.570796
  1 0.000000 8.434931 -0.052025 0.000000 -0.000000 0.000000
  2 0.000000 -0.002207 -0.008672 0.000000 -0.000000 0.000000
  3 0.000000 1.110525 29.059149 0.000000 -0.000000 -0.481711
  4 0.000000 0.178053 -27.700426 -1.466077 -0.000000 0.000000
  5 0.000000 2.493217 -34.881577 0.000000 -0.000000 0.000000
  6 -8.203174 7.487929 -33.768341 0.000000 -0.000000 0.000000
  7 0.000000 0.000000 0.000000 0.000000 -0.000000 0.000000
time 24
  0 0.000000 0.000000 0.000000 1.570796 -0.000000 1.570796
  1 0.000000 8.434931 -0.052025 0.000000 -0.000000 0.000000
  2 0.000000 -0.002207 -0.008672 0.000000 -0.000000 0.000000
  3 0.000000 1.110525 29.059153 0.000000 0.000000 -0.502655
  4 0.000000 0.178053 -27.700428 -1.256637 0.000000 0.000000
  5 0.000000 2.493217 -34.881577 0.000000 -0.000000 0.000000
  6 -8.203174 7.487929 -33.768341 0.000000 -0.000000 0.000000
  7 0.000000 0.000000 0.000000 0.000000 -0.000000 0.000000
time 25
  0 0.000000 0.000000 0.000000 1.570796 -0.000000 1.570796
  1 0.000000 8.434931 -0.052025 0.000000 -0.000000 0.000000
  2 0.000000 -0.002207 -0.008672 0.000000 -0.000000 0.000000
  3 0.000000 1.110525 29.059153 0.000000 0.000000 -0.523599
  4 0.000000 0.178053 -27.700428 -1.047198 -0.000000 -0.000000
  5 0.000000 2.493217 -34.881577 0.000000 -0.000000 0.000000
  6 -8.203174 7.487929 -33.768341 0.000000 -0.000000 0.000000
  7 0.000000 0.000000 0.000000 0.000000 -0.000000 0.000000
time 26
  0 0.000000 0.000000 0.000000 1.570796 -0.000000 1.570796
  1 0.000000 8.434931 -0.052025 0.000000 -0.000000 0.000000
  2 0.000000 -0.002207 -0.008672 0.000000 -0.000000 0.000000
  3 0.000000 1.110525 29.059153 0.000000 0.000000 -0.544543
  4 0.000000 0.178053 -27.700428 -0.837758 0.000000 0.000000
  5 0.000000 2.493217 -34.881577 0.000000 -0.000000 0.000000
  6 -8.203174 7.487929 -33.768341 0.000000 -0.000000 0.000000
  7 0.000000 0.000000 0.000000 0.000000 -0.000000 0.000000
time 27
  0 0.000000 0.000000 0.000000 1.570796 -0.000000 1.570796
  1 0.000000 8.434931 -0.052025 0.000000 -0.000000 0.000000
  2 0.000000 -0.002207 -0.008672 0.000000 -0.000000 0.000000
  3 0.000000 1.110525 29.059149 0.000000 0.000000 -0.565487
  4 0.000000 0.178053 -27.700426 -0.628318 0.000000 -0.000000
  5 0.000000 2.493217 -34.881577 0.000000 -0.000000 0.000000
  6 -8.203174 7.487929 -33.768341 0.000000 -0.000000 0.000000
  7 0.000000 0.000000 0.000000 0.000000 -0.000000 0.000000
time 28
  0 0.000000 0.000000 0.000000 1.570796 -0.000000 1.570796
  1 0.000000 8.434931 -0.052025 0.000000 -0.000000 0.000000
  2 0.000000 -0.002207 -0.008672 0.000000 -0.000000 0.000000
  3 0.000000 1.110525 29.059149 0.000000 -0.000000 -0.586431
  4 0.000000 0.178053 -27.700424 -0.418879 0.000000 0.000000
  5 0.000000 2.493217 -34.881577 0.000000 -0.000000 0.000000
  6 -8.203174 7.487929 -33.768341 0.000000 -0.000000 0.000000
  7 0.000000 0.000000 0.000000 0.000000 -0.000000 0.000000
time 29
  0 0.000000 0.000000 0.000000 1.570796 -0.000000 1.570796
  1 0.000000 8.434931 -0.052025 0.000000 -0.000000 0.000000
  2 0.000000 -0.002207 -0.008672 0.000000 -0.000000 0.000000
  3 0.000000 1.110525 29.059149 0.000000 0.000000 -0.607375
  4 0.000000 0.178053 -27.700424 -0.209440 -0.000000 -0.000000
  5 0.000000 2.493217 -34.881577 0.000000 -0.000000 0.000000
  6 -8.203174 7.487929 -33.768341 0.000000 -0.000000 0.000000
  7 0.000000 0.000000 0.000000 0.000000 -0.000000 0.000000
time 30
  0 0.000000 0.000000 0.000000 1.570796 -0.000000 1.570796
  1 0.000000 8.434931 -0.052025 0.000000 -0.000000 0.000000
  2 0.000000 -0.002207 -0.008672 0.000000 -0.000000 0.000000
  3 0.000000 1.110525 29.059151 0.000000 0.000000 -0.628319
  4 0.000000 0.178053 -27.700426 -0.000000 -0.000000 -0.000000
  5 0.000000 2.493217 -34.881577 0.000000 -0.000000 0.000000
  6 -8.203174 7.487929 -33.768341 0.000000 -0.000000 0.000000
  7 0.000000 0.000000 0.000000 0.000000 -0.000000 0.000000
end
