"VertexLitGeneric"
{
	"$basetexture"			"models/ins1ons\tokarev\Diffuse"
	"$bumpmap"     			"models/ins1ons\tokarev\Normal"
	"$nocull" "1"
	"$normalmapalphaenvmapmask" "1"
	"$phong" 		"1"
	"$phongexponent" 	"40"
	"$phongboost" "0.75"
	"$phongfresnelranges" "[1 3 6]"
}

