
VertexLitGeneric
{

	$baseTexture				models/jessev92/hl2/weapons/m3s90/m3_d
	$bumpmap					models/jessev92/hl2/weapons/m3s90/m3_b

	$halflambert				1
	$ambientocclusion			1

	$detail						detail/metal_detail_01
	$detailscale				8
	$detailblendfactor			0.3
	$detailblendmode			0
	
}

