// Created by Crowbar 0.42.0.0
version 1
nodes
  0 "ValveBiped.Bip01_R_Hand" -1
  1 "ValveBiped.Weapon_bone" 0
  2 "ValveBiped.Weapon_bone_extra1" 1
end
skeleton
  time 0
    0 -0.216187 -5.773438 -3.330078 -2.988847 0.080661 -4.700880
    1 5.000000 -1.500000 -5.000000 0.000000 0.000000 0.000000
    2 5.837190 0.597221 1.664132 -1.475850 0.144314 1.667590
end
