// Created by Crowbar 0.42.0.0
version 1
nodes
  0 "Gatling.Base" -1
  1 "Gatling.Gun_Yaw" 0
  2 "Gatling.Gun_Pitch" 1
  3 "Gatling.Barrels" 2
  4 "Gatling.Lever" 2
  5 "Gatling.L_hand" 2
  6 "Gatling.R_hand" 2
end
skeleton
  time 0
    0 0.000000 0.000000 0.000000 1.570792 0.000003 -0.000003
    1 0.000000 8.434931 -0.052025 0.000000 0.000000 0.000000
    2 0.000000 -0.002207 -0.008672 0.000000 0.000000 0.000000
    3 0.000000 1.110526 29.059147 0.000000 0.000000 0.000000
    4 0.000000 0.178053 -27.700426 0.000000 0.000000 0.000000
    5 0.000000 2.493216 -34.881577 0.000000 0.000000 0.000000
    6 -8.203174 7.487929 -33.768333 0.000000 0.000000 0.000000
  time 1
    0 0.000000 0.000000 0.000000 1.570792 0.000003 -0.000003
    1 0.000000 8.434931 -0.052025 0.000000 0.000000 0.000000
    2 0.000000 -0.002207 -0.008672 0.000000 0.000000 0.000000
    3 0.000000 1.110526 29.059147 0.000000 0.000000 0.000000
    4 0.000000 0.178053 -27.700426 0.000000 0.000000 0.000000
    5 0.000000 2.493216 -34.881577 0.000000 0.000000 0.000000
    6 -8.203174 7.487929 -33.768333 0.000000 0.000000 0.000000
end
