// Created by Crowbar 0.42.0.0

$ModelName "weapons\w_sawed_shotgun.mdl"

$BodyGroup "studio"
{
	studio "w_sawed_shotgun_reference.smd"
}


$SurfaceProp "weapon"

$Contents "solid"

$MaxEyeDeflection 90

$CDMaterials "models\weapons\"

$Attachment "muzzle" "ValveBiped.Weapon_bone" 12 0 0 rotate 0 0 0

$CBox 0 0 0 0 0 0

$BBox -12.283 -0.831 -4.334 5.773 2.539 1.823

$DefineBone "ValveBiped.Bip01_R_Hand" "" 1.783728 -5.776746 -3.330455 4.618899 90.659055 -171.248212 0 0 0 0 0 0
$DefineBone "ValveBiped.Weapon_bone" "ValveBiped.Bip01_R_Hand" 4.999983 -1.500034 -5.000009 0 -0.001318 0.000001 0 0 0 0 0 0


$Sequence "idle" {
	"w_sawed_shotgun_anims\idle.smd"
	activity "ACT_VM_IDLE" 1
	fadein 0.2
	fadeout 0.2
	fps 30
	loop
}

$CollisionModel "w_sawed_shotgun_physics.smd"
{
	$mass 2
	$inertia 1
	$damping 0
	$rotdamping 0
	$rootbone " "
	$concave

}
