// Created by Crowbar 0.42.0.0
version 1
nodes
  0 "ValveBiped.Bip01_R_Hand" -1
  1 "ValveBiped.Weapon_bone" 0
end
skeleton
  time 0
    0 1.783728 -5.776746 -3.330455 -2.988845 0.080615 1.582299
    1 4.999983 -1.500034 -5.000009 0.000000 0.000000 -0.000023
end
triangles
  phy
    0 -0.265764 12.033233 -0.773438 0.998915 0.046569 -0.000024 0 0
    0 1.474258 12.033245 -0.773434 0.203551 0.009487 0.979018 0 0
    0 -0.265699 2.123110 -2.713748 0.063151 0.097193 -0.993260 0 0
  phy
    0 -0.265699 2.123110 -2.713748 0.063151 0.097193 -0.993260 0 0
    0 1.474258 12.033245 -0.773434 0.203551 0.009487 0.979018 0 0
    0 1.474321 2.123093 -2.713749 -0.047983 -0.352054 0.934749 0 0
  phy
    0 -0.265764 12.033233 -0.773438 0.998915 0.046569 -0.000024 0 0
    0 -0.265699 2.123110 -2.713748 0.063151 0.097193 -0.993260 0 0
    0 -0.265767 11.961948 0.755645 0.017256 -0.999851 -0.000002 0 0
  phy
    0 -0.265767 11.961948 0.755645 0.017256 -0.999851 -0.000002 0 0
    0 -0.265699 2.123110 -2.713748 0.063151 0.097193 -0.993260 0 0
    0 -0.265707 2.066184 0.584856 0.391072 -0.920360 0.000000 0 0
  phy
    0 -0.265764 12.033233 -0.773438 0.998915 0.046569 -0.000024 0 0
    0 1.474254 11.961960 0.755649 0.203551 0.009487 0.979018 0 0
    0 1.474258 12.033245 -0.773434 0.203551 0.009487 0.979018 0 0
  phy
    0 1.474254 11.961960 0.755649 0.203551 0.009487 0.979018 0 0
    0 -0.265764 12.033233 -0.773438 0.998915 0.046569 -0.000024 0 0
    0 -0.265767 11.961948 0.755645 0.017256 -0.999851 -0.000002 0 0
  phy
    0 1.172040 -2.716705 -3.398497 0.793939 0.607997 0.000003 0 0
    0 0.036645 -2.716712 -3.398498 0.793940 0.607996 0.000002 0 0
    0 1.474321 2.123093 -2.713749 -0.047983 -0.352054 0.934749 0 0
  phy
    0 1.474321 2.123093 -2.713749 -0.047983 -0.352054 0.934749 0 0
    0 0.036645 -2.716712 -3.398498 0.793940 0.607996 0.000002 0 0
    0 -0.265699 2.123110 -2.713748 0.063151 0.097193 -0.993260 0 0
  phy
    0 -0.265699 2.123110 -2.713748 0.063151 0.097193 -0.993260 0 0
    0 0.036645 -2.716712 -3.398498 0.793940 0.607996 0.000002 0 0
    0 0.036648 -3.844000 -1.926449 0.391072 -0.920360 0.000000 0 0
  phy
    0 1.172040 -2.716705 -3.398497 0.793939 0.607997 0.000003 0 0
    0 0.036648 -3.844000 -1.926449 0.391072 -0.920360 0.000000 0 0
    0 0.036645 -2.716712 -3.398498 0.793940 0.607996 0.000002 0 0
  phy
    0 -0.265707 2.066184 0.584856 0.391072 -0.920360 0.000000 0 0
    0 -0.265699 2.123110 -2.713748 0.063151 0.097193 -0.993260 0 0
    0 0.036648 -3.844000 -1.926449 0.391072 -0.920360 0.000000 0 0
  phy
    0 1.172044 -3.843994 -1.926447 0.391071 -0.920360 0.000001 0 0
    0 1.172040 -2.716705 -3.398497 0.793939 0.607997 0.000003 0 0
    0 1.474321 2.123093 -2.713749 -0.047983 -0.352054 0.934749 0 0
  phy
    0 1.474321 2.123093 -2.713749 -0.047983 -0.352054 0.934749 0 0
    0 1.474315 2.066195 0.584860 0.203551 0.009487 0.979018 0 0
    0 1.172044 -3.843994 -1.926447 0.391071 -0.920360 0.000001 0 0
  phy
    0 1.172044 -3.843994 -1.926447 0.391071 -0.920360 0.000001 0 0
    0 0.036648 -3.844000 -1.926449 0.391072 -0.920360 0.000000 0 0
    0 1.172040 -2.716705 -3.398497 0.793939 0.607997 0.000003 0 0
  phy
    0 1.474315 2.066195 0.584860 0.203551 0.009487 0.979018 0 0
    0 0.036648 -3.844000 -1.926449 0.391072 -0.920360 0.000000 0 0
    0 1.172044 -3.843994 -1.926447 0.391071 -0.920360 0.000001 0 0
  phy
    0 1.474321 2.123093 -2.713749 -0.047983 -0.352054 0.934749 0 0
    0 1.474258 12.033245 -0.773434 0.203551 0.009487 0.979018 0 0
    0 1.474315 2.066195 0.584860 0.203551 0.009487 0.979018 0 0
  phy
    0 1.474315 2.066195 0.584860 0.203551 0.009487 0.979018 0 0
    0 -0.265767 11.961948 0.755645 0.017256 -0.999851 -0.000002 0 0
    0 -0.265707 2.066184 0.584856 0.391072 -0.920360 0.000000 0 0
  phy
    0 1.474315 2.066195 0.584860 0.203551 0.009487 0.979018 0 0
    0 1.474254 11.961960 0.755649 0.203551 0.009487 0.979018 0 0
    0 -0.265767 11.961948 0.755645 0.017256 -0.999851 -0.000002 0 0
  phy
    0 -0.265707 2.066184 0.584856 0.391072 -0.920360 0.000000 0 0
    0 0.036648 -3.844000 -1.926449 0.391072 -0.920360 0.000000 0 0
    0 1.474315 2.066195 0.584860 0.203551 0.009487 0.979018 0 0
  phy
    0 1.474315 2.066195 0.584860 0.203551 0.009487 0.979018 0 0
    0 1.474258 12.033245 -0.773434 0.203551 0.009487 0.979018 0 0
    0 1.474254 11.961960 0.755649 0.203551 0.009487 0.979018 0 0
end
