// Created by Crowbar 0.42.0.0
version 1
nodes
  0 "ValveBiped" -1
  1 "ValveBiped.Bip01_R_Hand" 0
  2 "ValveBiped.Weapon_bone" 1
end
skeleton
  time 0
    0 0.000000 0.000000 0.000000 1.570784 0.000010 -0.000010
    1 1.783728 -3.330455 5.776746 0.010857 1.489367 -1.712226
    2 4.999981 -1.500033 -5.000008 0.000000 0.000000 0.000000
  time 1
    0 0.000000 0.000000 0.000000 1.570784 0.000010 -0.000010
    1 1.783728 -3.330455 5.776746 0.010857 1.489367 -1.712226
    2 4.999981 -1.500033 -5.000008 0.000000 0.000000 0.000000
end
