// Created by Crowbar 0.29.0.0
version 1
nodes
  0 "L_Armdummy" -1
  1 "L_Upperarm" 0
  2 "L_Forearm" 1
  3 "L_Wrist" 2
  4 "L_Thumb1" 3
  5 "L_Thumb2" 4
  6 "L_Thumb3" 5
  7 "L_Index1" 3
  8 "L_Index2" 7
  9 "L_Index3" 8
  10 "L_Mid1" 3
  11 "L_Mid2" 10
  12 "L_Mid3" 11
  13 "L_Ring1" 3
  14 "L_Ring2" 13
  15 "L_Ring3" 14
  16 "L_Pinky1" 3
  17 "L_Pinky2" 16
  18 "L_Pinky3" 17
  19 "R_Armdummy" -1
  20 "R_Upperarm" 19
  21 "R_Forearm" 20
  22 "R_Wrist" 21
  23 "R_Thumb1" 22
  24 "R_Thumb2" 23
  25 "R_Thumb3" 24
  26 "R_Index1" 22
  27 "R_Index2" 26
  28 "R_Index3" 27
  29 "R_Mid1" 22
  30 "R_Mid2" 29
  31 "R_Mid3" 30
  32 "R_Ring1" 22
  33 "R_Ring2" 32
  34 "R_Ring3" 33
  35 "R_Pinky1" 22
  36 "R_Pinky2" 35
  37 "R_Pinky3" 36
  38 "R_Body" -1
  39 "R_Slide" -1
  40 "R_Triggy" -1
  41 "R_Hammerli" -1
  42 "R_DeathPellet" -1
  43 "R_Mag" -1
  44 "L_Slide" -1
  45 "L_Triggy" -1
  46 "L_Hammerli" -1
  47 "L_DeathPellet" -1
  48 "L_Body" -1
end
skeleton
  time 0
    0 4.649777 11.103477 -4.961452 -1.158242 0.019516 -1.575090
    1 -0.023288 0.041601 0.000000 -0.004467 -0.016294 0.252188
    2 11.072351 -0.043445 0.000000 0.000000 0.000000 -0.631440
    3 8.108974 0.000000 0.000000 -0.165418 0.007773 0.378112
    4 0.758957 -0.993292 -0.533611 0.779414 0.365978 -0.117263
    5 1.920300 0.000000 0.000000 -0.147591 0.033296 0.418052
    6 0.858252 0.000000 0.000000 0.023447 0.192417 0.210828
    7 2.931401 -0.842324 0.160553 -0.119318 0.031589 -0.174191
    8 1.836086 0.000000 0.000000 -0.095082 0.908471 0.009748
    9 0.853994 0.000000 0.000000 0.208231 1.068511 0.309615
    10 2.964058 -0.072899 0.178523 0.006507 0.194685 -0.023869
    11 1.814737 0.000000 0.000000 -2.503026 1.428854 -2.547720
    12 0.982325 0.000000 0.000000 0.269311 1.050431 0.264127
    13 2.910365 0.632510 0.212797 0.017766 0.338472 0.002408
    14 1.751859 0.000000 0.000000 -2.835750 1.276527 -2.931322
    15 0.853993 0.000000 0.000000 0.099540 0.764102 0.055830
    16 2.899449 1.342927 0.078012 -0.037959 0.489350 -0.021864
    17 1.152892 0.000000 0.000000 -0.191791 1.509570 -0.027840
    18 0.748463 0.000000 0.000000 0.280999 0.918136 0.080345
    19 -5.011406 11.110565 -4.961452 -3.141592 1.218684 -3.141700
    20 -0.023288 0.041602 0.000000 -0.001829 -0.006650 -1.297343
    21 11.072355 -0.043444 0.000000 0.000000 0.000000 -0.625536
    22 8.108977 0.000000 0.000000 -3.036623 0.008495 0.336929
    23 0.788882 0.969696 -0.533610 2.431000 0.411480 0.206769
    24 1.920301 0.000000 0.000000 0.227989 0.019477 0.664130
    25 0.858252 0.000000 0.000001 -0.220456 -0.129448 0.532259
    26 2.955714 0.752579 0.160553 3.137409 0.051394 0.196611
    27 1.836088 0.000001 0.000000 0.062217 -0.471971 -0.087210
    28 0.853995 0.000000 0.000000 -0.213937 -0.664232 0.172824
    29 2.964906 -0.017483 0.178523 2.997398 0.320567 0.011815
    30 1.814736 0.000000 0.000000 2.881080 -1.312581 -2.784180
    31 0.982325 0.000000 0.000000 -0.427645 -1.005101 0.261684
    32 2.889732 -0.720928 0.212797 3.132472 0.326541 -0.028218
    33 1.751861 0.000001 0.000000 -3.068504 -1.347266 2.966349
    34 0.853992 -0.000001 0.000000 -0.014402 -0.752369 -0.004453
    35 2.857167 -1.430682 0.078013 -3.102219 0.504132 0.009133
    36 1.152892 0.000000 0.000000 -0.099357 -1.308610 0.028401
    37 0.748464 0.000001 -0.000001 -0.026774 -1.375286 0.016573
    38 4.076793 -10.337969 -4.803430 1.570796 -0.200491 -0.000073
    39 3.685405 -13.347176 -2.622068 1.570796 -0.200491 -0.000073
    40 3.796860 -12.170870 -3.158112 1.849132 -0.200491 -0.000073
    41 3.781182 -9.906380 -3.106370 0.451335 -0.200491 -0.000008
    42 3.727382 -10.892742 -2.808435 1.570796 -0.200491 -0.000008
    43 4.140381 -10.451267 -4.845709 1.570796 -0.200491 -0.000073
    44 -3.869513 -13.343506 -2.643130 1.570796 0.200486 -0.000118
    45 -3.980721 -12.171999 -3.179156 1.570796 0.200486 -0.000118
    46 -3.965148 -9.905101 -3.127415 0.472528 0.200486 -0.000118
    47 -3.905664 -10.895364 -2.829480 1.570796 0.200486 -0.000118
    48 -4.357058 -10.330924 -4.803430 1.570796 0.200486 -0.000118
  time 1
    0 4.649777 11.103477 -4.961452 -1.158242 0.019516 -1.575090
    1 -0.023288 0.041601 0.000000 -0.004467 -0.016294 0.252188
    2 11.072351 -0.043445 0.000000 0.000000 0.000000 -0.631440
    3 8.108974 0.000000 0.000000 -0.165418 0.007773 0.378112
    4 0.758957 -0.993292 -0.533611 0.779414 0.365978 -0.117263
    5 1.920300 0.000000 0.000000 -0.147591 0.033296 0.418052
    6 0.858252 0.000000 0.000000 0.023447 0.192417 0.210828
    7 2.931401 -0.842324 0.160553 -0.119318 0.031589 -0.174191
    8 1.836086 0.000000 0.000000 -0.095573 0.912590 0.009448
    9 0.853994 0.000000 0.000000 0.221528 1.079968 0.322007
    10 2.964058 -0.072899 0.178523 0.006507 0.194685 -0.023869
    11 1.814737 0.000000 0.000000 -2.503026 1.428854 -2.547720
    12 0.982325 0.000000 0.000000 0.269311 1.050431 0.264127
    13 2.910365 0.632510 0.212797 0.017766 0.338472 0.002408
    14 1.751859 0.000000 0.000000 -2.835750 1.276527 -2.931322
    15 0.853993 0.000000 0.000000 0.099540 0.764102 0.055830
    16 2.899449 1.342927 0.078012 -0.037959 0.489350 -0.021864
    17 1.152892 0.000000 0.000000 -0.191791 1.509570 -0.027840
    18 0.748463 0.000000 0.000000 0.280999 0.918136 0.080345
    19 -5.011406 11.110565 -4.961452 -3.141592 1.218684 -3.141700
    20 -0.023288 0.041602 0.000000 -0.001829 -0.006650 -1.297343
    21 11.072355 -0.043444 0.000000 0.000000 0.000000 -0.625536
    22 8.108977 0.000000 0.000000 -3.036623 0.008495 0.336929
    23 0.788882 0.969696 -0.533610 2.431000 0.411480 0.206769
    24 1.920301 0.000000 0.000000 0.227989 0.019477 0.664130
    25 0.858252 0.000000 0.000001 -0.220456 -0.129448 0.532259
    26 2.955714 0.752579 0.160553 3.137409 0.051394 0.196611
    27 1.836088 0.000001 0.000000 0.062217 -0.471971 -0.087210
    28 0.853995 0.000000 0.000000 -0.213937 -0.664232 0.172824
    29 2.964906 -0.017483 0.178523 2.997398 0.320567 0.011815
    30 1.814736 0.000000 0.000000 2.881080 -1.312581 -2.784180
    31 0.982325 0.000000 0.000000 -0.427645 -1.005101 0.261684
    32 2.889732 -0.720928 0.212797 3.132472 0.326541 -0.028218
    33 1.751861 0.000001 0.000000 -3.068504 -1.347266 2.966349
    34 0.853992 -0.000001 0.000000 -0.014402 -0.752369 -0.004453
    35 2.857167 -1.430682 0.078013 -3.102219 0.504132 0.009133
    36 1.152892 0.000000 0.000000 -0.099357 -1.308610 0.028401
    37 0.748464 0.000001 -0.000001 -0.026774 -1.375286 0.016573
    38 4.076793 -10.337969 -4.803430 1.570796 -0.200491 -0.000073
    39 3.685405 -13.347176 -2.622068 1.570796 -0.200491 -0.000073
    40 3.796860 -12.170870 -3.158112 1.849132 -0.200491 -0.000073
    41 3.781182 -9.906380 -3.106370 1.565622 -0.200491 -0.000008
    42 3.727382 -10.892742 -2.808435 1.570796 -0.200491 -0.000008
    43 4.140381 -10.451267 -4.845709 1.570796 -0.200491 -0.000073
    44 -3.869513 -13.343506 -2.643130 1.570796 0.200486 -0.000118
    45 -3.980721 -12.171999 -3.179156 1.570796 0.200486 -0.000118
    46 -3.965148 -9.905101 -3.127415 0.472528 0.200486 -0.000118
    47 -3.905664 -10.895364 -2.829480 1.570796 0.200486 -0.000118
    48 -4.357058 -10.330924 -4.803430 1.570796 0.200486 -0.000118
  time 2
    0 4.649777 11.103477 -4.961452 -1.158242 0.019516 -1.575090
    1 -0.023288 0.041601 0.000000 -0.007056 -0.022996 0.265055
    2 11.072351 -0.043445 0.000000 0.000000 0.000000 -0.702008
    3 8.108974 0.000000 0.000000 -0.161331 0.055050 0.528000
    4 0.758957 -0.993292 -0.533611 0.779414 0.365978 -0.117263
    5 1.920300 0.000000 0.000000 -0.147591 0.033296 0.418052
    6 0.858252 0.000000 0.000000 0.023447 0.192417 0.210828
    7 2.931401 -0.842324 0.160553 -0.119318 0.031589 -0.174191
    8 1.836086 0.000000 0.000000 -0.096197 0.917264 0.009125
    9 0.853994 0.000000 0.000000 0.237067 1.092688 0.336557
    10 2.964058 -0.072899 0.178523 0.006507 0.194685 -0.023869
    11 1.814737 0.000000 0.000000 -2.503026 1.428854 -2.547720
    12 0.982325 0.000000 0.000000 0.269311 1.050431 0.264127
    13 2.910365 0.632510 0.212797 0.017766 0.338472 0.002408
    14 1.751859 0.000000 0.000000 -2.835750 1.276527 -2.931322
    15 0.853993 0.000000 0.000000 0.099540 0.764102 0.055830
    16 2.899449 1.342927 0.078012 -0.037959 0.489350 -0.021864
    17 1.152892 0.000000 0.000000 -0.191791 1.509570 -0.027840
    18 0.748463 0.000000 0.000000 0.280999 0.918136 0.080345
    19 -5.011406 11.110565 -4.961452 -3.141592 1.218684 -3.141700
    20 -0.023288 0.041602 0.000000 -0.001829 -0.006650 -1.297343
    21 11.072355 -0.043444 0.000000 0.000000 0.000000 -0.625536
    22 8.108977 0.000000 0.000000 -3.036623 0.008495 0.336929
    23 0.788882 0.969696 -0.533610 2.431000 0.411480 0.206769
    24 1.920301 0.000000 0.000000 0.227989 0.019477 0.664130
    25 0.858252 0.000000 0.000001 -0.220456 -0.129448 0.532259
    26 2.955714 0.752579 0.160553 3.137409 0.051394 0.196611
    27 1.836088 0.000001 0.000000 0.062217 -0.471971 -0.087210
    28 0.853995 0.000000 0.000000 -0.213937 -0.664232 0.172824
    29 2.964906 -0.017483 0.178523 2.997398 0.320567 0.011815
    30 1.814736 0.000000 0.000000 2.881080 -1.312581 -2.784180
    31 0.982325 0.000000 0.000000 -0.427645 -1.005101 0.261684
    32 2.889732 -0.720928 0.212797 3.132472 0.326541 -0.028218
    33 1.751861 0.000001 0.000000 -3.068504 -1.347266 2.966349
    34 0.853992 -0.000001 0.000000 -0.014402 -0.752369 -0.004453
    35 2.857167 -1.430682 0.078013 -3.102219 0.504132 0.009133
    36 1.152892 0.000000 0.000000 -0.099357 -1.308610 0.028401
    37 0.748464 0.000001 -0.000001 -0.026774 -1.375286 0.016573
    38 4.076793 -10.123118 -4.803430 1.673236 -0.199492 -0.020479
    39 3.685405 -11.870568 -2.778323 1.673236 -0.199492 -0.020479
    40 3.796860 -12.108368 -3.345618 1.951606 -0.199492 -0.020479
    41 3.781182 -9.859504 -3.075119 1.648594 -0.199492 -0.020413
    42 3.727382 -10.865398 -2.870937 1.528902 -0.199492 -0.020413
    43 4.140381 -10.228604 -4.845709 1.673236 -0.199492 -0.020479
    44 -3.869513 -13.343506 -2.643130 1.570796 0.200486 -0.000043
    45 -3.980721 -12.171999 -3.179156 1.570796 0.200486 -0.000043
    46 -3.965148 -9.905101 -3.127415 0.472528 0.200486 -0.000043
    47 -3.905664 -10.895364 -2.829480 1.570796 0.200486 -0.000043
    48 -4.357058 -10.330924 -4.803430 1.570796 0.200486 -0.000043
  time 3
    0 4.649777 11.103477 -4.961452 -1.158242 0.019516 -1.575090
    1 -0.023288 0.041601 0.000000 -0.004791 -0.012636 0.356733
    2 11.072351 -0.043445 0.000000 0.000000 0.000000 -0.865605
    3 8.108974 0.000000 0.000000 -0.169889 -0.040408 0.404976
    4 0.758957 -0.993292 -0.533611 0.779414 0.365978 -0.117263
    5 1.920300 0.000000 0.000000 -0.147591 0.033296 0.418052
    6 0.858252 0.000000 0.000000 0.023447 0.192417 0.210828
    7 2.931401 -0.842324 0.160553 -0.119318 0.031589 -0.174191
    8 1.836086 0.000000 0.000000 -0.096856 0.922241 0.008693
    9 0.853994 0.000000 0.000000 0.254127 1.105814 0.352580
    10 2.964058 -0.072899 0.178523 0.006507 0.194685 -0.023869
    11 1.814737 0.000000 0.000000 -2.503026 1.428854 -2.547720
    12 0.982325 0.000000 0.000000 0.269311 1.050431 0.264127
    13 2.910365 0.632510 0.212797 0.017766 0.338472 0.002408
    14 1.751859 0.000000 0.000000 -2.835750 1.276527 -2.931322
    15 0.853993 0.000000 0.000000 0.099540 0.764102 0.055830
    16 2.899449 1.342927 0.078012 -0.037959 0.489350 -0.021864
    17 1.152892 0.000000 0.000000 -0.191791 1.509570 -0.027840
    18 0.748463 0.000000 0.000000 0.280999 0.918136 0.080345
    19 -5.011406 11.110565 -4.961452 -3.141592 1.218684 -3.141700
    20 -0.023288 0.041602 0.000000 -0.001873 -0.008208 -1.324762
    21 11.072355 -0.043444 0.000000 0.000000 0.000000 -0.549356
    22 8.108977 0.000000 0.000000 -3.036525 -0.000578 0.318186
    23 0.788882 0.969696 -0.533610 2.431000 0.411480 0.206769
    24 1.920301 0.000000 0.000000 0.227989 0.019477 0.664130
    25 0.858252 0.000000 0.000001 -0.220456 -0.129448 0.532259
    26 2.955714 0.752579 0.160553 3.137409 0.051394 0.196611
    27 1.836088 0.000001 0.000000 0.062217 -0.471971 -0.087210
    28 0.853995 0.000000 0.000000 -0.213937 -0.664232 0.172824
    29 2.964906 -0.017483 0.178523 2.997398 0.320567 0.011815
    30 1.814736 0.000000 0.000000 2.881080 -1.312581 -2.784180
    31 0.982325 0.000000 0.000000 -0.427645 -1.005101 0.261684
    32 2.889732 -0.720928 0.212797 3.132472 0.326541 -0.028218
    33 1.751861 0.000001 0.000000 -3.068504 -1.347266 2.966349
    34 0.853992 -0.000001 0.000000 -0.014402 -0.752369 -0.004453
    35 2.857167 -1.430682 0.078013 -3.102219 0.504132 0.009133
    36 1.152892 0.000000 0.000000 -0.099357 -1.308610 0.028401
    37 0.748464 0.000001 -0.000001 -0.026774 -1.375286 0.016573
    38 4.076793 -9.502006 -4.600299 1.456680 -0.193548 0.021847
    39 3.701030 -10.050200 -2.340809 1.456680 -0.193548 0.021847
    40 3.804673 -11.147401 -2.759662 1.734913 -0.193548 0.021847
    41 3.792901 -8.879005 -2.961834 0.278739 -0.193501 0.021912
    42 3.735194 -9.736457 -2.589678 1.240068 -0.193501 0.021978
    43 4.140381 -9.611398 -4.630859 1.456680 -0.193548 0.021847
    44 -3.869513 -13.632578 -2.924389 1.603172 0.200349 0.006104
    45 -3.980721 -12.441538 -3.421351 1.603172 0.200349 0.006104
    46 -3.965148 -10.162921 -3.295389 0.504905 0.200349 0.006104
    47 -3.905664 -11.160997 -3.028705 1.603154 0.200349 0.006104
    48 -4.357058 -10.549681 -4.990936 1.603172 0.200349 0.006104
  time 4
    0 4.649777 11.103477 -4.961452 -1.158242 0.019516 -1.575090
    1 -0.023288 0.041601 0.000000 -0.001914 -0.004581 0.407621
    2 11.072351 -0.043445 0.000000 0.000000 0.000000 -0.942311
    3 8.108974 0.000000 0.000000 -0.145045 -0.136516 0.224502
    4 0.758957 -0.993292 -0.533611 0.779414 0.365978 -0.117263
    5 1.920300 0.000000 0.000000 -0.147591 0.033296 0.418052
    6 0.858252 0.000000 0.000000 0.023447 0.192417 0.210828
    7 2.931401 -0.842324 0.160553 -0.119318 0.031589 -0.174191
    8 1.836086 0.000000 0.000000 -0.097503 0.927194 0.008286
    9 0.853994 0.000000 0.000000 0.271796 1.118581 0.369215
    10 2.964058 -0.072899 0.178523 0.006507 0.194685 -0.023869
    11 1.814737 0.000000 0.000000 -2.503026 1.428854 -2.547720
    12 0.982325 0.000000 0.000000 0.269311 1.050431 0.264127
    13 2.910365 0.632510 0.212797 0.017766 0.338472 0.002408
    14 1.751859 0.000000 0.000000 -2.835750 1.276527 -2.931322
    15 0.853993 0.000000 0.000000 0.099540 0.764102 0.055830
    16 2.899449 1.342927 0.078012 -0.037959 0.489350 -0.021864
    17 1.152892 0.000000 0.000000 -0.191791 1.509570 -0.027840
    18 0.748463 0.000000 0.000000 0.280999 0.918136 0.080345
    19 -5.011406 11.110565 -4.961452 -3.141592 1.218684 -3.141700
    20 -0.023288 0.041602 0.000000 -0.001873 -0.009177 -1.346245
    21 11.072355 -0.043444 0.000000 0.000000 0.000000 -0.491170
    22 8.108977 0.000000 0.000000 -3.036623 -0.007267 0.301316
    23 0.788882 0.969696 -0.533610 2.431000 0.411480 0.206769
    24 1.920301 0.000000 0.000000 0.227989 0.019477 0.664130
    25 0.858252 0.000000 0.000001 -0.220456 -0.129448 0.532259
    26 2.955714 0.752579 0.160553 3.137409 0.051394 0.196611
    27 1.836088 0.000001 0.000000 0.062217 -0.471971 -0.087210
    28 0.853995 0.000000 0.000000 -0.213937 -0.664232 0.172824
    29 2.964906 -0.017483 0.178523 2.997398 0.320567 0.011815
    30 1.814736 0.000000 0.000000 2.881080 -1.312581 -2.784180
    31 0.982325 0.000000 0.000000 -0.427645 -1.005101 0.261684
    32 2.889732 -0.720928 0.212797 3.132472 0.326541 -0.028218
    33 1.751861 0.000001 0.000000 -3.068504 -1.347266 2.966349
    34 0.853992 -0.000001 0.000000 -0.014402 -0.752369 -0.004453
    35 2.857167 -1.430682 0.078013 -3.102219 0.504132 0.009133
    36 1.152892 0.000000 0.000000 -0.099357 -1.308610 0.028401
    37 0.748464 0.000001 -0.000001 -0.026774 -1.375286 0.016573
    38 4.076793 -8.982458 -4.287789 1.229238 -0.189268 0.066674
    39 3.685405 -9.022825 -1.969704 1.229238 -0.189268 0.066674
    40 3.796860 -10.174716 -2.122924 1.507505 -0.189268 0.066608
    41 3.781182 -8.011791 -2.825111 0.051237 -0.189268 0.066739
    42 3.727382 -8.857524 -2.222480 1.012608 -0.189268 0.066739
    43 4.140381 -9.107476 -4.287098 1.229238 -0.189268 0.066674
    44 -3.869513 -13.816177 -3.119707 1.624858 0.200258 0.010582
    45 -3.980721 -12.605606 -3.589325 1.624858 0.200258 0.010582
    46 -3.965148 -10.346520 -3.420393 0.526668 0.200258 0.010582
    47 -3.905664 -11.344596 -3.165428 1.624891 0.200258 0.010582
    48 -4.357058 -10.694216 -5.115940 1.624858 0.200258 0.010582
  time 5
    0 4.649777 11.103477 -4.961452 -1.158242 0.019516 -1.575090
    1 -0.023288 0.041601 0.000000 -0.006768 -0.016325 0.377262
    2 11.072351 -0.043445 0.000000 0.000000 0.000000 -0.939293
    3 8.108974 0.000000 0.000000 -0.155583 -0.097408 0.316357
    4 0.758957 -0.993292 -0.533611 0.779414 0.365978 -0.117263
    5 1.920300 0.000000 0.000000 -0.147591 0.033296 0.418052
    6 0.858252 0.000000 0.000000 0.023447 0.192417 0.210828
    7 2.931401 -0.842324 0.160553 -0.119318 0.031589 -0.174191
    8 1.836086 0.000000 0.000000 -0.098150 0.931818 0.007830
    9 0.853994 0.000000 0.000000 0.289009 1.130277 0.385514
    10 2.964058 -0.072899 0.178523 0.006507 0.194685 -0.023869
    11 1.814737 0.000000 0.000000 -2.503026 1.428854 -2.547720
    12 0.982325 0.000000 0.000000 0.269311 1.050431 0.264127
    13 2.910365 0.632510 0.212797 0.017766 0.338472 0.002408
    14 1.751859 0.000000 0.000000 -2.835750 1.276527 -2.931322
    15 0.853993 0.000000 0.000000 0.099540 0.764102 0.055830
    16 2.899449 1.342927 0.078012 -0.037959 0.489350 -0.021864
    17 1.152892 0.000000 0.000000 -0.191791 1.509570 -0.027840
    18 0.748463 0.000000 0.000000 0.280999 0.918136 0.080345
    19 -5.011406 11.110565 -4.961452 -3.141592 1.218684 -3.141700
    20 -0.023288 0.041602 0.000000 -0.001873 -0.009731 -1.357504
    21 11.072355 -0.043444 0.000000 0.000000 0.000000 -0.458910
    22 8.108977 0.000000 0.000000 -3.036623 -0.009972 0.285368
    23 0.788882 0.969696 -0.533610 2.431000 0.411480 0.206769
    24 1.920301 0.000000 0.000000 0.227989 0.019477 0.664130
    25 0.858252 0.000000 0.000001 -0.220456 -0.129448 0.532259
    26 2.955714 0.752579 0.160553 3.137409 0.051394 0.196611
    27 1.836088 0.000001 0.000000 0.062217 -0.471971 -0.087210
    28 0.853995 0.000000 0.000000 -0.213937 -0.664232 0.172824
    29 2.964906 -0.017483 0.178523 2.997398 0.320567 0.011815
    30 1.814736 0.000000 0.000000 2.881080 -1.312581 -2.784180
    31 0.982325 0.000000 0.000000 -0.427645 -1.005101 0.261684
    32 2.889732 -0.720928 0.212797 3.132472 0.326541 -0.028218
    33 1.751861 0.000001 0.000000 -3.068504 -1.347266 2.966349
    34 0.853992 -0.000001 0.000000 -0.014402 -0.752369 -0.004453
    35 2.857167 -1.430682 0.078013 -3.102219 0.504132 0.009133
    36 1.152892 0.000000 0.000000 -0.099357 -1.308610 0.028401
    37 0.748464 0.000001 -0.000001 -0.026774 -1.375286 0.016573
    38 4.076793 -9.087930 -3.947935 1.299397 -0.193406 0.053312
    39 3.685405 -9.995511 -1.438438 1.299397 -0.193406 0.053312
    40 3.796860 -10.420817 -1.876823 1.577733 -0.193406 0.053312
    41 3.781182 -8.218829 -2.422755 0.140919 -0.193406 0.053377
    42 3.696131 -9.611453 -1.624805 1.155055 -0.193406 0.053377
    43 4.140381 -9.205135 -3.955057 1.299397 -0.193406 0.053312
    44 -3.861700 -13.890398 -3.190022 1.630814 0.200258 0.013086
    45 -3.972908 -12.695452 -3.663546 1.630814 0.200258 0.013086
    46 -3.965148 -10.420741 -3.475082 0.532624 0.200213 0.013086
    47 -3.901757 -11.434443 -3.239649 1.630819 0.200213 0.013086
    48 -4.357058 -10.764531 -5.178442 1.630814 0.200258 0.013086
  time 6
    0 4.649777 11.103477 -4.961452 -1.158242 0.019516 -1.575090
    1 -0.023288 0.041601 0.000000 -0.008674 -0.021797 0.348393
    2 11.072351 -0.043445 0.000000 0.000000 0.000000 -0.900752
    3 8.108974 0.000000 0.000000 -0.161969 -0.060829 0.378792
    4 0.758957 -0.993292 -0.533611 0.779414 0.365978 -0.117263
    5 1.920300 0.000000 0.000000 -0.147591 0.033296 0.418052
    6 0.858252 0.000000 0.000000 0.023447 0.192417 0.210828
    7 2.931401 -0.842324 0.160553 -0.119318 0.031589 -0.174191
    8 1.836086 0.000000 0.000000 -0.098725 0.935810 0.007471
    9 0.853994 0.000000 0.000000 0.304409 1.140186 0.400123
    10 2.964058 -0.072899 0.178523 0.006507 0.194685 -0.023869
    11 1.814737 0.000000 0.000000 -2.503026 1.428854 -2.547720
    12 0.982325 0.000000 0.000000 0.269311 1.050431 0.264127
    13 2.910365 0.632510 0.212797 0.017766 0.338472 0.002408
    14 1.751859 0.000000 0.000000 -2.835750 1.276527 -2.931322
    15 0.853993 0.000000 0.000000 0.099540 0.764102 0.055830
    16 2.899449 1.342927 0.078012 -0.037959 0.489350 -0.021864
    17 1.152892 0.000000 0.000000 -0.191791 1.509570 -0.027840
    18 0.748463 0.000000 0.000000 0.280999 0.918136 0.080345
    19 -5.011406 11.110565 -4.961452 -3.141592 1.218684 -3.141700
    20 -0.023288 0.041602 0.000000 -0.001960 -0.009904 -1.356515
    21 11.072355 -0.043444 0.000000 0.000000 0.000000 -0.457369
    22 8.108977 0.000000 0.000000 -3.036623 -0.008693 0.272971
    23 0.788882 0.969696 -0.533610 2.431000 0.411480 0.206769
    24 1.920301 0.000000 0.000000 0.227989 0.019477 0.664130
    25 0.858252 0.000000 0.000001 -0.220456 -0.129448 0.532259
    26 2.955714 0.752579 0.160553 3.137409 0.051394 0.196611
    27 1.836088 0.000001 0.000000 0.062217 -0.471971 -0.087210
    28 0.853995 0.000000 0.000000 -0.213937 -0.664232 0.172824
    29 2.964906 -0.017483 0.178523 2.997398 0.320567 0.011815
    30 1.814736 0.000000 0.000000 2.881080 -1.312581 -2.784180
    31 0.982325 0.000000 0.000000 -0.427645 -1.005101 0.261684
    32 2.889732 -0.720928 0.212797 3.132472 0.326541 -0.028218
    33 1.751861 0.000001 0.000000 -3.068504 -1.347266 2.966349
    34 0.853992 -0.000001 0.000000 -0.014402 -0.752369 -0.004453
    35 2.857167 -1.430682 0.078013 -3.102219 0.504132 0.009133
    36 1.152892 0.000000 0.000000 -0.099357 -1.308610 0.028401
    37 0.748464 0.000001 -0.000001 -0.026774 -1.375286 0.016573
    38 4.076793 -9.314500 -3.936216 1.379069 -0.196734 0.037843
    39 3.685405 -11.862755 -1.227494 1.379069 -0.196734 0.037843
    40 3.796860 -10.811454 -1.974482 1.657336 -0.196734 0.037843
    41 3.781182 -8.566496 -2.348534 0.259659 -0.196734 0.037776
    42 3.664880 -10.892742 -1.300576 1.379057 -0.196734 0.037776
    43 4.140381 -9.431705 -3.955057 1.379069 -0.196734 0.037843
    44 -3.861700 -13.878679 -3.170490 1.621040 0.200258 0.013617
    45 -3.969002 -12.672014 -3.640108 1.621040 0.200258 0.013617
    46 -3.965148 -10.409022 -3.475082 0.522850 0.200258 0.013617
    47 -3.901757 -11.407098 -3.231836 1.621021 0.200258 0.013617
    48 -4.357058 -10.764531 -5.178442 1.621040 0.200258 0.013617
  time 7
    0 4.649777 11.103477 -4.961452 -1.158242 0.019516 -1.575090
    1 -0.023288 0.041601 0.000000 -0.008014 -0.021920 0.320898
    2 11.072351 -0.043445 0.000000 0.000000 0.000000 -0.833201
    3 8.108974 0.000000 0.000000 -0.165163 -0.027613 0.415236
    4 0.758957 -0.993292 -0.533611 0.779414 0.365978 -0.117263
    5 1.920300 0.000000 0.000000 -0.147591 0.033296 0.418052
    6 0.858252 0.000000 0.000000 0.023447 0.192417 0.210828
    7 2.931401 -0.842324 0.160553 -0.119318 0.031589 -0.174191
    8 1.836086 0.000000 0.000000 -0.099193 0.938867 0.007123
    9 0.853994 0.000000 0.000000 0.316502 1.147595 0.411604
    10 2.964058 -0.072899 0.178523 0.006507 0.194685 -0.023869
    11 1.814737 0.000000 0.000000 -2.503026 1.428854 -2.547720
    12 0.982325 0.000000 0.000000 0.269311 1.050431 0.264127
    13 2.910365 0.632510 0.212797 0.017766 0.338472 0.002408
    14 1.751859 0.000000 0.000000 -2.835750 1.276527 -2.931322
    15 0.853993 0.000000 0.000000 0.099540 0.764102 0.055830
    16 2.899449 1.342927 0.078012 -0.037959 0.489350 -0.021864
    17 1.152892 0.000000 0.000000 -0.191791 1.509570 -0.027840
    18 0.748463 0.000000 0.000000 0.280999 0.918136 0.080345
    19 -5.011406 11.110565 -4.961452 -3.141592 1.218684 -3.141700
    20 -0.023288 0.041602 0.000000 -0.001960 -0.009384 -1.344125
    21 11.072355 -0.043444 0.000000 0.000000 0.000000 -0.487022
    22 8.108977 0.000000 0.000000 -3.036525 -0.005668 0.272675
    23 0.788882 0.969696 -0.533610 2.431000 0.411480 0.206769
    24 1.920301 0.000000 0.000000 0.227989 0.019477 0.664130
    25 0.858252 0.000000 0.000001 -0.220456 -0.129448 0.532259
    26 2.955714 0.752579 0.160553 3.137409 0.051394 0.196611
    27 1.836088 0.000001 0.000000 0.062217 -0.471971 -0.087210
    28 0.853995 0.000000 0.000000 -0.213937 -0.664232 0.172824
    29 2.964906 -0.017483 0.178523 2.997398 0.320567 0.011815
    30 1.814736 0.000000 0.000000 2.881080 -1.312581 -2.784180
    31 0.982325 0.000000 0.000000 -0.427645 -1.005101 0.261684
    32 2.889732 -0.720928 0.212797 3.132472 0.326541 -0.028218
    33 1.751861 0.000001 0.000000 -3.068504 -1.347266 2.966349
    34 0.853992 -0.000001 0.000000 -0.014402 -0.752369 -0.004453
    35 2.857167 -1.430682 0.078013 -3.102219 0.504132 0.009133
    36 1.152892 0.000000 0.000000 -0.099357 -1.308610 0.028401
    37 0.748464 0.000001 -0.000001 -0.026774 -1.375286 0.016573
    38 4.076793 -9.627009 -4.194036 1.464029 -0.199160 0.020991
    39 3.685405 -12.397928 -1.715790 1.464029 -0.199160 0.020991
    40 3.796860 -11.284124 -2.365119 1.742262 -0.199160 0.020991
    41 3.781182 -9.015728 -2.559478 0.344673 -0.199207 0.021122
    42 3.664880 -11.424008 -1.699026 1.464026 -0.199160 0.021122
    43 4.140381 -9.736402 -4.224596 1.464029 -0.199160 0.020991
    44 -3.849981 -13.761488 -3.041580 1.602943 0.200258 0.012631
    45 -3.969002 -12.578261 -3.546355 1.602943 0.200258 0.012631
    46 -3.972961 -10.307457 -3.424299 0.504676 0.200258 0.012631
    47 -3.901757 -11.309439 -3.157615 1.602907 0.200213 0.012631
    48 -4.357058 -10.694216 -5.115940 1.602943 0.200258 0.012631
  time 8
    0 4.649777 11.103477 -4.961452 -1.158242 0.019516 -1.575090
    1 -0.023288 0.041601 0.000000 -0.006528 -0.019676 0.297446
    2 11.072351 -0.043445 0.000000 0.000000 0.000000 -0.761707
    3 8.108974 0.000000 0.000000 -0.165418 0.000400 0.437310
    4 0.758957 -0.993292 -0.533611 0.779414 0.365978 -0.117263
    5 1.920300 0.000000 0.000000 -0.147591 0.033296 0.418052
    6 0.858252 0.000000 0.000000 0.023447 0.192417 0.210828
    7 2.931401 -0.842324 0.160553 -0.119318 0.031589 -0.174191
    8 1.836086 0.000000 0.000000 -0.099456 0.940661 0.006931
    9 0.853994 0.000000 0.000000 0.323683 1.151835 0.418411
    10 2.964058 -0.072899 0.178523 0.006507 0.194685 -0.023869
    11 1.814737 0.000000 0.000000 -2.503026 1.428854 -2.547720
    12 0.982325 0.000000 0.000000 0.269311 1.050431 0.264127
    13 2.910365 0.632510 0.212797 0.017766 0.338472 0.002408
    14 1.751859 0.000000 0.000000 -2.835750 1.276527 -2.931322
    15 0.853993 0.000000 0.000000 0.099540 0.764102 0.055830
    16 2.899449 1.342927 0.078012 -0.037959 0.489350 -0.021864
    17 1.152892 0.000000 0.000000 -0.191791 1.509570 -0.027840
    18 0.748463 0.000000 0.000000 0.280999 0.918136 0.080345
    19 -5.011406 11.110565 -4.961452 -3.141592 1.218684 -3.141700
    20 -0.023288 0.041602 0.000000 -0.001829 -0.007827 -1.322972
    21 11.072355 -0.043444 0.000000 0.000000 0.000000 -0.544928
    22 8.108977 0.000000 0.000000 -3.036328 -0.003111 0.290761
    23 0.788882 0.969696 -0.533610 2.431000 0.411480 0.206769
    24 1.920301 0.000000 0.000000 0.227989 0.019477 0.664130
    25 0.858252 0.000000 0.000001 -0.220456 -0.129448 0.532259
    26 2.955714 0.752579 0.160553 3.137409 0.051394 0.196611
    27 1.836088 0.000001 0.000000 0.062217 -0.471971 -0.087210
    28 0.853995 0.000000 0.000000 -0.213937 -0.664232 0.172824
    29 2.964906 -0.017483 0.178523 2.997398 0.320567 0.011815
    30 1.814736 0.000000 0.000000 2.881080 -1.312581 -2.784180
    31 0.982325 0.000000 0.000000 -0.427645 -1.005101 0.261684
    32 2.889732 -0.720928 0.212797 3.132472 0.326541 -0.028218
    33 1.751861 0.000001 0.000000 -3.068504 -1.347266 2.966349
    34 0.853992 -0.000001 0.000000 -0.014402 -0.752369 -0.004453
    35 2.857167 -1.430682 0.078013 -3.102219 0.504132 0.009133
    36 1.152892 0.000000 0.000000 -0.099357 -1.308610 0.028401
    37 0.748464 0.000001 -0.000001 -0.026774 -1.375286 0.016573
    38 4.076793 -9.912174 -4.553422 1.542121 -0.200491 0.005588
    39 3.685405 -12.866692 -2.286120 1.542121 -0.200491 0.005588
    40 3.796860 -11.709919 -2.853415 1.820354 -0.200491 0.005588
    41 3.781182 -9.437616 -2.864175 0.422744 -0.200443 0.005653
    42 3.664880 -11.904492 -2.199041 1.542167 -0.200491 0.005653
    43 4.140381 -10.025473 -4.595701 1.542121 -0.200491 0.005588
    44 -3.838262 -13.577889 -2.861887 1.583777 0.200258 0.011493
    45 -3.961189 -12.398568 -3.390100 1.583777 0.200258 0.011493
    46 -3.972961 -10.131670 -3.307108 0.485433 0.200258 0.011493
    47 -3.897851 -11.121933 -3.016986 1.583723 0.200258 0.011568
    48 -4.357058 -10.549681 -4.990936 1.583777 0.200258 0.011493
  time 9
    0 4.649777 11.103477 -4.961452 -1.158242 0.019516 -1.575090
    1 -0.023288 0.041601 0.000000 -0.004431 -0.014695 0.282102
    2 11.072351 -0.043445 0.000000 0.000000 0.000000 -0.694910
    3 8.108974 0.000000 0.000000 -0.164907 0.023098 0.451551
    4 0.758957 -0.993292 -0.533611 0.779414 0.365978 -0.117263
    5 1.920300 0.000000 0.000000 -0.147591 0.033296 0.418052
    6 0.858252 0.000000 0.000000 0.023447 0.192417 0.210828
    7 2.931401 -0.842324 0.160553 -0.119318 0.031589 -0.174191
    8 1.836086 0.000000 0.000000 -0.099516 0.940939 0.006871
    9 0.853994 0.000000 0.000000 0.324416 1.152239 0.419082
    10 2.964058 -0.072899 0.178523 0.006507 0.194685 -0.023869
    11 1.814737 0.000000 0.000000 -2.503026 1.428854 -2.547720
    12 0.982325 0.000000 0.000000 0.269311 1.050431 0.264127
    13 2.910365 0.632510 0.212797 0.017766 0.338472 0.002408
    14 1.751859 0.000000 0.000000 -2.835750 1.276527 -2.931322
    15 0.853993 0.000000 0.000000 0.099540 0.764102 0.055830
    16 2.899449 1.342927 0.078012 -0.037959 0.489350 -0.021864
    17 1.152892 0.000000 0.000000 -0.191791 1.509570 -0.027840
    18 0.748463 0.000000 0.000000 0.280999 0.918136 0.080345
    19 -5.011406 11.110565 -4.961452 -3.141592 1.218684 -3.141700
    20 -0.023288 0.041602 0.000000 -0.001305 -0.005023 -1.297673
    21 11.072355 -0.043444 0.000000 0.000000 0.000000 -0.623294
    22 8.108977 0.000000 0.000000 -3.036279 -0.003382 0.331240
    23 0.788882 0.969696 -0.533610 2.431000 0.411480 0.206769
    24 1.920301 0.000000 0.000000 0.227989 0.019477 0.664130
    25 0.858252 0.000000 0.000001 -0.220456 -0.129448 0.532259
    26 2.955714 0.752579 0.160553 3.137409 0.051394 0.196611
    27 1.836088 0.000001 0.000000 0.062217 -0.471971 -0.087210
    28 0.853995 0.000000 0.000000 -0.213937 -0.664232 0.172824
    29 2.964906 -0.017483 0.178523 2.997398 0.320567 0.011815
    30 1.814736 0.000000 0.000000 2.881080 -1.312581 -2.784180
    31 0.982325 0.000000 0.000000 -0.427645 -1.005101 0.261684
    32 2.889732 -0.720928 0.212797 3.132472 0.326541 -0.028218
    33 1.751861 0.000001 0.000000 -3.068504 -1.347266 2.966349
    34 0.853992 -0.000001 0.000000 -0.014402 -0.752369 -0.004453
    35 2.857167 -1.430682 0.078013 -3.102219 0.504132 0.009133
    36 1.152892 0.000000 0.000000 -0.099357 -1.308610 0.028401
    37 0.748464 0.000001 -0.000001 -0.026774 -1.375286 0.016573
    38 4.076793 -10.150463 -5.010468 1.615028 -0.200253 -0.008433
    39 3.685405 -13.253423 -2.958016 1.615028 -0.200253 -0.008433
    40 3.796860 -12.053679 -3.439371 1.893329 -0.200253 -0.008433
    41 3.781182 -9.789189 -3.293876 0.495447 -0.200253 -0.008367
    42 3.664880 -12.299035 -2.808435 1.615010 -0.200253 -0.008367
    43 4.140381 -10.259855 -5.056653 1.615028 -0.200253 -0.008433
    44 -3.838262 -13.339600 -2.643130 1.570796 0.200258 0.010582
    45 -3.961189 -12.168092 -3.179156 1.570796 0.200258 0.010582
    46 -3.972961 -9.901194 -3.127415 0.472528 0.200258 0.010582
    47 -3.897851 -10.883644 -2.829480 1.570796 0.200258 0.010582
    48 -4.357058 -10.330924 -4.803430 1.570796 0.200258 0.010582
  time 10
    0 4.649777 11.103477 -4.961452 -1.158242 0.019516 -1.575090
    1 -0.023288 0.041601 0.000000 -0.002633 -0.009592 0.268441
    2 11.072351 -0.043445 0.000000 0.000000 0.000000 -0.632469
    3 8.108974 0.000000 0.000000 -0.163694 0.039652 0.451745
    4 0.758957 -0.993292 -0.533611 0.779414 0.365978 -0.117263
    5 1.920300 0.000000 0.000000 -0.147591 0.033296 0.418052
    6 0.858252 0.000000 0.000000 0.023447 0.192417 0.210828
    7 2.931401 -0.842324 0.160553 -0.119318 0.031589 -0.174191
    8 1.836086 0.000000 0.000000 -0.099337 0.939322 0.006991
    9 0.853994 0.000000 0.000000 0.317387 1.148095 0.412431
    10 2.964058 -0.072899 0.178523 0.006507 0.194685 -0.023869
    11 1.814737 0.000000 0.000000 -2.503026 1.428854 -2.547720
    12 0.982325 0.000000 0.000000 0.269311 1.050431 0.264127
    13 2.910365 0.632510 0.212797 0.017766 0.338472 0.002408
    14 1.751859 0.000000 0.000000 -2.835750 1.276527 -2.931322
    15 0.853993 0.000000 0.000000 0.099540 0.764102 0.055830
    16 2.899449 1.342927 0.078012 -0.037959 0.489350 -0.021864
    17 1.152892 0.000000 0.000000 -0.191791 1.509570 -0.027840
    18 0.748463 0.000000 0.000000 0.280999 0.918136 0.080345
    19 -5.011406 11.110565 -4.961452 -3.141592 1.218684 -3.141700
    20 -0.023288 0.041602 0.000000 -0.001436 -0.005196 -1.296966
    21 11.072355 -0.043444 0.000000 0.000000 0.000000 -0.622257
    22 8.108977 0.000000 0.000000 -3.036279 -0.001783 0.322921
    23 0.788882 0.969696 -0.533610 2.431000 0.411480 0.206769
    24 1.920301 0.000000 0.000000 0.227989 0.019477 0.664130
    25 0.858252 0.000000 0.000001 -0.220456 -0.129448 0.532259
    26 2.955714 0.752579 0.160553 3.137409 0.051394 0.196611
    27 1.836088 0.000001 0.000000 0.062217 -0.471971 -0.087210
    28 0.853995 0.000000 0.000000 -0.213937 -0.664232 0.172824
    29 2.964906 -0.017483 0.178523 2.997398 0.320567 0.011815
    30 1.814736 0.000000 0.000000 2.881080 -1.312581 -2.784180
    31 0.982325 0.000000 0.000000 -0.427645 -1.005101 0.261684
    32 2.889732 -0.720928 0.212797 3.132472 0.326541 -0.028218
    33 1.751861 0.000001 0.000000 -3.068504 -1.347266 2.966349
    34 0.853992 -0.000001 0.000000 -0.014402 -0.752369 -0.004453
    35 2.857167 -1.430682 0.078013 -3.102219 0.504132 0.009133
    36 1.152892 0.000000 0.000000 -0.099357 -1.308610 0.028401
    37 0.748464 0.000001 -0.000001 -0.026774 -1.375286 0.016573
    38 4.076793 -10.334062 -5.428449 1.669802 -0.199588 -0.019820
    39 3.685405 -13.538588 -3.551784 1.669802 -0.199588 -0.019820
    40 3.796860 -12.323219 -3.970637 1.948172 -0.199588 -0.019820
    41 3.781182 -10.066541 -3.700138 0.550353 -0.199588 -0.019887
    42 3.664880 -12.599826 -3.347514 1.669774 -0.199588 -0.019887
    43 4.140381 -10.443454 -5.482447 1.669802 -0.199588 -0.019820
    44 -3.830449 -13.323975 -2.623598 1.564153 0.200258 0.010278
    45 -3.961189 -12.156373 -3.171343 1.564153 0.200258 0.010278
    46 -3.972961 -9.881662 -3.127415 0.465808 0.200258 0.010202
    47 -3.897851 -10.871925 -2.825574 1.564127 0.200258 0.010278
    48 -4.357058 -10.330924 -4.803430 1.564153 0.200258 0.010278
  time 11
    0 4.649777 11.103477 -4.961452 -1.158242 0.019516 -1.575090
    1 -0.023288 0.041601 0.000000 -0.001974 -0.007686 0.258109
    2 11.072351 -0.043445 0.000000 0.000000 0.000000 -0.592590
    3 8.108974 0.000000 0.000000 -0.163247 0.043556 0.426694
    4 0.758957 -0.993292 -0.533611 0.779414 0.365978 -0.117263
    5 1.920300 0.000000 0.000000 -0.147591 0.033296 0.418052
    6 0.858252 0.000000 0.000000 0.023447 0.192417 0.210828
    7 2.931401 -0.842324 0.160553 -0.119318 0.031589 -0.174191
    8 1.836086 0.000000 0.000000 -0.098797 0.935633 0.007327
    9 0.853994 0.000000 0.000000 0.301904 1.138590 0.397738
    10 2.964058 -0.072899 0.178523 0.006507 0.194685 -0.023869
    11 1.814737 0.000000 0.000000 -2.503026 1.428854 -2.547720
    12 0.982325 0.000000 0.000000 0.269311 1.050431 0.264127
    13 2.910365 0.632510 0.212797 0.017766 0.338472 0.002408
    14 1.751859 0.000000 0.000000 -2.835750 1.276527 -2.931322
    15 0.853993 0.000000 0.000000 0.099540 0.764102 0.055830
    16 2.899449 1.342927 0.078012 -0.037959 0.489350 -0.021864
    17 1.152892 0.000000 0.000000 -0.191791 1.509570 -0.027840
    18 0.748463 0.000000 0.000000 0.280999 0.918136 0.080345
    19 -5.011406 11.110565 -4.961452 -3.141592 1.218684 -3.141700
    20 -0.023288 0.041602 0.000000 -0.001436 -0.005439 -1.296495
    21 11.072355 -0.043444 0.000000 0.000000 0.000000 -0.621416
    22 8.108977 0.000000 0.000000 -3.036279 -0.000283 0.316344
    23 0.788882 0.969696 -0.533610 2.431000 0.411480 0.206769
    24 1.920301 0.000000 0.000000 0.227989 0.019477 0.664130
    25 0.858252 0.000000 0.000001 -0.220456 -0.129448 0.532259
    26 2.955714 0.752579 0.160553 3.137409 0.051394 0.196611
    27 1.836088 0.000001 0.000000 0.062217 -0.471971 -0.087210
    28 0.853995 0.000000 0.000000 -0.213937 -0.664232 0.172824
    29 2.964906 -0.017483 0.178523 2.997398 0.320567 0.011815
    30 1.814736 0.000000 0.000000 2.881080 -1.312581 -2.784180
    31 0.982325 0.000000 0.000000 -0.427645 -1.005101 0.261684
    32 2.889732 -0.720928 0.212797 3.132472 0.326541 -0.028218
    33 1.751861 0.000001 0.000000 -3.068504 -1.347266 2.966349
    34 0.853992 -0.000001 0.000000 -0.014402 -0.752369 -0.004453
    35 2.857167 -1.430682 0.078013 -3.102219 0.504132 0.009133
    36 1.152892 0.000000 0.000000 -0.099357 -1.308610 0.028401
    37 0.748464 0.000001 -0.000001 -0.026774 -1.375286 0.016573
    38 4.076793 -10.439534 -5.572985 1.676430 -0.199397 -0.024889
    39 3.673686 -13.659685 -3.711945 1.676430 -0.199397 -0.024889
    40 3.785141 -12.428691 -4.126892 1.954731 -0.199397 -0.024889
    41 3.781182 -10.175920 -3.832955 0.556830 -0.199397 -0.024758
    42 3.657067 -12.717017 -3.503769 1.676384 -0.199397 -0.024758
    43 4.140381 -10.548926 -5.626983 1.676430 -0.199397 -0.024889
    44 -3.830449 -13.320068 -2.611879 1.558655 0.200258 0.009747
    45 -3.961189 -12.144654 -3.159624 1.558655 0.200258 0.009747
    46 -3.972961 -9.881662 -3.127415 0.460539 0.200258 0.009747
    47 -3.897851 -10.868019 -2.825574 1.558610 0.200258 0.009747
    48 -4.357058 -10.330924 -4.803430 1.558655 0.200258 0.009747
  time 12
    0 4.649777 11.103477 -4.961452 -1.158242 0.019516 -1.575090
    1 -0.023288 0.041601 0.000000 -0.001938 -0.007717 0.254781
    2 11.072351 -0.043445 0.000000 0.000000 0.000000 -0.578600
    3 8.108974 0.000000 0.000000 -0.164588 0.036942 0.385168
    4 0.758957 -0.993292 -0.533611 0.779414 0.365978 -0.117263
    5 1.920300 0.000000 0.000000 -0.147591 0.033296 0.418052
    6 0.858252 0.000000 0.000000 0.023447 0.192417 0.210828
    7 2.931401 -0.842324 0.160553 -0.119318 0.031589 -0.174191
    8 1.836086 0.000000 0.000000 -0.097934 0.929442 0.007878
    9 0.853994 0.000000 0.000000 0.277953 1.122845 0.375027
    10 2.964058 -0.072899 0.178523 0.006507 0.194685 -0.023869
    11 1.814737 0.000000 0.000000 -2.503026 1.428854 -2.547720
    12 0.982325 0.000000 0.000000 0.269311 1.050431 0.264127
    13 2.910365 0.632510 0.212797 0.017766 0.338472 0.002408
    14 1.751859 0.000000 0.000000 -2.835750 1.276527 -2.931322
    15 0.853993 0.000000 0.000000 0.099540 0.764102 0.055830
    16 2.899449 1.342927 0.078012 -0.037959 0.489350 -0.021864
    17 1.152892 0.000000 0.000000 -0.191791 1.509570 -0.027840
    18 0.748463 0.000000 0.000000 0.280999 0.918136 0.080345
    19 -5.011406 11.110565 -4.961452 -3.141592 1.218684 -3.141700
    20 -0.023288 0.041602 0.000000 -0.001567 -0.005646 -1.296071
    21 11.072355 -0.043444 0.000000 0.000000 0.000000 -0.620799
    22 8.108977 0.000000 0.000000 -3.036279 0.001167 0.311543
    23 0.788882 0.969696 -0.533610 2.431000 0.411480 0.206769
    24 1.920301 0.000000 0.000000 0.227989 0.019477 0.664130
    25 0.858252 0.000000 0.000001 -0.220456 -0.129448 0.532259
    26 2.955714 0.752579 0.160553 3.137409 0.051394 0.196611
    27 1.836088 0.000001 0.000000 0.062217 -0.471971 -0.087210
    28 0.853995 0.000000 0.000000 -0.213937 -0.664232 0.172824
    29 2.964906 -0.017483 0.178523 2.997398 0.320567 0.011815
    30 1.814736 0.000000 0.000000 2.881080 -1.312581 -2.784180
    31 0.982325 0.000000 0.000000 -0.427645 -1.005101 0.261684
    32 2.889732 -0.720928 0.212797 3.132472 0.326541 -0.028218
    33 1.751861 0.000001 0.000000 -3.068504 -1.347266 2.966349
    34 0.853992 -0.000001 0.000000 -0.014402 -0.752369 -0.004453
    35 2.857167 -1.430682 0.078013 -3.102219 0.504132 0.009133
    36 1.152892 0.000000 0.000000 -0.099357 -1.308610 0.028401
    37 0.748464 0.000001 -0.000001 -0.026774 -1.375286 0.016573
    38 4.076793 -10.470785 -5.506577 1.644870 -0.199397 -0.024691
    39 3.654154 -13.628434 -3.559597 1.644870 -0.199397 -0.024691
    40 3.769515 -12.416971 -4.009701 1.923240 -0.199397 -0.024691
    41 3.792901 -10.164201 -3.789985 0.525438 -0.199397 -0.024626
    42 3.645348 -12.685766 -3.378765 1.644865 -0.199397 -0.024626
    43 4.140381 -10.580177 -5.564481 1.644870 -0.199397 -0.024691
    44 -3.830449 -13.312256 -2.600160 1.554608 0.200258 0.009292
    45 -3.961189 -12.144654 -3.159624 1.554608 0.200258 0.009292
    46 -3.972961 -9.873850 -3.127415 0.456492 0.200258 0.009292
    47 -3.897851 -10.852394 -2.821667 1.554658 0.200258 0.009292
    48 -4.357058 -10.330924 -4.803430 1.554608 0.200258 0.009292
  time 13
    0 4.649777 11.103477 -4.961452 -1.158242 0.019516 -1.575090
    1 -0.023288 0.041601 0.000000 -0.002861 -0.011160 0.254162
    2 11.072351 -0.043445 0.000000 0.000000 0.000000 -0.590258
    3 8.108974 0.000000 0.000000 -0.165610 0.028954 0.355682
    4 0.758957 -0.993292 -0.533611 0.779414 0.365978 -0.117263
    5 1.920300 0.000000 0.000000 -0.147591 0.033296 0.418052
    6 0.858252 0.000000 0.000000 0.023447 0.192417 0.210828
    7 2.931401 -0.842324 0.160553 -0.119318 0.031589 -0.174191
    8 1.836086 0.000000 0.000000 -0.096712 0.920473 0.008669
    9 0.853994 0.000000 0.000000 0.246226 1.099858 0.345173
    10 2.964058 -0.072899 0.178523 0.006507 0.194685 -0.023869
    11 1.814737 0.000000 0.000000 -2.503026 1.428854 -2.547720
    12 0.982325 0.000000 0.000000 0.269311 1.050431 0.264127
    13 2.910365 0.632510 0.212797 0.017766 0.338472 0.002408
    14 1.751859 0.000000 0.000000 -2.835750 1.276527 -2.931322
    15 0.853993 0.000000 0.000000 0.099540 0.764102 0.055830
    16 2.899449 1.342927 0.078012 -0.037959 0.489350 -0.021864
    17 1.152892 0.000000 0.000000 -0.191791 1.509570 -0.027840
    18 0.748463 0.000000 0.000000 0.280999 0.918136 0.080345
    19 -5.011406 11.110565 -4.961452 -3.141592 1.218684 -3.141700
    20 -0.023288 0.041602 0.000000 -0.001654 -0.005819 -1.295694
    21 11.072355 -0.043444 0.000000 0.000000 0.000000 -0.620491
    22 8.108977 0.000000 0.000000 -3.036279 0.002421 0.308518
    23 0.788882 0.969696 -0.533610 2.431000 0.411480 0.206769
    24 1.920301 0.000000 0.000000 0.227989 0.019477 0.664130
    25 0.858252 0.000000 0.000001 -0.220456 -0.129448 0.532259
    26 2.955714 0.752579 0.160553 3.137409 0.051394 0.196611
    27 1.836088 0.000001 0.000000 0.062217 -0.471971 -0.087210
    28 0.853995 0.000000 0.000000 -0.213937 -0.664232 0.172824
    29 2.964906 -0.017483 0.178523 2.997398 0.320567 0.011815
    30 1.814736 0.000000 0.000000 2.881080 -1.312581 -2.784180
    31 0.982325 0.000000 0.000000 -0.427645 -1.005101 0.261684
    32 2.889732 -0.720928 0.212797 3.132472 0.326541 -0.028218
    33 1.751861 0.000001 0.000000 -3.068504 -1.347266 2.966349
    34 0.853992 -0.000001 0.000000 -0.014402 -0.752369 -0.004453
    35 2.857167 -1.430682 0.078013 -3.102219 0.504132 0.009133
    36 1.152892 0.000000 0.000000 -0.099357 -1.308610 0.028401
    37 0.748464 0.000001 -0.000001 -0.026774 -1.375286 0.016573
    38 4.076793 -10.439534 -5.256569 1.601051 -0.199492 -0.022190
    39 3.642435 -13.503430 -3.161147 1.601051 -0.199492 -0.022190
    40 3.765609 -12.323219 -3.669846 1.879352 -0.199492 -0.022058
    41 3.792901 -10.047009 -3.547790 0.481560 -0.199492 -0.022125
    42 3.633629 -12.549043 -3.027192 1.601001 -0.199492 -0.022191
    43 4.140381 -10.548926 -5.298848 1.601051 -0.199492 -0.022190
    44 -3.830449 -13.304443 -2.588441 1.551859 0.200258 0.008381
    45 -3.961189 -12.144654 -3.147905 1.551859 0.200258 0.008381
    46 -3.972961 -9.869943 -3.135228 0.453743 0.200258 0.008381
    47 -3.897851 -10.844581 -2.821667 1.551941 0.200258 0.008381
    48 -4.357058 -10.330924 -4.803430 1.551859 0.200258 0.008381
  time 14
    0 4.649777 11.103477 -4.961452 -1.158242 0.019516 -1.575090
    1 -0.023288 0.041601 0.000000 -0.005258 -0.019307 0.251530
    2 11.072351 -0.043445 0.000000 0.000000 0.000000 -0.626502
    3 8.108974 0.000000 0.000000 -0.166121 0.028954 0.365942
    4 0.758957 -0.993292 -0.533611 0.779414 0.365978 -0.117263
    5 1.920300 0.000000 0.000000 -0.147591 0.033296 0.418052
    6 0.858252 0.000000 0.000000 0.023447 0.192417 0.210828
    7 2.931401 -0.842324 0.160553 -0.119318 0.031589 -0.174191
    8 1.836086 0.000000 0.000000 -0.095082 0.908446 0.009748
    9 0.853994 0.000000 0.000000 0.208218 1.068511 0.309615
    10 2.964058 -0.072899 0.178523 0.006507 0.194685 -0.023869
    11 1.814737 0.000000 0.000000 -2.503026 1.428854 -2.547720
    12 0.982325 0.000000 0.000000 0.269311 1.050431 0.264127
    13 2.910365 0.632510 0.212797 0.017766 0.338472 0.002408
    14 1.751859 0.000000 0.000000 -2.835750 1.276527 -2.931322
    15 0.853993 0.000000 0.000000 0.099540 0.764102 0.055830
    16 2.899449 1.342927 0.078012 -0.037959 0.489350 -0.021864
    17 1.152892 0.000000 0.000000 -0.191791 1.509570 -0.027840
    18 0.748463 0.000000 0.000000 0.280999 0.918136 0.080345
    19 -5.011406 11.110565 -4.961452 -3.141592 1.218684 -3.141700
    20 -0.023288 0.041602 0.000000 -0.001654 -0.005992 -1.295600
    21 11.072355 -0.043444 0.000000 0.000000 0.000000 -0.620435
    22 8.108977 0.000000 0.000000 -3.036525 0.003626 0.307235
    23 0.788882 0.969696 -0.533610 2.431000 0.411480 0.206769
    24 1.920301 0.000000 0.000000 0.227989 0.019477 0.664130
    25 0.858252 0.000000 0.000001 -0.220456 -0.129448 0.532259
    26 2.955714 0.752579 0.160553 3.137409 0.051394 0.196611
    27 1.836088 0.000001 0.000000 0.062217 -0.471971 -0.087210
    28 0.853995 0.000000 0.000000 -0.213937 -0.664232 0.172824
    29 2.964906 -0.017483 0.178523 2.997398 0.320567 0.011815
    30 1.814736 0.000000 0.000000 2.881080 -1.312581 -2.784180
    31 0.982325 0.000000 0.000000 -0.427645 -1.005101 0.261684
    32 2.889732 -0.720928 0.212797 3.132472 0.326541 -0.028218
    33 1.751861 0.000001 0.000000 -3.068504 -1.347266 2.966349
    34 0.853992 -0.000001 0.000000 -0.014402 -0.752369 -0.004453
    35 2.857167 -1.430682 0.078013 -3.102219 0.504132 0.009133
    36 1.152892 0.000000 0.000000 -0.099357 -1.308610 0.028401
    37 0.748464 0.000001 -0.000001 -0.026774 -1.375286 0.016573
    38 4.076793 -10.341875 -4.803430 1.570796 -0.199588 -0.019820
    39 3.630716 -13.343269 -2.622068 1.570796 -0.199588 -0.019820
    40 3.761703 -12.163057 -3.158112 1.849132 -0.199588 -0.019820
    41 3.792901 -9.890755 -3.106370 0.451335 -0.199588 -0.019887
    42 3.629722 -12.384975 -2.515457 1.570796 -0.199588 -0.019887
    43 4.136474 -10.451267 -4.845709 1.570796 -0.199588 -0.019820
    44 -3.830449 -13.304443 -2.588441 1.550561 0.200349 0.007546
    45 -3.961189 -12.140748 -3.147905 1.550561 0.200349 0.007546
    46 -3.972961 -9.858224 -3.135228 0.452292 0.200349 0.007546
    47 -3.897851 -10.844581 -2.821667 1.550624 0.200349 0.007546
    48 -4.357058 -10.330924 -4.803430 1.550561 0.200349 0.007546
  time 15
    0 4.649777 11.103477 -4.961452 -1.158242 0.019516 -1.575090
    1 -0.023288 0.041601 0.000000 -0.005030 -0.018600 0.253117
    2 11.072351 -0.043445 0.000000 0.000000 0.000000 -0.625508
    3 8.108974 0.000000 0.000000 -0.166504 0.024110 0.351895
    4 0.758957 -0.993292 -0.533611 0.779414 0.365978 -0.117263
    5 1.920300 0.000000 0.000000 -0.147591 0.033296 0.418052
    6 0.858252 0.000000 0.000000 0.023447 0.192417 0.210828
    7 2.931401 -0.842324 0.160553 -0.119318 0.031589 -0.174191
    8 1.836086 0.000000 0.000000 -0.090672 0.873932 0.012516
    9 0.853994 0.000000 0.000000 0.120578 0.975683 0.229211
    10 2.964058 -0.072899 0.178523 0.006507 0.194685 -0.023869
    11 1.814737 0.000000 0.000000 -2.503026 1.428854 -2.547720
    12 0.982325 0.000000 0.000000 0.269311 1.050431 0.264127
    13 2.910365 0.632510 0.212797 0.017766 0.338472 0.002408
    14 1.751859 0.000000 0.000000 -2.835750 1.276527 -2.931322
    15 0.853993 0.000000 0.000000 0.099540 0.764102 0.055830
    16 2.899449 1.342927 0.078012 -0.037959 0.489350 -0.021864
    17 1.152892 0.000000 0.000000 -0.191791 1.509570 -0.027840
    18 0.748463 0.000000 0.000000 0.280999 0.918136 0.080345
    19 -5.011406 11.110565 -4.961452 -3.141592 1.218684 -3.141700
    20 -0.023288 0.041602 0.000000 -0.001654 -0.006165 -1.295553
    21 11.072355 -0.043444 0.000000 0.000000 0.000000 -0.620603
    22 8.108977 0.000000 0.000000 -3.036623 0.004708 0.307762
    23 0.788882 0.969696 -0.533610 2.431000 0.411480 0.206769
    24 1.920301 0.000000 0.000000 0.227989 0.019477 0.664130
    25 0.858252 0.000000 0.000001 -0.220456 -0.129448 0.532259
    26 2.955714 0.752579 0.160553 3.137409 0.051394 0.196611
    27 1.836088 0.000001 0.000000 0.062217 -0.471971 -0.087210
    28 0.853995 0.000000 0.000000 -0.213937 -0.664232 0.172824
    29 2.964906 -0.017483 0.178523 2.997398 0.320567 0.011815
    30 1.814736 0.000000 0.000000 2.881080 -1.312581 -2.784180
    31 0.982325 0.000000 0.000000 -0.427645 -1.005101 0.261684
    32 2.889732 -0.720928 0.212797 3.132472 0.326541 -0.028218
    33 1.751861 0.000001 0.000000 -3.068504 -1.347266 2.966349
    34 0.853992 -0.000001 0.000000 -0.014402 -0.752369 -0.004453
    35 2.857167 -1.430682 0.078013 -3.102219 0.504132 0.009133
    36 1.152892 0.000000 0.000000 -0.099357 -1.308610 0.028401
    37 0.748464 0.000001 -0.000001 -0.026774 -1.375286 0.016573
    38 4.076793 -10.341875 -4.803430 1.558502 -0.199635 -0.018175
    39 3.630716 -13.315925 -2.590817 1.558502 -0.199635 -0.018175
    40 3.761703 -12.151338 -3.138580 1.767125 -0.199635 -0.018175
    41 3.792901 -9.879036 -3.106370 0.439023 -0.199635 -0.018110
    42 3.625816 -12.349818 -2.492019 1.558451 -0.199635 -0.018110
    43 4.136474 -10.451267 -4.845709 1.558502 -0.199635 -0.018175
    44 -3.838262 -13.304443 -2.588441 1.550561 0.200349 0.006636
    45 -3.961189 -12.140748 -3.147905 1.550561 0.200349 0.006636
    46 -3.972961 -9.858224 -3.135228 0.452292 0.200349 0.006636
    47 -3.897851 -10.844581 -2.821667 1.550541 0.200349 0.006636
    48 -4.357058 -10.330924 -4.803430 1.550561 0.200349 0.006636
  time 16
    0 4.649777 11.103477 -4.961452 -1.158242 0.019516 -1.575090
    1 -0.023288 0.041601 0.000000 -0.004862 -0.018016 0.254065
    2 11.072351 -0.043445 0.000000 0.000000 0.000000 -0.625199
    3 8.108974 0.000000 0.000000 -0.166504 0.019773 0.344257
    4 0.758957 -0.993292 -0.533611 0.779414 0.365978 -0.117263
    5 1.920300 0.000000 0.000000 -0.147591 0.033296 0.418052
    6 0.858252 0.000000 0.000000 0.023447 0.192417 0.210828
    7 2.931401 -0.842324 0.160553 -0.119318 0.031589 -0.174191
    8 1.836086 0.000000 0.000000 -0.083193 0.809527 0.016855
    9 0.853994 0.000000 0.000000 0.010578 0.795696 0.133262
    10 2.964058 -0.072899 0.178523 0.006507 0.194685 -0.023869
    11 1.814737 0.000000 0.000000 -2.503026 1.428854 -2.547720
    12 0.982325 0.000000 0.000000 0.269311 1.050431 0.264127
    13 2.910365 0.632510 0.212797 0.017766 0.338472 0.002408
    14 1.751859 0.000000 0.000000 -2.835750 1.276527 -2.931322
    15 0.853993 0.000000 0.000000 0.099540 0.764102 0.055830
    16 2.899449 1.342927 0.078012 -0.037959 0.489350 -0.021864
    17 1.152892 0.000000 0.000000 -0.191791 1.509570 -0.027840
    18 0.748463 0.000000 0.000000 0.280999 0.918136 0.080345
    19 -5.011406 11.110565 -4.961452 -3.141592 1.218684 -3.141700
    20 -0.023288 0.041602 0.000000 -0.001698 -0.006269 -1.295694
    21 11.072355 -0.043444 0.000000 0.000000 0.000000 -0.621136
    22 8.108977 0.000000 0.000000 -3.036623 0.005667 0.310063
    23 0.788882 0.969696 -0.533610 2.431000 0.411480 0.206769
    24 1.920301 0.000000 0.000000 0.227989 0.019477 0.664130
    25 0.858252 0.000000 0.000001 -0.220456 -0.129448 0.532259
    26 2.955714 0.752579 0.160553 3.137409 0.051394 0.196611
    27 1.836088 0.000001 0.000000 0.062217 -0.471971 -0.087210
    28 0.853995 0.000000 0.000000 -0.213937 -0.664232 0.172824
    29 2.964906 -0.017483 0.178523 2.997398 0.320567 0.011815
    30 1.814736 0.000000 0.000000 2.881080 -1.312581 -2.784180
    31 0.982325 0.000000 0.000000 -0.427645 -1.005101 0.261684
    32 2.889732 -0.720928 0.212797 3.132472 0.326541 -0.028218
    33 1.751861 0.000001 0.000000 -3.068504 -1.347266 2.966349
    34 0.853992 -0.000001 0.000000 -0.014402 -0.752369 -0.004453
    35 2.857167 -1.430682 0.078013 -3.102219 0.504132 0.009133
    36 1.152892 0.000000 0.000000 -0.099357 -1.308610 0.028401
    37 0.748464 0.000001 -0.000001 -0.026774 -1.375286 0.016573
    38 4.076793 -10.341875 -4.803430 1.551015 -0.199730 -0.015871
    39 3.630716 -13.300299 -2.563472 1.551015 -0.199730 -0.015871
    40 3.761703 -12.139619 -3.126861 1.690132 -0.199730 -0.015871
    41 3.792901 -9.859504 -3.114183 0.431613 -0.199730 -0.015806
    42 3.629722 -12.330286 -2.480300 1.551009 -0.199730 -0.015806
    43 4.136474 -10.451267 -4.845709 1.551015 -0.199730 -0.015871
    44 -3.838262 -13.308349 -2.588441 1.551859 0.200349 0.005421
    45 -3.961189 -12.144654 -3.147905 1.551859 0.200349 0.005421
    46 -3.972961 -9.869943 -3.135228 0.453743 0.200349 0.005421
    47 -3.897851 -10.848487 -2.821667 1.551941 0.200349 0.005497
    48 -4.357058 -10.330924 -4.803430 1.551859 0.200349 0.005421
  time 17
    0 4.649777 11.103477 -4.961452 -1.158242 0.019516 -1.575090
    1 -0.023288 0.041601 0.000000 -0.004743 -0.017401 0.254452
    2 11.072351 -0.043445 0.000000 0.000000 0.000000 -0.625577
    3 8.108974 0.000000 0.000000 -0.166248 0.015978 0.343059
    4 0.758957 -0.993292 -0.533611 0.779414 0.365978 -0.117263
    5 1.920300 0.000000 0.000000 -0.147591 0.033296 0.418052
    6 0.858252 0.000000 0.000000 0.023447 0.192417 0.210828
    7 2.931401 -0.842324 0.160553 -0.119318 0.031589 -0.174191
    8 1.836086 0.000000 0.000000 -0.075415 0.733120 0.020774
    9 0.853994 0.000000 0.000000 -0.073368 0.576500 0.067407
    10 2.964058 -0.072899 0.178523 0.006507 0.194685 -0.023869
    11 1.814737 0.000000 0.000000 -2.503026 1.428854 -2.547720
    12 0.982325 0.000000 0.000000 0.269311 1.050431 0.264127
    13 2.910365 0.632510 0.212797 0.017766 0.338472 0.002408
    14 1.751859 0.000000 0.000000 -2.835750 1.276527 -2.931322
    15 0.853993 0.000000 0.000000 0.099540 0.764102 0.055830
    16 2.899449 1.342927 0.078012 -0.037959 0.489350 -0.021864
    17 1.152892 0.000000 0.000000 -0.191791 1.509570 -0.027840
    18 0.748463 0.000000 0.000000 0.280999 0.918136 0.080345
    19 -5.011406 11.110565 -4.961452 -3.141592 1.218684 -3.141700
    20 -0.023288 0.041602 0.000000 -0.001698 -0.006442 -1.295835
    21 11.072355 -0.043444 0.000000 0.000000 0.000000 -0.621808
    22 8.108977 0.000000 0.000000 -3.036623 0.006552 0.314108
    23 0.788882 0.969696 -0.533610 2.431000 0.411480 0.206769
    24 1.920301 0.000000 0.000000 0.227989 0.019477 0.664130
    25 0.858252 0.000000 0.000001 -0.220456 -0.129448 0.532259
    26 2.955714 0.752579 0.160553 3.137409 0.051394 0.196611
    27 1.836088 0.000001 0.000000 0.062217 -0.471971 -0.087210
    28 0.853995 0.000000 0.000000 -0.213937 -0.664232 0.172824
    29 2.964906 -0.017483 0.178523 2.997398 0.320567 0.011815
    30 1.814736 0.000000 0.000000 2.881080 -1.312581 -2.784180
    31 0.982325 0.000000 0.000000 -0.427645 -1.005101 0.261684
    32 2.889732 -0.720928 0.212797 3.132472 0.326541 -0.028218
    33 1.751861 0.000001 0.000000 -3.068504 -1.347266 2.966349
    34 0.853992 -0.000001 0.000000 -0.014402 -0.752369 -0.004453
    35 2.857167 -1.430682 0.078013 -3.102219 0.504132 0.009133
    36 1.152892 0.000000 0.000000 -0.099357 -1.308610 0.028401
    37 0.748464 0.000001 -0.000001 -0.026774 -1.375286 0.016573
    38 4.076793 -10.341875 -4.803430 1.548577 -0.199920 -0.012909
    39 3.638529 -13.288580 -2.559566 1.548577 -0.199920 -0.012909
    40 3.765609 -12.135713 -3.119048 1.618084 -0.199920 -0.012909
    41 3.792901 -9.859504 -3.114183 0.429104 -0.199920 -0.012844
    42 3.633629 -12.330286 -2.472487 1.548645 -0.199920 -0.012844
    43 4.140381 -10.451267 -4.845709 1.548577 -0.199920 -0.012909
    44 -3.842168 -13.312256 -2.600160 1.554608 0.200440 0.004207
    45 -3.961189 -12.144654 -3.159624 1.554608 0.200440 0.004207
    46 -3.972961 -9.873850 -3.127415 0.456492 0.200440 0.004207
    47 -3.901757 -10.852394 -2.821667 1.554658 0.200440 0.004207
    48 -4.357058 -10.330924 -4.803430 1.554608 0.200440 0.004207
  time 18
    0 4.649777 11.103477 -4.961452 -1.158242 0.019516 -1.575090
    1 -0.023288 0.041601 0.000000 -0.004623 -0.016940 0.254278
    2 11.072351 -0.043445 0.000000 0.000000 0.000000 -0.626845
    3 8.108974 0.000000 0.000000 -0.166121 0.012725 0.348335
    4 0.758957 -0.993292 -0.533611 0.779414 0.365978 -0.117263
    5 1.920300 0.000000 0.000000 -0.147591 0.033296 0.418052
    6 0.858252 0.000000 0.000000 0.023447 0.192417 0.210828
    7 2.931401 -0.842324 0.160553 -0.119318 0.031589 -0.174191
    8 1.836086 0.000000 0.000000 -0.069076 0.662752 0.023506
    9 0.853994 0.000000 0.000000 -0.128963 0.371740 0.030530
    10 2.964058 -0.072899 0.178523 0.006507 0.194685 -0.023869
    11 1.814737 0.000000 0.000000 -2.503026 1.428854 -2.547720
    12 0.982325 0.000000 0.000000 0.269311 1.050431 0.264127
    13 2.910365 0.632510 0.212797 0.017766 0.338472 0.002408
    14 1.751859 0.000000 0.000000 -2.835750 1.276527 -2.931322
    15 0.853993 0.000000 0.000000 0.099540 0.764102 0.055830
    16 2.899449 1.342927 0.078012 -0.037959 0.489350 -0.021864
    17 1.152892 0.000000 0.000000 -0.191791 1.509570 -0.027840
    18 0.748463 0.000000 0.000000 0.280999 0.918136 0.080345
    19 -5.011406 11.110565 -4.961452 -3.141592 1.218684 -3.141700
    20 -0.023288 0.041602 0.000000 -0.001829 -0.006546 -1.296212
    21 11.072355 -0.043444 0.000000 0.000000 0.000000 -0.622789
    22 8.108977 0.000000 0.000000 -3.036623 0.007290 0.319961
    23 0.788882 0.969696 -0.533610 2.431000 0.411480 0.206769
    24 1.920301 0.000000 0.000000 0.227989 0.019477 0.664130
    25 0.858252 0.000000 0.000001 -0.220456 -0.129448 0.532259
    26 2.955714 0.752579 0.160553 3.137409 0.051394 0.196611
    27 1.836088 0.000001 0.000000 0.062217 -0.471971 -0.087210
    28 0.853995 0.000000 0.000000 -0.213937 -0.664232 0.172824
    29 2.964906 -0.017483 0.178523 2.997398 0.320567 0.011815
    30 1.814736 0.000000 0.000000 2.881080 -1.312581 -2.784180
    31 0.982325 0.000000 0.000000 -0.427645 -1.005101 0.261684
    32 2.889732 -0.720928 0.212797 3.132472 0.326541 -0.028218
    33 1.751861 0.000001 0.000000 -3.068504 -1.347266 2.966349
    34 0.853992 -0.000001 0.000000 -0.014402 -0.752369 -0.004453
    35 2.857167 -1.430682 0.078013 -3.102219 0.504132 0.009133
    36 1.152892 0.000000 0.000000 -0.099357 -1.308610 0.028401
    37 0.748464 0.000001 -0.000001 -0.026774 -1.375286 0.016573
    38 4.076793 -10.341875 -4.803430 1.551015 -0.200063 -0.009288
    39 3.650248 -13.304206 -2.563472 1.551015 -0.200063 -0.009288
    40 3.765609 -12.143526 -3.126861 1.551015 -0.200063 -0.009288
    41 3.792901 -9.859504 -3.114183 0.431613 -0.200063 -0.009289
    42 3.633629 -12.342005 -2.480300 1.551009 -0.200063 -0.009355
    43 4.140381 -10.451267 -4.845709 1.551015 -0.200063 -0.009288
    44 -3.849981 -13.323975 -2.611879 1.558655 0.200440 0.002917
    45 -3.969002 -12.148561 -3.159624 1.558655 0.200440 0.002917
    46 -3.965148 -9.881662 -3.127415 0.460463 0.200440 0.002841
    47 -3.901757 -10.871925 -2.825574 1.558610 0.200440 0.002917
    48 -4.357058 -10.330924 -4.803430 1.558655 0.200440 0.002917
  time 19
    0 4.649777 11.103477 -4.961452 -1.158242 0.019516 -1.575090
    1 -0.023288 0.041601 0.000000 -0.004527 -0.016571 0.253504
    2 11.072351 -0.043445 0.000000 0.000000 0.000000 -0.628834
    3 8.108974 0.000000 0.000000 -0.165610 0.009978 0.360019
    4 0.758957 -0.993292 -0.533611 0.779414 0.365978 -0.117263
    5 1.920300 0.000000 0.000000 -0.147591 0.033296 0.418052
    6 0.858252 0.000000 0.000000 0.023447 0.192417 0.210828
    7 2.931401 -0.842324 0.160553 -0.119318 0.031589 -0.174191
    8 1.836086 0.000000 0.000000 -0.069076 0.662752 0.023506
    9 0.853994 0.000000 0.000000 -0.128963 0.371740 0.030530
    10 2.964058 -0.072899 0.178523 0.006507 0.194685 -0.023869
    11 1.814737 0.000000 0.000000 -2.503026 1.428854 -2.547720
    12 0.982325 0.000000 0.000000 0.269311 1.050431 0.264127
    13 2.910365 0.632510 0.212797 0.017766 0.338472 0.002408
    14 1.751859 0.000000 0.000000 -2.835750 1.276527 -2.931322
    15 0.853993 0.000000 0.000000 0.099540 0.764102 0.055830
    16 2.899449 1.342927 0.078012 -0.037959 0.489350 -0.021864
    17 1.152892 0.000000 0.000000 -0.191791 1.509570 -0.027840
    18 0.748463 0.000000 0.000000 0.280999 0.918136 0.080345
    19 -5.011406 11.110565 -4.961452 -3.141592 1.218684 -3.141700
    20 -0.023288 0.041602 0.000000 -0.001785 -0.006615 -1.296872
    21 11.072355 -0.043444 0.000000 0.000000 0.000000 -0.624023
    22 8.108977 0.000000 0.000000 -3.036623 0.007929 0.327590
    23 0.788882 0.969696 -0.533610 2.431000 0.411480 0.206769
    24 1.920301 0.000000 0.000000 0.227989 0.019477 0.664130
    25 0.858252 0.000000 0.000001 -0.220456 -0.129448 0.532259
    26 2.955714 0.752579 0.160553 3.137409 0.051394 0.196611
    27 1.836088 0.000001 0.000000 0.062217 -0.471971 -0.087210
    28 0.853995 0.000000 0.000000 -0.213937 -0.664232 0.172824
    29 2.964906 -0.017483 0.178523 2.997398 0.320567 0.011815
    30 1.814736 0.000000 0.000000 2.881080 -1.312581 -2.784180
    31 0.982325 0.000000 0.000000 -0.427645 -1.005101 0.261684
    32 2.889732 -0.720928 0.212797 3.132472 0.326541 -0.028218
    33 1.751861 0.000001 0.000000 -3.068504 -1.347266 2.966349
    34 0.853992 -0.000001 0.000000 -0.014402 -0.752369 -0.004453
    35 2.857167 -1.430682 0.078013 -3.102219 0.504132 0.009133
    36 1.152892 0.000000 0.000000 -0.099357 -1.308610 0.028401
    37 0.748464 0.000001 -0.000001 -0.026774 -1.375286 0.016573
    38 4.076793 -10.341875 -4.803430 1.558502 -0.200253 -0.005010
    39 3.665873 -13.315925 -2.590817 1.558502 -0.200253 -0.005010
    40 3.785141 -12.155245 -3.138580 1.558502 -0.200253 -0.005010
    41 3.781182 -9.882942 -3.106370 0.439023 -0.200253 -0.004944
    42 3.653161 -12.361537 -2.492019 1.558451 -0.200253 -0.004944
    43 4.140381 -10.451267 -4.845709 1.558502 -0.200253 -0.005010
    44 -3.861700 -13.327881 -2.623598 1.564076 0.200486 0.001399
    45 -3.969002 -12.160280 -3.171343 1.564076 0.200486 0.001399
    46 -3.965148 -9.885569 -3.127415 0.465808 0.200486 0.001399
    47 -3.901757 -10.875832 -2.825574 1.564127 0.200486 0.001399
    48 -4.357058 -10.330924 -4.803430 1.564076 0.200486 0.001399
  time 20
    0 4.649777 11.103477 -4.961452 -1.158242 0.019516 -1.575090
    1 -0.023288 0.041601 0.000000 -0.004467 -0.016294 0.252149
    2 11.072351 -0.043445 0.000000 0.000000 0.000000 -0.631337
    3 8.108974 0.000000 0.000000 -0.165418 0.007773 0.378047
    4 0.758957 -0.993292 -0.533611 0.779414 0.365978 -0.117263
    5 1.920300 0.000000 0.000000 -0.147591 0.033296 0.418052
    6 0.858252 0.000000 0.000000 0.023447 0.192417 0.210828
    7 2.931401 -0.842324 0.160553 -0.119318 0.031589 -0.174191
    8 1.836086 0.000000 0.000000 -0.069076 0.662752 0.023506
    9 0.853994 0.000000 0.000000 -0.128963 0.371740 0.030530
    10 2.964058 -0.072899 0.178523 0.006507 0.194685 -0.023869
    11 1.814737 0.000000 0.000000 -2.503026 1.428854 -2.547720
    12 0.982325 0.000000 0.000000 0.269311 1.050431 0.264127
    13 2.910365 0.632510 0.212797 0.017766 0.338472 0.002408
    14 1.751859 0.000000 0.000000 -2.835750 1.276527 -2.931322
    15 0.853993 0.000000 0.000000 0.099540 0.764102 0.055830
    16 2.899449 1.342927 0.078012 -0.037959 0.489350 -0.021864
    17 1.152892 0.000000 0.000000 -0.191791 1.509570 -0.027840
    18 0.748463 0.000000 0.000000 0.280999 0.918136 0.080345
    19 -5.011406 11.110565 -4.961452 -3.141592 1.218684 -3.141700
    20 -0.023288 0.041602 0.000000 -0.001829 -0.006650 -1.297343
    21 11.072355 -0.043444 0.000000 0.000000 0.000000 -0.625424
    22 8.108977 0.000000 0.000000 -3.036623 0.008495 0.336896
    23 0.788882 0.969696 -0.533610 2.431000 0.411480 0.206769
    24 1.920301 0.000000 0.000000 0.227989 0.019477 0.664130
    25 0.858252 0.000000 0.000001 -0.220456 -0.129448 0.532259
    26 2.955714 0.752579 0.160553 3.137409 0.051394 0.196611
    27 1.836088 0.000001 0.000000 0.062217 -0.471971 -0.087210
    28 0.853995 0.000000 0.000000 -0.213937 -0.664232 0.172824
    29 2.964906 -0.017483 0.178523 2.997398 0.320567 0.011815
    30 1.814736 0.000000 0.000000 2.881080 -1.312581 -2.784180
    31 0.982325 0.000000 0.000000 -0.427645 -1.005101 0.261684
    32 2.889732 -0.720928 0.212797 3.132472 0.326541 -0.028218
    33 1.751861 0.000001 0.000000 -3.068504 -1.347266 2.966349
    34 0.853992 -0.000001 0.000000 -0.014402 -0.752369 -0.004453
    35 2.857167 -1.430682 0.078013 -3.102219 0.504132 0.009133
    36 1.152892 0.000000 0.000000 -0.099357 -1.308610 0.028401
    37 0.748464 0.000001 -0.000001 -0.026774 -1.375286 0.016573
    38 4.076793 -10.341875 -4.803430 1.570796 -0.200491 -0.000073
    39 3.685405 -13.347176 -2.622068 1.570796 -0.200491 -0.000073
    40 3.796860 -12.170870 -3.158112 1.570796 -0.200491 -0.000073
    41 3.781182 -9.906380 -3.106370 0.451335 -0.200491 -0.000008
    42 3.664880 -12.392788 -2.515457 1.570796 -0.200491 -0.000008
    43 4.140381 -10.451267 -4.845709 1.570796 -0.200491 -0.000073
    44 -3.869513 -13.343506 -2.643130 1.570796 0.200486 -0.000043
    45 -3.980721 -12.171999 -3.179156 1.570796 0.200486 -0.000043
    46 -3.965148 -9.905101 -3.127415 0.472528 0.200486 -0.000043
    47 -3.905664 -10.895364 -2.829480 1.570796 0.200486 -0.000043
    48 -4.357058 -10.330924 -4.803430 1.570796 0.200486 -0.000043
end
