// Created by Crowbar 0.42.0.0
version 1
nodes
  0 "ValveBiped.Bip01_R_Hand" -1
  1 "ValveBiped.Weapon_bone" 0
  2 "shelleject" 1
end
skeleton
  time 0
    0 1.002930 -5.550781 -4.046875 1.608586 1.522395 0.036545
    1 -4.187706 0.113033 -5.128600 0.002695 -0.424336 3.086310
    2 5.191984 1.326212 -0.108422 -1.936488 -0.155373 -1.716769
  time 1
    0 1.002930 -5.550781 -4.046875 1.608586 1.522395 0.036545
    1 -4.187706 0.113033 -5.128600 0.002695 -0.424336 3.086310
    2 5.191984 1.326212 -0.108422 -1.936488 -0.155373 -1.716769
  time 2
    0 1.002930 -5.550781 -4.046875 1.608586 1.522395 0.036545
    1 -4.187706 0.113033 -5.128600 0.002695 -0.424336 3.086310
    2 5.191984 1.326212 -0.108422 -1.936488 -0.155373 -1.716769
  time 3
    0 1.002930 -5.550781 -4.046875 1.608586 1.522395 0.036545
    1 -4.187706 0.113033 -5.128600 0.002695 -0.424336 3.086310
    2 5.191984 1.326212 -0.108422 -1.936488 -0.155373 -1.716769
  time 4
    0 1.002930 -5.550781 -4.046875 1.608586 1.522395 0.036545
    1 -4.187706 0.113033 -5.128600 0.002695 -0.424336 3.086310
    2 5.191984 1.326212 -0.108422 -1.936488 -0.155373 -1.716769
  time 5
    0 1.002930 -5.550781 -4.046875 1.608586 1.522395 0.036545
    1 -4.187706 0.113033 -5.128600 0.002695 -0.424336 3.086310
    2 5.191984 1.326212 -0.108422 -1.936488 -0.155373 -1.716769
  time 6
    0 1.002930 -5.550781 -4.046875 1.608586 1.522395 0.036545
    1 -4.187706 0.113033 -5.128600 0.002695 -0.424336 3.086310
    2 5.191984 1.326212 -0.108422 -1.936488 -0.155373 -1.716769
  time 7
    0 1.002930 -5.550781 -4.046875 1.608586 1.522395 0.036545
    1 -4.187706 0.113033 -5.128600 0.002695 -0.424336 3.086310
    2 5.191984 1.326212 -0.108422 -1.936488 -0.155373 -1.716769
  time 8
    0 1.002930 -5.550781 -4.046875 1.608586 1.522395 0.036545
    1 -4.187706 0.113033 -5.128600 0.002695 -0.424336 3.086310
    2 5.191984 1.326212 -0.108422 -1.936488 -0.155373 -1.716769
  time 9
    0 1.002930 -5.550781 -4.046875 1.608586 1.522395 0.036545
    1 -4.187706 0.113033 -5.128600 0.002695 -0.424336 3.086310
    2 5.191984 1.326212 -0.108422 -1.936488 -0.155373 -1.716769
  time 10
    0 1.002930 -5.550781 -4.046875 1.608586 1.522395 0.036545
    1 -4.187706 0.113033 -5.128600 0.002695 -0.424336 3.086310
    2 5.191984 1.326212 -0.108422 -1.936488 -0.155373 -1.716769
  time 11
    0 1.002930 -5.550781 -4.046875 1.608586 1.522395 0.036545
    1 -4.187706 0.113033 -5.128600 0.002695 -0.424336 3.086310
    2 5.191984 1.326212 -0.108422 -1.936488 -0.155373 -1.716769
  time 12
    0 1.002930 -5.550781 -4.046875 1.608586 1.522395 0.036545
    1 -4.187706 0.113033 -5.128600 0.002695 -0.424336 3.086310
    2 5.191984 1.326212 -0.108422 -1.936488 -0.155373 -1.716769
  time 13
    0 1.002930 -5.550781 -4.046875 1.608586 1.522395 0.036545
    1 -4.187706 0.113033 -5.128600 0.002695 -0.424336 3.086310
    2 5.191984 1.326212 -0.108422 -1.936488 -0.155373 -1.716769
  time 14
    0 1.002930 -5.550781 -4.046875 1.608586 1.522395 0.036545
    1 -4.187706 0.113033 -5.128600 0.002695 -0.424336 3.086310
    2 5.191984 1.326212 -0.108422 -1.936488 -0.155373 -1.716769
  time 15
    0 1.002930 -5.550781 -4.046875 1.608586 1.522395 0.036545
    1 -4.187706 0.113033 -5.128600 0.002695 -0.424336 3.086310
    2 5.191984 1.326212 -0.108422 -1.936488 -0.155373 -1.716769
  time 16
    0 1.002930 -5.550781 -4.046875 1.608586 1.522395 0.036545
    1 -4.187706 0.113033 -5.128600 0.002695 -0.424336 3.086310
    2 5.191984 1.326212 -0.108422 -1.936488 -0.155373 -1.716769
  time 17
    0 1.002930 -5.550781 -4.046875 1.608586 1.522395 0.036545
    1 -4.187706 0.113033 -5.128600 0.002695 -0.424336 3.086310
    2 5.191984 1.326212 -0.108422 -1.936488 -0.155373 -1.716769
  time 18
    0 1.002930 -5.550781 -4.046875 1.608586 1.522395 0.036545
    1 -4.187706 0.113033 -5.128600 0.002695 -0.424336 3.086310
    2 5.191984 1.326212 -0.108422 -1.936488 -0.155373 -1.716769
  time 19
    0 1.002930 -5.550781 -4.046875 1.608586 1.522395 0.036545
    1 -4.187706 0.113033 -5.128600 0.002695 -0.424336 3.086310
    2 5.191984 1.326212 -0.108422 -1.936488 -0.155373 -1.716769
  time 20
    0 1.002930 -5.550781 -4.046875 1.608586 1.522395 0.036545
    1 -4.187706 0.113033 -5.128600 0.002695 -0.424336 3.086310
    2 5.191984 1.326212 -0.108422 -1.936488 -0.155373 -1.716769
  time 21
    0 1.002930 -5.550781 -4.046875 1.608586 1.522395 0.036545
    1 -4.187706 0.113033 -5.128600 0.002695 -0.424336 3.086310
    2 5.191984 1.326212 -0.108422 -1.936488 -0.155373 -1.716769
  time 22
    0 1.002930 -5.550781 -4.046875 1.608586 1.522395 0.036545
    1 -4.187706 0.113033 -5.128600 0.002695 -0.424336 3.086310
    2 5.191984 1.326212 -0.108422 -1.936488 -0.155373 -1.716769
  time 23
    0 1.002930 -5.550781 -4.046875 1.608586 1.522395 0.036545
    1 -4.187706 0.113033 -5.128600 0.002695 -0.424336 3.086310
    2 5.191984 1.326212 -0.108422 -1.936488 -0.155373 -1.716769
  time 24
    0 1.002930 -5.550781 -4.046875 1.608586 1.522395 0.036545
    1 -4.187706 0.113033 -5.128600 0.002695 -0.424336 3.086310
    2 5.191984 1.326212 -0.108422 -1.936488 -0.155373 -1.716769
  time 25
    0 1.002930 -5.550781 -4.046875 1.608586 1.522395 0.036545
    1 -4.187706 0.113033 -5.128600 0.002695 -0.424336 3.086310
    2 5.191984 1.326212 -0.108422 -1.936488 -0.155373 -1.716769
  time 26
    0 1.002930 -5.550781 -4.046875 1.608586 1.522395 0.036545
    1 -4.187706 0.113033 -5.128600 0.002695 -0.424336 3.086310
    2 5.191984 1.326212 -0.108422 -1.936488 -0.155373 -1.716769
  time 27
    0 1.002930 -5.550781 -4.046875 1.608586 1.522395 0.036545
    1 -4.187706 0.113033 -5.128600 0.002695 -0.424336 3.086310
    2 5.191984 1.326212 -0.108422 -1.936488 -0.155373 -1.716769
  time 28
    0 1.002930 -5.550781 -4.046875 1.608586 1.522395 0.036545
    1 -4.187706 0.113033 -5.128600 0.002695 -0.424336 3.086310
    2 5.191984 1.326212 -0.108422 -1.936488 -0.155373 -1.716769
  time 29
    0 1.002930 -5.550781 -4.046875 1.608586 1.522395 0.036545
    1 -4.187706 0.113033 -5.128600 0.002695 -0.424336 3.086310
    2 5.191984 1.326212 -0.108422 -1.936488 -0.155373 -1.716769
  time 30
    0 1.002930 -5.550781 -4.046875 1.608586 1.522395 0.036545
    1 -4.187706 0.113033 -5.128600 0.002695 -0.424336 3.086310
    2 5.191984 1.326212 -0.108422 -1.936488 -0.155373 -1.716769
  time 31
    0 1.002930 -5.550781 -4.046875 1.608586 1.522395 0.036545
    1 -4.187706 0.113033 -5.128600 0.002695 -0.424336 3.086310
    2 5.191984 1.326212 -0.108422 -1.936488 -0.155373 -1.716769
  time 32
    0 1.002930 -5.550781 -4.046875 1.608586 1.522395 0.036545
    1 -4.187706 0.113033 -5.128600 0.002695 -0.424336 3.086310
    2 5.191984 1.326212 -0.108422 -1.936488 -0.155373 -1.716769
  time 33
    0 1.002930 -5.550781 -4.046875 1.608586 1.522395 0.036545
    1 -4.187706 0.113033 -5.128600 0.002695 -0.424336 3.086310
    2 5.191984 1.326212 -0.108422 -1.936488 -0.155373 -1.716769
  time 34
    0 1.002930 -5.550781 -4.046875 1.608586 1.522395 0.036545
    1 -4.187706 0.113033 -5.128600 0.002695 -0.424336 3.086310
    2 5.191984 1.326212 -0.108422 -1.936488 -0.155373 -1.716769
  time 35
    0 1.002930 -5.550781 -4.046875 1.608586 1.522395 0.036545
    1 -4.187706 0.113033 -5.128600 0.002695 -0.424336 3.086310
    2 5.191984 1.326212 -0.108422 -1.936488 -0.155373 -1.716769
  time 36
    0 1.002930 -5.550781 -4.046875 1.608586 1.522395 0.036545
    1 -4.187706 0.113033 -5.128600 0.002695 -0.424336 3.086310
    2 5.191984 1.326212 -0.108422 -1.936488 -0.155373 -1.716769
  time 37
    0 1.002930 -5.550781 -4.046875 1.608586 1.522395 0.036545
    1 -4.187706 0.113033 -5.128600 0.002695 -0.424336 3.086310
    2 5.191984 1.326212 -0.108422 -1.936488 -0.155373 -1.716769
  time 38
    0 1.002930 -5.550781 -4.046875 1.608586 1.522395 0.036545
    1 -4.187706 0.113033 -5.128600 0.002695 -0.424336 3.086310
    2 5.191984 1.326212 -0.108422 -1.936488 -0.155373 -1.716769
  time 39
    0 1.002930 -5.550781 -4.046875 1.608586 1.522395 0.036545
    1 -4.187706 0.113033 -5.128600 0.002695 -0.424336 3.086310
    2 5.191984 1.326212 -0.108422 -1.936488 -0.155373 -1.716769
  time 40
    0 1.002930 -5.550781 -4.046875 1.608586 1.522395 0.036545
    1 -4.187706 0.113033 -5.128600 0.002695 -0.424336 3.086310
    2 5.191984 1.326212 -0.108422 -1.936488 -0.155373 -1.716769
  time 41
    0 1.002930 -5.550781 -4.046875 1.608586 1.522395 0.036545
    1 -4.187706 0.113033 -5.128600 0.002695 -0.424336 3.086310
    2 5.191984 1.326212 -0.108422 -1.936488 -0.155373 -1.716769
  time 42
    0 1.002930 -5.550781 -4.046875 1.608586 1.522395 0.036545
    1 -4.187706 0.113033 -5.128600 0.002695 -0.424336 3.086310
    2 5.191984 1.326212 -0.108422 -1.936488 -0.155373 -1.716769
  time 43
    0 1.002930 -5.550781 -4.046875 1.608586 1.522395 0.036545
    1 -4.187706 0.113033 -5.128600 0.002695 -0.424336 3.086310
    2 5.191984 1.326212 -0.108422 -1.936488 -0.155373 -1.716769
  time 44
    0 1.002930 -5.550781 -4.046875 1.608586 1.522395 0.036545
    1 -4.187706 0.113033 -5.128600 0.002695 -0.424336 3.086310
    2 5.191984 1.326212 -0.108422 -1.936488 -0.155373 -1.716769
  time 45
    0 1.002930 -5.550781 -4.046875 1.608586 1.522395 0.036545
    1 -4.187706 0.113033 -5.128600 0.002695 -0.424336 3.086310
    2 5.191984 1.326212 -0.108422 -1.936488 -0.155373 -1.716769
  time 46
    0 1.002930 -5.550781 -4.046875 1.608586 1.522395 0.036545
    1 -4.187706 0.113033 -5.128600 0.002695 -0.424336 3.086310
    2 5.191984 1.326212 -0.108422 -1.936488 -0.155373 -1.716769
  time 47
    0 1.002930 -5.550781 -4.046875 1.608586 1.522395 0.036545
    1 -4.187706 0.113033 -5.128600 0.002695 -0.424336 3.086310
    2 5.191984 1.326212 -0.108422 -1.936488 -0.155373 -1.716769
  time 48
    0 1.002930 -5.550781 -4.046875 1.608586 1.522395 0.036545
    1 -4.187706 0.113033 -5.128600 0.002695 -0.424336 3.086310
    2 5.191984 1.326212 -0.108422 -1.936488 -0.155373 -1.716769
  time 49
    0 1.002930 -5.550781 -4.046875 1.608586 1.522395 0.036545
    1 -4.187706 0.113033 -5.128600 0.002695 -0.424336 3.086310
    2 5.191984 1.326212 -0.108422 -1.936488 -0.155373 -1.716769
  time 50
    0 1.002930 -5.550781 -4.046875 1.608586 1.522395 0.036545
    1 -4.187706 0.113033 -5.128600 0.002695 -0.424336 3.086310
    2 5.191984 1.326212 -0.108422 -1.936488 -0.155373 -1.716769
  time 51
    0 1.002930 -5.550781 -4.046875 1.608586 1.522395 0.036545
    1 -4.187706 0.113033 -5.128600 0.002695 -0.424336 3.086310
    2 5.191984 1.326212 -0.108422 -1.936488 -0.155373 -1.716769
  time 52
    0 1.002930 -5.550781 -4.046875 1.608586 1.522395 0.036545
    1 -4.187706 0.113033 -5.128600 0.002695 -0.424336 3.086310
    2 5.191984 1.326212 -0.108422 -1.936488 -0.155373 -1.716769
  time 53
    0 1.002930 -5.550781 -4.046875 1.608586 1.522395 0.036545
    1 -4.187706 0.113033 -5.128600 0.002695 -0.424336 3.086310
    2 5.191984 1.326212 -0.108422 -1.936488 -0.155373 -1.716769
  time 54
    0 1.002930 -5.550781 -4.046875 1.608586 1.522395 0.036545
    1 -4.187706 0.113033 -5.128600 0.002695 -0.424336 3.086310
    2 5.191984 1.326212 -0.108422 -1.936488 -0.155373 -1.716769
  time 55
    0 1.002930 -5.550781 -4.046875 1.608586 1.522395 0.036545
    1 -4.187706 0.113033 -5.128600 0.002695 -0.424336 3.086310
    2 5.191984 1.326212 -0.108422 -1.936488 -0.155373 -1.716769
  time 56
    0 1.002930 -5.550781 -4.046875 1.608586 1.522395 0.036545
    1 -4.187706 0.113033 -5.128600 0.002695 -0.424336 3.086310
    2 5.191984 1.326212 -0.108422 -1.936488 -0.155373 -1.716769
  time 57
    0 1.002930 -5.550781 -4.046875 1.608586 1.522395 0.036545
    1 -4.187706 0.113033 -5.128600 0.002695 -0.424336 3.086310
    2 5.191984 1.326212 -0.108422 -1.936488 -0.155373 -1.716769
  time 58
    0 1.002930 -5.550781 -4.046875 1.608586 1.522395 0.036545
    1 -4.187706 0.113033 -5.128600 0.002695 -0.424336 3.086310
    2 5.191984 1.326212 -0.108422 -1.936488 -0.155373 -1.716769
  time 59
    0 1.002930 -5.550781 -4.046875 1.608586 1.522395 0.036545
    1 -4.187706 0.113033 -5.128600 0.002695 -0.424336 3.086310
    2 5.191984 1.326212 -0.108422 -1.936488 -0.155373 -1.716769
  time 60
    0 1.002930 -5.550781 -4.046875 1.608586 1.522395 0.036545
    1 -4.187706 0.113033 -5.128600 0.002695 -0.424336 3.086310
    2 5.191984 1.326212 -0.108422 -1.936488 -0.155373 -1.716769
  time 61
    0 1.002930 -5.550781 -4.046875 1.608586 1.522395 0.036545
    1 -4.187706 0.113033 -5.128600 0.002695 -0.424336 3.086310
    2 5.191984 1.326212 -0.108422 -1.936488 -0.155373 -1.716769
  time 62
    0 1.002930 -5.550781 -4.046875 1.608586 1.522395 0.036545
    1 -4.187706 0.113033 -5.128600 0.002695 -0.424336 3.086310
    2 5.191984 1.326212 -0.108422 -1.936488 -0.155373 -1.716769
  time 63
    0 1.002930 -5.550781 -4.046875 1.608586 1.522395 0.036545
    1 -4.187706 0.113033 -5.128600 0.002695 -0.424336 3.086310
    2 5.191984 1.326212 -0.108422 -1.936488 -0.155373 -1.716769
  time 64
    0 1.002930 -5.550781 -4.046875 1.608586 1.522395 0.036545
    1 -4.187706 0.113033 -5.128600 0.002695 -0.424336 3.086310
    2 5.191984 1.326212 -0.108422 -1.936488 -0.155373 -1.716769
  time 65
    0 1.002930 -5.550781 -4.046875 1.608586 1.522395 0.036545
    1 -4.187706 0.113033 -5.128600 0.002695 -0.424336 3.086310
    2 5.191984 1.326212 -0.108422 -1.936488 -0.155373 -1.716769
  time 66
    0 1.002930 -5.550781 -4.046875 1.608586 1.522395 0.036545
    1 -4.187706 0.113033 -5.128600 0.002695 -0.424336 3.086310
    2 5.191984 1.326212 -0.108422 -1.936488 -0.155373 -1.716769
  time 67
    0 1.002930 -5.550781 -4.046875 1.608586 1.522395 0.036545
    1 -4.187706 0.113033 -5.128600 0.002695 -0.424336 3.086310
    2 5.191984 1.326212 -0.108422 -1.936488 -0.155373 -1.716769
  time 68
    0 1.002930 -5.550781 -4.046875 1.608586 1.522395 0.036545
    1 -4.187706 0.113033 -5.128600 0.002695 -0.424336 3.086310
    2 5.191984 1.326212 -0.108422 -1.936488 -0.155373 -1.716769
  time 69
    0 1.002930 -5.550781 -4.046875 1.608586 1.522395 0.036545
    1 -4.187706 0.113033 -5.128600 0.002695 -0.424336 3.086310
    2 5.191984 1.326212 -0.108422 -1.936488 -0.155373 -1.716769
  time 70
    0 1.002930 -5.550781 -4.046875 1.608586 1.522395 0.036545
    1 -4.187706 0.113033 -5.128600 0.002695 -0.424336 3.086310
    2 5.191984 1.326212 -0.108422 -1.936488 -0.155373 -1.716769
  time 71
    0 1.002930 -5.550781 -4.046875 1.608586 1.522395 0.036545
    1 -4.187706 0.113033 -5.128600 0.002695 -0.424336 3.086310
    2 5.191984 1.326212 -0.108422 -1.936488 -0.155373 -1.716769
  time 72
    0 1.002930 -5.550781 -4.046875 1.608586 1.522395 0.036545
    1 -4.187706 0.113033 -5.128600 0.002695 -0.424336 3.086310
    2 5.191984 1.326212 -0.108422 -1.936488 -0.155373 -1.716769
  time 73
    0 1.002930 -5.550781 -4.046875 1.608586 1.522395 0.036545
    1 -4.187706 0.113033 -5.128600 0.002695 -0.424336 3.086310
    2 5.191984 1.326212 -0.108422 -1.936488 -0.155373 -1.716769
  time 74
    0 1.002930 -5.550781 -4.046875 1.608586 1.522395 0.036545
    1 -4.187706 0.113033 -5.128600 0.002695 -0.424336 3.086310
    2 5.191984 1.326212 -0.108422 -1.936488 -0.155373 -1.716769
  time 75
    0 1.002930 -5.550781 -4.046875 1.608586 1.522395 0.036545
    1 -4.187706 0.113033 -5.128600 0.002695 -0.424336 3.086310
    2 5.191984 1.326212 -0.108422 -1.936488 -0.155373 -1.716769
  time 76
    0 1.002930 -5.550781 -4.046875 1.608586 1.522395 0.036545
    1 -4.187706 0.113033 -5.128600 0.002695 -0.424336 3.086310
    2 5.191984 1.326212 -0.108422 -1.936488 -0.155373 -1.716769
  time 77
    0 1.002930 -5.550781 -4.046875 1.608586 1.522395 0.036545
    1 -4.187706 0.113033 -5.128600 0.002695 -0.424336 3.086310
    2 5.191984 1.326212 -0.108422 -1.936488 -0.155373 -1.716769
  time 78
    0 1.002930 -5.550781 -4.046875 1.608586 1.522395 0.036545
    1 -4.187706 0.113033 -5.128600 0.002695 -0.424336 3.086310
    2 5.191984 1.326212 -0.108422 -1.936488 -0.155373 -1.716769
  time 79
    0 1.002930 -5.550781 -4.046875 1.608586 1.522395 0.036545
    1 -4.187706 0.113033 -5.128600 0.002695 -0.424336 3.086310
    2 5.191984 1.326212 -0.108422 -1.936488 -0.155373 -1.716769
  time 80
    0 1.002930 -5.550781 -4.046875 1.608586 1.522395 0.036545
    1 -4.187706 0.113033 -5.128600 0.002695 -0.424336 3.086310
    2 5.191984 1.326212 -0.108422 -1.936488 -0.155373 -1.716769
  time 81
    0 1.002930 -5.550781 -4.046875 1.608586 1.522395 0.036545
    1 -4.187706 0.113033 -5.128600 0.002695 -0.424336 3.086310
    2 5.191984 1.326212 -0.108422 -1.936488 -0.155373 -1.716769
  time 82
    0 1.002930 -5.550781 -4.046875 1.608586 1.522395 0.036545
    1 -4.187706 0.113033 -5.128600 0.002695 -0.424336 3.086310
    2 5.191984 1.326212 -0.108422 -1.936488 -0.155373 -1.716769
  time 83
    0 1.002930 -5.550781 -4.046875 1.608586 1.522395 0.036545
    1 -4.187706 0.113033 -5.128600 0.002695 -0.424336 3.086310
    2 5.191984 1.326212 -0.108422 -1.936488 -0.155373 -1.716769
  time 84
    0 1.002930 -5.550781 -4.046875 1.608586 1.522395 0.036545
    1 -4.187706 0.113033 -5.128600 0.002695 -0.424336 3.086310
    2 5.191984 1.326212 -0.108422 -1.936488 -0.155373 -1.716769
  time 85
    0 1.002930 -5.550781 -4.046875 1.608586 1.522395 0.036545
    1 -4.187706 0.113033 -5.128600 0.002695 -0.424336 3.086310
    2 5.191984 1.326212 -0.108422 -1.936488 -0.155373 -1.716769
  time 86
    0 1.002930 -5.550781 -4.046875 1.608586 1.522395 0.036545
    1 -4.187706 0.113033 -5.128600 0.002695 -0.424336 3.086310
    2 5.191984 1.326212 -0.108422 -1.936488 -0.155373 -1.716769
  time 87
    0 1.002930 -5.550781 -4.046875 1.608586 1.522395 0.036545
    1 -4.187706 0.113033 -5.128600 0.002695 -0.424336 3.086310
    2 5.191984 1.326212 -0.108422 -1.936488 -0.155373 -1.716769
  time 88
    0 1.002930 -5.550781 -4.046875 1.608586 1.522395 0.036545
    1 -4.187706 0.113033 -5.128600 0.002695 -0.424336 3.086310
    2 5.191984 1.326212 -0.108422 -1.936488 -0.155373 -1.716769
  time 89
    0 1.002930 -5.550781 -4.046875 1.608586 1.522395 0.036545
    1 -4.187706 0.113033 -5.128600 0.002695 -0.424336 3.086310
    2 5.191984 1.326212 -0.108422 -1.936488 -0.155373 -1.716769
  time 90
    0 1.002930 -5.550781 -4.046875 1.608586 1.522395 0.036545
    1 -4.187706 0.113033 -5.128600 0.002695 -0.424336 3.086310
    2 5.191984 1.326212 -0.108422 -1.936488 -0.155373 -1.716769
  time 91
    0 1.002930 -5.550781 -4.046875 1.608586 1.522395 0.036545
    1 -4.187706 0.113033 -5.128600 0.002695 -0.424336 3.086310
    2 5.191984 1.326212 -0.108422 -1.936488 -0.155373 -1.716769
  time 92
    0 1.002930 -5.550781 -4.046875 1.608586 1.522395 0.036545
    1 -4.187706 0.113033 -5.128600 0.002695 -0.424336 3.086310
    2 5.191984 1.326212 -0.108422 -1.936488 -0.155373 -1.716769
  time 93
    0 1.002930 -5.550781 -4.046875 1.608586 1.522395 0.036545
    1 -4.187706 0.113033 -5.128600 0.002695 -0.424336 3.086310
    2 5.191984 1.326212 -0.108422 -1.936488 -0.155373 -1.716769
  time 94
    0 1.002930 -5.550781 -4.046875 1.608586 1.522395 0.036545
    1 -4.187706 0.113033 -5.128600 0.002695 -0.424336 3.086310
    2 5.191984 1.326212 -0.108422 -1.936488 -0.155373 -1.716769
  time 95
    0 1.002930 -5.550781 -4.046875 1.608586 1.522395 0.036545
    1 -4.187706 0.113033 -5.128600 0.002695 -0.424336 3.086310
    2 5.191984 1.326212 -0.108422 -1.936488 -0.155373 -1.716769
  time 96
    0 1.002930 -5.550781 -4.046875 1.608586 1.522395 0.036545
    1 -4.187706 0.113033 -5.128600 0.002695 -0.424336 3.086310
    2 5.191984 1.326212 -0.108422 -1.936488 -0.155373 -1.716769
  time 97
    0 1.002930 -5.550781 -4.046875 1.608586 1.522395 0.036545
    1 -4.187706 0.113033 -5.128600 0.002695 -0.424336 3.086310
    2 5.191984 1.326212 -0.108422 -1.936488 -0.155373 -1.716769
  time 98
    0 1.002930 -5.550781 -4.046875 1.608586 1.522395 0.036545
    1 -4.187706 0.113033 -5.128600 0.002695 -0.424336 3.086310
    2 5.191984 1.326212 -0.108422 -1.936488 -0.155373 -1.716769
  time 99
    0 1.002930 -5.550781 -4.046875 1.608586 1.522395 0.036545
    1 -4.187706 0.113033 -5.128600 0.002695 -0.424336 3.086310
    2 5.191984 1.326212 -0.108422 -1.936488 -0.155373 -1.716769
  time 100
    0 1.002930 -5.550781 -4.046875 1.608586 1.522395 0.036545
    1 -4.187706 0.113033 -5.128600 0.002695 -0.424336 3.086310
    2 5.191984 1.326212 -0.108422 -1.936488 -0.155373 -1.716769
  time 101
    0 1.002930 -5.550781 -4.046875 1.608586 1.522395 0.036545
    1 -4.187706 0.113033 -5.128600 0.002695 -0.424336 3.086310
    2 5.191984 1.326212 -0.108422 -1.936488 -0.155373 -1.716769
  time 102
    0 1.002930 -5.550781 -4.046875 1.608586 1.522395 0.036545
    1 -4.187706 0.113033 -5.128600 0.002695 -0.424336 3.086310
    2 5.191984 1.326212 -0.108422 -1.936488 -0.155373 -1.716769
  time 103
    0 1.002930 -5.550781 -4.046875 1.608586 1.522395 0.036545
    1 -4.187706 0.113033 -5.128600 0.002695 -0.424336 3.086310
    2 5.191984 1.326212 -0.108422 -1.936488 -0.155373 -1.716769
  time 104
    0 1.002930 -5.550781 -4.046875 1.608586 1.522395 0.036545
    1 -4.187706 0.113033 -5.128600 0.002695 -0.424336 3.086310
    2 5.191984 1.326212 -0.108422 -1.936488 -0.155373 -1.716769
  time 105
    0 1.002930 -5.550781 -4.046875 1.608586 1.522395 0.036545
    1 -4.187706 0.113033 -5.128600 0.002695 -0.424336 3.086310
    2 5.191984 1.326212 -0.108422 -1.936488 -0.155373 -1.716769
  time 106
    0 1.002930 -5.550781 -4.046875 1.608586 1.522395 0.036545
    1 -4.187706 0.113033 -5.128600 0.002695 -0.424336 3.086310
    2 5.191984 1.326212 -0.108422 -1.936488 -0.155373 -1.716769
  time 107
    0 1.002930 -5.550781 -4.046875 1.608586 1.522395 0.036545
    1 -4.187706 0.113033 -5.128600 0.002695 -0.424336 3.086310
    2 5.191984 1.326212 -0.108422 -1.936488 -0.155373 -1.716769
  time 108
    0 1.002930 -5.550781 -4.046875 1.608586 1.522395 0.036545
    1 -4.187706 0.113033 -5.128600 0.002695 -0.424336 3.086310
    2 5.191984 1.326212 -0.108422 -1.936488 -0.155373 -1.716769
  time 109
    0 1.002930 -5.550781 -4.046875 1.608586 1.522395 0.036545
    1 -4.187706 0.113033 -5.128600 0.002695 -0.424336 3.086310
    2 5.191984 1.326212 -0.108422 -1.936488 -0.155373 -1.716769
  time 110
    0 1.002930 -5.550781 -4.046875 1.608586 1.522395 0.036545
    1 -4.187706 0.113033 -5.128600 0.002695 -0.424336 3.086310
    2 5.191984 1.326212 -0.108422 -1.936488 -0.155373 -1.716769
  time 111
    0 1.002930 -5.550781 -4.046875 1.608586 1.522395 0.036545
    1 -4.187706 0.113033 -5.128600 0.002695 -0.424336 3.086310
    2 5.191984 1.326212 -0.108422 -1.936488 -0.155373 -1.716769
  time 112
    0 1.002930 -5.550781 -4.046875 1.608586 1.522395 0.036545
    1 -4.187706 0.113033 -5.128600 0.002695 -0.424336 3.086310
    2 5.191984 1.326212 -0.108422 -1.936488 -0.155373 -1.716769
  time 113
    0 1.002930 -5.550781 -4.046875 1.608586 1.522395 0.036545
    1 -4.187706 0.113033 -5.128600 0.002695 -0.424336 3.086310
    2 5.191984 1.326212 -0.108422 -1.936488 -0.155373 -1.716769
  time 114
    0 1.002930 -5.550781 -4.046875 1.608586 1.522395 0.036545
    1 -4.187706 0.113033 -5.128600 0.002695 -0.424336 3.086310
    2 5.191984 1.326212 -0.108422 -1.936488 -0.155373 -1.716769
  time 115
    0 1.002930 -5.550781 -4.046875 1.608586 1.522395 0.036545
    1 -4.187706 0.113033 -5.128600 0.002695 -0.424336 3.086310
    2 5.191984 1.326212 -0.108422 -1.936488 -0.155373 -1.716769
  time 116
    0 1.002930 -5.550781 -4.046875 1.608586 1.522395 0.036545
    1 -4.187706 0.113033 -5.128600 0.002695 -0.424336 3.086310
    2 5.191984 1.326212 -0.108422 -1.936488 -0.155373 -1.716769
  time 117
    0 1.002930 -5.550781 -4.046875 1.608586 1.522395 0.036545
    1 -4.187706 0.113033 -5.128600 0.002695 -0.424336 3.086310
    2 5.191984 1.326212 -0.108422 -1.936488 -0.155373 -1.716769
  time 118
    0 1.002930 -5.550781 -4.046875 1.608586 1.522395 0.036545
    1 -4.187706 0.113033 -5.128600 0.002695 -0.424336 3.086310
    2 5.191984 1.326212 -0.108422 -1.936488 -0.155373 -1.716769
  time 119
    0 1.002930 -5.550781 -4.046875 1.608586 1.522395 0.036545
    1 -4.187706 0.113033 -5.128600 0.002695 -0.424336 3.086310
    2 5.191984 1.326212 -0.108422 -1.936488 -0.155373 -1.716769
  time 120
    0 1.002930 -5.550781 -4.046875 1.608586 1.522395 0.036545
    1 -4.187706 0.113033 -5.128600 0.002695 -0.424336 3.086310
    2 5.191984 1.326212 -0.108422 -1.936488 -0.155373 -1.716769
  time 121
    0 1.002930 -5.550781 -4.046875 1.608586 1.522395 0.036545
    1 -4.187706 0.113033 -5.128600 0.002695 -0.424336 3.086310
    2 5.191984 1.326212 -0.108422 -1.936488 -0.155373 -1.716769
  time 122
    0 1.002930 -5.550781 -4.046875 1.608586 1.522395 0.036545
    1 -4.187706 0.113033 -5.128600 0.002695 -0.424336 3.086310
    2 5.191984 1.326212 -0.108422 -1.936488 -0.155373 -1.716769
  time 123
    0 1.002930 -5.550781 -4.046875 1.608586 1.522395 0.036545
    1 -4.187706 0.113033 -5.128600 0.002695 -0.424336 3.086310
    2 5.191984 1.326212 -0.108422 -1.936488 -0.155373 -1.716769
  time 124
    0 1.002930 -5.550781 -4.046875 1.608586 1.522395 0.036545
    1 -4.187706 0.113033 -5.128600 0.002695 -0.424336 3.086310
    2 5.191984 1.326212 -0.108422 -1.936488 -0.155373 -1.716769
  time 125
    0 1.002930 -5.550781 -4.046875 1.608586 1.522395 0.036545
    1 -4.187706 0.113033 -5.128600 0.002695 -0.424336 3.086310
    2 5.191984 1.326212 -0.108422 -1.936488 -0.155373 -1.716769
  time 126
    0 1.002930 -5.550781 -4.046875 1.608586 1.522395 0.036545
    1 -4.187706 0.113033 -5.128600 0.002695 -0.424336 3.086310
    2 5.191984 1.326212 -0.108422 -1.936488 -0.155373 -1.716769
  time 127
    0 1.002930 -5.550781 -4.046875 1.608586 1.522395 0.036545
    1 -4.187706 0.113033 -5.128600 0.002695 -0.424336 3.086310
    2 5.191984 1.326212 -0.108422 -1.936488 -0.155373 -1.716769
  time 128
    0 1.002930 -5.550781 -4.046875 1.608586 1.522395 0.036545
    1 -4.187706 0.113033 -5.128600 0.002695 -0.424336 3.086310
    2 5.191984 1.326212 -0.108422 -1.936488 -0.155373 -1.716769
  time 129
    0 1.002930 -5.550781 -4.046875 1.608586 1.522395 0.036545
    1 -4.187706 0.113033 -5.128600 0.002695 -0.424336 3.086310
    2 5.191984 1.326212 -0.108422 -1.936488 -0.155373 -1.716769
  time 130
    0 1.002930 -5.550781 -4.046875 1.608586 1.522395 0.036545
    1 -4.187706 0.113033 -5.128600 0.002695 -0.424336 3.086310
    2 5.191984 1.326212 -0.108422 -1.936488 -0.155373 -1.716769
  time 131
    0 1.002930 -5.550781 -4.046875 1.608586 1.522395 0.036545
    1 -4.187706 0.113033 -5.128600 0.002695 -0.424336 3.086310
    2 5.191984 1.326212 -0.108422 -1.936488 -0.155373 -1.716769
  time 132
    0 1.002930 -5.550781 -4.046875 1.608586 1.522395 0.036545
    1 -4.187706 0.113033 -5.128600 0.002695 -0.424336 3.086310
    2 5.191984 1.326212 -0.108422 -1.936488 -0.155373 -1.716769
  time 133
    0 1.002930 -5.550781 -4.046875 1.608586 1.522395 0.036545
    1 -4.187706 0.113033 -5.128600 0.002695 -0.424336 3.086310
    2 5.191984 1.326212 -0.108422 -1.936488 -0.155373 -1.716769
  time 134
    0 1.002930 -5.550781 -4.046875 1.608586 1.522395 0.036545
    1 -4.187706 0.113033 -5.128600 0.002695 -0.424336 3.086310
    2 5.191984 1.326212 -0.108422 -1.936488 -0.155373 -1.716769
  time 135
    0 1.002930 -5.550781 -4.046875 1.608586 1.522395 0.036545
    1 -4.187706 0.113033 -5.128600 0.002695 -0.424336 3.086310
    2 5.191984 1.326212 -0.108422 -1.936488 -0.155373 -1.716769
  time 136
    0 1.002930 -5.550781 -4.046875 1.608586 1.522395 0.036545
    1 -4.187706 0.113033 -5.128600 0.002695 -0.424336 3.086310
    2 5.191984 1.326212 -0.108422 -1.936488 -0.155373 -1.716769
  time 137
    0 1.002930 -5.550781 -4.046875 1.608586 1.522395 0.036545
    1 -4.187706 0.113033 -5.128600 0.002695 -0.424336 3.086310
    2 5.191984 1.326212 -0.108422 -1.936488 -0.155373 -1.716769
  time 138
    0 1.002930 -5.550781 -4.046875 1.608586 1.522395 0.036545
    1 -4.187706 0.113033 -5.128600 0.002695 -0.424336 3.086310
    2 5.191984 1.326212 -0.108422 -1.936488 -0.155373 -1.716769
  time 139
    0 1.002930 -5.550781 -4.046875 1.608586 1.522395 0.036545
    1 -4.187706 0.113033 -5.128600 0.002695 -0.424336 3.086310
    2 5.191984 1.326212 -0.108422 -1.936488 -0.155373 -1.716769
  time 140
    0 1.002930 -5.550781 -4.046875 1.608586 1.522395 0.036545
    1 -4.187706 0.113033 -5.128600 0.002695 -0.424336 3.086310
    2 5.191984 1.326212 -0.108422 -1.936488 -0.155373 -1.716769
  time 141
    0 1.002930 -5.550781 -4.046875 1.608586 1.522395 0.036545
    1 -4.187706 0.113033 -5.128600 0.002695 -0.424336 3.086310
    2 5.191984 1.326212 -0.108422 -1.936488 -0.155373 -1.716769
  time 142
    0 1.002930 -5.550781 -4.046875 1.608586 1.522395 0.036545
    1 -4.187706 0.113033 -5.128600 0.002695 -0.424336 3.086310
    2 5.191984 1.326212 -0.108422 -1.936488 -0.155373 -1.716769
  time 143
    0 1.002930 -5.550781 -4.046875 1.608586 1.522395 0.036545
    1 -4.187706 0.113033 -5.128600 0.002695 -0.424336 3.086310
    2 5.191984 1.326212 -0.108422 -1.936488 -0.155373 -1.716769
  time 144
    0 1.002930 -5.550781 -4.046875 1.608586 1.522395 0.036545
    1 -4.187706 0.113033 -5.128600 0.002695 -0.424336 3.086310
    2 5.191984 1.326212 -0.108422 -1.936488 -0.155373 -1.716769
  time 145
    0 1.002930 -5.550781 -4.046875 1.608586 1.522395 0.036545
    1 -4.187706 0.113033 -5.128600 0.002695 -0.424336 3.086310
    2 5.191984 1.326212 -0.108422 -1.936488 -0.155373 -1.716769
  time 146
    0 1.002930 -5.550781 -4.046875 1.608586 1.522395 0.036545
    1 -4.187706 0.113033 -5.128600 0.002695 -0.424336 3.086310
    2 5.191984 1.326212 -0.108422 -1.936488 -0.155373 -1.716769
  time 147
    0 1.002930 -5.550781 -4.046875 1.608586 1.522395 0.036545
    1 -4.187706 0.113033 -5.128600 0.002695 -0.424336 3.086310
    2 5.191984 1.326212 -0.108422 -1.936488 -0.155373 -1.716769
  time 148
    0 1.002930 -5.550781 -4.046875 1.608586 1.522395 0.036545
    1 -4.187706 0.113033 -5.128600 0.002695 -0.424336 3.086310
    2 5.191984 1.326212 -0.108422 -1.936488 -0.155373 -1.716769
  time 149
    0 1.002930 -5.550781 -4.046875 1.608586 1.522395 0.036545
    1 -4.187706 0.113033 -5.128600 0.002695 -0.424336 3.086310
    2 5.191984 1.326212 -0.108422 -1.936488 -0.155373 -1.716769
  time 150
    0 1.002930 -5.550781 -4.046875 1.608586 1.522395 0.036545
    1 -4.187706 0.113033 -5.128600 0.002695 -0.424336 3.086310
    2 5.191984 1.326212 -0.108422 -1.936488 -0.155373 -1.716769
  time 151
    0 1.002930 -5.550781 -4.046875 1.608586 1.522395 0.036545
    1 -4.187706 0.113033 -5.128600 0.002695 -0.424336 3.086310
    2 5.191984 1.326212 -0.108422 -1.936488 -0.155373 -1.716769
  time 152
    0 1.002930 -5.550781 -4.046875 1.608586 1.522395 0.036545
    1 -4.187706 0.113033 -5.128600 0.002695 -0.424336 3.086310
    2 5.191984 1.326212 -0.108422 -1.936488 -0.155373 -1.716769
  time 153
    0 1.002930 -5.550781 -4.046875 1.608586 1.522395 0.036545
    1 -4.187706 0.113033 -5.128600 0.002695 -0.424336 3.086310
    2 5.191984 1.326212 -0.108422 -1.936488 -0.155373 -1.716769
  time 154
    0 1.002930 -5.550781 -4.046875 1.608586 1.522395 0.036545
    1 -4.187706 0.113033 -5.128600 0.002695 -0.424336 3.086310
    2 5.191984 1.326212 -0.108422 -1.936488 -0.155373 -1.716769
  time 155
    0 1.002930 -5.550781 -4.046875 1.608586 1.522395 0.036545
    1 -4.187706 0.113033 -5.128600 0.002695 -0.424336 3.086310
    2 5.191984 1.326212 -0.108422 -1.936488 -0.155373 -1.716769
  time 156
    0 1.002930 -5.550781 -4.046875 1.608586 1.522395 0.036545
    1 -4.187706 0.113033 -5.128600 0.002695 -0.424336 3.086310
    2 5.191984 1.326212 -0.108422 -1.936488 -0.155373 -1.716769
  time 157
    0 1.002930 -5.550781 -4.046875 1.608586 1.522395 0.036545
    1 -4.187706 0.113033 -5.128600 0.002695 -0.424336 3.086310
    2 5.191984 1.326212 -0.108422 -1.936488 -0.155373 -1.716769
  time 158
    0 1.002930 -5.550781 -4.046875 1.608586 1.522395 0.036545
    1 -4.187706 0.113033 -5.128600 0.002695 -0.424336 3.086310
    2 5.191984 1.326212 -0.108422 -1.936488 -0.155373 -1.716769
  time 159
    0 1.002930 -5.550781 -4.046875 1.608586 1.522395 0.036545
    1 -4.187706 0.113033 -5.128600 0.002695 -0.424336 3.086310
    2 5.191984 1.326212 -0.108422 -1.936488 -0.155373 -1.716769
  time 160
    0 1.002930 -5.550781 -4.046875 1.608586 1.522395 0.036545
    1 -4.187706 0.113033 -5.128600 0.002695 -0.424336 3.086310
    2 5.191984 1.326212 -0.108422 -1.936488 -0.155373 -1.716769
  time 161
    0 1.002930 -5.550781 -4.046875 1.608586 1.522395 0.036545
    1 -4.187706 0.113033 -5.128600 0.002695 -0.424336 3.086310
    2 5.191984 1.326212 -0.108422 -1.936488 -0.155373 -1.716769
  time 162
    0 1.002930 -5.550781 -4.046875 1.608586 1.522395 0.036545
    1 -4.187706 0.113033 -5.128600 0.002695 -0.424336 3.086310
    2 5.191984 1.326212 -0.108422 -1.936488 -0.155373 -1.716769
  time 163
    0 1.002930 -5.550781 -4.046875 1.608586 1.522395 0.036545
    1 -4.187706 0.113033 -5.128600 0.002695 -0.424336 3.086310
    2 5.191984 1.326212 -0.108422 -1.936488 -0.155373 -1.716769
  time 164
    0 1.002930 -5.550781 -4.046875 1.608586 1.522395 0.036545
    1 -4.187706 0.113033 -5.128600 0.002695 -0.424336 3.086310
    2 5.191984 1.326212 -0.108422 -1.936488 -0.155373 -1.716769
  time 165
    0 1.002930 -5.550781 -4.046875 1.608586 1.522395 0.036545
    1 -4.187706 0.113033 -5.128600 0.002695 -0.424336 3.086310
    2 5.191984 1.326212 -0.108422 -1.936488 -0.155373 -1.716769
  time 166
    0 1.002930 -5.550781 -4.046875 1.608586 1.522395 0.036545
    1 -4.187706 0.113033 -5.128600 0.002695 -0.424336 3.086310
    2 5.191984 1.326212 -0.108422 -1.936488 -0.155373 -1.716769
  time 167
    0 1.002930 -5.550781 -4.046875 1.608586 1.522395 0.036545
    1 -4.187706 0.113033 -5.128600 0.002695 -0.424336 3.086310
    2 5.191984 1.326212 -0.108422 -1.936488 -0.155373 -1.716769
  time 168
    0 1.002930 -5.550781 -4.046875 1.608586 1.522395 0.036545
    1 -4.187706 0.113033 -5.128600 0.002695 -0.424336 3.086310
    2 5.191984 1.326212 -0.108422 -1.936488 -0.155373 -1.716769
  time 169
    0 1.002930 -5.550781 -4.046875 1.608586 1.522395 0.036545
    1 -4.187706 0.113033 -5.128600 0.002695 -0.424336 3.086310
    2 5.191984 1.326212 -0.108422 -1.936488 -0.155373 -1.716769
  time 170
    0 1.002930 -5.550781 -4.046875 1.608586 1.522395 0.036545
    1 -4.187706 0.113033 -5.128600 0.002695 -0.424336 3.086310
    2 5.191984 1.326212 -0.108422 -1.936488 -0.155373 -1.716769
  time 171
    0 1.002930 -5.550781 -4.046875 1.608586 1.522395 0.036545
    1 -4.187706 0.113033 -5.128600 0.002695 -0.424336 3.086310
    2 5.191984 1.326212 -0.108422 -1.936488 -0.155373 -1.716769
  time 172
    0 1.002930 -5.550781 -4.046875 1.608586 1.522395 0.036545
    1 -4.187706 0.113033 -5.128600 0.002695 -0.424336 3.086310
    2 5.191984 1.326212 -0.108422 -1.936488 -0.155373 -1.716769
  time 173
    0 1.002930 -5.550781 -4.046875 1.608586 1.522395 0.036545
    1 -4.187706 0.113033 -5.128600 0.002695 -0.424336 3.086310
    2 5.191984 1.326212 -0.108422 -1.936488 -0.155373 -1.716769
  time 174
    0 1.002930 -5.550781 -4.046875 1.608586 1.522395 0.036545
    1 -4.187706 0.113033 -5.128600 0.002695 -0.424336 3.086310
    2 5.191984 1.326212 -0.108422 -1.936488 -0.155373 -1.716769
  time 175
    0 1.002930 -5.550781 -4.046875 1.608586 1.522395 0.036545
    1 -4.187706 0.113033 -5.128600 0.002695 -0.424336 3.086310
    2 5.191984 1.326212 -0.108422 -1.936488 -0.155373 -1.716769
  time 176
    0 1.002930 -5.550781 -4.046875 1.608586 1.522395 0.036545
    1 -4.187706 0.113033 -5.128600 0.002695 -0.424336 3.086310
    2 5.191984 1.326212 -0.108422 -1.936488 -0.155373 -1.716769
  time 177
    0 1.002930 -5.550781 -4.046875 1.608586 1.522395 0.036545
    1 -4.187706 0.113033 -5.128600 0.002695 -0.424336 3.086310
    2 5.191984 1.326212 -0.108422 -1.936488 -0.155373 -1.716769
  time 178
    0 1.002930 -5.550781 -4.046875 1.608586 1.522395 0.036545
    1 -4.187706 0.113033 -5.128600 0.002695 -0.424336 3.086310
    2 5.191984 1.326212 -0.108422 -1.936488 -0.155373 -1.716769
  time 179
    0 1.002930 -5.550781 -4.046875 1.608586 1.522395 0.036545
    1 -4.187706 0.113033 -5.128600 0.002695 -0.424336 3.086310
    2 5.191984 1.326212 -0.108422 -1.936488 -0.155373 -1.716769
  time 180
    0 1.002930 -5.550781 -4.046875 1.608586 1.522395 0.036545
    1 -4.187706 0.113033 -5.128600 0.002695 -0.424336 3.086310
    2 5.191984 1.326212 -0.108422 -1.936488 -0.155373 -1.716769
  time 181
    0 1.002930 -5.550781 -4.046875 1.608586 1.522395 0.036545
    1 -4.187706 0.113033 -5.128600 0.002695 -0.424336 3.086310
    2 5.191984 1.326212 -0.108422 -1.936488 -0.155373 -1.716769
  time 182
    0 1.002930 -5.550781 -4.046875 1.608586 1.522395 0.036545
    1 -4.187706 0.113033 -5.128600 0.002695 -0.424336 3.086310
    2 5.191984 1.326212 -0.108422 -1.936488 -0.155373 -1.716769
end
