
$cd 92fs
$mostlyopaque
$modelname	jessev92/css/weapons/heat/92fs_w
$model	92FS	w
$SurfaceProp 	weapon
$Contents		solid
$CDMaterials	models/jessev92/css/weapons/heat/92fs
$CDMaterials	models/weapons/v_models/hands
$Attachment		muzzle	muzzle 0 0 0 rotate 0 0 0
$Attachment		eject	eject 0 0 0 rotate 0 0 0
$CBox			0 0 0 0 0 0
$BBox			-0.001 -0.554 -2.184 12.148 1.42 4.966
$illumposition	0 1 0
$Sequence		idle {	w	fps 30	}
$CollisionModel	w_phy
{
	$mass 5
	$inertia 1
	$damping 0
	$rotdamping 0
	$concave
}

$KeyValues
{
	prop_data 
	{
		"base" "Metal.Small"
	}
}
