
$cd akms
$mostlyopaque
$modelname		jessev92/css/weapons/heat/type561_w
$model	"Type 56-1"	w
$SurfaceProp 	weapon
$Contents		solid
$CDMaterials	models/jessev92/css/weapons/heat/type561
$CDMaterials	models/weapons/v_models/hands
$Attachment		muzzle	muzzle 0 0 0 rotate 0 0 0
$Attachment		eject	eject 0 0 0 rotate 0 0 0
$Sequence		idle {	w	fps 30	}
$CollisionModel	w_phy
{
	$mass 5
	$inertia 1
	$damping 0
	$rotdamping 0
	$concave
}

$KeyValues
{
	prop_data 
	{
		"base" "Metal.Small"
	}
}
