
$cd galil
$mostlyopaque
$modelname		jessev92/css/weapons/heat/galil_arm_bipod_w
$model	"Galil ARM"	w_bipod
$SurfaceProp	weapon
$Contents		solid
$CDMaterials	models/jessev92/css/weapons/heat/galil
$CDMaterials	models/weapons/v_models/hands
$attachment		muzzle	muzzle 0 0 0 rotate 0 0 0
$attachment		eject	eject 0 0 0 rotate 0 0 0
$Sequence	idle	{	w	fps 30	}

$CollisionModel	w_bipod_phy
{
	$mass 10
	$inertia 1
	$damping 0
	$rotdamping 0
	$concave
}

$KeyValues
{
	prop_data 
	{
		"base" "Metal.Small"
	}
}
