
$cd m16a1
$mostlyopaque
$modelname	jessev92/css/weapons/heat/m16a1_w
$model	M16A1	w
$SurfaceProp 	weapon
$Contents		solid
$CDMaterials	models/jessev92/css/weapons/heat/m16a1
$CDMaterials	models/weapons/v_models/hands
$Attachment		muzzle	muzzle 0 0 0 rotate 0 0 0
$Attachment		eject	eject 0 0 0 rotate 0 0 0
$CBox			0 0 0 0 0 0
$BBox -10.697 -1.243 -4.643 32.471 2.93 7.823
$Sequence		idle {	w	fps 30	}
$CollisionModel	w_phy
{
	$mass 5
	$inertia 1
	$damping 0
	$rotdamping 0
	$concave
}

$KeyValues
{
	prop_data 
	{
		"base" "Metal.Small"
	}
}
