
$cd megastar
$mostlyopaque
$modelname	jessev92/css/weapons/heat/megastar_w
$model	Megastar	w
$SurfaceProp 	weapon
$Contents		solid
$CDMaterials	models/jessev92/css/weapons/heat/megastar
$CDMaterials	models/weapons/v_models/hands
$Attachment		muzzle_r	muzzle_r 0 0 0 rotate 0 0 0
$Attachment		eject_r	eject_r 0 0 0 rotate 0 0 0
$BBox 0 -5.543 -3.308 12.897 10.026 5.102
$Sequence		idle {	w	fps 30	}
$CollisionModel	w_phy
{
	$mass 5
	$inertia 1
	$damping 0
	$rotdamping 0
	$concave
}

$KeyValues
{
	prop_data 
	{
		"base" "Metal.Small"
	}
}
