
$mostlyopaque
$cd				officer
$modelname		jessev92/css/weapons/heat/officer_v
$model	"Colt Officer .45"	v
$SurfaceProp	weapon
$Contents		solid
$CDMaterials	models/jessev92/css/weapons/heat/officer
$CDMaterials	models/weapons/v_models/hands

$Attachment "muzzle" "muzzle" 0 0 0 rotate 0 0 0
$Attachment "eject" "eject" 0 0 0 rotate 0 0 0

$BBox -9.858 -14.43 -8.537 14.187 4.166 0.4

// $HBoxSet "default"


$Sequence "idle" {
	"v_pist_fiveseven_anims\idle.smd"
	activity "ACT_VM_IDLE" 1
	snap
	fps 16
}

$Sequence "shoot1" {
	"v_pist_fiveseven_anims\shoot1.smd"
	activity "ACT_VM_PRIMARYATTACK" 1
	//{ event 5001 0 "1" }
	//{ event AE_CLIENT_EFFECT_ATTACH 0 "EjectBrass_57 2 100" }
	snap
	fps 36
}

$Sequence "shoot2" {
	"v_pist_fiveseven_anims\shoot2.smd"
	activity "ACT_VM_PRIMARYATTACK" 1
	//{ event 5001 0 "1" }
	//{ event AE_CLIENT_EFFECT_ATTACH 0 "EjectBrass_57 2 100" }
	snap
	fps 36
}

$Sequence "shoot_empty" {
	"v_pist_fiveseven_anims\shoot_empty.smd"
	activity "ACT_VM_DRYFIRE" 1
	//{ event 5001 0 "11" }
	snap
	fps 36
}

$Sequence "reload" {
	"v_pist_fiveseven_anims\reload.smd"
	activity "ACT_VM_RELOAD" 1
	{ event AE_CL_PLAYSOUND 9 "HEAT_Officer.MagOut" }
	{ event AE_CL_PLAYSOUND 39 "HEAT_Officer.MagIn" }
	{ event AE_CL_PLAYSOUND 60 "HEAT_Officer.SlideRelease" }
	snap
	fps 25.1
}

$Sequence "draw" {
	"v_pist_fiveseven_anims\draw.smd"
	activity "ACT_VM_DRAW" 1
	{ event AE_CL_PLAYSOUND 10 "HEAT_Officer.Back" }
	{ event AE_CL_PLAYSOUND 18 "HEAT_Officer.Forward" }
	snap
	fps 30
}
