
$cd p220
$mostlyopaque
$modelname	jessev92/css/weapons/heat/p220_v
$model	P220	v_pist_p228_reference
$SurfaceProp	weapon
$Contents		solid
$CDMaterials	models/jessev92/css/weapons/heat/p220
$CDMaterials	models/weapons/v_models/hands
$Attachment "muzzle" "Body" 0 -4.7 1.6 rotate 0 0 0
$Attachment "eject" "Body" 0 -0.1 2 rotate -40 0 -180
$BBox -7.821 -7.723 -9.915 14.481 4.387 1.572
$Sequence "idle1" {
	"v_pist_p228_anims\idle1.smd"
	activity "ACT_VM_IDLE" 1
	snap
	fps 35
}

$Sequence "shoot1" {
	"v_pist_p228_anims\shoot1.smd"
	activity "ACT_VM_PRIMARYATTACK" 1
	//{ event AE_CL_EVENT_MUZZLEFLASH0 0 "1" }
	//{ event AE_CLIENT_EFFECT_ATTACH 0 "EjectBrass_9mm 2 100" }
	snap
	fps 40
}

$Sequence "shoot2" {
	"v_pist_p228_anims\shoot2.smd"
	activity "ACT_VM_PRIMARYATTACK" 1
	//{ event AE_CL_EVENT_MUZZLEFLASH0 0 "1" }
	//{ event AE_CLIENT_EFFECT_ATTACH 0 "EjectBrass_9mm 2 100" }
	snap
	fps 40
}

$Sequence "shoot3" {
	"v_pist_p228_anims\shoot3.smd"
	activity "ACT_VM_PRIMARYATTACK" 1
	//{ event AE_CL_EVENT_MUZZLEFLASH0 0 "1" }
	//{ event AE_CLIENT_EFFECT_ATTACH 0 "EjectBrass_9mm 2 100" }
	snap
	fps 40
}

$Sequence "shoot_empty" {
	"v_pist_p228_anims\shoot_empty.smd"
	activity "ACT_VM_DRYFIRE" 1
	//{ event AE_CL_EVENT_MUZZLEFLASH0 0 "21" }
	snap
	fps 40
}

$Sequence "reload" {
	"v_pist_p228_anims\reload.smd"
	activity "ACT_VM_RELOAD" 1
	{ event AE_CL_PLAYSOUND 10 "HEAT_P220.MagOut" }
	{ event AE_CL_PLAYSOUND 42 "HEAT_P220.MagIn" }
	{ event AE_CL_PLAYSOUND 58 "HEAT_P220.SlideRelease" }
	snap
	fps 35
}

$Sequence "draw" {
	"v_pist_p228_anims\draw.smd"
	activity "ACT_VM_DRAW" 1
	{ event AE_CL_PLAYSOUND 0 "HEAT_P220.Draw" }
	snap
	fps 35
}
