// Created by Crowbar 0.29.0.0
version 1
nodes
  0 "ValveBiped" -1
  1 "ValveBiped.weapon_bone" 0
  2 "ValveBiped.weapon_bone_Clip" 1
  3 "ValveBiped.flash" 1
end
skeleton
  time 0
    0 0.000000 0.000000 0.000000 1.570796 0.000000 0.000000
    1 1.227019 4.371634 5.825668 0.000000 0.000000 0.000000
    2 -0.365569 -4.566531 -2.077255 0.000000 0.000000 0.000000
    3 -0.580306 -0.570495 3.973946 0.005175 0.000000 0.000000
end
triangles
  phy
    0 0.162557 -1.545904 -0.971177 -0.079188 0.607144 -0.790636 0 0
    0 0.163795 -2.039329 2.770639 0.914861 -0.198931 -0.351364 0 0
    0 0.408293 -1.768382 3.165532 -0.994631 -0.094775 0.041566 0 0
  phy
    0 0.408293 -1.768382 3.165532 -0.994631 -0.094775 0.041566 0 0
    0 0.163795 -2.039329 2.770639 0.914861 -0.198931 -0.351364 0 0
    0 0.084800 -2.801754 4.307779 0.956799 0.051158 -0.286215 0 0
  phy
    0 0.163795 -2.039329 2.770639 0.914861 -0.198931 -0.351364 0 0
    0 0.162557 -1.545904 -0.971177 -0.079188 0.607144 -0.790636 0 0
    0 -0.008048 -3.018194 3.148402 0.010313 -0.941480 -0.336910 0 0
  phy
    0 0.163795 -2.039329 2.770639 0.914861 -0.198931 -0.351364 0 0
    0 -0.008048 -3.018194 3.148402 0.010313 -0.941480 -0.336910 0 0
    0 0.084800 -2.801754 4.307779 0.956799 0.051158 -0.286215 0 0
  phy
    0 -0.008048 -3.018194 3.148402 0.010313 -0.941480 -0.336910 0 0
    0 -0.008212 -5.676709 3.135691 0.004153 -0.874816 -0.484437 0 0
    0 0.058594 -5.645757 4.267248 0.010313 -0.941480 -0.336910 0 0
  phy
    0 0.058594 -5.645757 4.267248 0.010313 -0.941480 -0.336910 0 0
    0 -0.008212 -5.676709 3.135691 0.004153 -0.874816 -0.484437 0 0
    0 0.035801 -8.649497 3.869988 -0.023446 0.996858 -0.075664 0 0
  phy
    0 -0.008212 -5.676709 3.135691 0.004153 -0.874816 -0.484437 0 0
    0 -0.034558 -3.678162 2.027165 -0.935787 -0.071060 -0.345331 0 0
    0 -0.034675 -2.723041 -0.867869 0.020197 0.200003 -0.979587 0 0
  phy
    0 -0.008212 -5.676709 3.135691 0.004153 -0.874816 -0.484437 0 0
    0 -0.034675 -2.723041 -0.867869 0.020197 0.200003 -0.979587 0 0
    0 0.035801 -8.649497 3.869988 -0.023446 0.996858 -0.075664 0 0
  phy
    0 0.035801 -8.649497 3.869988 -0.023446 0.996858 -0.075664 0 0
    0 -0.034675 -2.723041 -0.867869 0.020197 0.200003 -0.979587 0 0
    0 0.058300 -10.035080 3.835692 0.020197 0.200003 -0.979587 0 0
  phy
    0 -0.034558 -3.678162 2.027165 -0.935787 -0.071060 -0.345331 0 0
    0 -0.008212 -5.676709 3.135691 0.004153 -0.874816 -0.484437 0 0
    0 -0.008048 -3.018194 3.148402 0.010313 -0.941480 -0.336910 0 0
  phy
    0 0.162530 -1.598343 -1.367891 -0.007920 -0.821692 -0.569877 0 0
    0 0.162557 -1.545904 -0.971177 -0.079188 0.607144 -0.790636 0 0
    0 0.553321 -1.491819 -1.367928 -0.839222 0.319192 0.440252 0 0
  phy
    0 0.162557 -1.545904 -0.971177 -0.079188 0.607144 -0.790636 0 0
    0 0.408293 -1.768382 3.165532 -0.994631 -0.094775 0.041566 0 0
    0 0.553321 -1.491819 -1.367928 -0.839222 0.319192 0.440252 0 0
  phy
    0 0.162557 -1.545904 -0.971177 -0.079188 0.607144 -0.790636 0 0
    0 0.162530 -1.598343 -1.367891 -0.007920 -0.821692 -0.569877 0 0
    0 -0.034675 -2.723041 -0.867869 0.020197 0.200003 -0.979587 0 0
  phy
    0 -0.008048 -3.018194 3.148402 0.010313 -0.941480 -0.336910 0 0
    0 0.162557 -1.545904 -0.971177 -0.079188 0.607144 -0.790636 0 0
    0 -0.034675 -2.723041 -0.867869 0.020197 0.200003 -0.979587 0 0
  phy
    0 -0.034558 -3.678162 2.027165 -0.935787 -0.071060 -0.345331 0 0
    0 -0.008048 -3.018194 3.148402 0.010313 -0.941480 -0.336910 0 0
    0 -0.034675 -2.723041 -0.867869 0.020197 0.200003 -0.979587 0 0
  phy
    0 0.058594 -5.645757 4.267248 0.010313 -0.941480 -0.336910 0 0
    0 0.035801 -8.649497 3.869988 -0.023446 0.996858 -0.075664 0 0
    0 0.058300 -10.035080 3.835692 0.020197 0.200003 -0.979587 0 0
  phy
    0 0.058594 -5.645757 4.267248 0.010313 -0.941480 -0.336910 0 0
    0 0.058300 -10.035080 3.835692 0.020197 0.200003 -0.979587 0 0
    0 0.180214 -10.364125 4.353496 -0.915371 0.386252 -0.113605 0 0
  phy
    0 0.323394 -3.166835 4.658372 -0.796185 -0.604826 -0.016576 0 0
    0 0.058594 -5.645757 4.267248 0.010313 -0.941480 -0.336910 0 0
    0 0.180214 -10.364125 4.353496 -0.915371 0.386252 -0.113605 0 0
  phy
    0 0.058594 -5.645757 4.267248 0.010313 -0.941480 -0.336910 0 0
    0 0.323394 -3.166835 4.658372 -0.796185 -0.604826 -0.016576 0 0
    0 0.084800 -2.801754 4.307779 0.956799 0.051158 -0.286215 0 0
  phy
    0 -0.008048 -3.018194 3.148402 0.010313 -0.941480 -0.336910 0 0
    0 0.058594 -5.645757 4.267248 0.010313 -0.941480 -0.336910 0 0
    0 0.084800 -2.801754 4.307779 0.956799 0.051158 -0.286215 0 0
  phy
    0 0.180214 -10.364125 4.353496 -0.915371 0.386252 -0.113605 0 0
    0 0.809883 -10.364158 4.404273 0.932460 -0.349180 0.092688 0 0
    0 0.323394 -3.166835 4.658372 -0.796185 -0.604826 -0.016576 0 0
  phy
    0 0.809883 -10.364158 4.404273 0.932460 -0.349180 0.092688 0 0
    0 0.813446 -3.037371 4.637912 -0.031799 0.998019 0.054281 0 0
    0 0.323394 -3.166835 4.658372 -0.796185 -0.604826 -0.016576 0 0
  phy
    0 0.323394 -3.166835 4.658372 -0.796185 -0.604826 -0.016576 0 0
    0 0.813446 -3.037371 4.637912 -0.031799 0.998019 0.054281 0 0
    0 0.084800 -2.801754 4.307779 0.956799 0.051158 -0.286215 0 0
  phy
    0 1.047927 -10.035141 3.835632 0.932460 -0.349180 0.092688 0 0
    0 1.114983 -4.122466 3.141223 0.642898 0.196864 0.740220 0 0
    0 1.048204 -5.998645 4.267230 -0.031799 0.998019 0.054281 0 0
  phy
    0 1.114983 -4.122466 3.141223 0.642898 0.196864 0.740220 0 0
    0 1.063503 -3.410361 4.243005 -0.008925 -0.997530 0.069677 0 0
    0 1.048204 -5.998645 4.267230 -0.031799 0.998019 0.054281 0 0
  phy
    0 1.220141 -2.638138 -1.310748 -0.472686 -0.861513 0.185374 0 0
    0 1.063503 -3.410361 4.243005 -0.008925 -0.997530 0.069677 0 0
    0 1.114983 -4.122466 3.141223 0.642898 0.196864 0.740220 0 0
  phy
    0 1.220141 -2.638138 -1.310748 -0.472686 -0.861513 0.185374 0 0
    0 1.048403 -2.801818 4.266838 0.970158 -0.154979 0.186478 0 0
    0 1.063503 -3.410361 4.243005 -0.008925 -0.997530 0.069677 0 0
  phy
    0 1.047927 -10.035141 3.835632 0.932460 -0.349180 0.092688 0 0
    0 1.220141 -2.638138 -1.310748 -0.472686 -0.861513 0.185374 0 0
    0 1.114983 -4.122466 3.141223 0.642898 0.196864 0.740220 0 0
  phy
    0 0.813446 -3.037371 4.637912 -0.031799 0.998019 0.054281 0 0
    0 1.063503 -3.410361 4.243005 -0.008925 -0.997530 0.069677 0 0
    0 1.048403 -2.801818 4.266838 0.970158 -0.154979 0.186478 0 0
  phy
    0 0.813446 -3.037371 4.637912 -0.031799 0.998019 0.054281 0 0
    0 1.048204 -5.998645 4.267230 -0.031799 0.998019 0.054281 0 0
    0 1.063503 -3.410361 4.243005 -0.008925 -0.997530 0.069677 0 0
  phy
    0 0.408293 -1.768382 3.165532 -0.994631 -0.094775 0.041566 0 0
    0 1.048403 -2.801818 4.266838 0.970158 -0.154979 0.186478 0 0
    0 0.943285 -2.039377 2.770591 0.038216 -0.701476 0.711668 0 0
  phy
    0 1.048403 -2.801818 4.266838 0.970158 -0.154979 0.186478 0 0
    0 0.408293 -1.768382 3.165532 -0.994631 -0.094775 0.041566 0 0
    0 0.813446 -3.037371 4.637912 -0.031799 0.998019 0.054281 0 0
  phy
    0 1.048403 -2.801818 4.266838 0.970158 -0.154979 0.186478 0 0
    0 1.220141 -2.638138 -1.310748 -0.472686 -0.861513 0.185374 0 0
    0 0.943285 -2.039377 2.770591 0.038216 -0.701476 0.711668 0 0
  phy
    0 0.162530 -1.598343 -1.367891 -0.007920 -0.821692 -0.569877 0 0
    0 0.776871 -2.068059 -1.532470 -0.131461 0.808577 0.573516 0 0
    0 0.156366 -3.655600 -1.352337 0.544568 0.838717 -0.000057 0 0
  phy
    0 0.776871 -2.068059 -1.532470 -0.131461 0.808577 0.573516 0 0
    0 0.162530 -1.598343 -1.367891 -0.007920 -0.821692 -0.569877 0 0
    0 0.553321 -1.491819 -1.367928 -0.839222 0.319192 0.440252 0 0
  phy
    0 -0.034675 -2.723041 -0.867869 0.020197 0.200003 -0.979587 0 0
    0 0.162530 -1.598343 -1.367891 -0.007920 -0.821692 -0.569877 0 0
    0 0.156366 -3.655600 -1.352337 0.544568 0.838717 -0.000057 0 0
  phy
    0 0.234992 -10.364293 3.003529 0.544569 0.838716 -0.000014 0 0
    0 0.871096 -10.364333 3.003490 0.932460 -0.349180 0.092688 0 0
    0 0.180214 -10.364125 4.353496 -0.915371 0.386252 -0.113605 0 0
  phy
    0 0.180214 -10.364125 4.353496 -0.915371 0.386252 -0.113605 0 0
    0 0.871096 -10.364333 3.003490 0.932460 -0.349180 0.092688 0 0
    0 0.809883 -10.364158 4.404273 0.932460 -0.349180 0.092688 0 0
  phy
    0 0.180214 -10.364125 4.353496 -0.915371 0.386252 -0.113605 0 0
    0 0.058300 -10.035080 3.835692 0.020197 0.200003 -0.979587 0 0
    0 0.234992 -10.364293 3.003529 0.544569 0.838716 -0.000014 0 0
  phy
    0 0.408293 -1.768382 3.165532 -0.994631 -0.094775 0.041566 0 0
    0 0.084800 -2.801754 4.307779 0.956799 0.051158 -0.286215 0 0
    0 0.813446 -3.037371 4.637912 -0.031799 0.998019 0.054281 0 0
  phy
    0 0.944129 -1.545952 -0.971224 0.038216 -0.701476 0.711668 0 0
    0 0.408293 -1.768382 3.165532 -0.994631 -0.094775 0.041566 0 0
    0 0.943285 -2.039377 2.770591 0.038216 -0.701476 0.711668 0 0
  phy
    0 0.408293 -1.768382 3.165532 -0.994631 -0.094775 0.041566 0 0
    0 0.944129 -1.545952 -0.971224 0.038216 -0.701476 0.711668 0 0
    0 0.553321 -1.491819 -1.367928 -0.839222 0.319192 0.440252 0 0
  phy
    0 -0.034675 -2.723041 -0.867869 0.020197 0.200003 -0.979587 0 0
    0 0.156366 -3.655600 -1.352337 0.544568 0.838717 -0.000057 0 0
    0 0.234992 -10.364293 3.003529 0.544569 0.838716 -0.000014 0 0
  phy
    0 -0.034675 -2.723041 -0.867869 0.020197 0.200003 -0.979587 0 0
    0 0.234992 -10.364293 3.003529 0.544569 0.838716 -0.000014 0 0
    0 0.058300 -10.035080 3.835692 0.020197 0.200003 -0.979587 0 0
  phy
    0 1.048204 -5.998645 4.267230 -0.031799 0.998019 0.054281 0 0
    0 0.809883 -10.364158 4.404273 0.932460 -0.349180 0.092688 0 0
    0 1.047927 -10.035141 3.835632 0.932460 -0.349180 0.092688 0 0
  phy
    0 1.048204 -5.998645 4.267230 -0.031799 0.998019 0.054281 0 0
    0 0.813446 -3.037371 4.637912 -0.031799 0.998019 0.054281 0 0
    0 0.809883 -10.364158 4.404273 0.932460 -0.349180 0.092688 0 0
  phy
    0 0.944129 -1.545952 -0.971224 0.038216 -0.701476 0.711668 0 0
    0 1.220141 -2.638138 -1.310748 -0.472686 -0.861513 0.185374 0 0
    0 0.776871 -2.068059 -1.532470 -0.131461 0.808577 0.573516 0 0
  phy
    0 0.776871 -2.068059 -1.532470 -0.131461 0.808577 0.573516 0 0
    0 0.553321 -1.491819 -1.367928 -0.839222 0.319192 0.440252 0 0
    0 0.944129 -1.545952 -0.971224 0.038216 -0.701476 0.711668 0 0
  phy
    0 0.943285 -2.039377 2.770591 0.038216 -0.701476 0.711668 0 0
    0 1.220141 -2.638138 -1.310748 -0.472686 -0.861513 0.185374 0 0
    0 0.944129 -1.545952 -0.971224 0.038216 -0.701476 0.711668 0 0
  phy
    0 0.776871 -2.068059 -1.532470 -0.131461 0.808577 0.573516 0 0
    0 0.943977 -3.632079 -1.367691 0.290182 0.432691 0.853565 0 0
    0 0.156366 -3.655600 -1.352337 0.544568 0.838717 -0.000057 0 0
  phy
    0 0.943977 -3.632079 -1.367691 0.290182 0.432691 0.853565 0 0
    0 0.776871 -2.068059 -1.532470 -0.131461 0.808577 0.573516 0 0
    0 1.220141 -2.638138 -1.310748 -0.472686 -0.861513 0.185374 0 0
  phy
    0 0.943977 -3.632079 -1.367691 0.290182 0.432691 0.853565 0 0
    0 0.234992 -10.364293 3.003529 0.544569 0.838716 -0.000014 0 0
    0 0.156366 -3.655600 -1.352337 0.544568 0.838717 -0.000057 0 0
  phy
    0 0.234992 -10.364293 3.003529 0.544569 0.838716 -0.000014 0 0
    0 0.943977 -3.632079 -1.367691 0.290182 0.432691 0.853565 0 0
    0 0.871096 -10.364333 3.003490 0.932460 -0.349180 0.092688 0 0
  phy
    0 1.220141 -2.638138 -1.310748 -0.472686 -0.861513 0.185374 0 0
    0 0.871096 -10.364333 3.003490 0.932460 -0.349180 0.092688 0 0
    0 0.943977 -3.632079 -1.367691 0.290182 0.432691 0.853565 0 0
  phy
    0 1.047927 -10.035141 3.835632 0.932460 -0.349180 0.092688 0 0
    0 0.871096 -10.364333 3.003490 0.932460 -0.349180 0.092688 0 0
    0 1.220141 -2.638138 -1.310748 -0.472686 -0.861513 0.185374 0 0
  phy
    0 0.809883 -10.364158 4.404273 0.932460 -0.349180 0.092688 0 0
    0 0.871096 -10.364333 3.003490 0.932460 -0.349180 0.092688 0 0
    0 1.047927 -10.035141 3.835632 0.932460 -0.349180 0.092688 0 0
end
