
VertexLitGeneric
{

	$basetexture				models/jessev92/css/weapons/heat/car15/lower_d
	$bumpmap					dev/bump_normal
	$lightwarptexture			dev/identitylightwarp
	
	$halflambert				1
	$ambientocclusion			1

	$phong						1
 	$phongexponenttexture		dev/bump_dudv
	
}
