// Created by Crowbar 0.42.0.0

$ModelName "weapons\w_deringer.mdl"

$BodyGroup "studio"
{
	studio "w_deringer_reference.smd"
}


$SurfaceProp "weapon"

$Contents "solid"

$MaxEyeDeflection 90

$CDMaterials "models\weapons\"

$Attachment "muzzle" "ValveBiped.Weapon_bone" 3.5 -0.3 1.65 rotate 0 0 0

$CBox 0 0 0 0 0 0

$BBox -2.97 -0.335 -4.293 5.777 2.54 1.823

$DefineBone "ValveBiped.Bip01_R_Hand" "" 1.783728 -5.776746 -3.330455 4.618727 90.659287 -171.248321 0 0 0 0 0 0
$DefineBone "ValveBiped.Weapon_bone" "ValveBiped.Bip01_R_Hand" 5 -1.5 -5 0 0 0.000001 0 0 0 0 0 0


$Sequence "idle" {
	"w_deringer_anims\idle.smd"
	fadein 0.2
	fadeout 0.2
	fps 30
}

$Sequence "attack1" {
	"w_deringer_anims\attack1.smd"
	activity "ACT_RANGE_ATTACK_PISTOL" 1
	{ event AE_NPC_MUZZLEFLASH 0 "PISTOL MUZZLE" }
	fadein 0.2
	fadeout 0.2
	fps 30
}

$CollisionModel "w_deringer_physics.smd"
{
	$mass 1
	$inertia 1
	$damping 0
	$rotdamping 0
	$rootbone " "

}
