
vertexlitgeneric
{

	$basetexture models/fofpons/henryrifle_v/henryrifle_d
	$bumpmap dev/bump_normal
	$lightwarptexture dev/identitylightwarp
	
	$halflambert 1
	$ambientocclusion 1

	$surfaceprop weapon

	$phong 1
	// $phongexponent 10
	$phongexponenttexture models/fofpons/henryrifle_v/henryrifle_x
	$phongfresnelranges "[ 0.1 0.3 0.5 ]"
	$phongboost 0.5
	$phongalbedotint 1

	$rimlight 1
	$rimlightexponent 512
	$rimexponent 512
	$rimlightboost 0.1

}
