version 1
nodes
  0 "ValveBiped.Bip01_R_Hand"  -1
  1 "eject"   0
  2 "muzzle"   0
  3 "Box001"  -1
end
skeleton
time 0
  0 -1.592913 -5.776747 -3.330453 0.085585 3.021906 1.550678
  1 5.925015 -1.901530 -4.554569 0.143181 0.606785 1.622363
  2 9.485794 -2.197779 -4.626459 -0.117947 -3.053623 1.550740
  3 0.680764 -11.475216 -0.025526 -1.570796 -3.141593 1.570796
end
triangles
tub_coltofficer_edge.vtf
  3 0.680765 -7.320477 -1.075764 0.577350 0.577350 -0.577350 1.000000 0.000000 1 0 1.000000
  3 0.680765 -7.320477 1.024712 0.577350 0.577350 0.577350 1.000000 1.000000 1 0 1.000000
  3 0.680763 -15.629955 1.024712 0.577350 -0.577350 0.577350 0.000000 1.000000 1 0 1.000000
tub_coltofficer_edge.vtf
  3 0.680763 -15.629955 1.024712 0.577350 -0.577350 0.577350 0.000000 1.000000 1 0 1.000000
  3 0.680763 -15.629955 -1.075764 0.577350 -0.577350 -0.577350 0.000000 0.000000 1 0 1.000000
  3 0.680765 -7.320477 -1.075764 0.577350 0.577350 -0.577350 1.000000 0.000000 1 0 1.000000
tub_coltofficer_edge.vtf
  3 -0.680403 -7.320477 -1.075764 -0.577350 0.577350 -0.577350 0.000000 0.000000 1 0 1.000000
  3 -0.680405 -15.629955 -1.075764 -0.577350 -0.577350 -0.577350 1.000000 0.000000 1 0 1.000000
  3 -0.680405 -15.629955 1.024712 -0.577350 -0.577350 0.577350 1.000000 1.000000 1 0 1.000000
tub_coltofficer_edge.vtf
  3 -0.680405 -15.629955 1.024712 -0.577350 -0.577350 0.577350 1.000000 1.000000 1 0 1.000000
  3 -0.680403 -7.320477 1.024712 -0.577350 0.577350 0.577350 0.000000 1.000000 1 0 1.000000
  3 -0.680403 -7.320477 -1.075764 -0.577350 0.577350 -0.577350 0.000000 0.000000 1 0 1.000000
tub_coltofficer_edge.vtf
  3 0.680765 -7.320477 -1.075764 0.577350 0.577350 -0.577350 0.000000 0.000000 1 0 1.000000
  3 0.680763 -15.629955 -1.075764 0.577350 -0.577350 -0.577350 1.000000 0.000000 1 0 1.000000
  3 -0.680405 -15.629955 -1.075764 -0.577350 -0.577350 -0.577350 1.000000 1.000000 1 0 1.000000
tub_coltofficer_edge.vtf
  3 -0.680405 -15.629955 -1.075764 -0.577350 -0.577350 -0.577350 1.000000 1.000000 1 0 1.000000
  3 -0.680403 -7.320477 -1.075764 -0.577350 0.577350 -0.577350 0.000000 1.000000 1 0 1.000000
  3 0.680765 -7.320477 -1.075764 0.577350 0.577350 -0.577350 0.000000 0.000000 1 0 1.000000
tub_coltofficer_edge.vtf
  3 0.680763 -15.629955 -1.075764 0.577350 -0.577350 -0.577350 0.000000 0.000000 1 0 1.000000
  3 0.680763 -15.629955 1.024712 0.577350 -0.577350 0.577350 1.000000 0.000000 1 0 1.000000
  3 -0.680405 -15.629955 1.024712 -0.577350 -0.577350 0.577350 1.000000 1.000000 1 0 1.000000
tub_coltofficer_edge.vtf
  3 -0.680405 -15.629955 1.024712 -0.577350 -0.577350 0.577350 1.000000 1.000000 1 0 1.000000
  3 -0.680405 -15.629955 -1.075764 -0.577350 -0.577350 -0.577350 0.000000 1.000000 1 0 1.000000
  3 0.680763 -15.629955 -1.075764 0.577350 -0.577350 -0.577350 0.000000 0.000000 1 0 1.000000
tub_coltofficer_edge.vtf
  3 0.680763 -15.629955 1.024712 0.577350 -0.577350 0.577350 0.000000 0.000000 1 0 1.000000
  3 0.680765 -7.320477 1.024712 0.577350 0.577350 0.577350 1.000000 0.000000 1 0 1.000000
  3 -0.680403 -7.320477 1.024712 -0.577350 0.577350 0.577350 1.000000 1.000000 1 0 1.000000
tub_coltofficer_edge.vtf
  3 -0.680403 -7.320477 1.024712 -0.577350 0.577350 0.577350 1.000000 1.000000 1 0 1.000000
  3 -0.680405 -15.629955 1.024712 -0.577350 -0.577350 0.577350 0.000000 1.000000 1 0 1.000000
  3 0.680763 -15.629955 1.024712 0.577350 -0.577350 0.577350 0.000000 0.000000 1 0 1.000000
tub_coltofficer_edge.vtf
  3 0.680765 -7.320477 1.024712 0.577350 0.577350 0.577350 0.000000 0.000000 1 0 1.000000
  3 0.680765 -7.320477 -1.075764 0.577350 0.577350 -0.577350 1.000000 0.000000 1 0 1.000000
  3 -0.680403 -7.320477 -1.075764 -0.577350 0.577350 -0.577350 1.000000 1.000000 1 0 1.000000
tub_coltofficer_edge.vtf
  3 -0.680403 -7.320477 -1.075764 -0.577350 0.577350 -0.577350 1.000000 1.000000 1 0 1.000000
  3 -0.680403 -7.320477 1.024712 -0.577350 0.577350 0.577350 0.000000 1.000000 1 0 1.000000
  3 0.680765 -7.320477 1.024712 0.577350 0.577350 0.577350 0.000000 0.000000 1 0 1.000000
tub_coltofficer_edge.vtf
  3 0.680765 -7.314317 -4.511214 0.576809 0.683731 -0.446994 1.000000 0.000000 1 0 1.000000
  3 0.680765 -8.060982 -1.034621 0.589298 0.507773 0.628406 1.000000 1.000000 1 0 1.000000
  3 0.680763 -12.977833 -1.034621 0.550472 -0.749068 0.368617 0.000000 1.000000 1 0 1.000000
tub_coltofficer_edge.vtf
  3 0.680763 -12.977833 -1.034621 0.550472 -0.749068 0.368617 0.000000 1.000000 1 0 1.000000
  3 0.680763 -9.895443 -5.037709 0.605122 -0.277996 -0.746020 0.000000 0.000000 1 0 1.000000
  3 0.680765 -7.314317 -4.511214 0.576809 0.683731 -0.446994 1.000000 0.000000 1 0 1.000000
tub_coltofficer_edge.vtf
  3 -0.680403 -7.314317 -4.511214 -0.576808 0.683731 -0.446993 0.000000 0.000000 1 0 1.000000
  3 -0.680405 -9.895443 -5.037709 -0.605122 -0.277996 -0.746020 1.000000 0.000000 1 0 1.000000
  3 -0.680405 -12.977833 -1.034621 -0.550472 -0.749068 0.368617 1.000000 1.000000 1 0 1.000000
tub_coltofficer_edge.vtf
  3 -0.680405 -12.977833 -1.034621 -0.550472 -0.749068 0.368617 1.000000 1.000000 1 0 1.000000
  3 -0.680403 -8.060982 -1.034621 -0.589298 0.507773 0.628406 0.000000 1.000000 1 0 1.000000
  3 -0.680403 -7.314317 -4.511214 -0.576808 0.683731 -0.446993 0.000000 0.000000 1 0 1.000000
tub_coltofficer_edge.vtf
  3 0.680765 -7.314317 -4.511214 0.576809 0.683731 -0.446994 0.000000 0.000000 1 0 1.000000
  3 0.680763 -9.895443 -5.037709 0.605122 -0.277996 -0.746020 1.000000 0.000000 1 0 1.000000
  3 -0.680405 -9.895443 -5.037709 -0.605122 -0.277996 -0.746020 1.000000 1.000000 1 0 1.000000
tub_coltofficer_edge.vtf
  3 -0.680405 -9.895443 -5.037709 -0.605122 -0.277996 -0.746020 1.000000 1.000000 1 0 1.000000
  3 -0.680403 -7.314317 -4.511214 -0.576808 0.683731 -0.446993 0.000000 1.000000 1 0 1.000000
  3 0.680765 -7.314317 -4.511214 0.576809 0.683731 -0.446994 0.000000 0.000000 1 0 1.000000
tub_coltofficer_edge.vtf
  3 0.680763 -9.895443 -5.037709 0.605122 -0.277996 -0.746020 0.000000 0.000000 1 0 1.000000
  3 0.680763 -12.977833 -1.034621 0.550472 -0.749068 0.368617 1.000000 0.000000 1 0 1.000000
  3 -0.680405 -12.977833 -1.034621 -0.550472 -0.749068 0.368617 1.000000 1.000000 1 0 1.000000
tub_coltofficer_edge.vtf
  3 -0.680405 -12.977833 -1.034621 -0.550472 -0.749068 0.368617 1.000000 1.000000 1 0 1.000000
  3 -0.680405 -9.895443 -5.037709 -0.605122 -0.277996 -0.746020 0.000000 1.000000 1 0 1.000000
  3 0.680763 -9.895443 -5.037709 0.605122 -0.277996 -0.746020 0.000000 0.000000 1 0 1.000000
tub_coltofficer_edge.vtf
  3 0.680763 -12.977833 -1.034621 0.550472 -0.749068 0.368617 0.000000 0.000000 1 0 1.000000
  3 0.680765 -8.060982 -1.034621 0.589298 0.507773 0.628406 1.000000 0.000000 1 0 1.000000
  3 -0.680403 -8.060982 -1.034621 -0.589298 0.507773 0.628406 1.000000 1.000000 1 0 1.000000
tub_coltofficer_edge.vtf
  3 -0.680403 -8.060982 -1.034621 -0.589298 0.507773 0.628406 1.000000 1.000000 1 0 1.000000
  3 -0.680405 -12.977833 -1.034621 -0.550472 -0.749068 0.368617 0.000000 1.000000 1 0 1.000000
  3 0.680763 -12.977833 -1.034621 0.550472 -0.749068 0.368617 0.000000 0.000000 1 0 1.000000
tub_coltofficer_edge.vtf
  3 0.680765 -8.060982 -1.034621 0.589298 0.507773 0.628406 0.000000 0.000000 1 0 1.000000
  3 0.680765 -7.314317 -4.511214 0.576809 0.683731 -0.446994 1.000000 0.000000 1 0 1.000000
  3 -0.680403 -7.314317 -4.511214 -0.576808 0.683731 -0.446993 1.000000 1.000000 1 0 1.000000
tub_coltofficer_edge.vtf
  3 -0.680403 -7.314317 -4.511214 -0.576808 0.683731 -0.446993 1.000000 1.000000 1 0 1.000000
  3 -0.680403 -8.060982 -1.034621 -0.589298 0.507773 0.628406 0.000000 1.000000 1 0 1.000000
  3 0.680765 -8.060982 -1.034621 0.589298 0.507773 0.628406 0.000000 0.000000 1 0 1.000000
end
