// Created by Crowbar 0.29.0.0
version 1
nodes
  0 "base" -1
  1 "R arm base" 0
  2 "Bone R uparm" 1
  3 "Bone R lowarm" 2
  4 "Bone R hand" 3
  5 "Bone R thumbbase" 4
  6 "Bone R thumb mid" 5
  7 "Bone R thumb tip" 6
  8 "Bone R index base" 4
  9 "Bone R index mid" 8
  10 "Bone R index tip" 9
  11 "Bone R mid base" 4
  12 "Bone R mid mid" 11
  13 "Bone R mid tip" 12
  14 "Bone R ring base" 4
  15 "Bone R ring mid" 14
  16 "Bone R ring tip" 15
  17 "Bone R pinky base" 4
  18 "Bone R pinky mid" 17
  19 "Bone R pinky tip" 18
  20 "R wrist rotate" 3
  21 "sgshell" 0
  22 "xm" 0
  23 "xm_insert" 22
  24 "xm_bolt" 22
  25 "xm_pump" 22
  26 "xm_trig" 22
end
skeleton
  time 0
    0 0.603925 13.333574 -5.696268 0.000000 -1.570451 0.000000
    1 0.283441 -2.436044 -6.152884 0.000000 1.570276 -0.000249
    2 0.004670 -0.010937 0.000244 -2.650674 -0.314479 1.994753
    3 -9.177921 0.000047 0.000064 -0.000023 0.000028 1.524934
    4 -9.113174 -0.006489 -0.000598 -0.475207 0.904806 -0.261965
    5 -0.359616 -0.344866 -0.717946 2.533386 -0.202022 0.294602
    6 -1.258085 0.000000 0.000001 0.022812 -0.471692 -0.042704
    7 -0.852238 0.000000 0.000000 -0.005920 -0.232660 -0.012283
    8 -2.058155 0.736272 -0.667207 -1.560703 -0.171968 -0.022812
    9 -1.384243 0.000000 0.000001 0.000159 -0.224942 0.037733
    10 -1.012088 0.000001 0.000000 -0.005098 -0.122037 0.009084
    11 -2.125905 0.777433 -0.125177 -1.585411 -0.041150 0.575273
    12 -1.453802 0.000000 0.000000 -3.141071 -1.513386 3.139484
    13 -1.074449 0.000000 0.000000 -0.013723 -0.896629 0.035523
    14 -2.104692 0.654897 0.442688 -1.575701 -0.030214 0.508131
    15 -1.393160 -0.000003 0.000000 3.141327 -1.400231 -3.086821
    16 -1.070196 0.000000 0.000000 -0.005450 -0.883511 0.010749
    17 -2.072691 0.644973 1.003345 -1.518349 0.065595 0.536936
    18 -1.008837 0.000000 0.000000 0.009459 -1.307400 -0.057894
    19 -0.871940 0.000000 0.000000 -0.005073 -1.231073 0.008756
    20 -7.052464 -0.113371 0.000060 0.001661 0.000000 -0.054906
    21 -7.313735 -9.778890 -2.056310 0.000000 1.570451 0.000000
    22 0.536383 -15.946531 -1.492210 -1.099423 0.541102 -1.570659
    23 0.000000 -4.042458 1.518160 0.000000 0.000000 0.000000
    24 0.357614 -5.868286 2.509109 0.000000 0.000000 0.000000
    25 0.000001 -11.555966 1.697507 0.000000 0.000000 0.000000
    26 0.000000 -1.949404 1.384216 0.000000 0.000000 0.000000
  time 1
    0 0.603925 13.333574 -5.696268 0.000000 -1.570451 0.000000
    1 0.283441 -2.436044 -6.152884 0.000000 1.570276 -0.000249
    2 0.004670 -0.010937 0.000244 -2.625055 -0.290054 1.993623
    3 -9.177921 0.000047 0.000064 -0.000023 0.000028 1.424845
    4 -9.113174 -0.006489 -0.000598 -0.378753 0.802048 -0.044216
    5 -0.359616 -0.344866 -0.717946 2.533386 -0.202022 0.294602
    6 -1.258085 0.000000 0.000001 0.022812 -0.471692 -0.042704
    7 -0.852238 0.000000 0.000000 -0.005920 -0.232660 -0.012283
    8 -2.058155 0.736272 -0.667207 -1.560703 -0.171968 -0.022812
    9 -1.384243 0.000000 0.000001 0.000159 -0.224942 0.037733
    10 -1.012088 0.000001 0.000000 -0.005098 -0.122037 0.009084
    11 -2.125905 0.777433 -0.125177 -1.585411 -0.041150 0.575273
    12 -1.453802 0.000000 0.000000 -3.141071 -1.513386 3.139580
    13 -1.074449 0.000000 0.000000 -0.013723 -0.896629 0.035523
    14 -2.104692 0.654897 0.442688 -1.575701 -0.030214 0.508131
    15 -1.393160 -0.000003 0.000000 3.141327 -1.400231 -3.086821
    16 -1.070196 0.000000 0.000000 -0.005450 -0.883511 0.010761
    17 -2.072691 0.644973 1.003345 -1.518349 0.065595 0.536936
    18 -1.008837 0.000000 0.000000 0.009459 -1.307400 -0.057906
    19 -0.871940 0.000000 0.000000 -0.005073 -1.231073 0.008756
    20 -7.052464 -0.113371 0.000060 0.001661 0.000000 -0.054906
    21 -7.313735 -9.778890 -2.056310 0.000000 1.570451 0.000000
    22 0.954365 -16.692648 -1.906285 -1.252645 0.527526 -1.573486
    23 0.000000 -4.042458 1.518160 0.000000 0.000000 0.000000
    24 0.357614 -5.868286 2.509109 0.000000 0.000000 0.000000
    25 0.000001 -11.555966 1.697507 0.000000 0.000000 0.000000
    26 0.000000 -1.949404 1.384216 0.000000 0.000000 0.000000
  time 2
    0 0.603925 13.333574 -5.696268 0.000000 -1.570451 0.000000
    1 0.283441 -2.436044 -6.152884 0.000000 1.570276 -0.000249
    2 0.004670 -0.010937 0.000244 -2.603484 -0.265426 1.982371
    3 -9.177921 0.000047 0.000064 -0.000023 0.000028 1.315118
    4 -9.113174 -0.002582 -0.000598 -0.305965 0.682643 0.155638
    5 -0.359616 -0.344866 -0.717946 2.533386 -0.202022 0.294602
    6 -1.258085 0.000000 0.000001 0.022812 -0.471692 -0.042704
    7 -0.852238 0.000000 0.000000 -0.005920 -0.232660 -0.012283
    8 -2.058155 0.736272 -0.667207 -1.560703 -0.171968 -0.022812
    9 -1.384243 0.000000 0.000001 0.000159 -0.224942 0.037733
    10 -1.012088 0.000001 0.000000 -0.005098 -0.122037 0.009084
    11 -2.125905 0.777433 -0.125177 -1.585411 -0.041150 0.575273
    12 -1.453802 0.000000 0.000000 -3.141071 -1.513386 3.139580
    13 -1.074449 0.000000 0.000000 -0.013723 -0.896629 0.035511
    14 -2.104692 0.654897 0.442688 -1.575701 -0.030214 0.508131
    15 -1.393160 -0.000003 0.000000 3.141327 -1.400231 -3.086821
    16 -1.070196 0.000000 0.000000 -0.005450 -0.883511 0.010737
    17 -2.072691 0.644973 1.003345 -1.518349 0.065595 0.536936
    18 -1.008837 0.000000 0.000000 0.009459 -1.307400 -0.057906
    19 -0.871940 0.000000 0.000000 -0.005073 -1.231073 0.008756
    20 -7.052464 -0.113371 0.000060 0.001661 0.000000 -0.054906
    21 -7.313735 -9.778890 -2.056310 0.000000 1.570451 0.000000
    22 1.345002 -17.387982 -2.285203 -1.410318 0.504649 -1.574697
    23 0.000000 -4.042458 1.518160 0.000000 0.000000 0.000000
    24 0.357614 -5.868286 2.509109 0.000000 0.000000 0.000000
    25 0.000001 -11.555966 1.697507 0.000000 0.000000 0.000000
    26 0.000000 -1.949404 1.384216 0.000000 0.000000 0.000000
  time 3
    0 0.603925 13.333574 -5.696268 0.000000 -1.570451 0.000000
    1 0.283441 -2.436044 -6.152884 0.000000 1.570276 -0.000249
    2 0.004670 -0.010937 0.000244 -2.588244 -0.243913 1.965273
    3 -9.177921 0.000047 0.000064 -0.000023 0.000028 1.213681
    4 -9.113174 -0.006489 -0.000598 -0.273248 0.555354 0.294536
    5 -0.359616 -0.344866 -0.717946 2.533386 -0.202022 0.294602
    6 -1.258085 0.000000 0.000001 0.022812 -0.471692 -0.042704
    7 -0.852238 0.000000 0.000000 -0.005920 -0.232660 -0.012283
    8 -2.058155 0.736272 -0.667207 -1.560703 -0.171968 -0.022812
    9 -1.384243 0.000000 0.000001 0.000159 -0.224942 0.037733
    10 -1.012088 0.000001 0.000000 -0.005098 -0.122037 0.009084
    11 -2.125905 0.777433 -0.125177 -1.585411 -0.041150 0.575273
    12 -1.453802 0.000000 0.000000 -3.141071 -1.513386 3.139484
    13 -1.074449 0.000000 0.000000 -0.013723 -0.896629 0.035499
    14 -2.104692 0.654897 0.442688 -1.575701 -0.030214 0.508131
    15 -1.393160 -0.000003 0.000000 3.141327 -1.400231 -3.086821
    16 -1.070196 0.000000 0.000000 -0.005450 -0.883511 0.010737
    17 -2.072691 0.644973 1.003345 -1.518349 0.065595 0.536936
    18 -1.008837 0.000000 0.000000 0.009459 -1.307400 -0.057894
    19 -0.871940 0.000000 0.000000 -0.005073 -1.231073 0.008756
    20 -7.052464 -0.113371 0.000060 0.001661 0.000000 -0.054906
    21 -7.313735 -9.778890 -2.056310 0.000000 1.570451 0.000000
    22 1.645792 -17.997375 -2.613338 -1.555545 0.500111 -1.571871
    23 0.000000 -4.042458 1.518160 0.000000 0.000000 0.000000
    24 0.357614 -5.868286 2.509109 0.000000 0.000000 0.000000
    25 0.000001 -11.555966 1.697507 0.000000 0.000000 0.000000
    26 0.000000 -1.949404 1.384216 0.000000 0.000000 0.000000
  time 4
    0 0.603925 13.333574 -5.696268 0.000000 -1.570451 0.000000
    1 0.283441 -2.436044 -6.152884 0.000000 1.570276 -0.000249
    2 0.004670 -0.010937 0.000244 -2.581642 -0.231917 1.951663
    3 -9.177921 0.000047 0.000064 -0.000023 0.000028 1.145607
    4 -9.113174 -0.010395 -0.000598 -0.282865 0.432247 0.339503
    5 -0.359616 -0.344866 -0.717946 2.533386 -0.202022 0.294602
    6 -1.258085 0.000000 0.000001 0.022812 -0.471692 -0.042704
    7 -0.852238 0.000000 0.000000 -0.005920 -0.232660 -0.012283
    8 -2.058155 0.736272 -0.667207 -1.560703 -0.171968 -0.022812
    9 -1.384243 0.000000 0.000001 0.000159 -0.224942 0.037733
    10 -1.012088 0.000001 0.000000 -0.005098 -0.122037 0.009084
    11 -2.125905 0.777433 -0.125177 -1.585411 -0.041150 0.575273
    12 -1.453802 0.000000 0.000000 -3.141071 -1.513386 3.139484
    13 -1.074449 0.000000 0.000000 -0.013723 -0.896629 0.035523
    14 -2.104692 0.654897 0.442688 -1.575701 -0.030214 0.508131
    15 -1.393160 -0.000003 0.000000 3.141327 -1.400231 -3.086821
    16 -1.070196 0.000000 0.000000 -0.005450 -0.883511 0.010749
    17 -2.072691 0.644973 1.003345 -1.518349 0.065595 0.536936
    18 -1.008837 0.000000 0.000000 0.009459 -1.307400 -0.057906
    19 -0.871940 0.000000 0.000000 -0.005073 -1.231073 0.008756
    20 -7.052464 -0.113371 0.000060 0.001661 0.000000 -0.054906
    21 -7.313735 -9.778890 -2.056310 0.000000 1.570451 0.000000
    22 1.833298 -18.442701 -2.863346 -1.675386 0.541102 -1.570659
    23 0.000000 -4.042458 1.518160 0.000000 0.000000 0.000000
    24 0.357614 -5.868286 2.509109 0.000000 0.000000 0.000000
    25 0.000001 -11.555966 1.697507 0.000000 0.000000 0.000000
    26 0.000000 -1.949404 1.384216 0.000000 0.000000 0.000000
  time 5
    0 0.603925 13.333574 -5.696268 0.000000 -1.570451 0.000000
    1 0.283441 -2.436044 -6.152884 0.000000 1.570276 -0.000249
    2 0.004670 -0.010937 0.000244 -2.591704 -0.243973 1.954218
    3 -9.177921 0.000047 0.000064 -0.000023 0.000028 1.151875
    4 -9.113174 -0.002582 -0.000598 -0.344716 0.301469 0.234943
    5 -0.359616 -0.344866 -0.717946 2.533386 -0.202022 0.294602
    6 -1.258085 0.000000 0.000001 0.022812 -0.471692 -0.042704
    7 -0.852238 0.000000 0.000000 -0.005920 -0.232660 -0.012283
    8 -2.058155 0.736272 -0.667207 -1.560703 -0.171968 -0.022812
    9 -1.384243 0.000000 0.000001 0.000064 -0.224942 0.037733
    10 -1.012088 0.000001 0.000000 -0.005098 -0.122037 0.009084
    11 -2.125905 0.777433 -0.125177 -1.585411 -0.041150 0.575273
    12 -1.453802 0.000000 0.000000 -3.141071 -1.513386 3.139580
    13 -1.074449 0.000000 0.000000 -0.013723 -0.896629 0.035523
    14 -2.104692 0.654897 0.442688 -1.575701 -0.030214 0.508131
    15 -1.393160 -0.000003 0.000000 3.141327 -1.400231 -3.086821
    16 -1.070196 0.000000 0.000000 -0.005450 -0.883511 0.010737
    17 -2.072691 0.644973 1.003345 -1.518349 0.065595 0.536936
    18 -1.008837 0.000000 0.000000 0.009459 -1.307400 -0.057906
    19 -0.871940 0.000000 0.000000 -0.005073 -1.231073 0.008756
    20 -7.052464 -0.113371 0.000060 0.001661 0.000000 -0.054906
    21 -7.313735 -9.778890 -2.056310 0.000000 1.570451 0.000000
    22 1.790328 -18.634113 -2.961005 -1.765803 0.670863 -1.580270
    23 0.000000 -4.042458 1.518160 0.000000 0.000000 0.000000
    24 0.357614 -5.868286 2.509109 0.000000 0.000000 0.000000
    25 0.000001 -11.555966 1.697507 0.000000 0.000000 0.000000
    26 0.000000 -1.949404 1.384216 0.000000 0.000000 0.000000
  time 6
    0 0.603925 13.333574 -5.696268 0.000000 -1.570451 0.000000
    1 0.283441 -2.436044 -6.152884 0.000000 1.570276 -0.000249
    2 0.004670 -0.010937 0.000244 -2.616508 -0.274414 1.967705
    3 -9.177921 0.000047 0.000064 -0.000023 0.000028 1.217927
    4 -9.113174 -0.002582 -0.000598 -0.420710 0.160756 0.026551
    5 -0.359616 -0.344866 -0.717946 2.533386 -0.202022 0.294602
    6 -1.258085 0.000000 0.000001 0.022812 -0.471692 -0.042704
    7 -0.852238 0.000000 0.000000 -0.005920 -0.232660 -0.012283
    8 -2.058155 0.736272 -0.667207 -1.560703 -0.171968 -0.022812
    9 -1.384243 0.000000 0.000001 0.000159 -0.224942 0.037733
    10 -1.012088 0.000001 0.000000 -0.005098 -0.122037 0.009084
    11 -2.125905 0.777433 -0.125177 -1.585411 -0.041150 0.575273
    12 -1.453802 0.000000 0.000000 -3.141071 -1.513386 3.139580
    13 -1.074449 0.000000 0.000000 -0.013723 -0.896629 0.035499
    14 -2.104692 0.654897 0.442688 -1.575701 -0.030214 0.508131
    15 -1.393160 -0.000003 0.000000 3.141327 -1.400231 -3.086821
    16 -1.070196 0.000000 0.000000 -0.005450 -0.883511 0.010737
    17 -2.072691 0.644973 1.003345 -1.518349 0.065595 0.536936
    18 -1.008837 0.000000 0.000000 0.009459 -1.307400 -0.057906
    19 -0.871940 0.000000 0.000000 -0.005073 -1.231073 0.008756
    20 -7.052464 -0.113371 0.000060 0.001661 0.000000 -0.054906
    21 -7.313735 -9.778890 -2.056310 0.000000 1.570451 0.000000
    22 1.555946 -18.571611 -2.925847 -1.835779 0.863704 -1.612734
    23 0.000000 -4.042458 1.518160 0.000000 0.000000 0.000000
    24 0.357614 -5.868286 2.509109 0.000000 0.000000 0.000000
    25 0.000001 -11.555966 1.697507 0.000000 0.000000 0.000000
    26 0.000000 -1.949404 1.384216 0.000000 0.000000 0.000000
  time 7
    0 0.603925 13.333574 -5.696268 0.000000 -1.570451 0.000000
    1 0.283441 -2.436044 -6.152884 0.000000 1.570276 -0.000249
    2 0.004670 -0.010937 0.000244 -2.641810 -0.303153 1.981880
    3 -9.177921 0.000047 0.000064 -0.000023 0.000028 1.296448
    4 -9.113174 -0.006489 -0.000598 -0.465967 0.052165 -0.189563
    5 -0.359616 -0.344866 -0.717946 2.533386 -0.202022 0.294602
    6 -1.258085 0.000000 0.000001 0.022812 -0.471692 -0.042704
    7 -0.852238 0.000000 0.000000 -0.005920 -0.232660 -0.012283
    8 -2.058155 0.736272 -0.667207 -1.555705 -0.171321 -0.052354
    9 -1.384243 0.000000 0.000001 0.000159 -0.224942 0.037733
    10 -1.012088 0.000001 0.000000 -0.005098 -0.122037 0.009084
    11 -2.125905 0.777433 -0.125177 -1.585411 -0.041150 0.575273
    12 -1.453802 0.000000 0.000000 -3.141071 -1.513386 3.139580
    13 -1.074449 0.000000 0.000000 -0.013723 -0.896629 0.035523
    14 -2.104692 0.654897 0.442688 -1.575701 -0.030214 0.508131
    15 -1.393160 -0.000003 0.000000 3.141327 -1.400231 -3.086821
    16 -1.070196 0.000000 0.000000 -0.005450 -0.883511 0.010737
    17 -2.072691 0.644973 1.003345 -1.518349 0.065595 0.536936
    18 -1.008837 0.000000 0.000000 0.009459 -1.307400 -0.057906
    19 -0.871940 0.000000 0.000000 -0.005073 -1.231073 0.008756
    20 -7.052464 -0.113371 0.000060 0.001661 0.000000 -0.054906
    21 -7.313735 -9.778890 -2.056310 0.000000 1.570451 0.000000
    22 1.305938 -18.360667 -2.863346 -1.889023 1.042744 -1.671445
    23 0.000000 -4.042458 1.518160 0.000000 0.000000 0.000000
    24 0.357614 -5.868286 2.509109 0.000000 0.000000 0.000000
    25 0.000001 -11.555966 1.697507 0.000000 0.000000 0.000000
    26 0.000000 -1.949404 1.384216 0.000000 0.000000 0.000000
  time 8
    0 0.603925 13.333574 -5.696268 0.000000 -1.570451 0.000000
    1 0.283441 -2.436044 -6.152884 0.000000 1.570276 -0.000249
    2 0.004670 -0.010937 0.000244 -2.664308 -0.327866 1.999298
    3 -9.177921 0.000047 0.000064 -0.000023 0.000028 1.387438
    4 -9.113174 -0.002582 -0.000598 -0.487841 -0.004515 -0.412672
    5 -0.359616 -0.344866 -0.717946 2.533386 -0.202022 0.294602
    6 -1.258085 0.000000 0.000001 0.022812 -0.471692 -0.042704
    7 -0.852238 0.000000 0.000000 -0.005920 -0.232660 -0.012283
    8 -2.058155 0.736272 -0.667207 -1.551211 -0.170698 -0.078902
    9 -1.384243 0.000000 0.000001 0.000159 -0.224942 0.037733
    10 -1.012088 0.000001 0.000000 -0.005098 -0.122037 0.009084
    11 -2.125905 0.777433 -0.125177 -1.585411 -0.041150 0.575273
    12 -1.453802 0.000000 0.000000 -3.141071 -1.513386 3.139484
    13 -1.074449 0.000000 0.000000 -0.013723 -0.896629 0.035523
    14 -2.104692 0.654897 0.442688 -1.575701 -0.030214 0.508131
    15 -1.393160 -0.000003 0.000000 3.141327 -1.400231 -3.086821
    16 -1.070196 0.000000 0.000000 -0.005450 -0.883511 0.010737
    17 -2.072691 0.644973 1.003345 -1.518349 0.065595 0.536936
    18 -1.008837 0.000000 0.000000 0.009459 -1.307400 -0.057894
    19 -0.871940 0.000000 0.000000 -0.005073 -1.231073 0.008756
    20 -7.052464 -0.113371 0.000060 0.001661 0.000000 -0.054906
    21 -7.313735 -9.778890 -2.056310 0.000000 1.570451 0.000000
    22 1.083275 -17.977843 -2.793031 -1.921415 1.196132 -1.752768
    23 0.000000 -4.042458 1.518160 0.000000 0.000000 0.000000
    24 0.357614 -5.868286 2.509109 0.000000 0.000000 0.000000
    25 0.000001 -11.555966 1.697507 0.000000 0.000000 0.000000
    26 0.000000 -1.949404 1.384216 0.000000 0.000000 0.000000
  time 9
    0 0.603925 13.333574 -5.696268 0.000000 -1.570451 0.000000
    1 0.283441 -2.436044 -6.152884 0.000000 1.570276 -0.000249
    2 0.004670 -0.010937 0.000244 -2.687326 -0.350696 2.014210
    3 -9.177921 0.000047 0.000064 -0.000023 0.000028 1.486044
    4 -9.113174 -0.006489 -0.000598 -0.501984 -0.036983 -0.660763
    5 -0.359616 -0.344866 -0.717946 2.533386 -0.202022 0.294602
    6 -1.258085 0.000000 0.000001 0.022812 -0.471692 -0.042704
    7 -0.852238 0.000000 0.000000 -0.005920 -0.232660 -0.012283
    8 -2.058155 0.736272 -0.667207 -1.547208 -0.170110 -0.102455
    9 -1.384243 0.000000 0.000001 0.000159 -0.224942 0.037733
    10 -1.012088 0.000001 0.000000 -0.005098 -0.122037 0.009084
    11 -2.125905 0.777433 -0.125177 -1.585411 -0.041150 0.575273
    12 -1.453802 0.000000 0.000000 -3.141071 -1.513386 3.139484
    13 -1.074449 0.000000 0.000000 -0.013723 -0.896629 0.035511
    14 -2.104692 0.654897 0.442688 -1.575701 -0.030214 0.508131
    15 -1.393160 -0.000003 0.000000 3.141327 -1.400231 -3.086821
    16 -1.070196 0.000000 0.000000 -0.005450 -0.883511 0.010737
    17 -2.072691 0.644973 1.003345 -1.518349 0.065595 0.536936
    18 -1.008837 0.000000 0.000000 0.009459 -1.307400 -0.057906
    19 -0.871940 0.000000 0.000000 -0.005073 -1.231073 0.008756
    20 -7.052464 -0.113371 0.000060 0.001661 0.000000 -0.054906
    21 -7.313735 -9.778890 -2.056310 0.000000 1.570451 0.000000
    22 0.837174 -17.446577 -2.710997 -1.968725 1.349520 -1.878024
    23 0.000000 -4.042458 1.518160 0.000000 0.000000 0.000000
    24 0.357614 -5.868286 2.509109 0.000000 0.000000 0.000000
    25 0.000001 -11.555966 1.697507 0.000000 0.000000 0.000000
    26 0.000000 -1.949404 1.384216 0.000000 0.000000 0.000000
  time 10
    0 0.603925 13.333574 -5.696268 0.000000 -1.570451 0.000000
    1 0.283441 -2.436044 -6.152884 0.000000 1.570276 -0.000249
    2 0.004670 -0.010937 0.000244 -2.706410 -0.367534 2.020204
    3 -9.177921 0.000047 0.000064 -0.000023 0.000028 1.567194
    4 -9.113174 -0.002582 -0.000598 -0.507924 -0.053470 -0.887233
    5 -0.359616 -0.344866 -0.717946 2.533386 -0.202022 0.294602
    6 -1.258085 0.000000 0.000001 0.022812 -0.471692 -0.042704
    7 -0.852238 0.000000 0.000000 -0.005920 -0.232660 -0.012283
    8 -2.058155 0.736272 -0.667207 -1.543697 -0.169643 -0.123124
    9 -1.384243 0.000000 0.000001 0.000159 -0.224942 0.037733
    10 -1.012088 0.000001 0.000000 -0.005098 -0.122037 0.009084
    11 -2.125905 0.777433 -0.125177 -1.585411 -0.041150 0.575273
    12 -1.453802 0.000000 0.000000 -3.141071 -1.513386 3.139484
    13 -1.074449 0.000000 0.000000 -0.013723 -0.896629 0.035523
    14 -2.104692 0.654897 0.442688 -1.575701 -0.030214 0.508131
    15 -1.393160 -0.000003 0.000000 3.141327 -1.400231 -3.086821
    16 -1.070196 0.000000 0.000000 -0.005450 -0.883511 0.010737
    17 -2.072691 0.644973 1.003345 -1.518349 0.065595 0.536936
    18 -1.008837 0.000000 0.000000 0.009459 -1.307400 -0.057894
    19 -0.871940 0.000000 0.000000 -0.005073 -1.231073 0.008756
    20 -7.052464 -0.113371 0.000060 0.001661 0.000000 -0.054906
    21 -7.313735 -9.778890 -2.056310 0.000000 1.570451 0.000000
    22 0.614511 -16.934843 -2.625057 -2.191511 1.479543 -2.183046
    23 0.000000 -4.042458 1.518160 0.000000 0.000000 0.000000
    24 0.357614 -5.868286 2.509109 0.000000 0.000000 0.000000
    25 0.000001 -11.555966 1.697507 0.000000 0.000000 0.000000
    26 0.000000 -1.949404 1.384216 0.000000 0.000000 0.000000
  time 11
    0 0.603925 13.333574 -5.696268 0.000000 -1.570451 0.000000
    1 0.283441 -2.436044 -6.152884 0.000000 1.570276 -0.000249
    2 0.004670 -0.010937 0.000244 -2.718484 -0.377158 2.018509
    3 -9.177921 0.000047 0.000064 -0.000023 0.000016 1.616396
    4 -9.113174 -0.006489 -0.000598 -0.506887 -0.060901 -1.047388
    5 -0.359616 -0.344866 -0.717946 2.533386 -0.202022 0.294602
    6 -1.258085 0.000000 0.000001 0.022812 -0.471692 -0.042704
    7 -0.852238 0.000000 0.000000 -0.005920 -0.232660 -0.012283
    8 -2.058155 0.736272 -0.667207 -1.540725 -0.169223 -0.140798
    9 -1.384243 0.000000 0.000001 0.000159 -0.224942 0.037733
    10 -1.012088 0.000001 0.000000 -0.005098 -0.122037 0.009084
    11 -2.125905 0.777433 -0.125177 -1.585411 -0.041150 0.575273
    12 -1.453802 0.000000 0.000000 -3.141071 -1.513386 3.139484
    13 -1.074449 0.000000 0.000000 -0.013723 -0.896629 0.035523
    14 -2.104692 0.654897 0.442688 -1.575701 -0.030214 0.508131
    15 -1.393160 -0.000003 0.000000 3.141327 -1.400231 -3.086821
    16 -1.070196 0.000000 0.000000 -0.005450 -0.883511 0.010737
    17 -2.072691 0.644973 1.003345 -1.518349 0.065595 0.536936
    18 -1.008837 0.000000 0.000000 0.009459 -1.307400 -0.057906
    19 -0.871940 0.000000 0.000000 -0.005073 -1.231073 0.008756
    20 -7.052464 -0.113371 0.000060 0.001661 0.000000 -0.054906
    21 -7.313735 -9.778890 -2.056310 0.000000 1.570451 0.000000
    22 0.469975 -16.563738 -2.550836 2.700630 1.528973 2.646112
    23 0.000000 -4.042458 1.518160 0.000000 0.000000 0.000000
    24 0.357614 -5.868286 2.509109 0.000000 0.000000 0.000000
    25 0.000001 -11.555966 1.697507 0.000000 0.000000 0.000000
    26 0.000000 -1.949404 1.384216 0.000000 0.000000 0.000000
  time 12
    0 0.603925 13.333574 -5.696268 0.000000 -1.570451 0.000000
    1 0.283441 -2.436044 -6.152884 0.000000 1.570276 -0.000249
    2 0.004670 -0.010937 0.000244 -2.723640 -0.380849 2.014357
    3 -9.177921 0.000047 0.000064 -0.000023 0.000004 1.639177
    4 -9.113174 -0.006489 -0.000598 -0.500947 -0.055601 -1.137594
    5 -0.359616 -0.344866 -0.717946 2.533386 -0.202022 0.294602
    6 -1.258085 0.000000 0.000001 0.022812 -0.471692 -0.042704
    7 -0.852238 0.000000 0.000000 -0.005920 -0.232660 -0.012283
    8 -2.058155 0.736272 -0.667207 -1.538196 -0.168864 -0.155551
    9 -1.384243 0.000000 0.000001 0.000159 -0.224942 0.037733
    10 -1.012088 0.000001 0.000000 -0.005098 -0.122037 0.009084
    11 -2.125905 0.777433 -0.125177 -1.585411 -0.041150 0.575273
    12 -1.453802 0.000000 0.000000 -3.141071 -1.513386 3.139484
    13 -1.074449 0.000000 0.000000 -0.013723 -0.896629 0.035523
    14 -2.104692 0.654897 0.442688 -1.575701 -0.030214 0.508131
    15 -1.393160 -0.000003 0.000000 3.141327 -1.400231 -3.086821
    16 -1.070196 0.000000 0.000000 -0.005450 -0.883511 0.010737
    17 -2.072691 0.644973 1.003345 -1.518349 0.065595 0.536936
    18 -1.008837 0.000000 0.000000 0.009459 -1.307400 -0.057906
    19 -0.871940 0.000000 0.000000 -0.005073 -1.231073 0.008756
    20 -7.052464 -0.113371 0.000060 0.001661 0.000000 -0.054906
    21 -7.313735 -9.778890 -2.056310 0.000000 1.570451 0.000000
    22 0.376222 -16.368419 -2.496147 2.064334 1.494582 1.965969
    23 0.000000 -4.042458 1.518160 0.000000 0.000000 0.000000
    24 0.357614 -5.868286 2.509109 0.000000 0.000000 0.000000
    25 0.000001 -11.555966 1.697507 0.000000 0.000000 0.000000
    26 0.000000 -1.949404 1.384216 0.000000 0.000000 0.000000
  time 13
    0 0.603925 13.333574 -5.696268 0.000000 -1.570451 0.000000
    1 0.283441 -2.436044 -6.152884 0.000000 1.570276 -0.000249
    2 0.004670 -0.010937 0.000244 -2.724725 -0.381341 2.010746
    3 -9.177921 0.000047 0.000064 -0.000023 0.000028 1.650770
    4 -9.113174 -0.006489 -0.000598 -0.495667 -0.035438 -1.190555
    5 -0.359616 -0.344866 -0.717946 2.533386 -0.202022 0.294602
    6 -1.258085 0.000000 0.000001 0.022812 -0.471692 -0.042704
    7 -0.852238 0.000000 0.000000 -0.005920 -0.232660 -0.012283
    8 -2.058155 0.736272 -0.667207 -1.536182 -0.168600 -0.167419
    9 -1.384243 0.000000 0.000001 0.000159 -0.224942 0.037733
    10 -1.012088 0.000001 0.000000 -0.005098 -0.122037 0.009084
    11 -2.125905 0.777433 -0.125177 -1.585411 -0.041150 0.575273
    12 -1.453802 0.000000 0.000000 -3.141071 -1.513386 3.139580
    13 -1.074449 0.000000 0.000000 -0.013723 -0.896629 0.035523
    14 -2.104692 0.654897 0.442688 -1.575701 -0.030214 0.508131
    15 -1.393160 -0.000003 0.000000 3.141327 -1.400231 -3.086821
    16 -1.070196 0.000000 0.000000 -0.005450 -0.883511 0.010737
    17 -2.072691 0.644973 1.003345 -1.518349 0.065595 0.536936
    18 -1.008837 0.000000 0.000000 0.009459 -1.307400 -0.057906
    19 -0.871940 0.000000 0.000000 -0.005073 -1.231073 0.008756
    20 -7.052464 -0.113371 0.000060 0.001661 0.000000 -0.054906
    21 -7.313735 -9.778890 -2.056310 0.000000 1.570451 0.000000
    22 0.321533 -16.259041 -2.457083 1.990567 1.474030 1.853312
    23 0.000000 -4.042458 1.518160 0.000000 0.000000 0.000000
    24 0.357614 -5.868286 2.509109 0.000000 0.000000 0.000000
    25 0.000001 -11.555966 1.697507 0.000000 0.000000 0.000000
    26 0.000000 -1.949404 1.384216 0.000000 0.000000 0.000000
  time 14
    0 0.603925 13.333574 -5.696268 0.000000 -1.570451 0.000000
    1 0.283441 -2.436044 -6.152884 0.000000 1.570276 -0.000249
    2 0.004670 -0.010937 0.000244 -2.723617 -0.380154 2.008019
    3 -9.177921 0.000047 0.000064 -0.000023 0.000028 1.655690
    4 -9.113174 -0.006489 -0.000598 -0.491707 -0.010055 -1.216809
    5 -0.359616 -0.344866 -0.717946 2.533386 -0.202022 0.294602
    6 -1.258085 0.000000 0.000001 0.022812 -0.471692 -0.042704
    7 -0.852238 0.000000 0.000000 -0.005920 -0.232660 -0.012283
    8 -2.058155 0.736272 -0.667207 -1.534672 -0.168421 -0.176256
    9 -1.384243 0.000000 0.000001 0.000159 -0.224942 0.037733
    10 -1.012088 0.000001 0.000000 -0.005098 -0.122037 0.009084
    11 -2.125905 0.777433 -0.125177 -1.585411 -0.041150 0.575273
    12 -1.453802 0.000000 0.000000 -3.141071 -1.513386 3.139580
    13 -1.074449 0.000000 0.000000 -0.013723 -0.896629 0.035523
    14 -2.104692 0.654897 0.442688 -1.575701 -0.030214 0.508131
    15 -1.393160 -0.000003 0.000000 3.141327 -1.400231 -3.086821
    16 -1.070196 0.000000 0.000000 -0.005450 -0.883511 0.010737
    17 -2.072691 0.644973 1.003345 -1.518349 0.065595 0.536936
    18 -1.008837 0.000000 0.000000 0.009459 -1.307400 -0.057894
    19 -0.871940 0.000000 0.000000 -0.005073 -1.231073 0.008756
    20 -7.052464 -0.113371 0.000060 0.001661 0.000000 -0.054906
    21 -7.313735 -9.778890 -2.056310 0.000000 1.570451 0.000000
    22 0.302001 -16.208258 -2.421926 2.021063 1.469380 1.852585
    23 0.000000 -4.042458 1.518160 0.000000 0.000000 0.000000
    24 0.357614 -5.868286 2.509109 0.000000 0.000000 0.000000
    25 0.000001 -11.555966 1.697507 0.000000 0.000000 0.000000
    26 0.000000 -1.949404 1.384216 0.000000 0.000000 0.000000
  time 15
    0 0.603925 13.333574 -5.696268 0.000000 -1.570451 0.000000
    1 0.283441 -2.436044 -6.152884 0.000000 1.570276 -0.000249
    2 0.004670 -0.010937 0.000244 -2.722034 -0.378608 2.005882
    3 -9.177921 0.000047 0.000064 -0.000023 0.000028 1.657240
    4 -9.113174 -0.006489 -0.000598 -0.489444 0.011040 -1.226166
    5 -0.359616 -0.344866 -0.717946 2.533386 -0.202022 0.294602
    6 -1.258085 0.000000 0.000001 0.022812 -0.471692 -0.042704
    7 -0.852238 0.000000 0.000000 -0.005920 -0.232660 -0.012283
    8 -2.058155 0.736272 -0.667207 -1.533714 -0.168289 -0.182135
    9 -1.384243 0.000000 0.000001 0.000159 -0.224942 0.037733
    10 -1.012088 0.000001 0.000000 -0.005098 -0.122037 0.009084
    11 -2.125905 0.777433 -0.125177 -1.585411 -0.041150 0.575273
    12 -1.453802 0.000000 0.000000 -3.141071 -1.513386 3.139484
    13 -1.074449 0.000000 0.000000 -0.013723 -0.896629 0.035523
    14 -2.104692 0.654897 0.442688 -1.575701 -0.030214 0.508131
    15 -1.393160 -0.000003 0.000000 3.141327 -1.400231 -3.086821
    16 -1.070196 0.000000 0.000000 -0.005450 -0.883511 0.010737
    17 -2.072691 0.644973 1.003345 -1.518349 0.065595 0.536936
    18 -1.008837 0.000000 0.000000 0.009459 -1.307400 -0.057894
    19 -0.871940 0.000000 0.000000 -0.005073 -1.231073 0.008756
    20 -7.052464 -0.113371 0.000060 0.001661 0.000000 -0.054906
    21 -7.313735 -9.778890 -2.056310 0.000000 1.570451 0.000000
    22 0.290282 -16.192633 -2.390675 2.075873 1.472830 1.886988
    23 0.000000 -4.042458 1.518160 0.000000 0.000000 0.000000
    24 0.357614 -5.868286 2.509109 0.000000 0.000000 0.000000
    25 0.000001 -11.555966 1.697507 0.000000 0.000000 0.000000
    26 0.000000 -1.949404 1.384216 0.000000 0.000000 0.000000
  time 16
    0 0.603925 13.333574 -5.696268 0.000000 -1.570451 0.000000
    1 0.283441 -2.436044 -6.152884 0.000000 1.570276 -0.000249
    2 0.004670 -0.010937 0.000244 -2.721582 -0.378057 2.003892
    3 -9.177921 0.000047 0.000064 -0.000023 0.000028 1.658588
    4 -9.113174 -0.002582 -0.000598 -0.489727 0.018338 -1.229618
    5 -0.359616 -0.344866 -0.717946 2.533386 -0.202022 0.294602
    6 -1.258085 0.000000 0.000001 0.022812 -0.471692 -0.042704
    7 -0.852238 0.000000 0.000000 -0.005920 -0.232660 -0.012283
    8 -2.058155 0.736272 -0.667207 -1.533174 -0.168217 -0.185093
    9 -1.384243 0.000000 0.000001 0.000159 -0.224942 0.037733
    10 -1.012088 0.000001 0.000000 -0.005098 -0.122037 0.009084
    11 -2.125905 0.777433 -0.125177 -1.585411 -0.041150 0.575273
    12 -1.453802 0.000000 0.000000 -3.141071 -1.513386 3.139580
    13 -1.074449 0.000000 0.000000 -0.013723 -0.896629 0.035511
    14 -2.104692 0.654897 0.442688 -1.575701 -0.030214 0.508131
    15 -1.393160 -0.000003 0.000000 3.141327 -1.400231 -3.086821
    16 -1.070196 0.000000 0.000000 -0.005450 -0.883511 0.010737
    17 -2.072691 0.644973 1.003345 -1.518349 0.065595 0.536936
    18 -1.008837 0.000000 0.000000 0.009459 -1.307400 -0.057906
    19 -0.871940 0.000000 0.000000 -0.005073 -1.231073 0.008756
    20 -7.052464 -0.113371 0.000060 0.001661 0.000000 -0.054906
    21 -7.313735 -9.778890 -2.056310 0.000000 1.570451 0.000000
    22 0.294188 -16.161382 -2.351611 2.095242 1.476318 1.899828
    23 0.000000 -4.042458 1.518160 0.000000 0.000000 0.000000
    24 0.357614 -5.868286 2.509109 0.000000 0.000000 0.000000
    25 0.000001 -11.555966 1.697507 0.000000 0.000000 0.000000
    26 0.000000 -1.949404 1.384216 0.000000 0.000000 0.000000
  time 17
    0 0.603925 13.333574 -5.696268 0.000000 -1.570451 0.000000
    1 0.283441 -2.436044 -6.152884 0.000000 1.570276 -0.000249
    2 0.004670 -0.010937 0.000244 -2.722374 -0.378452 2.001951
    3 -9.177921 0.000047 0.000064 -0.000023 0.000004 1.660273
    4 -9.113174 -0.006489 -0.000598 -0.491707 0.012505 -1.227983
    5 -0.359616 -0.344866 -0.717946 2.533386 -0.202022 0.294602
    6 -1.258085 0.000000 0.000001 0.022812 -0.471692 -0.042704
    7 -0.852238 0.000000 0.000000 -0.005920 -0.232660 -0.012283
    8 -2.058155 0.736272 -0.667207 -1.533174 -0.168217 -0.185093
    9 -1.384243 0.000000 0.000001 0.000159 -0.224942 0.037733
    10 -1.012088 0.000001 0.000000 -0.005098 -0.122037 0.009084
    11 -2.125905 0.777433 -0.125177 -1.585411 -0.041150 0.575273
    12 -1.453802 0.000000 0.000000 -3.141071 -1.513386 3.139580
    13 -1.074449 0.000000 0.000000 -0.013723 -0.896629 0.035523
    14 -2.104692 0.654897 0.442688 -1.575701 -0.030214 0.508131
    15 -1.393160 -0.000003 0.000000 3.141327 -1.400231 -3.086821
    16 -1.070196 0.000000 0.000000 -0.005450 -0.883511 0.010737
    17 -2.072691 0.644973 1.003345 -1.518349 0.065595 0.536936
    18 -1.008837 0.000000 0.000000 0.009459 -1.307400 -0.057906
    19 -0.871940 0.000000 0.000000 -0.005073 -1.231073 0.008756
    20 -7.052464 -0.113371 0.000060 0.001661 0.000000 -0.054906
    21 -7.313735 -9.778890 -2.056310 0.000000 1.570451 0.000000
    22 0.302001 -16.145756 -2.316454 2.074719 1.479618 1.885292
    23 0.000000 -4.042458 1.518160 0.000000 0.000000 0.000000
    24 0.357614 -5.868286 2.509109 0.000000 0.000000 0.000000
    25 0.000001 -11.555966 1.697507 0.000000 0.000000 0.000000
    26 0.000000 -1.949404 1.384216 0.000000 0.000000 0.000000
  time 18
    0 0.603925 13.333574 -5.696268 0.000000 -1.570451 0.000000
    1 0.283441 -2.436044 -6.152884 0.000000 1.570276 -0.000249
    2 0.004670 -0.010937 0.000244 -2.723255 -0.379028 2.000256
    3 -9.177921 0.000047 0.000064 -0.000023 0.000028 1.660543
    4 -9.113174 -0.006489 -0.000598 -0.495101 0.001318 -1.217354
    5 -0.359616 -0.344866 -0.717946 2.533386 -0.202022 0.294602
    6 -1.258085 0.000000 0.000001 0.022812 -0.471692 -0.042704
    7 -0.852238 0.000000 0.000000 -0.005920 -0.232660 -0.012283
    8 -2.058155 0.736272 -0.667207 -1.533714 -0.168289 -0.182135
    9 -1.384243 0.000000 0.000001 0.000159 -0.224942 0.037733
    10 -1.012088 0.000001 0.000000 -0.005098 -0.122037 0.009084
    11 -2.125905 0.777433 -0.125177 -1.585411 -0.041150 0.575273
    12 -1.453802 0.000000 0.000000 -3.141071 -1.513386 3.139580
    13 -1.074449 0.000000 0.000000 -0.013723 -0.896629 0.035523
    14 -2.104692 0.654897 0.442688 -1.575701 -0.030214 0.508131
    15 -1.393160 -0.000003 0.000000 3.141327 -1.400231 -3.086821
    16 -1.070196 0.000000 0.000000 -0.005450 -0.883511 0.010737
    17 -2.072691 0.644973 1.003345 -1.518349 0.065595 0.536936
    18 -1.008837 0.000000 0.000000 0.009459 -1.307400 -0.057894
    19 -0.871940 0.000000 0.000000 -0.005073 -1.231073 0.008756
    20 -7.052464 -0.113371 0.000060 0.001661 0.000000 -0.054906
    21 -7.313735 -9.778890 -2.056310 0.000000 1.570451 0.000000
    22 0.317626 -16.137943 -2.285203 2.056669 1.486669 1.881577
    23 0.000000 -4.042458 1.518160 0.000000 0.000000 0.000000
    24 0.357614 -5.868286 2.509109 0.000000 0.000000 0.000000
    25 0.000001 -11.555966 1.697507 0.000000 0.000000 0.000000
    26 0.000000 -1.949404 1.384216 0.000000 0.000000 0.000000
  time 19
    0 0.603925 13.333574 -5.696268 0.000000 -1.570451 0.000000
    1 0.283441 -2.436044 -6.152884 0.000000 1.570276 -0.000249
    2 0.004670 -0.010937 0.000244 -2.724182 -0.379639 1.998782
    3 -9.177921 0.000047 0.000064 -0.000023 0.000028 1.659734
    4 -9.113174 -0.006489 -0.000598 -0.500004 -0.013784 -1.200094
    5 -0.359616 -0.344866 -0.717946 2.533386 -0.202022 0.294602
    6 -1.258085 0.000000 0.000001 0.022812 -0.471692 -0.042704
    7 -0.852238 0.000000 0.000000 -0.005920 -0.232660 -0.012283
    8 -2.058155 0.736272 -0.667207 -1.534672 -0.168421 -0.176256
    9 -1.384243 0.000000 0.000001 0.000159 -0.279263 0.037733
    10 -1.012088 0.000001 0.000000 -0.005098 -0.182086 0.009084
    11 -2.125905 0.777433 -0.125177 -1.585411 -0.041150 0.575273
    12 -1.453802 0.000000 0.000000 -3.141071 -1.513386 3.139484
    13 -1.074449 0.000000 0.000000 -0.013723 -0.896629 0.035523
    14 -2.104692 0.654897 0.442688 -1.575701 -0.030214 0.508131
    15 -1.393160 -0.000003 0.000000 3.141327 -1.400231 -3.086821
    16 -1.070196 0.000000 0.000000 -0.005450 -0.883511 0.010737
    17 -2.072691 0.644973 1.003345 -1.518349 0.065595 0.536936
    18 -1.008837 0.000000 0.000000 0.009459 -1.307400 -0.057906
    19 -0.871940 0.000000 0.000000 -0.005073 -1.231073 0.008756
    20 -7.052464 -0.113371 0.000060 0.001661 0.000000 -0.054906
    21 -7.313735 -9.778890 -2.056310 0.000000 1.570451 0.000000
    22 0.337158 -16.145756 -2.253952 2.040267 1.496532 1.885615
    23 0.000000 -4.042458 1.518160 0.000000 0.000000 0.000000
    24 0.357614 -5.868286 2.509109 0.000000 0.000000 0.000000
    25 0.000001 -11.555966 1.697507 0.000000 0.000000 0.000000
    26 0.000000 -1.949404 1.384216 0.000000 0.000000 0.000000
  time 20
    0 0.603925 13.333574 -5.696268 0.000000 -1.570451 0.000000
    1 0.283441 -2.436044 -6.152884 0.000000 1.570276 -0.000249
    2 0.004670 -0.010937 0.000244 -2.725064 -0.380262 1.997480
    3 -9.177921 0.000047 0.000064 -0.000023 0.000028 1.657914
    4 -9.113174 -0.006489 -0.000598 -0.505567 -0.031150 -1.178292
    5 -0.359616 -0.344866 -0.717946 2.533386 -0.202022 0.294602
    6 -1.258085 0.000000 0.000001 0.022812 -0.471692 -0.042704
    7 -0.852238 0.000000 0.000000 -0.005920 -0.232660 -0.012283
    8 -2.058155 0.736272 -0.667207 -1.536182 -0.168600 -0.167419
    9 -1.384243 0.000000 0.000001 0.000159 -0.333539 0.037733
    10 -1.012088 0.000001 0.000000 -0.005098 -0.242209 0.009084
    11 -2.125905 0.777433 -0.125177 -1.585411 -0.041150 0.575273
    12 -1.453802 0.000000 0.000000 -3.141071 -1.513386 3.139484
    13 -1.074449 0.000000 0.000000 -0.013723 -0.896629 0.035511
    14 -2.104692 0.654897 0.442688 -1.575701 -0.030214 0.508131
    15 -1.393160 -0.000003 0.000000 3.141327 -1.400231 -3.086821
    16 -1.070196 0.000000 0.000000 -0.005450 -0.883511 0.010737
    17 -2.072691 0.644973 1.003345 -1.518349 0.065595 0.536936
    18 -1.008837 0.000000 0.000000 0.009459 -1.307400 -0.057906
    19 -0.871940 0.000000 0.000000 -0.005073 -1.231073 0.008756
    20 -7.052464 -0.113371 0.000060 0.001661 0.000000 -0.054906
    21 -7.313735 -9.778890 -2.056310 0.000000 1.570451 0.000000
    22 0.364503 -16.153569 -2.210982 2.025926 1.508233 1.895467
    23 0.000000 -4.042458 1.518160 0.000000 0.000000 0.000000
    24 0.357614 -5.868286 2.509109 0.000000 0.000000 0.000000
    25 0.000001 -11.555966 1.697507 0.000000 0.000000 0.000000
    26 0.000000 -1.949404 1.384216 0.000000 0.000000 0.000000
  time 21
    0 0.603925 13.333574 -5.696268 0.000000 -1.570451 0.000000
    1 0.283441 -2.436044 -6.152884 0.000000 1.570276 -0.000249
    2 0.004670 -0.010937 0.000244 -2.725946 -0.380813 1.996227
    3 -9.177921 0.000047 0.000064 -0.000023 0.000028 1.655555
    4 -9.113174 -0.002582 -0.000598 -0.511884 -0.049315 -1.154037
    5 -0.359616 -0.344866 -0.717946 2.533386 -0.202022 0.294602
    6 -1.258085 0.000000 0.000001 0.022812 -0.471692 -0.042704
    7 -0.852238 0.000000 0.000000 -0.005920 -0.232660 -0.012283
    8 -2.058155 0.736272 -0.667207 -1.538208 -0.168888 -0.155551
    9 -1.384243 0.000000 0.000001 0.000159 -0.387859 0.037733
    10 -1.012088 0.000001 0.000000 -0.005098 -0.302333 0.009084
    11 -2.125905 0.777433 -0.125177 -1.585411 -0.041150 0.575273
    12 -1.453802 0.000000 0.000000 -3.141071 -1.513386 3.139484
    13 -1.074449 0.000000 0.000000 -0.013723 -0.896629 0.035523
    14 -2.104692 0.654897 0.442688 -1.575701 -0.030214 0.508131
    15 -1.393160 -0.000003 0.000000 3.141327 -1.400231 -3.086821
    16 -1.070196 0.000000 0.000000 -0.005450 -0.883511 0.010737
    17 -2.072691 0.644973 1.003345 -1.518349 0.065595 0.536936
    18 -1.008837 0.000000 0.000000 0.009459 -1.307400 -0.057894
    19 -0.871940 0.000000 0.000000 -0.005073 -1.231073 0.008756
    20 -7.052464 -0.113371 0.000060 0.001661 0.000000 -0.054906
    21 -7.313735 -9.778890 -2.056310 0.000000 1.570451 0.000000
    22 0.399660 -16.180913 -2.179731 2.014304 1.520609 1.909762
    23 0.000000 -4.042458 1.518160 0.000000 0.000000 0.000000
    24 0.357614 -5.868286 2.509109 0.000000 0.000000 0.000000
    25 0.000001 -11.555966 1.697507 0.000000 0.000000 0.000000
    26 0.000000 -1.949404 1.384216 0.000000 0.000000 0.000000
  time 22
    0 0.603925 13.333574 -5.696268 0.000000 -1.570451 0.000000
    1 0.283441 -2.436044 -6.152884 0.000000 1.570276 -0.000249
    2 0.004670 -0.010937 0.000244 -2.726624 -0.381305 1.995097
    3 -9.177921 0.000047 0.000064 -0.000023 0.000016 1.652859
    4 -9.113174 -0.006489 -0.000598 -0.518201 -0.066681 -1.129964
    5 -0.359616 -0.344866 -0.717946 2.533386 -0.202022 0.294602
    6 -1.258085 0.000000 0.000001 0.022812 -0.471692 -0.042704
    7 -0.852238 0.000000 0.000000 -0.005920 -0.232660 -0.012283
    8 -2.058155 0.736272 -0.667207 -1.540725 -0.169223 -0.140798
    9 -1.384243 0.000000 0.000001 0.000159 -0.442135 0.037733
    10 -1.012088 0.000001 0.000000 -0.005098 -0.362457 0.009084
    11 -2.125905 0.777433 -0.125177 -1.585411 -0.041150 0.575273
    12 -1.453802 0.000000 0.000000 -3.141071 -1.513386 3.139484
    13 -1.074449 0.000000 0.000000 -0.013723 -0.896629 0.035523
    14 -2.104692 0.654897 0.442688 -1.575701 -0.030214 0.508131
    15 -1.393160 -0.000003 0.000000 3.141327 -1.400231 -3.086821
    16 -1.070196 0.000000 0.000000 -0.005450 -0.883511 0.010737
    17 -2.072691 0.644973 1.003345 -1.518349 0.065595 0.536936
    18 -1.008837 0.000000 0.000000 0.009459 -1.307400 -0.057882
    19 -0.871940 0.000000 0.000000 -0.005073 -1.231073 0.008756
    20 -7.052464 -0.113371 0.000060 0.001661 0.000000 -0.054906
    21 -7.313735 -9.778890 -2.056310 0.000000 1.570451 0.000000
    22 0.430911 -16.196539 -2.148480 2.006144 1.532685 1.926801
    23 0.000000 -4.042458 1.518160 0.000000 0.000000 0.000000
    24 0.357614 -5.868286 2.509109 0.000000 0.000000 0.000000
    25 0.000001 -11.555966 1.697507 0.000000 0.000000 0.000000
    26 0.000000 -1.949404 1.384216 0.000000 0.000000 0.000000
  time 23
    0 0.603925 13.333574 -5.696268 0.000000 -1.570451 0.000000
    1 0.283441 -2.436044 -6.152884 0.000000 1.570276 -0.000249
    2 0.004670 -0.010937 0.000244 -2.727122 -0.381652 1.993967
    3 -9.177921 0.000047 0.000064 -0.000023 0.000016 1.650298
    4 -9.113174 -0.002582 -0.000598 -0.524424 -0.082076 -1.108706
    5 -0.359616 -0.344866 -0.717946 2.533386 -0.202022 0.294602
    6 -1.258085 0.000000 0.000001 0.022812 -0.471692 -0.042704
    7 -0.852238 0.000000 0.000000 -0.005920 -0.232660 -0.012283
    8 -2.058155 0.736272 -0.667207 -1.543697 -0.169643 -0.123124
    9 -1.384243 0.000000 0.000001 0.000159 -0.496411 0.037733
    10 -1.012088 0.000001 0.000000 -0.005098 -0.422543 0.009084
    11 -2.125905 0.777433 -0.125177 -1.585411 -0.041150 0.575273
    12 -1.453802 0.000000 0.000000 -3.141071 -1.513386 3.139484
    13 -1.074449 0.000000 0.000000 -0.013723 -0.896629 0.035523
    14 -2.104692 0.654897 0.442688 -1.575701 -0.030214 0.508131
    15 -1.393160 -0.000003 0.000000 3.141327 -1.400231 -3.086821
    16 -1.070196 0.000000 0.000000 -0.005450 -0.883511 0.010737
    17 -2.072691 0.644973 1.003345 -1.518349 0.065595 0.536936
    18 -1.008837 0.000000 0.000000 0.009459 -1.307400 -0.057906
    19 -0.871940 0.000000 0.000000 -0.005073 -1.231073 0.008756
    20 -7.052464 -0.113371 0.000060 0.001661 0.000000 -0.054906
    21 -7.313735 -9.778890 -2.056310 0.000000 1.570451 0.000000
    22 0.454349 -16.208258 -2.125042 2.000787 1.543411 1.943761
    23 0.000000 -4.042458 1.518160 0.000000 0.000000 0.000000
    24 0.357614 -5.868286 2.509109 0.000000 0.000000 0.000000
    25 0.000001 -11.555966 1.697507 0.000000 0.000000 0.000000
    26 0.000000 -1.949404 1.384216 0.000000 0.000000 0.000000
  time 24
    0 0.603925 13.333574 -5.696268 0.000000 -1.570451 0.000000
    1 0.283441 -2.436044 -6.152884 0.000000 1.570276 -0.000249
    2 0.004670 -0.010937 0.000244 -2.727529 -0.381904 1.992886
    3 -9.177921 0.000047 0.000064 -0.000023 0.000028 1.648276
    4 -9.113174 -0.002582 -0.000598 -0.529704 -0.093902 -1.092355
    5 -0.359616 -0.344866 -0.717946 2.533386 -0.202022 0.294602
    6 -1.258085 0.000000 0.000001 0.022812 -0.471692 -0.042704
    7 -0.852238 0.000000 0.000000 -0.005920 -0.232660 -0.012283
    8 -2.058155 0.736272 -0.667207 -1.547208 -0.170110 -0.102455
    9 -1.384243 0.000000 0.000001 0.000159 -0.550732 0.037733
    10 -1.012088 0.000001 0.000000 -0.005098 -0.482666 0.009084
    11 -2.125905 0.777433 -0.125177 -1.585411 -0.041150 0.575273
    12 -1.453802 0.000000 0.000000 -3.141071 -1.513386 3.139484
    13 -1.074449 0.000000 0.000000 -0.013723 -0.896629 0.035523
    14 -2.104692 0.654897 0.442688 -1.575701 -0.030214 0.508131
    15 -1.393160 -0.000003 0.000000 3.141327 -1.400231 -3.086821
    16 -1.070196 0.000000 0.000000 -0.005450 -0.883511 0.010737
    17 -2.072691 0.644973 1.003345 -1.518349 0.065595 0.536936
    18 -1.008837 0.000000 0.000000 0.009459 -1.307400 -0.057894
    19 -0.871940 0.000000 0.000000 -0.005073 -1.231073 0.008756
    20 -7.052464 -0.113371 0.000060 0.001661 0.000000 -0.054906
    21 -7.313735 -9.778890 -2.056310 0.000000 1.570451 0.000000
    22 0.473881 -16.216071 -2.101604 1.991885 1.551699 1.952079
    23 0.000000 -4.042458 1.518160 0.000000 0.000000 0.000000
    24 0.357614 -5.868286 2.509109 0.000000 0.000000 0.000000
    25 0.000001 -11.555966 1.697507 0.000000 0.000000 0.000000
    26 0.000000 -1.949404 1.384216 0.000000 0.000000 0.000000
  time 25
    0 0.603925 13.333574 -5.696268 0.000000 -1.570451 0.000000
    1 0.283441 -2.436044 -6.152884 0.000000 1.570276 -0.000249
    2 0.004670 -0.010937 0.000244 -2.727732 -0.381952 1.991805
    3 -9.177921 0.000047 0.000064 -0.000023 0.000028 1.646793
    4 -9.113174 -0.006489 -0.000598 -0.533381 -0.101919 -1.081454
    5 -0.359616 -0.344866 -0.717946 2.533386 -0.202022 0.294602
    6 -1.258085 0.000000 0.000001 0.022812 -0.471692 -0.042704
    7 -0.852238 0.000000 0.000000 -0.005920 -0.232660 -0.012283
    8 -2.058155 0.736272 -0.667207 -1.551211 -0.170698 -0.078902
    9 -1.384243 0.000000 0.000001 0.000159 -0.605052 0.037733
    10 -1.012088 0.000001 0.000000 -0.005098 -0.542752 0.009084
    11 -2.125905 0.777433 -0.125177 -1.585411 -0.041150 0.575273
    12 -1.453802 0.000000 0.000000 -3.141071 -1.513386 3.139580
    13 -1.074449 0.000000 0.000000 -0.013723 -0.896629 0.035523
    14 -2.104692 0.654897 0.442688 -1.575701 -0.030214 0.508131
    15 -1.393160 -0.000003 0.000000 3.141327 -1.400231 -3.086821
    16 -1.070196 0.000000 0.000000 -0.005450 -0.883511 0.010737
    17 -2.072691 0.644973 1.003345 -1.518349 0.065595 0.536936
    18 -1.008837 0.000000 0.000000 0.009459 -1.307400 -0.057906
    19 -0.871940 0.000000 0.000000 -0.005073 -1.231073 0.008756
    20 -7.052464 -0.113371 0.000060 0.001661 0.000000 -0.054906
    21 -7.313735 -9.778890 -2.056310 0.000000 1.570451 0.000000
    22 0.493413 -16.223884 -2.085978 1.977132 1.557362 1.949171
    23 0.000000 -4.042458 1.518160 0.000000 0.000000 0.000000
    24 0.357614 -5.868286 2.509109 0.000000 0.000000 0.000000
    25 0.000001 -11.555966 1.697507 0.000000 0.000000 0.000000
    26 0.000000 -1.949404 1.384216 0.000000 0.000000 0.000000
  time 26
    0 0.603925 13.333574 -5.696268 0.000000 -1.570451 0.000000
    1 0.283441 -2.436044 -6.152884 0.000000 1.570276 -0.000249
    2 0.004670 -0.010937 0.000244 -2.727642 -0.381760 1.990847
    3 -9.177921 0.000047 0.000064 -0.000023 0.000016 1.645243
    4 -9.113174 -0.006489 -0.000598 -0.536021 -0.107273 -1.073460
    5 -0.359616 -0.344866 -0.717946 2.533386 -0.202022 0.294602
    6 -1.258085 0.000000 0.000001 0.022812 -0.471692 -0.042704
    7 -0.852238 0.000000 0.000000 -0.005920 -0.232660 -0.012283
    8 -2.058155 0.736272 -0.667207 -1.555705 -0.171321 -0.052354
    9 -1.384243 0.000000 0.000001 0.000159 -0.659328 0.037733
    10 -1.012088 0.000001 0.000000 -0.005098 -0.602913 0.009084
    11 -2.125905 0.777433 -0.125177 -1.585411 -0.041150 0.575273
    12 -1.453802 0.000000 0.000000 -3.141071 -1.513386 3.139484
    13 -1.074449 0.000000 0.000000 -0.013723 -0.896629 0.035523
    14 -2.104692 0.654897 0.442688 -1.575701 -0.030214 0.508131
    15 -1.393160 -0.000003 0.000000 3.141327 -1.400231 -3.086821
    16 -1.070196 0.000000 0.000000 -0.005450 -0.883511 0.010737
    17 -2.072691 0.644973 1.003345 -1.518349 0.065595 0.536936
    18 -1.008837 0.000000 0.000000 0.009459 -1.307400 -0.057894
    19 -0.871940 0.000000 0.000000 -0.005073 -1.231073 0.008756
    20 -7.052464 -0.113371 0.000060 0.001661 0.000000 -0.054906
    21 -7.313735 -9.778890 -2.056310 0.000000 1.570451 0.000000
    22 0.505132 -16.239509 -2.062540 1.966087 1.561225 1.946103
    23 0.000000 -4.042458 1.518160 0.000000 0.000000 0.000000
    24 0.357614 -5.868286 2.509109 0.000000 0.000000 0.000000
    25 0.000001 -11.555966 1.697507 0.000000 0.000000 0.000000
    26 0.000000 -1.949404 1.384216 0.000000 0.000000 0.000000
  time 27
    0 0.603925 13.333574 -5.696268 0.000000 -1.570451 0.000000
    1 0.283441 -2.436044 -6.152884 0.000000 1.570276 -0.000249
    2 0.004670 -0.010937 0.000244 -2.727416 -0.381533 1.990159
    3 -9.177921 0.000047 0.000064 -0.000023 0.000004 1.643895
    4 -9.113174 -0.006489 -0.000598 -0.538001 -0.110762 -1.068100
    5 -0.359616 -0.344866 -0.717946 2.533386 -0.202022 0.294602
    6 -1.258085 0.000000 0.000001 0.022812 -0.471692 -0.042704
    7 -0.852238 0.000000 0.000000 -0.005920 -0.232660 -0.012283
    8 -2.058155 0.736272 -0.667207 -1.560703 -0.171968 -0.022812
    9 -1.384243 0.000000 0.000001 0.000159 -0.713604 0.037733
    10 -1.012088 0.000001 0.000000 -0.005098 -0.663037 0.009084
    11 -2.125905 0.777433 -0.125177 -1.585411 -0.041150 0.575273
    12 -1.453802 0.000000 0.000000 -3.141071 -1.513386 3.139580
    13 -1.074449 0.000000 0.000000 -0.013723 -0.896629 0.035523
    14 -2.104692 0.654897 0.442688 -1.575701 -0.030214 0.508131
    15 -1.393160 -0.000003 0.000000 3.141327 -1.400231 -3.086821
    16 -1.070196 0.000000 0.000000 -0.005450 -0.883511 0.010737
    17 -2.072691 0.644973 1.003345 -1.518349 0.065595 0.536936
    18 -1.008837 0.000000 0.000000 0.009459 -1.307400 -0.057906
    19 -0.871940 0.000000 0.000000 -0.005073 -1.231073 0.008756
    20 -7.052464 -0.113371 0.000060 0.001661 0.000000 -0.054906
    21 -7.313735 -9.778890 -2.056310 0.000000 1.570451 0.000000
    22 0.516851 -16.247322 -2.054727 1.960565 1.564000 1.946103
    23 0.000000 -4.042458 1.518160 0.000000 0.000000 0.000000
    24 0.357614 -5.868286 2.509109 0.000000 0.000000 0.000000
    25 0.000001 -11.555966 1.697507 0.000000 0.000000 0.000000
    26 0.000000 -1.949404 1.384216 0.000000 0.000000 0.000000
  time 28
    0 0.603925 13.333574 -5.696268 0.000000 -1.570451 0.000000
    1 0.283441 -2.436044 -6.152884 0.000000 1.570276 -0.000249
    2 0.004670 -0.010937 0.000244 -2.727190 -0.381281 1.989545
    3 -9.177921 0.000047 0.000064 -0.000023 0.000004 1.642682
    4 -9.113174 -0.002582 -0.000598 -0.539321 -0.113452 -1.063194
    5 -0.359616 -0.344866 -0.717946 2.533386 -0.202022 0.294602
    6 -1.258085 0.000000 0.000001 0.022812 -0.471692 -0.042704
    7 -0.852238 0.000000 0.000000 -0.005920 -0.232660 -0.012283
    8 -2.058155 0.736272 -0.667207 -1.560703 -0.171968 -0.022812
    9 -1.384243 0.000000 0.000001 0.000159 -0.713604 0.037733
    10 -1.012088 0.000001 0.000000 -0.005098 -0.663037 0.009084
    11 -2.125905 0.777433 -0.125177 -1.585411 -0.041150 0.575273
    12 -1.453802 0.000000 0.000000 -3.141071 -1.513386 3.139580
    13 -1.074449 0.000000 0.000000 -0.013723 -0.896629 0.035523
    14 -2.104692 0.654897 0.442688 -1.575701 -0.030214 0.508131
    15 -1.393160 -0.000003 0.000000 3.141327 -1.400231 -3.086821
    16 -1.070196 0.000000 0.000000 -0.005450 -0.883511 0.010737
    17 -2.072691 0.644973 1.003345 -1.518349 0.065595 0.536936
    18 -1.008837 0.000000 0.000000 0.009459 -1.307400 -0.057894
    19 -0.871940 0.000000 0.000000 -0.005073 -1.231073 0.008756
    20 -7.052464 -0.113371 0.000060 0.001661 0.000000 -0.054906
    21 -7.313735 -9.778890 -2.056310 0.000000 1.570451 0.000000
    22 0.524664 -16.255134 -2.054727 1.961142 1.566026 1.951110
    23 0.000000 -4.042458 1.518160 0.000000 0.000000 0.000000
    24 0.357614 -5.868286 2.509109 0.000000 0.000000 0.000000
    25 0.000001 -11.555966 1.697507 0.000000 0.000000 0.000000
    26 0.000000 -1.949404 1.384216 0.000000 0.000000 0.000000
  time 29
    0 0.603925 13.333574 -5.696268 0.000000 -1.570451 0.000000
    1 0.283441 -2.436044 -6.152884 0.000000 1.570276 -0.000249
    2 0.004670 -0.010937 0.000244 -2.727054 -0.381113 1.989275
    3 -9.177921 0.000047 0.000064 -0.000023 0.000028 1.641536
    4 -9.113174 -0.006489 -0.000598 -0.540924 -0.116169 -1.058471
    5 -0.359616 -0.344866 -0.717946 2.533386 -0.202022 0.294602
    6 -1.258085 0.000000 0.000001 0.022812 -0.471692 -0.042704
    7 -0.852238 0.000000 0.000000 -0.005920 -0.232660 -0.012283
    8 -2.058155 0.736272 -0.667207 -1.560703 -0.171968 -0.022812
    9 -1.384243 0.000000 0.000001 0.000159 -0.713604 0.037733
    10 -1.012088 0.000001 0.000000 -0.005098 -0.663037 0.009084
    11 -2.125905 0.777433 -0.125177 -1.585411 -0.041150 0.575273
    12 -1.453802 0.000000 0.000000 -3.141071 -1.513386 3.139580
    13 -1.074449 0.000000 0.000000 -0.013723 -0.896629 0.035511
    14 -2.104692 0.654897 0.442688 -1.575701 -0.030214 0.508131
    15 -1.393160 -0.000003 0.000000 3.141327 -1.400231 -3.086821
    16 -1.070196 0.000000 0.000000 -0.005450 -0.883511 0.010737
    17 -2.072691 0.644973 1.003345 -1.518349 0.065595 0.536936
    18 -1.008837 0.000000 0.000000 0.009459 -1.307400 -0.057906
    19 -0.871940 0.000000 0.000000 -0.005073 -1.231073 0.008756
    20 -7.052464 -0.113371 0.000060 0.001661 0.000000 -0.054906
    21 -7.313735 -9.778890 -2.056310 0.000000 1.570451 0.000000
    22 0.536383 -16.259041 -2.054727 1.966170 1.568163 1.960558
    23 0.000000 -4.042458 1.518160 0.000000 0.000000 0.000000
    24 0.357614 -5.868286 2.509109 0.000000 0.000000 0.000000
    25 0.000001 -11.555966 1.697507 0.000000 0.000000 0.000000
    26 0.000000 -1.949404 1.384216 0.000000 0.000000 0.000000
  time 30
    0 0.603925 13.333574 -5.696268 0.000000 -1.570451 0.000000
    1 0.283441 -2.436044 -6.152884 0.000000 1.570276 -0.000249
    2 0.004670 -0.010937 0.000244 -2.727077 -0.381149 1.989250
    3 -9.177921 0.000047 0.000064 -0.000023 0.000016 1.640390
    4 -9.113174 -0.002582 -0.000598 -0.542715 -0.119658 -1.052566
    5 -0.359616 -0.344866 -0.717946 2.533386 -0.202022 0.294602
    6 -1.258085 0.000000 0.000001 0.022812 -0.471692 -0.042704
    7 -0.852238 0.000000 0.000000 -0.005920 -0.232660 -0.012283
    8 -2.058155 0.736272 -0.667207 -1.560703 -0.171968 -0.022812
    9 -1.384243 0.000000 0.000001 0.000159 -0.713604 0.037733
    10 -1.012088 0.000001 0.000000 -0.005098 -0.663037 0.009084
    11 -2.125905 0.777433 -0.125177 -1.585411 -0.041150 0.575273
    12 -1.453802 0.000000 0.000000 -3.141071 -1.513386 3.139484
    13 -1.074449 0.000000 0.000000 -0.013723 -0.896629 0.035523
    14 -2.104692 0.654897 0.442688 -1.575701 -0.030214 0.508131
    15 -1.393160 -0.000003 0.000000 3.141327 -1.400231 -3.086821
    16 -1.070196 0.000000 0.000000 -0.005450 -0.883511 0.010749
    17 -2.072691 0.644973 1.003345 -1.518349 0.065595 0.536936
    18 -1.008837 0.000000 0.000000 0.009459 -1.307327 -0.057882
    19 -0.871940 0.000000 0.000000 -0.005073 -1.231073 0.008756
    20 -7.052464 -0.113371 0.000060 0.001661 0.000000 -0.054906
    21 -7.313735 -9.778890 -2.056310 0.000000 1.570451 0.000000
    22 0.536383 -16.259041 -2.054727 0.000000 1.570451 0.000000
    23 0.000000 -4.042458 1.518160 0.000000 0.000000 0.000000
    24 0.357614 -5.868286 2.509109 0.000000 0.000000 0.000000
    25 0.000001 -11.555966 1.697507 0.000000 0.000000 0.000000
    26 0.000000 -1.949404 1.384216 0.000000 0.000000 0.000000
end
