// Created by Crowbar 0.29.0.0
version 1
nodes
  0 "base" -1
  1 "R arm base" 0
  2 "Bone R uparm" 1
  3 "Bone R lowarm" 2
  4 "Bone R hand" 3
  5 "Bone R thumbbase" 4
  6 "Bone R thumb mid" 5
  7 "Bone R thumb tip" 6
  8 "Bone R index base" 4
  9 "Bone R index mid" 8
  10 "Bone R index tip" 9
  11 "Bone R mid base" 4
  12 "Bone R mid mid" 11
  13 "Bone R mid tip" 12
  14 "Bone R ring base" 4
  15 "Bone R ring mid" 14
  16 "Bone R ring tip" 15
  17 "Bone R pinky base" 4
  18 "Bone R pinky mid" 17
  19 "Bone R pinky tip" 18
  20 "R wrist rotate" 3
  21 "sgshell" 0
  22 "xm" 0
  23 "xm_insert" 22
  24 "xm_bolt" 22
  25 "xm_pump" 22
  26 "xm_trig" 22
end
skeleton
  time 0
    0 0.603925 13.333574 -5.696268 0.000000 -1.570451 0.000000
    1 0.283441 -2.436044 -6.152884 0.000000 1.570276 -0.000249
    2 0.004670 -0.010937 0.000244 -2.727077 -0.381149 1.989250
    3 -9.177921 0.000047 0.000064 -0.000023 0.000016 1.640390
    4 -9.113174 -0.002582 -0.000598 -0.542715 -0.119658 -1.052566
    5 -0.359616 -0.344866 -0.717946 2.533386 -0.202022 0.294602
    6 -1.258085 0.000000 0.000001 0.022812 -0.471692 -0.042704
    7 -0.852238 0.000000 0.000000 -0.005920 -0.232660 -0.012283
    8 -2.058155 0.736272 -0.667207 -1.560703 -0.171968 -0.022812
    9 -1.384243 0.000000 0.000001 0.000159 -0.713604 0.037733
    10 -1.012088 0.000001 0.000000 -0.005098 -0.663037 0.009084
    11 -2.125905 0.777433 -0.125177 -1.585411 -0.041150 0.575273
    12 -1.453802 0.000000 0.000000 -3.141071 -1.513386 3.139484
    13 -1.074449 0.000000 0.000000 -0.013723 -0.896629 0.035523
    14 -2.104692 0.654897 0.442688 -1.575701 -0.030214 0.508131
    15 -1.393160 -0.000003 0.000000 3.141327 -1.400231 -3.086821
    16 -1.070196 0.000000 0.000000 -0.005450 -0.883511 0.010749
    17 -2.072691 0.644973 1.003345 -1.518349 0.065595 0.536936
    18 -1.008837 0.000000 0.000000 0.009459 -1.307400 -0.057882
    19 -0.871940 0.000000 0.000000 -0.005073 -1.231073 0.008756
    20 -7.052464 -0.113371 0.000060 0.001661 0.000000 -0.054906
    21 -7.313735 -9.778890 -2.056310 0.000000 1.570451 0.000000
    22 0.536383 -16.259041 -2.054727 0.000000 1.570451 0.000000
    23 0.000000 -4.042458 1.518160 0.000000 0.000000 0.000000
    24 0.357614 -5.868286 2.509109 0.000000 0.000000 0.000000
    25 0.000001 -11.555966 1.697507 0.000000 0.000000 0.000000
    26 0.000000 -1.949404 1.384216 0.000000 0.000000 0.000000
  time 1
    0 0.603925 13.333574 -5.696268 0.000000 -1.570451 0.000000
    1 0.283441 -2.666520 -6.152884 0.000000 1.570276 -0.000249
    2 0.000764 -0.010937 0.000244 -2.783718 -0.429303 2.050691
    3 -9.177921 0.000047 0.000064 -0.000023 0.000016 1.673416
    4 -9.113174 -0.002582 -0.000598 0.198744 0.409261 -1.343171
    5 -0.359616 -0.344866 -0.717946 2.499613 -0.191223 0.348281
    6 -1.258085 0.000000 0.000001 0.022536 -0.415726 -0.041518
    7 -0.852238 0.000000 0.000000 -0.005920 -0.180682 -0.012283
    8 -2.058155 0.736272 -0.667207 -1.559984 -0.156963 0.020059
    9 -1.384243 0.000000 0.000001 0.000159 -0.701582 0.037733
    10 -1.012088 0.000001 0.000000 -0.005098 -0.635002 0.009084
    11 -2.125905 0.777433 -0.125177 -1.585411 -0.041150 0.575273
    12 -1.453802 0.000000 0.000000 -3.141071 -1.513386 3.139580
    13 -1.074449 0.000000 0.000000 -0.013723 -0.896629 0.035511
    14 -2.104692 0.654897 0.442688 -1.575701 -0.030214 0.508131
    15 -1.393160 -0.000003 0.000000 3.141327 -1.400231 -3.086821
    16 -1.070196 0.000000 0.000000 -0.005450 -0.883511 0.010737
    17 -2.072691 0.644973 1.003345 -1.518349 0.065595 0.536936
    18 -1.008837 0.000000 0.000000 0.009459 -1.307400 -0.057906
    19 -0.871940 0.000000 0.000000 -0.005073 -1.231073 0.008744
    20 -7.052464 -0.113371 0.000060 0.798827 0.000000 -0.054906
    21 -6.969974 -11.118774 -2.892273 -0.141217 1.535774 -0.070331
    22 0.442630 -16.337168 -2.242233 0.142425 1.460229 0.198664
    23 0.000000 -4.042458 1.518160 0.000000 0.000000 0.000000
    24 0.357614 -5.868286 2.509109 0.000000 0.000000 0.000000
    25 0.000001 -11.555966 1.697507 0.000000 0.000000 0.000000
    26 0.000000 -1.949404 1.384216 0.000000 0.000000 0.000000
  time 2
    0 0.603925 13.333574 -5.696268 0.000000 -1.570451 0.000000
    1 0.283441 -2.900902 -6.152884 0.000000 1.570276 -0.000249
    2 0.004670 -0.010937 0.000244 -2.837735 -0.466359 2.109724
    3 -9.177921 0.000047 0.000064 -0.000023 0.000028 1.685548
    4 -9.113174 -0.006489 -0.000598 0.568059 0.808840 -1.851979
    5 -0.359616 -0.344866 -0.717946 2.467902 -0.181062 0.398724
    6 -1.258085 0.000000 0.000001 0.022285 -0.363143 -0.040331
    7 -0.852238 0.000000 0.000000 -0.005920 -0.131836 -0.012283
    8 -2.058155 0.736272 -0.667207 -1.559325 -0.142869 0.060374
    9 -1.384243 0.000000 0.000001 0.000159 -0.690362 0.037733
    10 -1.012088 0.000001 0.000000 -0.005098 -0.608693 0.009084
    11 -2.125905 0.777433 -0.125177 -1.585411 -0.041150 0.575273
    12 -1.453802 0.000000 0.000000 -3.141071 -1.513386 3.139484
    13 -1.074449 0.000000 0.000000 -0.013723 -0.896629 0.035523
    14 -2.104692 0.654897 0.442688 -1.575701 -0.030214 0.508131
    15 -1.393160 -0.000003 0.000000 3.141327 -1.400231 -3.086821
    16 -1.070196 0.000000 0.000000 -0.005450 -0.883511 0.010737
    17 -2.072691 0.644973 1.003345 -1.518349 0.065595 0.536936
    18 -1.008837 0.000000 0.000000 0.009459 -1.307400 -0.057906
    19 -0.871940 0.000000 0.000000 -0.005073 -1.231073 0.008756
    20 -7.052464 -0.113371 0.000060 1.542825 0.000000 -0.054906
    21 -6.509022 -12.337561 -3.661828 -0.244894 1.495924 -0.102798
    22 0.348877 -16.434827 -2.445364 0.113412 1.346782 0.227737
    23 0.000000 -4.042458 1.518160 0.000000 0.000000 0.000000
    24 0.357614 -5.868286 2.509109 0.000000 0.000000 0.000000
    25 0.000001 -11.555966 1.697507 0.000000 0.000000 0.000000
    26 0.000000 -1.949404 1.384216 0.000000 0.000000 0.000000
  time 3
    0 0.603925 13.333574 -5.696268 0.000000 -1.570451 0.000000
    1 0.283441 -3.131378 -6.152884 0.000000 1.570276 -0.000249
    2 0.004670 -0.010937 0.000244 -2.885106 -0.492905 2.164483
    3 -9.177921 0.000047 0.000064 -0.000023 0.000028 1.680763
    4 -9.113174 -0.002582 -0.000598 0.527234 0.859793 -2.686548
    5 -0.359616 -0.344866 -0.717946 2.438228 -0.171586 0.445895
    6 -1.258085 0.000000 0.000001 0.022045 -0.313912 -0.039252
    7 -0.852238 0.000000 0.000000 -0.005920 -0.086136 -0.012283
    8 -2.058155 0.736272 -0.667207 -1.558666 -0.129686 0.098023
    9 -1.384243 0.000000 0.000001 0.000159 -0.679809 0.037733
    10 -1.012088 0.000001 0.000000 -0.005098 -0.584111 0.009084
    11 -2.125905 0.777433 -0.125177 -1.585411 -0.041150 0.575273
    12 -1.453802 0.000000 0.000000 -3.141071 -1.513386 3.139484
    13 -1.074449 0.000000 0.000000 -0.013723 -0.896629 0.035523
    14 -2.104692 0.654897 0.442688 -1.575701 -0.030214 0.508131
    15 -1.393160 -0.000003 0.000000 3.141327 -1.400231 -3.086821
    16 -1.070196 0.000000 0.000000 -0.005450 -0.883511 0.010737
    17 -2.072691 0.644973 1.003345 -1.518349 0.065595 0.536936
    18 -1.008837 0.000000 0.000000 0.009459 -1.307400 -0.057906
    19 -0.871940 0.000000 0.000000 -0.005073 -1.231073 0.008756
    20 -7.052464 -0.113371 0.000060 2.233830 0.000000 -0.054906
    21 -5.962131 -13.427438 -4.329817 -0.343142 1.452025 -0.130836
    22 0.262937 -16.512955 -2.632870 0.083576 1.231835 0.257537
    23 0.000000 -4.042458 1.518160 0.000000 0.000000 0.000000
    24 0.357614 -5.868286 2.509109 0.000000 0.000000 0.000000
    25 0.000001 -11.555966 1.697507 0.000000 0.000000 0.000000
    26 0.000000 -1.949404 1.384216 0.000000 0.000000 0.000000
  time 4
    0 0.603925 13.333574 -5.696268 0.000000 -1.570451 0.000000
    1 0.283441 -3.365760 -6.152884 0.000000 1.570276 -0.000249
    2 0.004670 -0.010937 0.000244 -2.922753 -0.510343 2.213198
    3 -9.177921 0.000047 0.000064 -0.000023 0.000028 1.662430
    4 -9.113174 -0.002582 -0.000598 0.706376 0.556819 3.010450
    5 -0.359616 -0.344866 -0.717946 2.410616 -0.162725 0.489843
    6 -1.258085 0.000000 0.000001 0.021781 -0.268140 -0.038282
    7 -0.852238 0.000000 0.000000 -0.005920 -0.043597 -0.012283
    8 -2.058155 0.736272 -0.667207 -1.558042 -0.117426 0.133152
    9 -1.384243 0.000000 0.000001 0.000254 -0.669969 0.037733
    10 -1.012088 0.000001 0.000000 -0.005098 -0.561217 0.009084
    11 -2.125905 0.777433 -0.125177 -1.585411 -0.041150 0.575273
    12 -1.453802 0.000000 0.000000 -3.141071 -1.513386 3.139484
    13 -1.074449 0.000000 0.000000 -0.013723 -0.896629 0.035523
    14 -2.104692 0.654897 0.442688 -1.575701 -0.030214 0.508131
    15 -1.393160 -0.000003 0.000000 3.141327 -1.400231 -3.086821
    16 -1.070196 0.000000 0.000000 -0.005450 -0.883511 0.010737
    17 -2.072691 0.644973 1.003345 -1.518349 0.065595 0.536936
    18 -1.008837 0.000000 0.000000 0.009459 -1.307400 -0.057882
    19 -0.871940 0.000000 0.000000 -0.005073 -1.231073 0.008756
    20 -7.052464 -0.113371 0.000060 2.871755 0.000000 -0.054906
    21 -5.348831 -14.376686 -4.904053 -0.436241 1.404527 -0.155719
    22 0.169184 -16.602801 -2.824282 0.052997 1.116700 0.288144
    23 0.000000 -4.042458 1.518160 0.000000 0.000000 0.000000
    24 0.357614 -5.868286 2.509109 0.000000 0.000000 0.000000
    25 0.000001 -11.555966 1.697507 0.000000 0.000000 0.000000
    26 0.000000 -1.949404 1.384216 0.000000 0.000000 0.000000
  time 5
    0 0.603925 13.333574 -5.696268 0.000000 -1.570451 0.000000
    1 0.283441 -3.600142 -6.152884 0.000000 1.570276 -0.000249
    2 0.004670 -0.010937 0.000244 -2.948643 -0.520266 2.254568
    3 -9.177921 0.000047 0.000064 -0.000023 0.000028 1.634122
    4 -9.113174 -0.002582 -0.000598 1.164697 0.171703 2.675696
    5 -0.359616 -0.344866 -0.717946 2.385041 -0.154596 0.530494
    6 -1.258085 0.000000 0.000001 0.021590 -0.225735 -0.037359
    7 -0.852238 0.000000 0.000000 -0.005920 -0.004218 -0.012283
    8 -2.058155 0.736272 -0.667207 -1.557491 -0.106101 0.165579
    9 -1.384243 0.000000 0.000001 0.000159 -0.660886 0.037733
    10 -1.012088 0.000001 0.000000 -0.005098 -0.540013 0.009084
    11 -2.125905 0.777433 -0.125177 -1.585411 -0.041150 0.575273
    12 -1.453802 0.000000 0.000000 -3.141071 -1.513386 3.139580
    13 -1.074449 0.000000 0.000000 -0.013723 -0.896629 0.035511
    14 -2.104692 0.654897 0.442688 -1.575701 -0.030214 0.508131
    15 -1.393160 -0.000003 0.000000 3.141327 -1.400231 -3.086821
    16 -1.070196 0.000000 0.000000 -0.005450 -0.883511 0.010737
    17 -2.072691 0.644973 1.003345 -1.518349 0.065595 0.536936
    18 -1.008837 0.000000 0.000000 0.009459 -1.307400 -0.057894
    19 -0.871940 0.000000 0.000000 -0.005073 -1.231073 0.008756
    20 -7.052464 -0.113371 0.000060 -2.826652 0.000000 -0.054906
    21 -4.704280 -15.212649 -5.365005 -0.524191 1.354405 -0.178526
    22 0.083244 -16.688741 -3.015694 0.021842 1.002878 0.319317
    23 0.000000 -4.042458 1.518160 0.000000 0.000000 0.000000
    24 0.357614 -5.868286 2.509109 0.000000 0.000000 0.000000
    25 0.000001 -11.555966 1.697507 0.000000 0.000000 0.000000
    26 0.000000 -1.949404 1.384216 0.000000 0.000000 0.000000
  time 6
    0 0.603925 13.333574 -5.696268 0.000000 -1.570451 0.000000
    1 0.283441 -3.830618 -6.152884 0.000000 1.570276 -0.000249
    2 0.004670 -0.010937 0.000244 -2.962187 -0.524473 2.288273
    3 -9.177921 0.000047 0.000064 -0.000023 0.000028 1.599209
    4 -9.113174 -0.006489 -0.000598 1.755017 -0.163100 2.386454
    5 -0.359616 -0.344866 -0.717946 2.361515 -0.147058 0.567922
    6 -1.258085 0.000000 0.000001 0.021386 -0.186713 -0.036472
    7 -0.852238 0.000000 0.000000 -0.005920 0.032014 -0.012283
    8 -2.058155 0.736272 -0.667207 -1.557012 -0.095602 0.195523
    9 -1.384243 0.000000 0.000001 0.000159 -0.652516 0.037733
    10 -1.012088 0.000001 0.000000 -0.005098 -0.520497 0.009084
    11 -2.125905 0.777433 -0.125177 -1.585411 -0.041150 0.575273
    12 -1.453802 0.000000 0.000000 -3.141071 -1.513386 3.139580
    13 -1.074449 0.000000 0.000000 -0.013723 -0.896629 0.035523
    14 -2.104692 0.654897 0.442688 -1.575701 -0.030214 0.508131
    15 -1.393160 -0.000003 0.000000 3.141327 -1.400231 -3.086821
    16 -1.070196 0.000000 0.000000 -0.005450 -0.883511 0.010749
    17 -2.072691 0.644973 1.003345 -1.518349 0.065595 0.536936
    18 -1.008837 0.000000 0.000000 0.009459 -1.307400 -0.057894
    19 -0.871940 0.000000 0.000000 -0.005073 -1.231073 0.008756
    20 -7.052464 -0.113371 0.000060 -2.295238 0.000000 -0.054906
    21 -4.055823 -15.923608 -5.716578 -0.606946 1.302334 -0.200475
    22 -0.002696 -16.762962 -3.195387 -0.009643 0.891719 0.350893
    23 0.000000 -4.042458 1.518160 0.000000 0.000000 0.000000
    24 0.357614 -5.868286 2.509109 0.000000 0.000000 0.000000
    25 0.000001 -11.555966 1.697507 0.000000 0.000000 0.000000
    26 0.000000 -1.949404 1.384216 0.000000 0.000000 0.000000
  time 7
    0 0.603925 13.333574 -5.696268 0.000000 -1.570451 0.000000
    1 0.283441 -4.072813 -6.152884 0.000000 1.570276 -0.000249
    2 0.004670 -0.010937 0.000244 -2.963770 -0.524293 2.314584
    3 -9.177921 0.000047 0.000064 -0.000023 0.000028 1.561195
    4 -9.113174 -0.002582 -0.000598 2.425574 -0.386355 2.060965
    5 -0.359616 -0.344866 -0.717946 2.340002 -0.140205 0.602090
    6 -1.258085 0.000000 0.000001 0.021206 -0.151104 -0.035717
    7 -0.852238 0.000000 0.000000 -0.005920 0.065101 -0.012283
    8 -2.058155 0.736272 -0.667207 -1.556520 -0.086062 0.222801
    9 -1.384243 0.000000 0.000001 0.000159 -0.644946 0.037733
    10 -1.012088 0.000001 0.000000 -0.005098 -0.502670 0.009084
    11 -2.125905 0.777433 -0.125177 -1.585411 -0.041150 0.575273
    12 -1.453802 0.000000 0.000000 -3.141071 -1.513386 3.139580
    13 -1.074449 0.000000 0.000000 -0.013723 -0.896629 0.035499
    14 -2.104692 0.654897 0.442688 -1.575701 -0.030214 0.508131
    15 -1.393160 -0.000003 0.000000 3.141327 -1.400231 -3.086821
    16 -1.070196 0.000000 0.000000 -0.005450 -0.883511 0.010737
    17 -2.072691 0.644973 1.003345 -1.518349 0.065595 0.536936
    18 -1.008837 0.000000 0.000000 0.009459 -1.307400 -0.057894
    19 -0.871940 0.000000 0.000000 -0.005073 -1.231073 0.008756
    20 -7.052464 -0.113371 0.000060 -1.816816 0.000000 -0.054906
    21 -3.430804 -16.505657 -5.958773 -0.684739 1.249475 -0.222590
    22 -0.088636 -16.841090 -3.375080 -0.041458 0.784460 0.382711
    23 0.000000 -4.042458 1.518160 0.000000 0.000000 0.000000
    24 0.357614 -5.868286 2.509109 0.000000 0.000000 0.000000
    25 0.000001 -11.555966 1.697507 0.000000 0.000000 0.000000
    26 0.000000 -1.949404 1.384216 0.000000 0.000000 0.000000
  time 8
    0 0.603925 13.333574 -5.696268 0.000000 -1.570451 0.000000
    1 0.283441 -4.291570 -6.152884 0.000000 1.570276 -0.000249
    2 0.004670 -0.010937 0.000244 -2.954658 -0.520853 2.334286
    3 -9.177921 0.000047 0.000064 -0.000023 0.000028 1.522373
    4 -9.113174 -0.002582 -0.000598 -3.165732 -0.468577 1.707589
    5 -0.359616 -0.344866 -0.717946 2.320599 -0.133943 0.633034
    6 -1.258085 0.000000 0.000001 0.021014 -0.118862 -0.035010
    7 -0.852238 0.000000 0.000000 -0.005920 0.095040 -0.012283
    8 -2.058155 0.736272 -0.667207 -1.556125 -0.077445 0.247523
    9 -1.384243 0.000000 0.000001 0.000159 -0.638000 0.037733
    10 -1.012088 0.000001 0.000000 -0.005098 -0.486532 0.009084
    11 -2.125905 0.777433 -0.125177 -1.585411 -0.041150 0.575273
    12 -1.453802 0.000000 0.000000 -3.141071 -1.513386 3.139484
    13 -1.074449 0.000000 0.000000 -0.013723 -0.896629 0.035499
    14 -2.104692 0.654897 0.442688 -1.575701 -0.030214 0.508131
    15 -1.393160 -0.000003 0.000000 3.141327 -1.400231 -3.086821
    16 -1.070196 0.000000 0.000000 -0.005450 -0.883511 0.010737
    17 -2.072691 0.644973 1.003345 -1.518349 0.065595 0.536936
    18 -1.008837 0.000000 0.000000 0.009459 -1.307400 -0.057894
    19 -0.871940 0.000000 0.000000 -0.005073 -1.231073 0.008744
    20 -7.052464 -0.113371 0.000060 -1.391737 0.000000 -0.054906
    21 -2.848755 -16.997860 -6.118934 -0.758038 1.197029 -0.246089
    22 -0.170670 -16.923124 -3.543054 -0.073355 0.682602 0.414611
    23 0.000000 -4.042458 1.518160 0.000000 0.000000 0.000000
    24 0.357614 -5.868286 2.509109 0.000000 0.000000 0.000000
    25 0.000001 -11.555966 1.697507 0.000000 0.000000 0.000000
    26 0.000000 -1.949404 1.384216 0.000000 0.000000 0.000000
  time 9
    0 0.603925 13.333574 -5.696268 0.000000 -1.570451 0.000000
    1 0.283441 -4.525952 -6.156791 0.000000 1.570276 -0.000249
    2 0.004670 -0.010937 0.000244 -2.936569 -0.514933 2.348534
    3 -9.177921 0.000047 0.000064 -0.000023 0.000028 1.485370
    4 -9.113174 -0.002582 -0.000598 -2.541941 -0.426254 1.391275
    5 -0.359616 -0.344866 -0.717946 2.303186 -0.128390 0.660707
    6 -1.258085 0.000000 0.000001 0.020907 -0.090049 -0.034387
    7 -0.852238 0.000000 0.000000 -0.005920 0.121820 -0.012283
    8 -2.058155 0.736272 -0.667207 -1.555705 -0.069703 0.269616
    9 -1.384243 0.000000 0.000001 0.000159 -0.631812 0.037733
    10 -1.012088 0.000001 0.000000 -0.005098 -0.472120 0.009084
    11 -2.125905 0.777433 -0.125177 -1.585411 -0.041150 0.575273
    12 -1.453802 0.000000 0.000000 -3.141071 -1.513386 3.139580
    13 -1.074449 0.000000 0.000000 -0.013723 -0.896629 0.035511
    14 -2.104692 0.654897 0.442688 -1.575701 -0.030214 0.508131
    15 -1.393160 -0.000003 0.000000 3.141327 -1.400231 -3.086821
    16 -1.070196 0.000000 0.000000 -0.005450 -0.883511 0.010737
    17 -2.072691 0.644973 1.003345 -1.518349 0.065595 0.536936
    18 -1.008837 0.000000 0.000000 0.009459 -1.307400 -0.057906
    19 -0.871940 0.000000 0.000000 -0.005073 -1.231073 0.008756
    20 -7.052464 -0.113371 0.000060 -1.019738 0.000000 -0.054906
    21 -2.333114 -17.392403 -6.204874 -0.827594 1.146007 -0.272162
    22 -0.248797 -16.997345 -3.703215 -0.104758 0.587156 0.446026
    23 0.000000 -4.042458 1.518160 0.000000 0.000000 0.000000
    24 0.357614 -5.868286 2.509109 0.000000 0.000000 0.000000
    25 0.000001 -11.555966 1.697507 0.000000 0.000000 0.000000
    26 0.000000 -1.949404 1.384216 0.000000 0.000000 0.000000
  time 10
    0 0.603925 13.333574 -5.696268 0.000000 -1.570451 0.000000
    1 0.283441 -4.760334 -6.152884 0.000000 1.570276 -0.000249
    2 0.004670 -0.010937 0.000244 -2.911312 -0.507059 2.358607
    3 -9.177921 0.000047 0.000064 -0.000023 0.000028 1.451805
    4 -9.113174 -0.002582 -0.000598 -2.037986 -0.310818 1.153904
    5 -0.359616 -0.344866 -0.717946 2.287881 -0.123522 0.685096
    6 -1.258085 0.000000 0.000001 0.020775 -0.064558 -0.033799
    7 -0.852238 0.000000 0.000000 -0.005920 0.145452 -0.012283
    8 -2.058155 0.736272 -0.667207 -1.555406 -0.062872 0.289043
    9 -1.384243 0.000000 0.000001 0.000159 -0.626379 0.037733
    10 -1.012088 0.000001 0.000000 -0.005098 -0.459360 0.009084
    11 -2.125905 0.777433 -0.125177 -1.585411 -0.041150 0.575273
    12 -1.453802 0.000000 0.000000 -3.141071 -1.513386 3.139484
    13 -1.074449 0.000000 0.000000 -0.013723 -0.896629 0.035523
    14 -2.104692 0.654897 0.442688 -1.575701 -0.030214 0.508131
    15 -1.393160 -0.000003 0.000000 3.141327 -1.400231 -3.086821
    16 -1.070196 0.000000 0.000000 -0.005450 -0.883511 0.010749
    17 -2.072691 0.644973 1.003345 -1.518349 0.065595 0.536936
    18 -1.008837 0.000000 0.000000 0.009459 -1.307400 -0.057906
    19 -0.871940 0.000000 0.000000 -0.005073 -1.231073 0.008756
    20 -7.052464 -0.113371 0.000060 -0.700819 0.000000 -0.054906
    21 -1.891694 -17.720538 -6.247844 -0.893966 1.097872 -0.301944
    22 -0.323018 -17.067659 -3.859470 -0.135419 0.499586 0.476633
    23 0.000000 -4.042458 1.518160 0.000000 0.000000 0.000000
    24 0.357614 -5.868286 2.509109 0.000000 0.000000 0.000000
    25 0.000001 -11.555966 1.697507 0.000000 0.000000 0.000000
    26 0.000000 -1.949404 1.384216 0.000000 0.000000 0.000000
  time 11
    0 0.603925 13.333574 -5.696268 0.000000 -1.570451 0.000000
    1 0.283441 -4.994716 -6.152884 0.000000 1.570276 -0.000249
    2 0.004670 -0.010937 0.000244 -2.887096 -0.499605 2.364036
    3 -9.177921 0.000047 0.000064 -0.000023 0.000028 1.425654
    4 -9.113174 -0.006489 -0.000598 -1.647739 -0.188723 0.986209
    5 -0.359616 -0.344866 -0.717946 2.274579 -0.119245 0.706248
    6 -1.258085 0.000000 0.000001 0.020667 -0.042540 -0.033332
    7 -0.852238 0.000000 0.000000 -0.005920 0.165939 -0.012283
    8 -2.058155 0.736272 -0.667207 -1.555082 -0.057000 0.305987
    9 -1.384243 0.000000 0.000001 0.000159 -0.621615 0.037733
    10 -1.012088 0.000001 0.000000 -0.005098 -0.448363 0.009084
    11 -2.125905 0.777433 -0.125177 -1.585411 -0.041150 0.575273
    12 -1.453802 0.000000 0.000000 -3.141071 -1.513386 3.139580
    13 -1.074449 0.000000 0.000000 -0.013723 -0.896629 0.035499
    14 -2.104692 0.654897 0.442688 -1.575701 -0.030214 0.508131
    15 -1.393160 -0.000003 0.000000 3.141327 -1.400231 -3.086821
    16 -1.070196 0.000000 0.000000 -0.005450 -0.883511 0.010737
    17 -2.072691 0.644973 1.003345 -1.518349 0.065595 0.536936
    18 -1.008837 0.000000 0.000000 0.009459 -1.307400 -0.057906
    19 -0.871940 0.000000 0.000000 -0.005073 -1.231073 0.008756
    20 -7.052464 -0.113371 0.000060 -0.435068 0.000000 -0.054906
    21 -1.563559 -17.958827 -6.204874 -0.975784 1.068706 -0.361065
    22 -0.373801 -17.118442 -3.976661 -0.158332 0.437293 0.499649
    23 0.000000 -4.042458 1.518160 0.000000 0.000000 0.000000
    24 0.357614 -5.868286 2.509109 0.000000 0.000000 0.000000
    25 0.000001 -11.555966 1.697507 0.000000 0.000000 0.000000
    26 0.000000 -1.949404 1.384216 0.000000 0.000000 0.000000
  time 12
    0 0.603925 13.333574 -5.696268 0.000000 -1.570451 0.000000
    1 0.283441 -5.225192 -6.152884 0.000000 1.570276 -0.000249
    2 0.000764 -0.010937 0.000244 -2.868871 -0.493948 2.366247
    3 -9.177921 0.000047 0.000064 -0.000023 0.000028 1.407321
    4 -9.113174 -0.002582 -0.000598 -1.341029 -0.092730 0.871203
    5 -0.359616 -0.344866 -0.717946 2.263349 -0.115654 0.724129
    6 -1.258085 0.000000 0.000001 0.020583 -0.023859 -0.032925
    7 -0.852238 0.000000 0.000000 -0.005920 0.183265 -0.012283
    8 -2.058155 0.736272 -0.667207 -1.554842 -0.051954 0.320265
    9 -1.384243 0.000000 0.000001 0.000064 -0.617608 0.037733
    10 -1.012088 0.000001 0.000000 -0.005098 -0.439056 0.009084
    11 -2.125905 0.777433 -0.125177 -1.585411 -0.041150 0.575273
    12 -1.453802 0.000000 0.000000 -3.141071 -1.513386 3.139580
    13 -1.074449 0.000000 0.000000 -0.013723 -0.896629 0.035523
    14 -2.104692 0.654897 0.442688 -1.575701 -0.030214 0.508131
    15 -1.393160 -0.000003 0.000000 3.141327 -1.400231 -3.086821
    16 -1.070196 0.000000 0.000000 -0.005450 -0.883511 0.010737
    17 -2.072691 0.644973 1.003345 -1.518349 0.065595 0.536936
    18 -1.008837 0.000000 0.000000 0.009459 -1.307400 -0.057906
    19 -0.871940 0.000000 0.000000 -0.005073 -1.231073 0.008756
    20 -7.052464 -0.113371 0.000060 -0.222572 0.000000 -0.054906
    21 -1.344802 -18.122894 -6.095496 -1.084564 1.062033 -0.461427
    22 -0.405052 -17.137974 -4.039163 -0.170366 0.405678 0.511682
    23 0.000000 -4.042458 1.518160 0.000000 0.000000 0.000000
    24 0.357614 -5.868286 2.509109 0.000000 0.000000 0.000000
    25 0.000001 -11.555966 1.697507 0.000000 0.000000 0.000000
    26 0.000000 -1.949404 1.384216 0.000000 0.000000 0.000000
  time 13
    0 0.603925 13.333574 -5.696268 0.000000 -1.570451 0.000000
    1 0.283441 -5.459574 -6.152884 0.000000 1.570276 -0.000249
    2 0.004670 -0.010937 0.000244 -2.851596 -0.488531 2.367893
    3 -9.177921 0.000047 0.000064 -0.000023 0.000028 1.393369
    4 -9.113174 -0.006489 -0.000598 -1.101073 -0.016687 0.803435
    5 -0.359616 -0.344866 -0.717946 2.254121 -0.112723 0.738799
    6 -1.258085 0.000000 0.000001 0.020487 -0.008577 -0.032565
    7 -0.852238 0.000000 0.000000 -0.005920 0.197445 -0.012283
    8 -2.058155 0.736272 -0.667207 -1.554675 -0.047891 0.331987
    9 -1.384243 0.000000 0.000001 0.000159 -0.614358 0.037733
    10 -1.012088 0.000001 0.000000 -0.005098 -0.431400 0.009084
    11 -2.125905 0.777433 -0.125177 -1.585411 -0.041150 0.575273
    12 -1.453802 0.000000 0.000000 -3.141071 -1.513386 3.139580
    13 -1.074449 0.000000 0.000000 -0.013723 -0.896629 0.035523
    14 -2.104692 0.654897 0.442688 -1.575701 -0.030214 0.508131
    15 -1.393160 -0.000003 0.000000 3.141327 -1.400231 -3.086821
    16 -1.070196 0.000000 0.000000 -0.005450 -0.883511 0.010749
    17 -2.072691 0.644973 1.003345 -1.518349 0.065595 0.536936
    18 -1.008837 0.000000 0.000000 0.009459 -1.307400 -0.057906
    19 -0.871940 0.000000 0.000000 -0.005073 -1.231073 0.008756
    20 -7.052464 -0.113371 0.000060 -0.063069 0.000000 -0.054906
    21 -1.196360 -18.236179 -5.990024 -1.208134 1.060721 -0.583267
    22 -0.428490 -17.157506 -4.086039 -0.176959 0.388764 0.518304
    23 0.000000 -4.042458 1.518160 0.000000 0.000000 0.000000
    24 0.357614 -5.868286 2.509109 0.000000 0.000000 0.000000
    25 0.000001 -11.555966 1.697507 0.000000 0.000000 0.000000
    26 0.000000 -1.949404 1.384216 0.000000 0.000000 0.000000
  time 14
    0 0.603925 13.333574 -5.696268 0.000000 -1.570451 0.000000
    1 0.283441 -5.459574 -6.152884 0.000000 1.570276 -0.000249
    2 0.004670 -0.010937 0.000244 -2.815328 -0.473454 2.345734
    3 -9.177921 0.000047 0.000064 -0.000023 0.000028 1.340932
    4 -9.113174 -0.006489 -0.000598 -0.921648 0.049395 0.798347
    5 -0.359616 -0.344866 -0.717946 2.246990 -0.110431 0.750196
    6 -1.258085 0.000000 0.000001 0.020427 0.003278 -0.032313
    7 -0.852238 0.000000 0.000000 -0.005920 0.208478 -0.012283
    8 -2.058155 0.736272 -0.667207 -1.554495 -0.044728 0.341043
    9 -1.384243 0.000000 0.000001 0.000159 -0.611820 0.037733
    10 -1.012088 0.000001 0.000000 -0.005098 -0.425470 0.009084
    11 -2.125905 0.777433 -0.125177 -1.585411 -0.041150 0.575273
    12 -1.453802 0.000000 0.000000 -3.141071 -1.513386 3.139580
    13 -1.074449 0.000000 0.000000 -0.013723 -0.896629 0.035511
    14 -2.104692 0.654897 0.442688 -1.575701 -0.030214 0.508131
    15 -1.393160 -0.000003 0.000000 3.141327 -1.400231 -3.086821
    16 -1.070196 0.000000 0.000000 -0.005450 -0.883511 0.010737
    17 -2.072691 0.644973 1.003345 -1.518349 0.065595 0.536936
    18 -1.008837 0.000000 0.000000 0.009459 -1.307400 -0.057894
    19 -0.871940 0.000000 0.000000 -0.005073 -1.231073 0.008756
    20 -7.052464 -0.113371 0.000060 0.043004 0.000000 -0.054906
    21 -1.090888 -18.314306 -5.943147 -1.324590 1.050899 -0.698409
    22 -0.444116 -17.180944 -4.117290 -0.184213 0.370425 0.525491
    23 0.000000 -4.042458 1.518160 0.000000 0.000000 0.000000
    24 0.357614 -5.868286 2.509109 0.000000 0.000000 0.000000
    25 0.000001 -11.555966 1.697507 0.000000 0.000000 0.000000
    26 0.000000 -1.949404 1.384216 0.000000 0.000000 0.000000
  time 15
    0 0.603925 13.333574 -5.696268 0.000000 -1.570451 0.000000
    1 0.283441 -5.459574 -6.152884 0.000000 1.570276 -0.000249
    2 0.004670 -0.010937 0.004150 -2.776030 -0.455322 2.323059
    3 -9.177921 0.000047 0.000064 -0.000023 0.000028 1.288158
    4 -9.113174 -0.002582 -0.000598 -0.793420 0.089853 0.834412
    5 -0.359616 -0.344866 -0.717946 2.241849 -0.108777 0.758321
    6 -1.258085 0.000000 0.000001 0.020391 0.011765 -0.032146
    7 -0.852238 0.000000 0.000000 -0.005920 0.216351 -0.012283
    8 -2.058155 0.736272 -0.667207 -1.554387 -0.042438 0.347543
    9 -1.384243 0.000000 0.000001 0.000159 -0.609994 0.037733
    10 -1.012088 0.000001 0.000000 -0.005098 -0.421229 0.009084
    11 -2.125905 0.777433 -0.125177 -1.585411 -0.041150 0.575273
    12 -1.453802 0.000000 0.000000 -3.141071 -1.513386 3.139484
    13 -1.074449 0.000000 0.000000 -0.013723 -0.896629 0.035523
    14 -2.104692 0.654897 0.442688 -1.575701 -0.030214 0.508131
    15 -1.393160 -0.000003 0.000000 3.141327 -1.400231 -3.086821
    16 -1.070196 0.000000 0.000000 -0.005450 -0.883511 0.010749
    17 -2.072691 0.644973 1.003345 -1.518349 0.065595 0.536936
    18 -1.008837 0.000000 0.000000 0.009459 -1.307400 -0.057894
    19 -0.871940 0.000000 0.000000 -0.005073 -1.231073 0.008756
    20 -7.052464 -0.113371 0.000060 0.096172 0.000000 -0.054906
    21 -1.016667 -18.357276 -5.915803 -1.440437 1.036241 -0.815406
    22 -0.448022 -17.188757 -4.129009 -0.190559 0.356474 0.530498
    23 0.000000 -4.042458 1.518160 0.000000 0.000000 0.000000
    24 0.357614 -5.868286 2.509109 0.000000 0.000000 0.000000
    25 0.000001 -11.555966 1.697507 0.000000 0.000000 0.000000
    26 0.000000 -1.949404 1.384216 0.000000 0.000000 0.000000
  time 16
    0 0.603925 13.333574 -5.696268 0.000000 -1.570451 0.000000
    1 0.283441 -5.459574 -6.152884 0.000000 1.570276 -0.000249
    2 0.004670 -0.010937 0.004150 -2.730559 -0.435943 2.317114
    3 -9.177921 0.000047 0.000064 -0.000023 0.000028 1.255941
    4 -9.113174 -0.002582 -0.000598 -0.759383 0.123840 0.860574
    5 -0.359616 -0.344866 -0.717946 2.238781 -0.107808 0.763211
    6 -1.258085 0.000000 0.000001 0.020343 0.016839 -0.032038
    7 -0.852238 0.000000 0.000000 -0.005920 0.221078 -0.012283
    8 -2.058155 0.736272 -0.667207 -1.554303 -0.041048 0.351414
    9 -1.384243 0.000000 0.000001 0.000159 -0.608926 0.037733
    10 -1.012088 0.000001 0.000000 -0.005098 -0.418677 0.009084
    11 -2.125905 0.777433 -0.125177 -1.585411 -0.041150 0.575273
    12 -1.453802 0.000000 0.000000 -3.141071 -1.513386 3.139484
    13 -1.074449 0.000000 0.000000 -0.013723 -0.896629 0.035511
    14 -2.104692 0.654897 0.442688 -1.575701 -0.030214 0.508131
    15 -1.393160 -0.000003 0.000000 3.141327 -1.400231 -3.086821
    16 -1.070196 0.000000 0.000000 -0.005450 -0.883511 0.010737
    17 -2.072691 0.644973 1.003345 -1.518349 0.065595 0.536936
    18 -1.008837 0.000000 0.000000 0.009459 -1.307327 -0.057882
    19 -0.871940 0.000000 0.000000 -0.005073 -1.231073 0.008756
    20 -7.052464 -0.113371 0.000060 0.096172 0.000000 -0.054906
    21 -1.008855 -18.349464 -5.896271 -1.433884 1.034854 -0.807573
    22 -0.444116 -17.180944 -4.117290 -0.191218 0.352911 0.532436
    23 0.000000 -4.042458 1.518160 0.000000 0.000000 0.000000
    24 0.357614 -5.868286 2.509109 0.000000 0.000000 0.000000
    25 0.000001 -11.555966 1.697507 0.000000 0.000000 0.000000
    26 0.000000 -1.949404 1.384216 0.000000 0.000000 0.000000
end
