
VertexLitGeneric
{

	$baseTexture				models/jessev92/hl2/weapons/rpk/default_wood_d
	$bumpmap					dev/bump_normal
	$lightwarptexture			dev/identitylightwarp

	$halflambert				1
	$ambientocclusion			1
	$nocull						0
	$no_draw					1

	$detail						detail/metal_detail_01
	$detailscale				4
	$detailblendfactor			0.95
	$detailblendmode			0
	
}

