
VertexLitGeneric
{

	$baseTexture				models/jessev92/hl2/weapons/rpk/rpk_upper_d
	$bumpmap					models/jessev92/hl2/weapons/rpk/rpk_upper_b
	$lightwarptexture			dev/identitylightwarp

	$halflambert				1
	$ambientocclusion			1
	$nocull						0

	$phong						1
 	$phongtint					"[ 0.7 0.9 1 ]"
	$phongboost					6
	$phongexponent				40
 	$phongalbedotint			1
 	$phongfresnelranges			"[ 0.05 0.5 1 ]"
	$phongexponenttexture		dev/bump_dudv
	
	$rimlight					1
	$rimlightexponent			28
	$rimlightboost				0.2
	
	$detail						detail/metal_detail_01
	$detailscale				4
	$detailblendfactor			0.95
	$detailblendmode			0
	
}
