
$origin 0 0 0 270
$cd gatling
$mostlyopaque
$ambientboost

$modelname fofpons/gatling/base

$model gatling gatling_reference

$surfaceprop wood

$contents solid

$cdmaterials models/jessev92/fof/weapons/gatling
$cdmaterials models/jessev92/fof/weapons
$cdmaterials models/fofpons/gatling
$cdmaterials models/fofpons

$bbox -28.714 -28.021 0 76.249 28.021 57.72

$definebone "static_prop" "" 0 0 0 0 0 0 0 0 0 0 0 0

$sequence "shell" {
	"gatling_anims\shell.smd"
	fadein 0.2
	fadeout 0.2
	fps 30
}

$collisionmodel "gatling_physics.smd"
{
	$mass 100
	$inertia 1
	$damping 0
	$rotdamping 0
	$rootbone " "
	$concave

}
