
$cd henryrifle
$mostlyopaque
$ambientboost

$modelname fofpons/henryrifle_w

$model henryrifle w_henryrifle_reference

$surfaceprop weapon

$cdmaterials models/jessev92/fof/weapons/henryrifle
// $cdmaterials models/jessev92/fof/weapons
$cdmaterials models/fofpons/henryrifle
// $cdmaterials models/fofpons

$BBox -29.07 -3.874 -12.833 16.272 1.895 6.053

$DefineBone "ValveBiped.Bip01_R_Hand" "" 1.783728 -5.776746 -3.330455 4.618727 90.659287 -171.248321 0 0 0 0 0 0
$DefineBone "ValveBiped.Weapon_bone" "ValveBiped.Bip01_R_Hand" 5 -1.5 -5 0 0 0 0 0 0 0 0 0

$attachment muzzle muzzle 0 0 0 rotate 0 0 0
$attachment eject eject 0 0 0 rotate 0 0 0

$Sequence "idle" {
	"w_henryrifle_anim_@idle.smd"
	fadein 0.2
	fadeout 0.2
	fps 30
}

$Sequence "attack1" {
	"w_henryrifle_anim_@attack1.smd"
	activity "ACT_RANGE_ATTACK_AR2" 1
	// { event AE_NPC_MUZZLEFLASH 0 "SHOTGUN MUZZLE" }
	// { event 6001 1 "1" }
	// { event 3004 0 "" }
	fadein 0.2
	fadeout 0.2
	fps 30
}

$collisionmodel henryrifle_w_new
{
	$mass 1
	$inertia 1
	$damping 0
	$rotdamping 0
	// $concave

}

