
$cd machete_w
$mostlyopaque
$ambientboost

$modelname fofpons/machete_w

$model machete machete_w_new

$surfaceprop weapon

$cdmaterials models/jessev92/fof/weapons/machete
$cdmaterials models/jessev92/fof/weapons
$cdmaterials models/fofpons/machete
$cdmaterials models/fofpons

$sequence idle {
	machete_w_new
	fps 1
}

$collisionmodel machete_w_new
{
	$mass 1
	$inertia 1
	$damping 0
	$rotdamping 0
	$rootbone " "
	// $concave

}
