
$cd peacemaker_w
$mostlyopaque
$ambientboost

$modelname fofpons/peacemaker_w

$model peacemaker peacemaker_w_new

$surfaceprop weapon

$cdmaterials models/jessev92/fof/weapons/peacemaker
$cdmaterials models/jessev92/fof/weapons
$cdmaterials models/fofpons/peacemaker
$cdmaterials models/fofpons

$attachment muzzle muzzle 0 0 0 rotate 0 0 0
$attachment eject eject 0 0 0 rotate 0 0 0

$cbox 0 0 0 0 0 0

$bbox -7.948 -1.185 -5.952 5.777 2.596 2.298

$definebone "valvebiped" "" 0 0 0 0 0 89.999983 0 0 0 0 0 0
$definebone "valvebiped.bip01_r_hand" "valvebiped" 1.783728 -3.330455 5.776746 85.334444 -98.103326 0.62206 0 0 0 0 0 0
$definebone "valvebiped.weapon_bone" "valvebiped.bip01_r_hand" 4.999981 -1.500033 -5.000008 0 -0.001318 -0.000001 0 0 0 0 0 0

$sequence "idle" {
	"w_peacemaker_anims\idle.smd"
	fadein 0.2
	fadeout 0.2
	fps 30
}

$sequence "attack1" {
	"w_peacemaker_anims\attack1.smd"
	activity "act_range_attack_pistol" 1
	{ event ae_npc_muzzleflash 0 "pistol muzzle" }
	{ event 3014 0 "" }
	fadein 0.2
	fadeout 0.2
	fps 30
}

$sequence "attack2" {
	"w_peacemaker_anims\attack2.smd"
	activity "act_range_attack_pistol2" 1
	{ event ae_npc_muzzleflash 0 "pistol muzzle" }
	fadein 0.2
	fadeout 0.2
	fps 30
}

$collisionmodel peacemaker_w_new
{
	$mass 1
	$inertia 1
	$damping 0
	$rotdamping 0
	$rootbone " "
	// $concave

}
