
$cd schofield_w
$mostlyopaque
$ambientboost

$modelname fofpons/schofield_w

$model schofield schofield_w_new

$surfaceprop weapon

$cdmaterials models/jessev92/fof/weapons/schofield
$cdmaterials models/jessev92/fof/weapons
$cdmaterials models/fofpons/schofield
$cdmaterials models/fofpons

$attachment muzzle muzzle 0 0 0 rotate 0 0 0
$attachment eject eject 0 0 0 rotate 0 0 0

$cbox 0 0 0 0 0 0

$bbox -9.191 -0.856 -5.57 5.777 2.54 1.987

$definebone "valvebiped.bip01_r_hand" "" 1.783728 -5.776746 -3.330455 4.618727 90.659287 -171.248321 0 0 0 0 0 0
$definebone "valvebiped.weapon_bone" "valvebiped.bip01_r_hand" 5 -1.5 -5 0 0 0.000001 0 0 0 0 0 0

$sequence "idle" {
	"w_schofield_anims\idle.smd"
	fadein 0.2
	fadeout 0.2
	fps 30
}

$sequence "attack1" {
	"w_schofield_anims\attack1.smd"
	activity "act_range_attack_pistol" 1
	{ event ae_npc_muzzleflash 0 "pistol muzzle" }
	{ event 3014 0 "" }
	fadein 0.2
	fadeout 0.2
	fps 30
}

$sequence "attack2" {
	"w_schofield_anims\attack2.smd"
	activity "act_range_attack_pistol2" 1
	{ event ae_npc_muzzleflash 0 "pistol muzzle" }
	fadein 0.2
	fadeout 0.2
	fps 30
}

$collisionmodel schofield_w_new
{
	$mass 1
	$inertia 1
	$damping 0
	$rotdamping 0
	$rootbone " "
	// $concave

}
