
$cd yellowboy_w
$mostlyopaque
$ambientboost

$modelname fofpons/yellowboyc_w

$model yellowboy henryrifle_w_new

$surfaceprop weapon

$cdmaterials models/jessev92/fof/weapons/yellowboy
$cdmaterials models/jessev92/fof/weapons
$cdmaterials models/fofpons/yellowboy
$cdmaterials models/fofpons

$attachment muzzle muzzle 0 0 0 rotate 0 0 0
$attachment eject eject 0 0 0 rotate 0 0 0

$cbox 0 0 0 0 0 0

$bbox -5.956 -1.129 -16.14 21.41 2.046 28.618

$definebone "valvebiped.bip01_r_hand" "" 1.004504 -5.55423 -7.372825 87.226748 2.097026 92.168342 0 0 0 0 0 0
$definebone "valvebiped.weapon_bone" "valvebiped.bip01_r_hand" -4.187706 0.113033 -5.1286 -24.312658 176.832534 0.154412 0 0 0 0 0 0
$definebone "shelleject" "valvebiped.weapon_bone" 5.191984 1.326212 -0.108422 -8.902218 -98.363618 -110.952592 0 0 0 0 0 0

$sectionframes 30 182

$sequence "idle" {
	"w_henryrifle_anims\idle.smd"
	fadein 0.2
	fadeout 0.2
	fps 30
}

$sequence "attack1" {
	"w_henryrifle_anims\attack1.smd"
	activity "act_range_attack_ar2" 1
	{ event ae_npc_muzzleflash 0 "shotgun muzzle" }
	{ event cl_event_ejectbrass3 1 "" }
	{ event 3004 0 "" }
	fadein 0.2
	fadeout 0.2
	fps 30
}

$collisionmodel henryrifle_w_new
{
	$mass 1
	$inertia 1
	$damping 0
	$rotdamping 0
	$rootbone " "
	// $concave

}
