
VertexLitGeneric
{

	$basetexture				models/jessev92/css/weapons/heat/uspc/rearsight_d
	$bumpmap					dev/bump_normal
	$lightwarptexture			dev/identitylightwarp
	
	$halflambert				1
	$ambientocclusion			1
	$selfillum					1
	
}
