version 1
nodes
  0 "ValveBiped.Bip01_R_Hand"  -1
  1 "muzzle"   0
  2 "eject"   0
  3 "Box008"  -1
end
skeleton
time 0
  0 0.583743 -17.539480 -0.170271 0.048941 3.096572 -1.570448
  1 31.687243 -1.180456 -4.128120 0.045038 3.092667 -1.570448
  2 11.960033 -0.496061 -4.622733 0.056912 2.482537 -1.537777
  3 0.677611 -6.550949 3.590997 -1.570796 -3.141593 1.570796
end
triangles
akms_d.vtf
  3 0.677612 3.608523 2.602962 0.707823 0.706336 -0.008676 1.000000 0.000000 1 0 1.000000
  3 0.677612 3.668037 3.833282 0.804406 0.587429 0.088646 1.000000 1.000000 1 0 1.000000
  3 0.677611 -1.823119 3.622003 0.996165 -0.076587 0.042308 0.666667 1.000000 1 0 1.000000
akms_d.vtf
  3 0.677611 -1.823119 3.622003 0.996165 -0.076587 0.042308 0.666667 1.000000 1 0 1.000000
  3 0.677612 -3.013390 1.566844 0.545376 0.221514 -0.808391 0.666667 0.000000 1 0 1.000000
  3 0.677612 3.608523 2.602962 0.707823 0.706336 -0.008676 1.000000 0.000000 1 0 1.000000
akms_d.vtf
  3 0.677612 -3.013390 1.566844 0.545376 0.221514 -0.808391 0.666667 0.000000 1 0 1.000000
  3 0.677611 -1.823119 3.622003 0.996165 -0.076587 0.042308 0.666667 1.000000 1 0 1.000000
  3 0.677611 -5.171787 3.533333 0.999814 -0.003369 0.018971 0.333333 1.000000 1 0 1.000000
akms_d.vtf
  3 0.677611 -5.171787 3.533333 0.999814 -0.003369 0.018971 0.333333 1.000000 1 0 1.000000
  3 0.677611 -15.979447 1.828703 0.643693 -0.727833 -0.236469 0.333333 0.000000 1 0 1.000000
  3 0.677612 -3.013390 1.566844 0.545376 0.221514 -0.808391 0.666667 0.000000 1 0 1.000000
akms_d.vtf
  3 0.677611 -15.979447 1.828703 0.643693 -0.727833 -0.236469 0.333333 0.000000 1 0 1.000000
  3 0.677611 -5.171787 3.533333 0.999814 -0.003369 0.018971 0.333333 1.000000 1 0 1.000000
  3 0.677610 -14.662251 3.615140 0.999237 0.025693 0.029431 0.000000 1.000000 1 0 1.000000
akms_d.vtf
  3 0.677610 -14.662251 3.615140 0.999237 0.025693 0.029431 0.000000 1.000000 1 0 1.000000
  3 0.677610 -15.959647 3.685524 0.822128 -0.562635 0.086879 0.000000 0.000000 1 0 1.000000
  3 0.677611 -15.979447 1.828703 0.643693 -0.727833 -0.236469 0.333333 0.000000 1 0 1.000000
akms_d.vtf
  3 -1.498004 3.608523 2.602962 -0.707357 0.706835 -0.005459 0.000000 0.000000 1 0 1.000000
  3 -1.498005 -3.013389 1.566843 -0.557775 0.179172 -0.810423 0.333333 0.000000 1 0 1.000000
  3 -1.498005 -1.823119 3.622003 -0.997176 -0.066169 0.035530 0.333333 1.000000 1 0 1.000000
akms_d.vtf
  3 -1.498005 -1.823119 3.622003 -0.997176 -0.066169 0.035530 0.333333 1.000000 1 0 1.000000
  3 -1.498004 3.668038 3.833281 -0.776716 0.627097 0.058834 0.000000 1.000000 1 0 1.000000
  3 -1.498004 3.608523 2.602962 -0.707357 0.706835 -0.005459 0.000000 0.000000 1 0 1.000000
akms_d.vtf
  3 -1.498005 -3.013389 1.566843 -0.557775 0.179172 -0.810423 0.333333 0.000000 1 0 1.000000
  3 -1.498006 -15.979446 1.828702 -0.643693 -0.727834 -0.236470 0.666667 0.000000 1 0 1.000000
  3 -1.498005 -5.171787 3.533333 -0.999713 -0.005664 0.023258 0.666667 1.000000 1 0 1.000000
akms_d.vtf
  3 -1.498005 -5.171787 3.533333 -0.999713 -0.005664 0.023258 0.666667 1.000000 1 0 1.000000
  3 -1.498005 -1.823119 3.622003 -0.997176 -0.066169 0.035530 0.333333 1.000000 1 0 1.000000
  3 -1.498005 -3.013389 1.566843 -0.557775 0.179172 -0.810423 0.333333 0.000000 1 0 1.000000
akms_d.vtf
  3 -1.498006 -15.979446 1.828702 -0.643693 -0.727834 -0.236470 0.666667 0.000000 1 0 1.000000
  3 -1.498006 -15.959647 3.685524 -0.538143 -0.110954 0.835519 1.000000 0.000000 1 0 1.000000
  3 -1.498006 -14.662251 3.615139 -0.995749 0.031301 0.086630 1.000000 1.000000 1 0 1.000000
akms_d.vtf
  3 -1.498006 -14.662251 3.615139 -0.995749 0.031301 0.086630 1.000000 1.000000 1 0 1.000000
  3 -1.498005 -5.171787 3.533333 -0.999713 -0.005664 0.023258 0.666667 1.000000 1 0 1.000000
  3 -1.498006 -15.979446 1.828702 -0.643693 -0.727834 -0.236470 0.666667 0.000000 1 0 1.000000
akms_d.vtf
  3 0.677612 3.608523 2.602962 0.707823 0.706336 -0.008676 0.000000 0.000000 1 0 1.000000
  3 0.677612 -3.013390 1.566844 0.545376 0.221514 -0.808391 0.333333 0.000000 1 0 1.000000
  3 -0.047594 -3.013390 1.566843 0.050798 0.229174 -0.972059 0.333333 0.333333 1 0 1.000000
akms_d.vtf
  3 -0.047594 -3.013390 1.566843 0.050798 0.229174 -0.972059 0.333333 0.333333 1 0 1.000000
  3 -0.047593 3.608523 2.007244 0.312411 0.939832 -0.138254 0.000000 0.333333 1 0 1.000000
  3 0.677612 3.608523 2.602962 0.707823 0.706336 -0.008676 0.000000 0.000000 1 0 1.000000
akms_d.vtf
  3 0.677612 -3.013390 1.566844 0.545376 0.221514 -0.808391 0.333333 0.000000 1 0 1.000000
  3 0.677611 -15.979447 1.828703 0.643693 -0.727833 -0.236469 0.666667 0.000000 1 0 1.000000
  3 -0.047595 -15.979447 1.828703 0.000000 -0.951063 -0.308996 0.666667 0.333333 1 0 1.000000
akms_d.vtf
  3 -0.047595 -15.979447 1.828703 0.000000 -0.951063 -0.308996 0.666667 0.333333 1 0 1.000000
  3 -0.047594 -3.013390 1.566843 0.050798 0.229174 -0.972059 0.333333 0.333333 1 0 1.000000
  3 0.677612 -3.013390 1.566844 0.545376 0.221514 -0.808391 0.333333 0.000000 1 0 1.000000
akms_d.vtf
  3 0.677611 -15.979447 1.828703 0.643693 -0.727833 -0.236469 0.666667 0.000000 1 0 1.000000
  3 0.677610 -15.959647 3.685524 0.822128 -0.562635 0.086879 1.000000 0.000000 1 0 1.000000
  3 -0.047595 -15.959647 3.685524 -0.000000 -0.999974 0.007209 1.000000 0.333333 1 0 1.000000
akms_d.vtf
  3 -0.047595 -15.959647 3.685524 -0.000000 -0.999974 0.007209 1.000000 0.333333 1 0 1.000000
  3 -0.047595 -15.979447 1.828703 0.000000 -0.951063 -0.308996 0.666667 0.333333 1 0 1.000000
  3 0.677611 -15.979447 1.828703 0.643693 -0.727833 -0.236469 0.666667 0.000000 1 0 1.000000
akms_d.vtf
  3 -0.047593 3.608523 2.007244 0.312411 0.939832 -0.138254 0.000000 0.333333 1 0 1.000000
  3 -0.047594 -3.013390 1.566843 0.050798 0.229174 -0.972059 0.333333 0.333333 1 0 1.000000
  3 -0.772799 -3.013389 1.566843 0.000001 0.204171 -0.978935 0.333333 0.666667 1 0 1.000000
akms_d.vtf
  3 -0.772799 -3.013389 1.566843 0.000001 0.204171 -0.978935 0.333333 0.666667 1 0 1.000000
  3 -0.772798 3.608523 2.007244 -0.141550 0.984568 -0.102900 0.000000 0.666667 1 0 1.000000
  3 -0.047593 3.608523 2.007244 0.312411 0.939832 -0.138254 0.000000 0.333333 1 0 1.000000
akms_d.vtf
  3 -0.047594 -3.013390 1.566843 0.050798 0.229174 -0.972059 0.333333 0.333333 1 0 1.000000
  3 -0.047595 -15.979447 1.828703 0.000000 -0.951063 -0.308996 0.666667 0.333333 1 0 1.000000
  3 -0.772800 -15.979447 1.828702 -0.000000 -0.951063 -0.308996 0.666667 0.666667 1 0 1.000000
akms_d.vtf
  3 -0.772800 -15.979447 1.828702 -0.000000 -0.951063 -0.308996 0.666667 0.666667 1 0 1.000000
  3 -0.772799 -3.013389 1.566843 0.000001 0.204171 -0.978935 0.333333 0.666667 1 0 1.000000
  3 -0.047594 -3.013390 1.566843 0.050798 0.229174 -0.972059 0.333333 0.333333 1 0 1.000000
akms_d.vtf
  3 -0.047595 -15.979447 1.828703 0.000000 -0.951063 -0.308996 0.666667 0.333333 1 0 1.000000
  3 -0.047595 -15.959647 3.685524 -0.000000 -0.999974 0.007209 1.000000 0.333333 1 0 1.000000
  3 -0.772801 -15.959647 3.685524 -0.041617 -0.998775 0.026761 1.000000 0.666667 1 0 1.000000
akms_d.vtf
  3 -0.772801 -15.959647 3.685524 -0.041617 -0.998775 0.026761 1.000000 0.666667 1 0 1.000000
  3 -0.772800 -15.979447 1.828702 -0.000000 -0.951063 -0.308996 0.666667 0.666667 1 0 1.000000
  3 -0.047595 -15.979447 1.828703 0.000000 -0.951063 -0.308996 0.666667 0.333333 1 0 1.000000
akms_d.vtf
  3 -0.772798 3.608523 2.007244 -0.141550 0.984568 -0.102900 0.000000 0.666667 1 0 1.000000
  3 -0.772799 -3.013389 1.566843 0.000001 0.204171 -0.978935 0.333333 0.666667 1 0 1.000000
  3 -1.498005 -3.013389 1.566843 -0.557775 0.179172 -0.810423 0.333333 1.000000 1 0 1.000000
akms_d.vtf
  3 -1.498005 -3.013389 1.566843 -0.557775 0.179172 -0.810423 0.333333 1.000000 1 0 1.000000
  3 -1.498004 3.608523 2.602962 -0.707357 0.706835 -0.005459 0.000000 1.000000 1 0 1.000000
  3 -0.772798 3.608523 2.007244 -0.141550 0.984568 -0.102900 0.000000 0.666667 1 0 1.000000
akms_d.vtf
  3 -0.772799 -3.013389 1.566843 0.000001 0.204171 -0.978935 0.333333 0.666667 1 0 1.000000
  3 -0.772800 -15.979447 1.828702 -0.000000 -0.951063 -0.308996 0.666667 0.666667 1 0 1.000000
  3 -1.498006 -15.979446 1.828702 -0.643693 -0.727834 -0.236470 0.666667 1.000000 1 0 1.000000
akms_d.vtf
  3 -1.498006 -15.979446 1.828702 -0.643693 -0.727834 -0.236470 0.666667 1.000000 1 0 1.000000
  3 -1.498005 -3.013389 1.566843 -0.557775 0.179172 -0.810423 0.333333 1.000000 1 0 1.000000
  3 -0.772799 -3.013389 1.566843 0.000001 0.204171 -0.978935 0.333333 0.666667 1 0 1.000000
akms_d.vtf
  3 -0.772800 -15.979447 1.828702 -0.000000 -0.951063 -0.308996 0.666667 0.666667 1 0 1.000000
  3 -0.772801 -15.959647 3.685524 -0.041617 -0.998775 0.026761 1.000000 0.666667 1 0 1.000000
  3 -1.498006 -15.959647 3.685524 -0.538143 -0.110954 0.835519 1.000000 1.000000 1 0 1.000000
akms_d.vtf
  3 -1.498006 -15.959647 3.685524 -0.538143 -0.110954 0.835519 1.000000 1.000000 1 0 1.000000
  3 -1.498006 -15.979446 1.828702 -0.643693 -0.727834 -0.236470 0.666667 1.000000 1 0 1.000000
  3 -0.772800 -15.979447 1.828702 -0.000000 -0.951063 -0.308996 0.666667 0.666667 1 0 1.000000
akms_d.vtf
  3 0.677610 -15.959647 3.685524 0.822128 -0.562635 0.086879 0.000000 0.000000 1 0 1.000000
  3 0.677610 -14.662251 3.615140 0.999237 0.025693 0.029431 1.000000 0.000000 1 0 1.000000
  3 -0.047595 -14.662251 5.020657 0.509076 -0.850775 0.130475 1.000000 0.333333 1 0 1.000000
akms_d.vtf
  3 -0.047595 -14.662251 5.020657 0.509076 -0.850775 0.130475 1.000000 0.333333 1 0 1.000000
  3 -0.047595 -15.959647 3.685524 -0.000000 -0.999974 0.007209 0.000000 0.333333 1 0 1.000000
  3 0.677610 -15.959647 3.685524 0.822128 -0.562635 0.086879 0.000000 0.000000 1 0 1.000000
akms_d.vtf
  3 -0.047595 -15.959647 3.685524 -0.000000 -0.999974 0.007209 0.000000 0.333333 1 0 1.000000
  3 -0.047595 -14.662251 5.020657 0.509076 -0.850775 0.130475 1.000000 0.333333 1 0 1.000000
  3 -0.772801 -14.662251 5.020657 -0.563745 -0.817056 0.120874 1.000000 0.666667 1 0 1.000000
akms_d.vtf
  3 -0.772801 -14.662251 5.020657 -0.563745 -0.817056 0.120874 1.000000 0.666667 1 0 1.000000
  3 -0.772801 -15.959647 3.685524 -0.041617 -0.998775 0.026761 0.000000 0.666667 1 0 1.000000
  3 -0.047595 -15.959647 3.685524 -0.000000 -0.999974 0.007209 0.000000 0.333333 1 0 1.000000
akms_d.vtf
  3 -0.772801 -15.959647 3.685524 -0.041617 -0.998775 0.026761 0.000000 0.666667 1 0 1.000000
  3 -0.772801 -14.662251 5.020657 -0.563745 -0.817056 0.120874 1.000000 0.666667 1 0 1.000000
  3 -1.498006 -14.662251 3.615139 -0.995749 0.031301 0.086630 1.000000 1.000000 1 0 1.000000
akms_d.vtf
  3 -1.498006 -14.662251 3.615139 -0.995749 0.031301 0.086630 1.000000 1.000000 1 0 1.000000
  3 -1.498006 -15.959647 3.685524 -0.538143 -0.110954 0.835519 0.000000 1.000000 1 0 1.000000
  3 -0.772801 -15.959647 3.685524 -0.041617 -0.998775 0.026761 0.000000 0.666667 1 0 1.000000
akms_d.vtf
  3 0.677610 -14.662251 3.615140 0.999237 0.025693 0.029431 0.000000 0.000000 1 0 1.000000
  3 0.677611 -5.171787 3.533333 0.999814 -0.003369 0.018971 0.333333 0.000000 1 0 1.000000
  3 -0.047594 -5.171787 5.603889 0.519311 -0.000967 0.854585 0.333333 0.333333 1 0 1.000000
akms_d.vtf
  3 -0.047594 -5.171787 5.603889 0.519311 -0.000967 0.854585 0.333333 0.333333 1 0 1.000000
  3 -0.047595 -14.662251 5.020657 0.509076 -0.850775 0.130475 0.000000 0.333333 1 0 1.000000
  3 0.677610 -14.662251 3.615140 0.999237 0.025693 0.029431 0.000000 0.000000 1 0 1.000000
akms_d.vtf
  3 0.677611 -5.171787 3.533333 0.999814 -0.003369 0.018971 0.333333 0.000000 1 0 1.000000
  3 0.677611 -1.823119 3.622003 0.996165 -0.076587 0.042308 0.666667 0.000000 1 0 1.000000
  3 -0.047594 -1.823119 5.401544 0.590566 0.785292 0.185872 0.666667 0.333333 1 0 1.000000
akms_d.vtf
  3 -0.047594 -1.823119 5.401544 0.590566 0.785292 0.185872 0.666667 0.333333 1 0 1.000000
  3 -0.047594 -5.171787 5.603889 0.519311 -0.000967 0.854585 0.333333 0.333333 1 0 1.000000
  3 0.677611 -5.171787 3.533333 0.999814 -0.003369 0.018971 0.333333 0.000000 1 0 1.000000
akms_d.vtf
  3 0.677611 -1.823119 3.622003 0.996165 -0.076587 0.042308 0.666667 0.000000 1 0 1.000000
  3 0.677612 3.668037 3.833282 0.804406 0.587429 0.088646 1.000000 0.000000 1 0 1.000000
  3 -0.047593 3.668037 5.044463 0.536770 0.835874 0.114859 1.000000 0.333333 1 0 1.000000
akms_d.vtf
  3 -0.047593 3.668037 5.044463 0.536770 0.835874 0.114859 1.000000 0.333333 1 0 1.000000
  3 -0.047594 -1.823119 5.401544 0.590566 0.785292 0.185872 0.666667 0.333333 1 0 1.000000
  3 0.677611 -1.823119 3.622003 0.996165 -0.076587 0.042308 0.666667 0.000000 1 0 1.000000
akms_d.vtf
  3 -0.047595 -14.662251 5.020657 0.509076 -0.850775 0.130475 0.000000 0.333333 1 0 1.000000
  3 -0.047594 -5.171787 5.603889 0.519311 -0.000967 0.854585 0.333333 0.333333 1 0 1.000000
  3 -0.772800 -5.171787 5.603889 -0.520976 -0.001859 0.853569 0.333333 0.666667 1 0 1.000000
akms_d.vtf
  3 -0.772800 -5.171787 5.603889 -0.520976 -0.001859 0.853569 0.333333 0.666667 1 0 1.000000
  3 -0.772801 -14.662251 5.020657 -0.563745 -0.817056 0.120874 0.000000 0.666667 1 0 1.000000
  3 -0.047595 -14.662251 5.020657 0.509076 -0.850775 0.130475 0.000000 0.333333 1 0 1.000000
akms_d.vtf
  3 -0.047594 -5.171787 5.603889 0.519311 -0.000967 0.854585 0.333333 0.333333 1 0 1.000000
  3 -0.047594 -1.823119 5.401544 0.590566 0.785292 0.185872 0.666667 0.333333 1 0 1.000000
  3 -0.772799 -1.823119 5.401544 -0.571887 0.798078 0.189784 0.666667 0.666667 1 0 1.000000
akms_d.vtf
  3 -0.772799 -1.823119 5.401544 -0.571887 0.798078 0.189784 0.666667 0.666667 1 0 1.000000
  3 -0.772800 -5.171787 5.603889 -0.520976 -0.001859 0.853569 0.333333 0.666667 1 0 1.000000
  3 -0.047594 -5.171787 5.603889 0.519311 -0.000967 0.854585 0.333333 0.333333 1 0 1.000000
akms_d.vtf
  3 -0.047594 -1.823119 5.401544 0.590566 0.785292 0.185872 0.666667 0.333333 1 0 1.000000
  3 -0.047593 3.668037 5.044463 0.536770 0.835874 0.114859 1.000000 0.333333 1 0 1.000000
  3 -0.772799 3.668037 5.044462 -0.472905 0.872262 0.124576 1.000000 0.666667 1 0 1.000000
akms_d.vtf
  3 -0.772799 3.668037 5.044462 -0.472905 0.872262 0.124576 1.000000 0.666667 1 0 1.000000
  3 -0.772799 -1.823119 5.401544 -0.571887 0.798078 0.189784 0.666667 0.666667 1 0 1.000000
  3 -0.047594 -1.823119 5.401544 0.590566 0.785292 0.185872 0.666667 0.333333 1 0 1.000000
akms_d.vtf
  3 -0.772801 -14.662251 5.020657 -0.563745 -0.817056 0.120874 0.000000 0.666667 1 0 1.000000
  3 -0.772800 -5.171787 5.603889 -0.520976 -0.001859 0.853569 0.333333 0.666667 1 0 1.000000
  3 -1.498005 -5.171787 3.533333 -0.999713 -0.005664 0.023258 0.333333 1.000000 1 0 1.000000
akms_d.vtf
  3 -1.498005 -5.171787 3.533333 -0.999713 -0.005664 0.023258 0.333333 1.000000 1 0 1.000000
  3 -1.498006 -14.662251 3.615139 -0.995749 0.031301 0.086630 0.000000 1.000000 1 0 1.000000
  3 -0.772801 -14.662251 5.020657 -0.563745 -0.817056 0.120874 0.000000 0.666667 1 0 1.000000
akms_d.vtf
  3 -0.772800 -5.171787 5.603889 -0.520976 -0.001859 0.853569 0.333333 0.666667 1 0 1.000000
  3 -0.772799 -1.823119 5.401544 -0.571887 0.798078 0.189784 0.666667 0.666667 1 0 1.000000
  3 -1.498005 -1.823119 3.622003 -0.997176 -0.066169 0.035530 0.666667 1.000000 1 0 1.000000
akms_d.vtf
  3 -1.498005 -1.823119 3.622003 -0.997176 -0.066169 0.035530 0.666667 1.000000 1 0 1.000000
  3 -1.498005 -5.171787 3.533333 -0.999713 -0.005664 0.023258 0.333333 1.000000 1 0 1.000000
  3 -0.772800 -5.171787 5.603889 -0.520976 -0.001859 0.853569 0.333333 0.666667 1 0 1.000000
akms_d.vtf
  3 -0.772799 -1.823119 5.401544 -0.571887 0.798078 0.189784 0.666667 0.666667 1 0 1.000000
  3 -0.772799 3.668037 5.044462 -0.472905 0.872262 0.124576 1.000000 0.666667 1 0 1.000000
  3 -1.498004 3.668038 3.833281 -0.776716 0.627097 0.058834 1.000000 1.000000 1 0 1.000000
akms_d.vtf
  3 -1.498004 3.668038 3.833281 -0.776716 0.627097 0.058834 1.000000 1.000000 1 0 1.000000
  3 -1.498005 -1.823119 3.622003 -0.997176 -0.066169 0.035530 0.666667 1.000000 1 0 1.000000
  3 -0.772799 -1.823119 5.401544 -0.571887 0.798078 0.189784 0.666667 0.666667 1 0 1.000000
akms_d.vtf
  3 0.677612 3.668037 3.833282 0.804406 0.587429 0.088646 0.000000 0.000000 1 0 1.000000
  3 0.677612 3.608523 2.602962 0.707823 0.706336 -0.008676 1.000000 0.000000 1 0 1.000000
  3 -0.047593 3.608523 2.007244 0.312411 0.939832 -0.138254 1.000000 0.333333 1 0 1.000000
akms_d.vtf
  3 -0.047593 3.608523 2.007244 0.312411 0.939832 -0.138254 1.000000 0.333333 1 0 1.000000
  3 -0.047593 3.668037 5.044463 0.536770 0.835874 0.114859 0.000000 0.333333 1 0 1.000000
  3 0.677612 3.668037 3.833282 0.804406 0.587429 0.088646 0.000000 0.000000 1 0 1.000000
akms_d.vtf
  3 -0.047593 3.668037 5.044463 0.536770 0.835874 0.114859 0.000000 0.333333 1 0 1.000000
  3 -0.047593 3.608523 2.007244 0.312411 0.939832 -0.138254 1.000000 0.333333 1 0 1.000000
  3 -0.772798 3.608523 2.007244 -0.141550 0.984568 -0.102900 1.000000 0.666667 1 0 1.000000
akms_d.vtf
  3 -0.772798 3.608523 2.007244 -0.141550 0.984568 -0.102900 1.000000 0.666667 1 0 1.000000
  3 -0.772799 3.668037 5.044462 -0.472905 0.872262 0.124576 0.000000 0.666667 1 0 1.000000
  3 -0.047593 3.668037 5.044463 0.536770 0.835874 0.114859 0.000000 0.333333 1 0 1.000000
akms_d.vtf
  3 -0.772799 3.668037 5.044462 -0.472905 0.872262 0.124576 0.000000 0.666667 1 0 1.000000
  3 -0.772798 3.608523 2.007244 -0.141550 0.984568 -0.102900 1.000000 0.666667 1 0 1.000000
  3 -1.498004 3.608523 2.602962 -0.707357 0.706835 -0.005459 1.000000 1.000000 1 0 1.000000
akms_d.vtf
  3 -1.498004 3.608523 2.602962 -0.707357 0.706835 -0.005459 1.000000 1.000000 1 0 1.000000
  3 -1.498004 3.668038 3.833281 -0.776716 0.627097 0.058834 0.000000 1.000000 1 0 1.000000
  3 -0.772799 3.668037 5.044462 -0.472905 0.872262 0.124576 0.000000 0.666667 1 0 1.000000
akms_d.vtf
  3 0.677612 -16.168007 1.916540 0.577350 0.577350 -0.577350 1.000000 0.000000 1 0 1.000000
  3 0.677612 -16.168007 3.324658 0.577350 0.577350 0.577350 1.000000 1.000000 1 0 1.000000
  3 0.677610 -26.540272 3.324658 0.577350 -0.577350 0.577350 0.000000 1.000000 1 0 1.000000
akms_d.vtf
  3 0.677610 -26.540272 3.324658 0.577350 -0.577350 0.577350 0.000000 1.000000 1 0 1.000000
  3 0.677610 -26.540272 1.916540 0.577350 -0.577350 -0.577350 0.000000 0.000000 1 0 1.000000
  3 0.677612 -16.168007 1.916540 0.577350 0.577350 -0.577350 1.000000 0.000000 1 0 1.000000
akms_d.vtf
  3 -1.498005 -16.168007 1.916540 -0.577350 0.577350 -0.577350 0.000000 0.000000 1 0 1.000000
  3 -1.498006 -26.540272 1.916540 -0.577350 -0.577350 -0.577350 1.000000 0.000000 1 0 1.000000
  3 -1.498006 -26.540272 3.324658 -0.577350 -0.577350 0.577350 1.000000 1.000000 1 0 1.000000
akms_d.vtf
  3 -1.498006 -26.540272 3.324658 -0.577350 -0.577350 0.577350 1.000000 1.000000 1 0 1.000000
  3 -1.498005 -16.168007 3.324658 -0.577350 0.577350 0.577350 0.000000 1.000000 1 0 1.000000
  3 -1.498005 -16.168007 1.916540 -0.577350 0.577350 -0.577350 0.000000 0.000000 1 0 1.000000
akms_d.vtf
  3 0.677612 -16.168007 1.916540 0.577350 0.577350 -0.577350 0.000000 0.000000 1 0 1.000000
  3 0.677610 -26.540272 1.916540 0.577350 -0.577350 -0.577350 1.000000 0.000000 1 0 1.000000
  3 -1.498006 -26.540272 1.916540 -0.577350 -0.577350 -0.577350 1.000000 1.000000 1 0 1.000000
akms_d.vtf
  3 -1.498006 -26.540272 1.916540 -0.577350 -0.577350 -0.577350 1.000000 1.000000 1 0 1.000000
  3 -1.498005 -16.168007 1.916540 -0.577350 0.577350 -0.577350 0.000000 1.000000 1 0 1.000000
  3 0.677612 -16.168007 1.916540 0.577350 0.577350 -0.577350 0.000000 0.000000 1 0 1.000000
akms_d.vtf
  3 0.677610 -26.540272 1.916540 0.577350 -0.577350 -0.577350 0.000000 0.000000 1 0 1.000000
  3 0.677610 -26.540272 3.324658 0.577350 -0.577350 0.577350 1.000000 0.000000 1 0 1.000000
  3 -1.498006 -26.540272 3.324658 -0.577350 -0.577350 0.577350 1.000000 1.000000 1 0 1.000000
akms_d.vtf
  3 -1.498006 -26.540272 3.324658 -0.577350 -0.577350 0.577350 1.000000 1.000000 1 0 1.000000
  3 -1.498006 -26.540272 1.916540 -0.577350 -0.577350 -0.577350 0.000000 1.000000 1 0 1.000000
  3 0.677610 -26.540272 1.916540 0.577350 -0.577350 -0.577350 0.000000 0.000000 1 0 1.000000
akms_d.vtf
  3 0.677610 -26.540272 3.324658 0.577350 -0.577350 0.577350 0.000000 0.000000 1 0 1.000000
  3 0.677612 -16.168007 3.324658 0.577350 0.577350 0.577350 1.000000 0.000000 1 0 1.000000
  3 -1.498005 -16.168007 3.324658 -0.577350 0.577350 0.577350 1.000000 1.000000 1 0 1.000000
akms_d.vtf
  3 -1.498005 -16.168007 3.324658 -0.577350 0.577350 0.577350 1.000000 1.000000 1 0 1.000000
  3 -1.498006 -26.540272 3.324658 -0.577350 -0.577350 0.577350 0.000000 1.000000 1 0 1.000000
  3 0.677610 -26.540272 3.324658 0.577350 -0.577350 0.577350 0.000000 0.000000 1 0 1.000000
akms_d.vtf
  3 0.677612 -16.168007 3.324658 0.577350 0.577350 0.577350 0.000000 0.000000 1 0 1.000000
  3 0.677612 -16.168007 1.916540 0.577350 0.577350 -0.577350 1.000000 0.000000 1 0 1.000000
  3 -1.498005 -16.168007 1.916540 -0.577350 0.577350 -0.577350 1.000000 1.000000 1 0 1.000000
akms_d.vtf
  3 -1.498005 -16.168007 1.916540 -0.577350 0.577350 -0.577350 1.000000 1.000000 1 0 1.000000
  3 -1.498005 -16.168007 3.324658 -0.577350 0.577350 0.577350 0.000000 1.000000 1 0 1.000000
  3 0.677612 -16.168007 3.324658 0.577350 0.577350 0.577350 0.000000 0.000000 1 0 1.000000
akms_d.vtf
  3 0.712279 -26.710186 -2.395340 0.577350 0.577350 -0.577350 1.000000 0.000000 1 0 1.000000
  3 0.712279 -26.710186 3.614323 0.577350 0.577350 0.577350 1.000000 1.000000 1 0 1.000000
  3 0.712279 -27.381910 3.614323 0.577350 -0.577350 0.577350 0.000000 1.000000 1 0 1.000000
akms_d.vtf
  3 0.712279 -27.381910 3.614323 0.577350 -0.577350 0.577350 0.000000 1.000000 1 0 1.000000
  3 0.712279 -27.381910 -2.395340 0.577350 -0.577350 -0.577350 0.000000 0.000000 1 0 1.000000
  3 0.712279 -26.710186 -2.395340 0.577350 0.577350 -0.577350 1.000000 0.000000 1 0 1.000000
akms_d.vtf
  3 -1.463337 -26.710186 -2.395340 -0.577350 0.577350 -0.577350 0.000000 0.000000 1 0 1.000000
  3 -1.463337 -27.381910 -2.395340 -0.577350 -0.577350 -0.577350 1.000000 0.000000 1 0 1.000000
  3 -1.463337 -27.381910 3.614323 -0.577350 -0.577350 0.577350 1.000000 1.000000 1 0 1.000000
akms_d.vtf
  3 -1.463337 -27.381910 3.614323 -0.577350 -0.577350 0.577350 1.000000 1.000000 1 0 1.000000
  3 -1.463337 -26.710186 3.614323 -0.577350 0.577350 0.577350 0.000000 1.000000 1 0 1.000000
  3 -1.463337 -26.710186 -2.395340 -0.577350 0.577350 -0.577350 0.000000 0.000000 1 0 1.000000
akms_d.vtf
  3 0.712279 -26.710186 -2.395340 0.577350 0.577350 -0.577350 0.000000 0.000000 1 0 1.000000
  3 0.712279 -27.381910 -2.395340 0.577350 -0.577350 -0.577350 1.000000 0.000000 1 0 1.000000
  3 -1.463337 -27.381910 -2.395340 -0.577350 -0.577350 -0.577350 1.000000 1.000000 1 0 1.000000
akms_d.vtf
  3 -1.463337 -27.381910 -2.395340 -0.577350 -0.577350 -0.577350 1.000000 1.000000 1 0 1.000000
  3 -1.463337 -26.710186 -2.395340 -0.577350 0.577350 -0.577350 0.000000 1.000000 1 0 1.000000
  3 0.712279 -26.710186 -2.395340 0.577350 0.577350 -0.577350 0.000000 0.000000 1 0 1.000000
akms_d.vtf
  3 0.712279 -27.381910 -2.395340 0.577350 -0.577350 -0.577350 0.000000 0.000000 1 0 1.000000
  3 0.712279 -27.381910 3.614323 0.577350 -0.577350 0.577350 1.000000 0.000000 1 0 1.000000
  3 -1.463337 -27.381910 3.614323 -0.577350 -0.577350 0.577350 1.000000 1.000000 1 0 1.000000
akms_d.vtf
  3 -1.463337 -27.381910 3.614323 -0.577350 -0.577350 0.577350 1.000000 1.000000 1 0 1.000000
  3 -1.463337 -27.381910 -2.395340 -0.577350 -0.577350 -0.577350 0.000000 1.000000 1 0 1.000000
  3 0.712279 -27.381910 -2.395340 0.577350 -0.577350 -0.577350 0.000000 0.000000 1 0 1.000000
akms_d.vtf
  3 0.712279 -27.381910 3.614323 0.577350 -0.577350 0.577350 0.000000 0.000000 1 0 1.000000
  3 0.712279 -26.710186 3.614323 0.577350 0.577350 0.577350 1.000000 0.000000 1 0 1.000000
  3 -1.463337 -26.710186 3.614323 -0.577350 0.577350 0.577350 1.000000 1.000000 1 0 1.000000
akms_d.vtf
  3 -1.463337 -26.710186 3.614323 -0.577350 0.577350 0.577350 1.000000 1.000000 1 0 1.000000
  3 -1.463337 -27.381910 3.614323 -0.577350 -0.577350 0.577350 0.000000 1.000000 1 0 1.000000
  3 0.712279 -27.381910 3.614323 0.577350 -0.577350 0.577350 0.000000 0.000000 1 0 1.000000
akms_d.vtf
  3 0.712279 -26.710186 3.614323 0.577350 0.577350 0.577350 0.000000 0.000000 1 0 1.000000
  3 0.712279 -26.710186 -2.395340 0.577350 0.577350 -0.577350 1.000000 0.000000 1 0 1.000000
  3 -1.463337 -26.710186 -2.395340 -0.577350 0.577350 -0.577350 1.000000 1.000000 1 0 1.000000
akms_d.vtf
  3 -1.463337 -26.710186 -2.395340 -0.577350 0.577350 -0.577350 1.000000 1.000000 1 0 1.000000
  3 -1.463337 -26.710186 3.614323 -0.577350 0.577350 0.577350 0.000000 1.000000 1 0 1.000000
  3 0.712279 -26.710186 3.614323 0.577350 0.577350 0.577350 0.000000 0.000000 1 0 1.000000
akms_d.vtf
  3 0.081392 -14.041454 -3.149588 0.537123 0.017617 -0.843320 1.000000 0.000000 1 0 1.000000
  3 0.081392 -12.459156 1.943380 0.558727 0.457271 0.691901 1.000000 1.000000 1 0 1.000000
  3 0.081391 -15.117032 1.926547 0.602048 -0.666486 0.439699 0.000000 1.000000 1 0 1.000000
akms_d.vtf
  3 0.081391 -15.117032 1.926547 0.602048 -0.666486 0.439699 0.000000 1.000000 1 0 1.000000
  3 0.081391 -16.009178 -2.526768 0.701602 -0.712401 -0.015460 0.000000 0.000000 1 0 1.000000
  3 0.081392 -14.041454 -3.149588 0.537123 0.017617 -0.843320 1.000000 0.000000 1 0 1.000000
akms_d.vtf
  3 -0.887120 -14.041454 -3.149588 -0.537068 0.017618 -0.843355 0.000000 0.000000 1 0 1.000000
  3 -0.887121 -16.009178 -2.526768 -0.701605 -0.712398 -0.015460 1.000000 0.000000 1 0 1.000000
  3 -0.887121 -15.117032 1.926547 -0.602052 -0.666485 0.439694 1.000000 1.000000 1 0 1.000000
akms_d.vtf
  3 -0.887121 -15.117032 1.926547 -0.602052 -0.666485 0.439694 1.000000 1.000000 1 0 1.000000
  3 -0.887120 -12.459154 1.943380 -0.558726 0.457269 0.691904 0.000000 1.000000 1 0 1.000000
  3 -0.887120 -14.041454 -3.149588 -0.537068 0.017618 -0.843355 0.000000 0.000000 1 0 1.000000
akms_d.vtf
  3 0.081392 -14.041454 -3.149588 0.537123 0.017617 -0.843320 0.000000 0.000000 1 0 1.000000
  3 0.081391 -16.009178 -2.526768 0.701602 -0.712401 -0.015460 1.000000 0.000000 1 0 1.000000
  3 -0.887121 -16.009178 -2.526768 -0.701605 -0.712398 -0.015460 1.000000 1.000000 1 0 1.000000
akms_d.vtf
  3 -0.887121 -16.009178 -2.526768 -0.701605 -0.712398 -0.015460 1.000000 1.000000 1 0 1.000000
  3 -0.887120 -14.041454 -3.149588 -0.537068 0.017618 -0.843355 0.000000 1.000000 1 0 1.000000
  3 0.081392 -14.041454 -3.149588 0.537123 0.017617 -0.843320 0.000000 0.000000 1 0 1.000000
akms_d.vtf
  3 0.081391 -16.009178 -2.526768 0.701602 -0.712401 -0.015460 0.000000 0.000000 1 0 1.000000
  3 0.081391 -15.117032 1.926547 0.602048 -0.666486 0.439699 1.000000 0.000000 1 0 1.000000
  3 -0.887121 -15.117032 1.926547 -0.602052 -0.666485 0.439694 1.000000 1.000000 1 0 1.000000
akms_d.vtf
  3 -0.887121 -15.117032 1.926547 -0.602052 -0.666485 0.439694 1.000000 1.000000 1 0 1.000000
  3 -0.887121 -16.009178 -2.526768 -0.701605 -0.712398 -0.015460 0.000000 1.000000 1 0 1.000000
  3 0.081391 -16.009178 -2.526768 0.701602 -0.712401 -0.015460 0.000000 0.000000 1 0 1.000000
akms_d.vtf
  3 0.081391 -15.117032 1.926547 0.602048 -0.666486 0.439699 0.000000 0.000000 1 0 1.000000
  3 0.081392 -12.459156 1.943380 0.558727 0.457271 0.691901 1.000000 0.000000 1 0 1.000000
  3 -0.887120 -12.459154 1.943380 -0.558726 0.457269 0.691904 1.000000 1.000000 1 0 1.000000
akms_d.vtf
  3 -0.887120 -12.459154 1.943380 -0.558726 0.457269 0.691904 1.000000 1.000000 1 0 1.000000
  3 -0.887121 -15.117032 1.926547 -0.602052 -0.666485 0.439694 0.000000 1.000000 1 0 1.000000
  3 0.081391 -15.117032 1.926547 0.602048 -0.666486 0.439699 0.000000 0.000000 1 0 1.000000
akms_d.vtf
  3 0.081392 -12.459156 1.943380 0.558727 0.457271 0.691901 0.000000 0.000000 1 0 1.000000
  3 0.081392 -14.041454 -3.149588 0.537123 0.017617 -0.843320 1.000000 0.000000 1 0 1.000000
  3 -0.887120 -14.041454 -3.149588 -0.537068 0.017618 -0.843355 1.000000 1.000000 1 0 1.000000
akms_d.vtf
  3 -0.887120 -14.041454 -3.149588 -0.537068 0.017618 -0.843355 1.000000 1.000000 1 0 1.000000
  3 -0.887120 -12.459154 1.943380 -0.558726 0.457269 0.691904 0.000000 1.000000 1 0 1.000000
  3 0.081392 -12.459156 1.943380 0.558727 0.457271 0.691901 0.000000 0.000000 1 0 1.000000
akms_d.vtf
  3 0.171508 -2.723722 -3.852042 0.704488 0.709715 0.001137 1.000000 0.000000 1 0 1.000000
  3 0.171508 -5.406285 -0.887133 0.708136 0.706049 0.006152 1.000000 0.333333 1 0 1.000000
  3 0.171507 -6.997564 -3.904753 0.706518 -0.707636 -0.009194 0.000000 0.333333 1 0 1.000000
akms_d.vtf
  3 0.171507 -6.997564 -3.904753 0.706518 -0.707636 -0.009194 0.000000 0.333333 1 0 1.000000
  3 0.171508 -4.422120 -6.326226 0.537079 0.002333 -0.843529 0.000000 0.000000 1 0 1.000000
  3 0.171508 -2.723722 -3.852042 0.704488 0.709715 0.001137 1.000000 0.000000 1 0 1.000000
akms_d.vtf
  3 0.171508 -5.406285 -0.887133 0.708136 0.706049 0.006152 1.000000 0.333333 1 0 1.000000
  3 0.171508 -6.241815 2.068475 0.542385 0.236441 0.806173 1.000000 0.666667 1 0 1.000000
  3 0.171507 -8.078466 -2.375688 0.706600 -0.707590 -0.005747 0.000000 0.666667 1 0 1.000000
akms_d.vtf
  3 0.171507 -8.078466 -2.375688 0.706600 -0.707590 -0.005747 0.000000 0.666667 1 0 1.000000
  3 0.171507 -6.997564 -3.904753 0.706518 -0.707636 -0.009194 0.000000 0.333333 1 0 1.000000
  3 0.171508 -5.406285 -0.887133 0.708136 0.706049 0.006152 1.000000 0.333333 1 0 1.000000
akms_d.vtf
  3 0.171508 -6.241815 2.068475 0.542385 0.236441 0.806173 1.000000 0.666667 1 0 1.000000
  3 0.171508 -9.322247 1.998670 0.648245 -0.730548 0.214659 1.000000 1.000000 1 0 1.000000
  3 0.171507 -8.738550 -0.725397 0.706799 -0.707407 -0.003189 0.000000 1.000000 1 0 1.000000
akms_d.vtf
  3 0.171507 -8.738550 -0.725397 0.706799 -0.707407 -0.003189 0.000000 1.000000 1 0 1.000000
  3 0.171507 -8.078466 -2.375688 0.706600 -0.707590 -0.005747 0.000000 0.666667 1 0 1.000000
  3 0.171508 -6.241815 2.068475 0.542385 0.236441 0.806173 1.000000 0.666667 1 0 1.000000
akms_d.vtf
  3 -0.963180 -2.723722 -3.852042 -0.704487 0.709716 0.001137 0.000000 0.000000 1 0 1.000000
  3 -0.963181 -4.422120 -6.326226 -0.537079 0.002333 -0.843529 1.000000 0.000000 1 0 1.000000
  3 -0.963182 -6.997564 -3.904753 -0.706519 -0.707634 -0.009194 1.000000 0.333333 1 0 1.000000
akms_d.vtf
  3 -0.963182 -6.997564 -3.904753 -0.706519 -0.707634 -0.009194 1.000000 0.333333 1 0 1.000000
  3 -0.963181 -5.406285 -0.887133 -0.708136 0.706049 0.006152 0.000000 0.333333 1 0 1.000000
  3 -0.963180 -2.723722 -3.852042 -0.704487 0.709716 0.001137 0.000000 0.000000 1 0 1.000000
akms_d.vtf
  3 -0.963181 -5.406285 -0.887133 -0.708136 0.706049 0.006152 0.000000 0.333333 1 0 1.000000
  3 -0.963182 -6.997564 -3.904753 -0.706519 -0.707634 -0.009194 1.000000 0.333333 1 0 1.000000
  3 -0.963182 -8.078465 -2.375688 -0.706600 -0.707590 -0.005747 1.000000 0.666667 1 0 1.000000
akms_d.vtf
  3 -0.963182 -8.078465 -2.375688 -0.706600 -0.707590 -0.005747 1.000000 0.666667 1 0 1.000000
  3 -0.963181 -6.241815 2.068475 -0.542372 0.236443 0.806180 0.000000 0.666667 1 0 1.000000
  3 -0.963181 -5.406285 -0.887133 -0.708136 0.706049 0.006152 0.000000 0.333333 1 0 1.000000
akms_d.vtf
  3 -0.963181 -6.241815 2.068475 -0.542372 0.236443 0.806180 0.000000 0.666667 1 0 1.000000
  3 -0.963182 -8.078465 -2.375688 -0.706600 -0.707590 -0.005747 1.000000 0.666667 1 0 1.000000
  3 -0.963182 -8.738549 -0.725397 -0.706803 -0.707403 -0.003189 1.000000 1.000000 1 0 1.000000
akms_d.vtf
  3 -0.963182 -8.738549 -0.725397 -0.706803 -0.707403 -0.003189 1.000000 1.000000 1 0 1.000000
  3 -0.963181 -9.322247 1.998669 -0.648245 -0.730548 0.214659 0.000000 1.000000 1 0 1.000000
  3 -0.963181 -6.241815 2.068475 -0.542372 0.236443 0.806180 0.000000 0.666667 1 0 1.000000
akms_d.vtf
  3 0.171508 -2.723722 -3.852042 0.704488 0.709715 0.001137 0.000000 0.000000 1 0 1.000000
  3 0.171508 -4.422120 -6.326226 0.537079 0.002333 -0.843529 1.000000 0.000000 1 0 1.000000
  3 -0.963181 -4.422120 -6.326226 -0.537079 0.002333 -0.843529 1.000000 1.000000 1 0 1.000000
akms_d.vtf
  3 -0.963181 -4.422120 -6.326226 -0.537079 0.002333 -0.843529 1.000000 1.000000 1 0 1.000000
  3 -0.963180 -2.723722 -3.852042 -0.704487 0.709716 0.001137 0.000000 1.000000 1 0 1.000000
  3 0.171508 -2.723722 -3.852042 0.704488 0.709715 0.001137 0.000000 0.000000 1 0 1.000000
akms_d.vtf
  3 0.171508 -4.422120 -6.326226 0.537079 0.002333 -0.843529 0.000000 0.000000 1 0 1.000000
  3 0.171507 -6.997564 -3.904753 0.706518 -0.707636 -0.009194 0.333333 0.000000 1 0 1.000000
  3 -0.963182 -6.997564 -3.904753 -0.706519 -0.707634 -0.009194 0.333333 1.000000 1 0 1.000000
akms_d.vtf
  3 -0.963182 -6.997564 -3.904753 -0.706519 -0.707634 -0.009194 0.333333 1.000000 1 0 1.000000
  3 -0.963181 -4.422120 -6.326226 -0.537079 0.002333 -0.843529 0.000000 1.000000 1 0 1.000000
  3 0.171508 -4.422120 -6.326226 0.537079 0.002333 -0.843529 0.000000 0.000000 1 0 1.000000
akms_d.vtf
  3 0.171507 -6.997564 -3.904753 0.706518 -0.707636 -0.009194 0.333333 0.000000 1 0 1.000000
  3 0.171507 -8.078466 -2.375688 0.706600 -0.707590 -0.005747 0.666667 0.000000 1 0 1.000000
  3 -0.963182 -8.078465 -2.375688 -0.706600 -0.707590 -0.005747 0.666667 1.000000 1 0 1.000000
akms_d.vtf
  3 -0.963182 -8.078465 -2.375688 -0.706600 -0.707590 -0.005747 0.666667 1.000000 1 0 1.000000
  3 -0.963182 -6.997564 -3.904753 -0.706519 -0.707634 -0.009194 0.333333 1.000000 1 0 1.000000
  3 0.171507 -6.997564 -3.904753 0.706518 -0.707636 -0.009194 0.333333 0.000000 1 0 1.000000
akms_d.vtf
  3 0.171507 -8.078466 -2.375688 0.706600 -0.707590 -0.005747 0.666667 0.000000 1 0 1.000000
  3 0.171507 -8.738550 -0.725397 0.706799 -0.707407 -0.003189 1.000000 0.000000 1 0 1.000000
  3 -0.963182 -8.738549 -0.725397 -0.706803 -0.707403 -0.003189 1.000000 1.000000 1 0 1.000000
akms_d.vtf
  3 -0.963182 -8.738549 -0.725397 -0.706803 -0.707403 -0.003189 1.000000 1.000000 1 0 1.000000
  3 -0.963182 -8.078465 -2.375688 -0.706600 -0.707590 -0.005747 0.666667 1.000000 1 0 1.000000
  3 0.171507 -8.078466 -2.375688 0.706600 -0.707590 -0.005747 0.666667 0.000000 1 0 1.000000
akms_d.vtf
  3 0.171507 -8.738550 -0.725397 0.706799 -0.707407 -0.003189 0.000000 0.000000 1 0 1.000000
  3 0.171508 -9.322247 1.998670 0.648245 -0.730548 0.214659 1.000000 0.000000 1 0 1.000000
  3 -0.963181 -9.322247 1.998669 -0.648245 -0.730548 0.214659 1.000000 1.000000 1 0 1.000000
akms_d.vtf
  3 -0.963181 -9.322247 1.998669 -0.648245 -0.730548 0.214659 1.000000 1.000000 1 0 1.000000
  3 -0.963182 -8.738549 -0.725397 -0.706803 -0.707403 -0.003189 0.000000 1.000000 1 0 1.000000
  3 0.171507 -8.738550 -0.725397 0.706799 -0.707407 -0.003189 0.000000 0.000000 1 0 1.000000
akms_d.vtf
  3 0.171508 -9.322247 1.998670 0.648245 -0.730548 0.214659 0.000000 0.000000 1 0 1.000000
  3 0.171508 -6.241815 2.068475 0.542385 0.236441 0.806173 0.333333 0.000000 1 0 1.000000
  3 -0.963181 -6.241815 2.068475 -0.542372 0.236443 0.806180 0.333333 1.000000 1 0 1.000000
akms_d.vtf
  3 -0.963181 -6.241815 2.068475 -0.542372 0.236443 0.806180 0.333333 1.000000 1 0 1.000000
  3 -0.963181 -9.322247 1.998669 -0.648245 -0.730548 0.214659 0.000000 1.000000 1 0 1.000000
  3 0.171508 -9.322247 1.998670 0.648245 -0.730548 0.214659 0.000000 0.000000 1 0 1.000000
akms_d.vtf
  3 0.171508 -6.241815 2.068475 0.542385 0.236441 0.806173 0.333333 0.000000 1 0 1.000000
  3 0.171508 -5.406285 -0.887133 0.708136 0.706049 0.006152 0.666667 0.000000 1 0 1.000000
  3 -0.963181 -5.406285 -0.887133 -0.708136 0.706049 0.006152 0.666667 1.000000 1 0 1.000000
akms_d.vtf
  3 -0.963181 -5.406285 -0.887133 -0.708136 0.706049 0.006152 0.666667 1.000000 1 0 1.000000
  3 -0.963181 -6.241815 2.068475 -0.542372 0.236443 0.806180 0.333333 1.000000 1 0 1.000000
  3 0.171508 -6.241815 2.068475 0.542385 0.236441 0.806173 0.333333 0.000000 1 0 1.000000
akms_d.vtf
  3 0.171508 -5.406285 -0.887133 0.708136 0.706049 0.006152 0.666667 0.000000 1 0 1.000000
  3 0.171508 -2.723722 -3.852042 0.704488 0.709715 0.001137 1.000000 0.000000 1 0 1.000000
  3 -0.963180 -2.723722 -3.852042 -0.704487 0.709716 0.001137 1.000000 1.000000 1 0 1.000000
akms_d.vtf
  3 -0.963180 -2.723722 -3.852042 -0.704487 0.709716 0.001137 1.000000 1.000000 1 0 1.000000
  3 -0.963181 -5.406285 -0.887133 -0.708136 0.706049 0.006152 0.666667 1.000000 1 0 1.000000
  3 0.171508 -5.406285 -0.887133 0.708136 0.706049 0.006152 0.666667 0.000000 1 0 1.000000
akms_d.vtf
  3 0.019104 14.227186 2.469868 0.577351 0.577350 -0.577350 1.000000 0.000000 1 0 1.000000
  3 0.019104 14.227186 3.258634 0.698511 0.715064 0.027653 1.000000 1.000000 1 0 1.000000
  3 0.019103 7.319899 4.567366 0.671603 0.718969 0.178976 0.500000 1.000000 1 0 1.000000
akms_d.vtf
  3 0.019103 7.319899 4.567366 0.671603 0.718969 0.178976 0.500000 1.000000 1 0 1.000000
  3 0.019103 9.041055 2.469868 0.707106 -0.000001 -0.707108 0.500000 0.000000 1 0 1.000000
  3 0.019104 14.227186 2.469868 0.577351 0.577350 -0.577350 1.000000 0.000000 1 0 1.000000
akms_d.vtf
  3 0.019103 9.041055 2.469868 0.707106 -0.000001 -0.707108 0.500000 0.000000 1 0 1.000000
  3 0.019103 7.319899 4.567366 0.671603 0.718969 0.178976 0.500000 1.000000 1 0 1.000000
  3 0.019102 3.547203 4.694537 0.539725 -0.171636 0.824159 0.000000 1.000000 1 0 1.000000
akms_d.vtf
  3 0.019102 3.547203 4.694537 0.539725 -0.171636 0.824159 0.000000 1.000000 1 0 1.000000
  3 0.019102 3.547203 2.469868 0.577350 -0.577351 -0.577350 0.000000 0.000000 1 0 1.000000
  3 0.019103 9.041055 2.469868 0.707106 -0.000001 -0.707108 0.500000 0.000000 1 0 1.000000
akms_d.vtf
  3 -0.805272 14.227186 2.469868 -0.577349 0.577351 -0.577351 0.000000 0.000000 1 0 1.000000
  3 -0.805273 9.041055 2.469868 -0.707107 -0.000000 -0.707107 0.500000 0.000000 1 0 1.000000
  3 -0.805273 7.319899 4.567366 -0.671603 0.718969 0.178976 0.500000 1.000000 1 0 1.000000
akms_d.vtf
  3 -0.805273 7.319899 4.567366 -0.671603 0.718969 0.178976 0.500000 1.000000 1 0 1.000000
  3 -0.805272 14.227186 3.258634 -0.698512 0.715064 0.027653 0.000000 1.000000 1 0 1.000000
  3 -0.805272 14.227186 2.469868 -0.577349 0.577351 -0.577351 0.000000 0.000000 1 0 1.000000
akms_d.vtf
  3 -0.805273 9.041055 2.469868 -0.707107 -0.000000 -0.707107 0.500000 0.000000 1 0 1.000000
  3 -0.805274 3.547202 2.469868 -0.577350 -0.577350 -0.577350 1.000000 0.000000 1 0 1.000000
  3 -0.805274 3.547202 4.694537 -0.539720 -0.171637 0.824162 1.000000 1.000000 1 0 1.000000
akms_d.vtf
  3 -0.805274 3.547202 4.694537 -0.539720 -0.171637 0.824162 1.000000 1.000000 1 0 1.000000
  3 -0.805273 7.319899 4.567366 -0.671603 0.718969 0.178976 0.500000 1.000000 1 0 1.000000
  3 -0.805273 9.041055 2.469868 -0.707107 -0.000000 -0.707107 0.500000 0.000000 1 0 1.000000
akms_d.vtf
  3 0.019104 14.227186 2.469868 0.577351 0.577350 -0.577350 0.000000 0.000000 1 0 1.000000
  3 0.019103 9.041055 2.469868 0.707106 -0.000001 -0.707108 0.500000 0.000000 1 0 1.000000
  3 -0.805273 9.041055 2.469868 -0.707107 -0.000000 -0.707107 0.500000 1.000000 1 0 1.000000
akms_d.vtf
  3 -0.805273 9.041055 2.469868 -0.707107 -0.000000 -0.707107 0.500000 1.000000 1 0 1.000000
  3 -0.805272 14.227186 2.469868 -0.577349 0.577351 -0.577351 0.000000 1.000000 1 0 1.000000
  3 0.019104 14.227186 2.469868 0.577351 0.577350 -0.577350 0.000000 0.000000 1 0 1.000000
akms_d.vtf
  3 0.019103 9.041055 2.469868 0.707106 -0.000001 -0.707108 0.500000 0.000000 1 0 1.000000
  3 0.019102 3.547203 2.469868 0.577350 -0.577351 -0.577350 1.000000 0.000000 1 0 1.000000
  3 -0.805274 3.547202 2.469868 -0.577350 -0.577350 -0.577350 1.000000 1.000000 1 0 1.000000
akms_d.vtf
  3 -0.805274 3.547202 2.469868 -0.577350 -0.577350 -0.577350 1.000000 1.000000 1 0 1.000000
  3 -0.805273 9.041055 2.469868 -0.707107 -0.000000 -0.707107 0.500000 1.000000 1 0 1.000000
  3 0.019103 9.041055 2.469868 0.707106 -0.000001 -0.707108 0.500000 0.000000 1 0 1.000000
akms_d.vtf
  3 0.019102 3.547203 2.469868 0.577350 -0.577351 -0.577350 0.000000 0.000000 1 0 1.000000
  3 0.019102 3.547203 4.694537 0.539725 -0.171636 0.824159 1.000000 0.000000 1 0 1.000000
  3 -0.805274 3.547202 4.694537 -0.539720 -0.171637 0.824162 1.000000 1.000000 1 0 1.000000
akms_d.vtf
  3 -0.805274 3.547202 4.694537 -0.539720 -0.171637 0.824162 1.000000 1.000000 1 0 1.000000
  3 -0.805274 3.547202 2.469868 -0.577350 -0.577350 -0.577350 0.000000 1.000000 1 0 1.000000
  3 0.019102 3.547203 2.469868 0.577350 -0.577351 -0.577350 0.000000 0.000000 1 0 1.000000
akms_d.vtf
  3 0.019102 3.547203 4.694537 0.539725 -0.171636 0.824159 0.000000 0.000000 1 0 1.000000
  3 0.019103 7.319899 4.567366 0.671603 0.718969 0.178976 0.500000 0.000000 1 0 1.000000
  3 -0.805273 7.319899 4.567366 -0.671603 0.718969 0.178976 0.500000 1.000000 1 0 1.000000
akms_d.vtf
  3 -0.805273 7.319899 4.567366 -0.671603 0.718969 0.178976 0.500000 1.000000 1 0 1.000000
  3 -0.805274 3.547202 4.694537 -0.539720 -0.171637 0.824162 0.000000 1.000000 1 0 1.000000
  3 0.019102 3.547203 4.694537 0.539725 -0.171636 0.824159 0.000000 0.000000 1 0 1.000000
akms_d.vtf
  3 0.019103 7.319899 4.567366 0.671603 0.718969 0.178976 0.500000 0.000000 1 0 1.000000
  3 0.019104 14.227186 3.258634 0.698511 0.715064 0.027653 1.000000 0.000000 1 0 1.000000
  3 -0.805272 14.227186 3.258634 -0.698512 0.715064 0.027653 1.000000 1.000000 1 0 1.000000
akms_d.vtf
  3 -0.805272 14.227186 3.258634 -0.698512 0.715064 0.027653 1.000000 1.000000 1 0 1.000000
  3 -0.805273 7.319899 4.567366 -0.671603 0.718969 0.178976 0.500000 1.000000 1 0 1.000000
  3 0.019103 7.319899 4.567366 0.671603 0.718969 0.178976 0.500000 0.000000 1 0 1.000000
akms_d.vtf
  3 0.019104 14.227186 3.258634 0.698511 0.715064 0.027653 0.000000 0.000000 1 0 1.000000
  3 0.019104 14.227186 2.469868 0.577351 0.577350 -0.577350 1.000000 0.000000 1 0 1.000000
  3 -0.805272 14.227186 2.469868 -0.577349 0.577351 -0.577351 1.000000 1.000000 1 0 1.000000
akms_d.vtf
  3 -0.805272 14.227186 2.469868 -0.577349 0.577351 -0.577351 1.000000 1.000000 1 0 1.000000
  3 -0.805272 14.227186 3.258634 -0.698512 0.715064 0.027653 0.000000 1.000000 1 0 1.000000
  3 0.019104 14.227186 3.258634 0.698511 0.715064 0.027653 0.000000 0.000000 1 0 1.000000
akms_d.vtf
  3 0.019103 13.233963 3.206211 0.577350 0.577350 -0.577350 1.000000 0.000000 1 0 1.000000
  3 0.019103 13.233963 5.373119 0.577350 0.577350 0.577350 1.000000 1.000000 1 0 1.000000
  3 0.019103 11.972534 5.373119 0.577350 -0.577350 0.577350 0.000000 1.000000 1 0 1.000000
akms_d.vtf
  3 0.019103 11.972534 5.373119 0.577350 -0.577350 0.577350 0.000000 1.000000 1 0 1.000000
  3 0.019103 11.972534 3.206211 0.577350 -0.577350 -0.577350 0.000000 0.000000 1 0 1.000000
  3 0.019103 13.233963 3.206211 0.577350 0.577350 -0.577350 1.000000 0.000000 1 0 1.000000
akms_d.vtf
  3 -0.805273 13.233963 3.206211 -0.577350 0.577350 -0.577350 0.000000 0.000000 1 0 1.000000
  3 -0.805273 11.972534 3.206211 -0.577350 -0.577350 -0.577350 1.000000 0.000000 1 0 1.000000
  3 -0.805273 11.972534 5.373119 -0.577350 -0.577350 0.577350 1.000000 1.000000 1 0 1.000000
akms_d.vtf
  3 -0.805273 11.972534 5.373119 -0.577350 -0.577350 0.577350 1.000000 1.000000 1 0 1.000000
  3 -0.805273 13.233963 5.373119 -0.577350 0.577350 0.577350 0.000000 1.000000 1 0 1.000000
  3 -0.805273 13.233963 3.206211 -0.577350 0.577350 -0.577350 0.000000 0.000000 1 0 1.000000
akms_d.vtf
  3 0.019103 13.233963 3.206211 0.577350 0.577350 -0.577350 0.000000 0.000000 1 0 1.000000
  3 0.019103 11.972534 3.206211 0.577350 -0.577350 -0.577350 1.000000 0.000000 1 0 1.000000
  3 -0.805273 11.972534 3.206211 -0.577350 -0.577350 -0.577350 1.000000 1.000000 1 0 1.000000
akms_d.vtf
  3 -0.805273 11.972534 3.206211 -0.577350 -0.577350 -0.577350 1.000000 1.000000 1 0 1.000000
  3 -0.805273 13.233963 3.206211 -0.577350 0.577350 -0.577350 0.000000 1.000000 1 0 1.000000
  3 0.019103 13.233963 3.206211 0.577350 0.577350 -0.577350 0.000000 0.000000 1 0 1.000000
akms_d.vtf
  3 0.019103 11.972534 3.206211 0.577350 -0.577350 -0.577350 0.000000 0.000000 1 0 1.000000
  3 0.019103 11.972534 5.373119 0.577350 -0.577350 0.577350 1.000000 0.000000 1 0 1.000000
  3 -0.805273 11.972534 5.373119 -0.577350 -0.577350 0.577350 1.000000 1.000000 1 0 1.000000
akms_d.vtf
  3 -0.805273 11.972534 5.373119 -0.577350 -0.577350 0.577350 1.000000 1.000000 1 0 1.000000
  3 -0.805273 11.972534 3.206211 -0.577350 -0.577350 -0.577350 0.000000 1.000000 1 0 1.000000
  3 0.019103 11.972534 3.206211 0.577350 -0.577350 -0.577350 0.000000 0.000000 1 0 1.000000
akms_d.vtf
  3 0.019103 11.972534 5.373119 0.577350 -0.577350 0.577350 0.000000 0.000000 1 0 1.000000
  3 0.019103 13.233963 5.373119 0.577350 0.577350 0.577350 1.000000 0.000000 1 0 1.000000
  3 -0.805273 13.233963 5.373119 -0.577350 0.577350 0.577350 1.000000 1.000000 1 0 1.000000
akms_d.vtf
  3 -0.805273 13.233963 5.373119 -0.577350 0.577350 0.577350 1.000000 1.000000 1 0 1.000000
  3 -0.805273 11.972534 5.373119 -0.577350 -0.577350 0.577350 0.000000 1.000000 1 0 1.000000
  3 0.019103 11.972534 5.373119 0.577350 -0.577350 0.577350 0.000000 0.000000 1 0 1.000000
akms_d.vtf
  3 0.019103 13.233963 5.373119 0.577350 0.577350 0.577350 0.000000 0.000000 1 0 1.000000
  3 0.019103 13.233963 3.206211 0.577350 0.577350 -0.577350 1.000000 0.000000 1 0 1.000000
  3 -0.805273 13.233963 3.206211 -0.577350 0.577350 -0.577350 1.000000 1.000000 1 0 1.000000
akms_d.vtf
  3 -0.805273 13.233963 3.206211 -0.577350 0.577350 -0.577350 1.000000 1.000000 1 0 1.000000
  3 -0.805273 13.233963 5.373119 -0.577350 0.577350 0.577350 0.000000 1.000000 1 0 1.000000
  3 0.019103 13.233963 5.373119 0.577350 0.577350 0.577350 0.000000 0.000000 1 0 1.000000
end
