
UnlitGeneric
{
	
	$baseTexture models/jessev92/sin/weapons/grenade/SE1_frag_grenade_glow01_d
	$bumpmap dev/bump_normal
	$lightwarptexture dev/identitylightwarp

	$halflambert 1
	$ambientocclusion 1
	$surfaceprop weapon
	$nocull 1
	$additive 1
	$translucent 1

	$phong 1
	$phongtint "[ 0.6 0.6 0.6 ]"

}
