
VertexLitGeneric
{
	
	$baseTexture models/jessev92/sin/weapons/grenade/SE1_frag_grenade01_d
	$bumpmap dev/bump_normal
	$lightwarptexture dev/identitylightwarp

	$halflambert 1
	$ambientocclusion 1
	$surfaceprop weapon
	$selfillum 1

	$phong 1
	$phongtint "[ 0.6 0.6 0.6 ]"

}
