// Created by Crowbar 0.29.0.0
version 1
nodes
  0 "ValveBiped" -1
  1 "ValveBiped.weapon_bone" 0
  2 "ValveBiped.flash" 1
end
skeleton
  time 0
    0 0.000000 0.000000 0.000000 1.570796 0.000000 0.000000
    1 1.227019 4.371634 5.825668 0.000000 0.000000 0.000000
    2 -0.605127 -0.347153 7.114526 0.000000 0.000000 0.000000
end
triangles
  phy
    0 1.576811 -4.729429 4.005372 -0.003326 -0.989873 0.141914 0 0
    0 1.252444 -3.818415 4.899781 -0.002049 0.995167 0.098177 0 0
    0 1.251401 -10.520981 4.962317 -0.551875 -0.825484 0.118365 0 0
  phy
    0 1.576811 -4.729429 4.005372 -0.003326 -0.989873 0.141914 0 0
    0 1.576844 -4.196473 3.717437 -0.019109 0.064675 0.997723 0 0
    0 1.252444 -3.818415 4.899781 -0.002049 0.995167 0.098177 0 0
  phy
    0 1.251288 -10.521195 4.071499 -0.872503 -0.480884 0.086541 0 0
    0 1.232724 -4.572723 -1.702346 -0.193931 0.980896 -0.015309 0 0
    0 1.576811 -4.729429 4.005372 -0.003326 -0.989873 0.141914 0 0
  phy
    0 1.232724 -4.572723 -1.702346 -0.193931 0.980896 -0.015309 0 0
    0 1.576844 -4.196473 3.717437 -0.019109 0.064675 0.997723 0 0
    0 1.576811 -4.729429 4.005372 -0.003326 -0.989873 0.141914 0 0
  phy
    0 1.251401 -10.520981 4.962317 -0.551875 -0.825484 0.118365 0 0
    0 1.251288 -10.521195 4.071499 -0.872503 -0.480884 0.086541 0 0
    0 1.576811 -4.729429 4.005372 -0.003326 -0.989873 0.141914 0 0
  phy
    0 0.464634 -2.431088 4.110895 -0.921071 -0.026404 -0.388499 0 0
    0 1.252444 -3.818415 4.899781 -0.002049 0.995167 0.098177 0 0
    0 0.844928 -2.331380 3.509786 -0.928617 -0.271646 0.252744 0 0
  phy
    0 0.464634 -2.431088 4.110895 -0.921071 -0.026404 -0.388499 0 0
    0 0.447873 -3.847527 5.427286 -0.074187 0.993682 -0.084220 0 0
    0 1.252444 -3.818415 4.899781 -0.002049 0.995167 0.098177 0 0
  phy
    0 0.464634 -2.431088 4.110895 -0.921071 -0.026404 -0.388499 0 0
    0 0.054906 -3.818287 4.899916 0.063374 -0.993138 -0.098284 0 0
    0 0.447873 -3.847527 5.427286 -0.074187 0.993682 -0.084220 0 0
  phy
    0 0.464634 -2.431088 4.110895 -0.921071 -0.026404 -0.388499 0 0
    0 0.844928 -2.331380 3.509786 -0.928617 -0.271646 0.252744 0 0
    0 0.653118 -2.088197 -1.194759 -0.193931 0.980896 -0.015309 0 0
  phy
    0 -0.051696 -2.494786 -1.264144 -0.381595 -0.294630 -0.876115 0 0
    0 0.464634 -2.431088 4.110895 -0.921071 -0.026404 -0.388499 0 0
    0 0.653118 -2.088197 -1.194759 -0.193931 0.980896 -0.015309 0 0
  phy
    0 0.054906 -3.818287 4.899916 0.063374 -0.993138 -0.098284 0 0
    0 0.464634 -2.431088 4.110895 -0.921071 -0.026404 -0.388499 0 0
    0 -0.269881 -4.179870 3.708793 -0.942476 -0.314374 -0.113617 0 0
  phy
    0 -0.269881 -4.179870 3.708793 -0.942476 -0.314374 -0.113617 0 0
    0 0.464634 -2.431088 4.110895 -0.921071 -0.026404 -0.388499 0 0
    0 -0.051696 -2.494786 -1.264144 -0.381595 -0.294630 -0.876115 0 0
  phy
    0 1.232724 -4.572723 -1.702346 -0.193931 0.980896 -0.015309 0 0
    0 0.992459 -4.903996 -1.726325 -0.659016 -0.742619 0.119225 0 0
    0 0.124555 -4.763028 -1.715089 -0.381595 -0.294630 -0.876115 0 0
  phy
    0 0.992459 -4.903996 -1.726325 -0.659016 -0.742619 0.119225 0 0
    0 0.652423 -10.620140 3.400895 -0.701220 -0.695844 -0.155214 0 0
    0 0.124555 -4.763028 -1.715089 -0.381595 -0.294630 -0.876115 0 0
  phy
    0 0.992459 -4.903996 -1.726325 -0.659016 -0.742619 0.119225 0 0
    0 1.232724 -4.572723 -1.702346 -0.193931 0.980896 -0.015309 0 0
    0 1.251288 -10.521195 4.071499 -0.872503 -0.480884 0.086541 0 0
  phy
    0 1.251288 -10.521195 4.071499 -0.872503 -0.480884 0.086541 0 0
    0 0.652423 -10.620140 3.400895 -0.701220 -0.695844 -0.155214 0 0
    0 0.992459 -4.903996 -1.726325 -0.659016 -0.742619 0.119225 0 0
  phy
    0 1.251401 -10.520981 4.962317 -0.551875 -0.825484 0.118365 0 0
    0 1.252444 -3.818415 4.899781 -0.002049 0.995167 0.098177 0 0
    0 0.602467 -10.498125 5.428844 -0.074187 0.993682 -0.084220 0 0
  phy
    0 0.602467 -10.498125 5.428844 -0.074187 0.993682 -0.084220 0 0
    0 1.043713 -11.350562 4.655734 -0.872503 -0.480884 0.086541 0 0
    0 1.251401 -10.520981 4.962317 -0.551875 -0.825484 0.118365 0 0
  phy
    0 1.251401 -10.520981 4.962317 -0.551875 -0.825484 0.118365 0 0
    0 1.043713 -11.350562 4.655734 -0.872503 -0.480884 0.086541 0 0
    0 1.251288 -10.521195 4.071499 -0.872503 -0.480884 0.086541 0 0
  phy
    0 1.325790 -3.285453 3.250952 -0.923531 -0.357150 0.139764 0 0
    0 0.844928 -2.331380 3.509786 -0.928617 -0.271646 0.252744 0 0
    0 1.252444 -3.818415 4.899781 -0.002049 0.995167 0.098177 0 0
  phy
    0 1.252444 -3.818415 4.899781 -0.002049 0.995167 0.098177 0 0
    0 1.576844 -4.196473 3.717437 -0.019109 0.064675 0.997723 0 0
    0 1.325790 -3.285453 3.250952 -0.923531 -0.357150 0.139764 0 0
  phy
    0 1.203666 -2.230894 -1.219190 -0.202100 0.979326 0.008678 0 0
    0 0.844928 -2.331380 3.509786 -0.928617 -0.271646 0.252744 0 0
    0 1.325790 -3.285453 3.250952 -0.923531 -0.357150 0.139764 0 0
  phy
    0 1.325790 -3.285453 3.250952 -0.923531 -0.357150 0.139764 0 0
    0 1.576844 -4.196473 3.717437 -0.019109 0.064675 0.997723 0 0
    0 1.203666 -2.230894 -1.219190 -0.202100 0.979326 0.008678 0 0
  phy
    0 -0.269915 -4.729215 4.005584 -0.152963 0.914230 -0.375214 0 0
    0 0.054906 -3.818287 4.899916 0.063374 -0.993138 -0.098284 0 0
    0 -0.269881 -4.179870 3.708793 -0.942476 -0.314374 -0.113617 0 0
  phy
    0 0.054906 -3.818287 4.899916 0.063374 -0.993138 -0.098284 0 0
    0 -0.269915 -4.729215 4.005584 -0.152963 0.914230 -0.375214 0 0
    0 0.053868 -10.520864 4.962457 -0.074187 0.993682 -0.084220 0 0
  phy
    0 -0.269915 -4.729215 4.005584 -0.152963 0.914230 -0.375214 0 0
    0 -0.269881 -4.179870 3.708793 -0.942476 -0.314374 -0.113617 0 0
    0 -0.051696 -2.494786 -1.264144 -0.381595 -0.294630 -0.876115 0 0
  phy
    0 -0.269915 -4.729215 4.005584 -0.152963 0.914230 -0.375214 0 0
    0 -0.051696 -2.494786 -1.264144 -0.381595 -0.294630 -0.876115 0 0
    0 -0.101119 -9.082265 3.207984 -0.381595 -0.294630 -0.876115 0 0
  phy
    0 0.053868 -10.520864 4.962457 -0.074187 0.993682 -0.084220 0 0
    0 -0.269915 -4.729215 4.005584 -0.152963 0.914230 -0.375214 0 0
    0 -0.101119 -9.082265 3.207984 -0.381595 -0.294630 -0.876115 0 0
  phy
    0 0.054906 -3.818287 4.899916 0.063374 -0.993138 -0.098284 0 0
    0 0.053868 -10.520864 4.962457 -0.074187 0.993682 -0.084220 0 0
    0 0.447873 -3.847527 5.427286 -0.074187 0.993682 -0.084220 0 0
  phy
    0 0.261260 -11.350483 4.655824 0.382547 -0.903125 -0.194994 0 0
    0 0.053754 -10.521056 4.071636 0.444929 0.626460 -0.639990 0 0
    0 0.652423 -10.620140 3.400895 -0.701220 -0.695844 -0.155214 0 0
  phy
    0 0.652423 -10.620140 3.400895 -0.701220 -0.695844 -0.155214 0 0
    0 1.043713 -11.350562 4.655734 -0.872503 -0.480884 0.086541 0 0
    0 0.261260 -11.350483 4.655824 0.382547 -0.903125 -0.194994 0 0
  phy
    0 0.602467 -10.498125 5.428844 -0.074187 0.993682 -0.084220 0 0
    0 0.053868 -10.520864 4.962457 -0.074187 0.993682 -0.084220 0 0
    0 0.261260 -11.350483 4.655824 0.382547 -0.903125 -0.194994 0 0
  phy
    0 0.261260 -11.350483 4.655824 0.382547 -0.903125 -0.194994 0 0
    0 1.043713 -11.350562 4.655734 -0.872503 -0.480884 0.086541 0 0
    0 0.602467 -10.498125 5.428844 -0.074187 0.993682 -0.084220 0 0
  phy
    0 0.053754 -10.521056 4.071636 0.444929 0.626460 -0.639990 0 0
    0 0.261260 -11.350483 4.655824 0.382547 -0.903125 -0.194994 0 0
    0 0.053868 -10.520864 4.962457 -0.074187 0.993682 -0.084220 0 0
  phy
    0 1.251288 -10.521195 4.071499 -0.872503 -0.480884 0.086541 0 0
    0 1.043713 -11.350562 4.655734 -0.872503 -0.480884 0.086541 0 0
    0 0.652423 -10.620140 3.400895 -0.701220 -0.695844 -0.155214 0 0
  phy
    0 0.844928 -2.331380 3.509786 -0.928617 -0.271646 0.252744 0 0
    0 1.203666 -2.230894 -1.219190 -0.202100 0.979326 0.008678 0 0
    0 0.653118 -2.088197 -1.194759 -0.193931 0.980896 -0.015309 0 0
  phy
    0 1.203666 -2.230894 -1.219190 -0.202100 0.979326 0.008678 0 0
    0 1.576844 -4.196473 3.717437 -0.019109 0.064675 0.997723 0 0
    0 1.232724 -4.572723 -1.702346 -0.193931 0.980896 -0.015309 0 0
  phy
    0 1.203666 -2.230894 -1.219190 -0.202100 0.979326 0.008678 0 0
    0 1.232724 -4.572723 -1.702346 -0.193931 0.980896 -0.015309 0 0
    0 0.653118 -2.088197 -1.194759 -0.193931 0.980896 -0.015309 0 0
  phy
    0 0.053754 -10.521056 4.071636 0.444929 0.626460 -0.639990 0 0
    0 0.053868 -10.520864 4.962457 -0.074187 0.993682 -0.084220 0 0
    0 -0.101119 -9.082265 3.207984 -0.381595 -0.294630 -0.876115 0 0
  phy
    0 0.652423 -10.620140 3.400895 -0.701220 -0.695844 -0.155214 0 0
    0 0.053754 -10.521056 4.071636 0.444929 0.626460 -0.639990 0 0
    0 0.124555 -4.763028 -1.715089 -0.381595 -0.294630 -0.876115 0 0
  phy
    0 0.124555 -4.763028 -1.715089 -0.381595 -0.294630 -0.876115 0 0
    0 0.053754 -10.521056 4.071636 0.444929 0.626460 -0.639990 0 0
    0 -0.101119 -9.082265 3.207984 -0.381595 -0.294630 -0.876115 0 0
  phy
    0 1.252444 -3.818415 4.899781 -0.002049 0.995167 0.098177 0 0
    0 0.447873 -3.847527 5.427286 -0.074187 0.993682 -0.084220 0 0
    0 0.602467 -10.498125 5.428844 -0.074187 0.993682 -0.084220 0 0
  phy
    0 0.602467 -10.498125 5.428844 -0.074187 0.993682 -0.084220 0 0
    0 0.447873 -3.847527 5.427286 -0.074187 0.993682 -0.084220 0 0
    0 0.053868 -10.520864 4.962457 -0.074187 0.993682 -0.084220 0 0
  phy
    0 -0.051696 -2.494786 -1.264144 -0.381595 -0.294630 -0.876115 0 0
    0 1.232724 -4.572723 -1.702346 -0.193931 0.980896 -0.015309 0 0
    0 0.124555 -4.763028 -1.715089 -0.381595 -0.294630 -0.876115 0 0
  phy
    0 1.232724 -4.572723 -1.702346 -0.193931 0.980896 -0.015309 0 0
    0 -0.051696 -2.494786 -1.264144 -0.381595 -0.294630 -0.876115 0 0
    0 0.653118 -2.088197 -1.194759 -0.193931 0.980896 -0.015309 0 0
  phy
    0 -0.051696 -2.494786 -1.264144 -0.381595 -0.294630 -0.876115 0 0
    0 0.124555 -4.763028 -1.715089 -0.381595 -0.294630 -0.876115 0 0
    0 -0.101119 -9.082265 3.207984 -0.381595 -0.294630 -0.876115 0 0
end
