// Created by Crowbar 0.29.0.0
version 1
nodes
  0 "HavanaDaydreamin" -1
  1 "ComeMonday" 0
  2 "CowboyInTheJungle" 0
  3 "Margaritaville" 0
  4 "TheyDontDanceLikeCarmenNoMore" 0
  5 "TheGoodFight" -1
  6 "SphereGizmo03" -1
  7 "Dummy04" 6
  8 "Bone24" 7
  9 "Bone25" 8
  10 "Bone26" 9
  11 "Bone43" 10
  12 "Bone44" 11
  13 "Bone45" 12
  14 "Bone27" 10
  15 "Bone28" 14
  16 "Bone29" 15
  17 "Bone31" 10
  18 "Bone32" 17
  19 "Bone33" 18
  20 "Bone35" 10
  21 "Bone36" 20
  22 "Bone37" 21
  23 "Bone39" 10
  24 "Bone40" 23
  25 "Bone41" 24
  26 "Dummy02" 6
  27 "Bone01" 26
  28 "Bone02" 27
  29 "Bone03" 28
  30 "Bone13" 29
  31 "Bone14" 30
  32 "Bone15" 31
  33 "Bone10" 29
  34 "Bone11" 33
  35 "Bone12" 34
  36 "Bone07" 29
  37 "Bone08" 36
  38 "Bone09" 37
  39 "Bone04" 29
  40 "Bone05" 39
  41 "Bone06" 40
  42 "Bone16" 29
  43 "Bone17" 42
  44 "Bone18" 43
end
skeleton
  time 0
    0 -7.385436 -4.828953 -8.493364 -0.323884 -0.190581 -2.168854
    1 0.000000 2.645919 0.075564 0.000000 0.000000 0.000000
    2 0.476084 -2.060261 1.444903 0.000000 0.000000 3.140500
    3 0.229091 5.068880 2.384721 0.000000 0.000000 0.000000
    4 0.000000 1.386027 0.596948 0.000000 0.000000 0.000000
    5 -3.205857 -7.826662 -8.884647 -0.323869 -0.190570 -2.168854
    6 0.206289 -0.316416 -0.215622 0.000000 0.000000 0.000000
    7 -13.836787 6.190171 -4.657045 -3.141592 1.439897 3.141592
    8 -0.003388 0.018329 -0.000001 -0.276606 -0.192322 -0.311832
    9 8.473082 -0.000001 -0.000001 -3.141592 0.000000 -1.861561
    10 8.737236 0.000003 0.000000 2.518463 0.566150 -0.959996
    11 0.740394 -1.124922 0.974274 -1.572761 -0.167899 0.032928
    12 1.693970 0.000000 0.000000 0.088732 -0.263870 -0.023922
    13 1.194236 0.000000 0.000000 -0.000874 0.002596 -0.007777
    14 3.077486 -0.881879 0.092652 -2.745214 0.060681 0.027237
    15 1.708897 0.000001 0.000000 0.000000 -0.082383 -0.024686
    16 0.954917 0.000000 0.000000 -0.004618 0.406733 0.003351
    17 3.057266 -0.134123 0.063502 -2.447781 -0.771453 -0.050986
    18 1.803337 0.000000 0.000000 3.141592 0.770701 -3.128522
    19 1.060696 0.000000 0.000000 -0.005760 0.132075 -0.044206
    20 3.080836 0.608362 0.166303 -2.270358 -0.901982 -0.166783
    21 1.709264 0.000000 0.000000 3.136208 1.076529 3.121940
    22 0.884620 -0.000001 0.000000 -0.043415 0.502648 -0.049954
    23 3.080836 1.362635 0.248058 -2.103305 -0.835477 -0.355092
    24 1.190336 0.000000 0.000000 -0.003712 1.535791 -0.036537
    25 0.648630 -0.000001 0.000000 -0.008249 0.266042 0.004951
    26 9.468456 -1.389827 -7.064188 -3.141592 0.767945 3.141592
    27 -0.003387 0.018329 0.000000 0.272333 0.274611 0.332886
    28 8.473082 -0.000001 0.000002 0.000000 0.000000 -1.496051
    29 8.737238 0.000001 0.000001 -0.378803 -0.359252 -0.542516
    30 3.169858 1.366647 -0.189203 -0.283762 0.879803 0.336594
    31 1.060754 0.000037 0.000001 0.002208 1.563037 0.027202
    32 0.719018 -0.000002 0.000001 0.000000 0.146909 -0.016343
    33 3.383820 0.671293 0.018296 -0.156708 0.706252 0.514881
    34 1.461449 -0.000001 0.000001 -3.141592 1.470726 3.133528
    35 0.848556 0.000001 0.000000 0.001021 0.049505 0.021383
    36 3.496453 -0.114845 0.068540 -0.110468 0.511808 0.494943
    37 1.466716 -0.000002 0.000002 -0.000025 1.563472 0.000008
    38 1.000036 -0.000001 0.000000 0.000000 0.104394 0.000000
    39 3.395900 -0.914873 0.005474 -0.082179 0.303787 0.413166
    40 1.533478 0.000002 0.000002 0.006036 1.504506 0.025545
    41 0.933959 0.000002 -0.000001 0.005031 0.251403 0.017241
    42 0.789901 -0.963112 -0.860479 -0.263813 -0.008924 -0.322157
    43 1.873061 -0.000034 0.000002 -0.006505 0.021885 -0.021357
    44 1.217062 0.000001 0.000001 0.011345 0.001903 -0.233271
  time 1
    0 -7.385436 -4.828953 -8.493364 -0.323884 -0.190581 -2.168854
    1 0.000000 2.645919 0.075564 0.000000 0.000000 0.000000
    2 0.476084 -2.060261 1.444903 0.000000 0.000000 3.140500
    3 0.229091 5.068880 2.384721 0.000000 0.000000 0.000000
    4 0.000000 1.386027 0.596948 0.000000 0.000000 0.000000
    5 -3.205857 -7.826662 -8.884647 -0.323869 -0.190570 -2.168854
    6 0.206289 -0.316416 -0.215622 0.000000 0.000000 0.000000
    7 -13.836787 6.190171 -4.657045 -3.141592 1.439897 3.141592
    8 -0.003388 0.018329 -0.000001 -0.276606 -0.192322 -0.311832
    9 8.473082 -0.000001 -0.000001 -3.141592 0.000000 -1.861561
    10 8.737236 0.000003 0.000000 2.518463 0.566150 -0.959996
    11 0.740394 -1.124922 0.974274 -1.572761 -0.167899 0.032928
    12 1.693970 0.000000 0.000000 0.088732 -0.263870 -0.023922
    13 1.194236 0.000000 0.000000 -0.000874 0.002596 -0.007777
    14 3.077486 -0.881879 0.092652 -2.745214 0.060681 0.027237
    15 1.708897 0.000001 0.000000 0.000000 -0.082383 -0.024686
    16 0.954917 0.000000 0.000000 -0.004618 0.406733 0.003351
    17 3.057266 -0.134123 0.063502 -2.447781 -0.771453 -0.050986
    18 1.803337 0.000000 0.000000 3.141592 0.770701 -3.128522
    19 1.060696 0.000000 0.000000 -0.005760 0.132075 -0.044206
    20 3.080836 0.608362 0.166303 -2.270358 -0.901982 -0.166783
    21 1.709264 0.000000 0.000000 3.136208 1.076529 3.121940
    22 0.884620 -0.000001 0.000000 -0.043415 0.502648 -0.049954
    23 3.080836 1.362635 0.248058 -2.103305 -0.835477 -0.355092
    24 1.190336 0.000000 0.000000 -0.003712 1.535791 -0.036537
    25 0.648630 -0.000001 0.000000 -0.008249 0.266042 0.004951
    26 9.468456 -1.389827 -7.064188 -3.141592 0.767945 3.141592
    27 -0.003387 0.018329 0.000000 0.272333 0.274611 0.332886
    28 8.473082 -0.000001 0.000002 0.000000 0.000000 -1.496051
    29 8.737238 0.000001 0.000001 -0.378803 -0.359252 -0.542516
    30 3.169858 1.366647 -0.189203 -0.283762 0.879803 0.336594
    31 1.060754 0.000037 0.000001 0.002208 1.563037 0.027202
    32 0.719018 -0.000002 0.000001 0.000000 0.146909 -0.016343
    33 3.383820 0.671293 0.018296 -0.156708 0.706252 0.514881
    34 1.461449 -0.000001 0.000001 -3.141592 1.470726 3.133528
    35 0.848556 0.000001 0.000000 0.001021 0.049505 0.021383
    36 3.496453 -0.114845 0.068540 -0.110468 0.511808 0.494943
    37 1.466716 -0.000002 0.000002 -0.000025 1.563472 0.000008
    38 1.000036 -0.000001 0.000000 0.000000 0.104394 0.000000
    39 3.395900 -0.914873 0.005474 -0.082179 0.303787 0.413166
    40 1.533478 0.000002 0.000002 0.006036 1.504506 0.025545
    41 0.933959 0.000002 -0.000001 0.005031 0.251403 0.017241
    42 0.789901 -0.963112 -0.860479 -0.263813 -0.008924 -0.322157
    43 1.873061 -0.000034 0.000002 -0.006505 0.021885 -0.021357
    44 1.217062 0.000001 0.000001 0.011345 0.001903 -0.233271
  time 2
    0 -7.369810 -4.852391 -8.454301 -0.321463 -0.188893 -2.176384
    1 0.000000 2.645919 0.075564 0.000000 0.000000 0.000000
    2 0.476084 -2.060261 1.444903 0.000000 0.000000 3.140500
    3 0.229091 5.068880 2.384721 0.000000 0.000000 0.000000
    4 0.000000 1.386027 0.596948 0.000000 0.000000 0.000000
    5 -3.213669 -7.885258 -8.833864 -0.321456 -0.188907 -2.176384
    6 0.206289 -0.316416 -0.215622 0.000000 0.000000 0.000000
    7 -13.836787 6.190171 -4.657045 -3.141592 1.439897 3.141592
    8 -0.003388 0.018329 -0.000001 -0.278308 -0.193334 -0.314463
    9 8.473082 -0.000001 -0.000001 -3.141592 0.000000 -1.862090
    10 8.737236 0.000003 0.000000 2.525820 0.558511 -0.958677
    11 0.740394 -1.124922 0.974274 -1.572761 -0.167899 0.032928
    12 1.693970 0.000000 0.000000 0.088732 -0.263870 -0.023922
    13 1.194236 0.000000 0.000000 -0.000874 0.002596 -0.007777
    14 3.077486 -0.881879 0.092652 -2.745214 0.060681 0.027237
    15 1.708897 0.000001 0.000000 0.000000 -0.082383 -0.024686
    16 0.954917 0.000000 0.000000 -0.004618 0.406733 0.003351
    17 3.057266 -0.134123 0.063502 -2.447781 -0.771453 -0.050986
    18 1.803337 0.000000 0.000000 3.141592 0.770701 -3.128522
    19 1.060696 0.000000 0.000000 -0.005760 0.132075 -0.044206
    20 3.080836 0.608362 0.166303 -2.270358 -0.901982 -0.166783
    21 1.709264 0.000000 0.000000 3.136208 1.076529 3.121940
    22 0.884620 -0.000001 0.000000 -0.043415 0.502648 -0.049954
    23 3.080836 1.362635 0.248058 -2.103305 -0.835477 -0.355092
    24 1.190336 0.000000 0.000000 -0.003712 1.535791 -0.036537
    25 0.648630 -0.000001 0.000000 -0.008249 0.266042 0.004951
    26 9.468456 -1.389827 -7.064188 -3.141592 0.767945 3.141592
    27 -0.003387 0.018329 0.000000 0.274459 0.276869 0.326266
    28 8.473082 -0.000001 0.000002 0.000000 0.000000 -1.495169
    29 8.737238 0.000001 0.000001 -0.375109 -0.359485 -0.531089
    30 3.169858 1.366647 -0.189203 -0.283762 0.879803 0.336594
    31 1.060754 0.000037 0.000001 0.002196 1.563037 0.027214
    32 0.719018 -0.000002 0.000001 0.000000 0.146909 -0.016343
    33 3.383820 0.671293 0.018296 -0.156708 0.706252 0.514881
    34 1.461449 -0.000001 0.000001 -3.141592 1.470726 3.133528
    35 0.848556 0.000001 0.000000 0.001021 0.049505 0.021383
    36 3.496453 -0.114845 0.068540 -0.110468 0.511808 0.494943
    37 1.466716 -0.000002 0.000002 -0.000025 1.563472 0.000008
    38 1.000036 -0.000001 0.000000 0.000000 0.104394 0.000000
    39 3.395900 -0.914873 0.005474 -0.082179 0.303787 0.413166
    40 1.533478 0.000002 0.000002 0.006036 1.504506 0.025545
    41 0.933959 0.000002 -0.000001 0.005031 0.251403 0.017241
    42 0.789901 -0.963112 -0.860479 -0.263813 -0.008924 -0.322157
    43 1.873061 -0.000034 0.000002 -0.006505 0.021885 -0.021357
    44 1.217062 0.000001 0.000001 0.011345 0.001903 -0.233271
  time 3
    0 -7.338559 -4.899268 -8.360548 -0.315890 -0.184972 -2.193850
    1 0.000000 2.645919 0.075564 0.000000 0.000000 0.000000
    2 0.476084 -2.060261 1.444903 0.000000 0.000000 3.140500
    3 0.229091 5.068880 2.384721 0.000000 0.000000 0.000000
    4 0.000000 1.386027 0.596948 0.000000 0.000000 0.000000
    5 -3.225389 -8.002449 -8.708860 -0.315883 -0.184960 -2.193850
    6 0.206289 -0.316416 -0.215622 0.000000 0.000000 0.000000
    7 -13.836787 6.190171 -4.657045 -3.141592 1.439897 3.141592
    8 -0.003388 0.018329 -0.000001 -0.282371 -0.195856 -0.321115
    9 8.473082 -0.000001 -0.000001 -3.141592 0.000000 -1.862833
    10 8.737236 0.000003 0.000000 2.542788 0.540619 -0.956017
    11 0.740394 -1.124922 0.974274 -1.572761 -0.167899 0.032928
    12 1.693970 0.000000 0.000000 0.088732 -0.263870 -0.023922
    13 1.194236 0.000000 0.000000 -0.000874 0.002596 -0.007777
    14 3.077486 -0.881879 0.092652 -2.745214 0.060681 0.027237
    15 1.708897 0.000001 0.000000 0.000000 -0.082383 -0.024686
    16 0.954917 0.000000 0.000000 -0.004618 0.406733 0.003351
    17 3.057266 -0.134123 0.063502 -2.447781 -0.771453 -0.050986
    18 1.803337 0.000000 0.000000 3.141592 0.770701 -3.128522
    19 1.060696 0.000000 0.000000 -0.005760 0.132075 -0.044206
    20 3.080836 0.608362 0.166303 -2.270358 -0.901982 -0.166783
    21 1.709264 0.000000 0.000000 3.136208 1.076529 3.121940
    22 0.884620 -0.000001 0.000000 -0.043415 0.502648 -0.049954
    23 3.080836 1.362635 0.248058 -2.103305 -0.835477 -0.355092
    24 1.190336 0.000000 0.000000 -0.003712 1.535791 -0.036537
    25 0.648630 -0.000001 0.000000 -0.008249 0.266042 0.004951
    26 9.468456 -1.389827 -7.064188 -3.141592 0.767945 3.141592
    27 -0.003387 0.018329 0.000000 0.279381 0.282093 0.310479
    28 8.473082 -0.000001 0.000002 0.000000 0.000000 -1.492694
    29 8.737238 0.000001 0.000001 -0.366714 -0.360417 -0.504473
    30 3.169858 1.366647 -0.189203 -0.283762 0.879803 0.336594
    31 1.060754 0.000037 0.000001 0.002208 1.563037 0.027190
    32 0.719018 -0.000002 0.000001 0.000000 0.146909 -0.016343
    33 3.383820 0.671293 0.018296 -0.156708 0.706252 0.514881
    34 1.461449 -0.000001 0.000001 -3.141592 1.470726 3.133528
    35 0.848556 0.000001 0.000000 0.001021 0.049505 0.021383
    36 3.496453 -0.114845 0.068540 -0.110468 0.511808 0.494943
    37 1.466716 -0.000002 0.000002 -0.000025 1.563472 0.000008
    38 1.000036 -0.000001 0.000000 0.000000 0.104394 0.000000
    39 3.395900 -0.914873 0.005474 -0.082179 0.303787 0.413166
    40 1.533478 0.000002 0.000002 0.006036 1.504506 0.025545
    41 0.933959 0.000002 -0.000001 0.005031 0.251403 0.017241
    42 0.789901 -0.963112 -0.860479 -0.263813 -0.008924 -0.322157
    43 1.873061 -0.000034 0.000002 -0.006505 0.021885 -0.021357
    44 1.217062 0.000001 0.000001 0.011345 0.001903 -0.233271
  time 4
    0 -7.283870 -4.985208 -8.219918 -0.307501 -0.179013 -2.220165
    1 0.000000 2.645919 0.075564 0.000000 0.000000 0.000000
    2 0.476084 -2.060261 1.444903 0.000000 0.000000 3.140500
    3 0.229091 5.068880 2.384721 0.000000 0.000000 0.000000
    4 0.000000 1.386027 0.596948 0.000000 0.000000 0.000000
    5 -3.248827 -8.182142 -8.529167 -0.307482 -0.179010 -2.220165
    6 0.206289 -0.316416 -0.215622 0.000000 0.000000 0.000000
    7 -13.836787 6.190171 -4.657045 -3.141592 1.439897 3.141592
    8 -0.003388 0.018329 -0.000001 -0.288843 -0.199987 -0.331528
    9 8.473082 -0.000001 -0.000001 -3.141592 0.000000 -1.863411
    10 8.737236 0.000003 0.000000 2.567807 0.512763 -0.952373
    11 0.740394 -1.124922 0.974274 -1.572761 -0.167899 0.032928
    12 1.693970 0.000000 0.000000 0.088732 -0.263870 -0.023922
    13 1.194236 0.000000 0.000000 -0.000874 0.002596 -0.007777
    14 3.077486 -0.881879 0.092652 -2.745214 0.060681 0.027237
    15 1.708897 0.000001 0.000000 0.000000 -0.082383 -0.024686
    16 0.954917 0.000000 0.000000 -0.004618 0.406733 0.003351
    17 3.057266 -0.134123 0.063502 -2.447781 -0.771453 -0.050986
    18 1.803337 0.000000 0.000000 3.141592 0.770701 -3.128522
    19 1.060696 0.000000 0.000000 -0.005760 0.132075 -0.044206
    20 3.080836 0.608362 0.166303 -2.270358 -0.901982 -0.166783
    21 1.709264 0.000000 0.000000 3.136208 1.076529 3.121940
    22 0.884620 -0.000001 0.000000 -0.043415 0.502648 -0.049954
    23 3.080836 1.362635 0.248058 -2.103305 -0.835477 -0.355092
    24 1.190336 0.000000 0.000000 -0.003712 1.535791 -0.036537
    25 0.648630 -0.000001 0.000000 -0.008249 0.266042 0.004951
    26 9.468456 -1.389827 -7.064188 -3.141592 0.767945 3.141592
    27 -0.003387 0.018329 0.000000 0.286480 0.290062 0.285943
    28 8.473082 -0.000001 0.000002 0.000000 0.000000 -1.487858
    29 8.737238 0.000001 0.000001 -0.354877 -0.362225 -0.464449
    30 3.169858 1.366647 -0.189203 -0.283762 0.879803 0.336594
    31 1.060754 0.000037 0.000001 0.002196 1.563037 0.027202
    32 0.719018 -0.000002 0.000001 0.000000 0.146909 -0.016343
    33 3.383820 0.671293 0.018296 -0.156708 0.706252 0.514881
    34 1.461449 -0.000001 0.000001 -3.141592 1.470726 3.133528
    35 0.848556 0.000001 0.000000 0.001021 0.049505 0.021383
    36 3.496453 -0.114845 0.068540 -0.110468 0.511808 0.494943
    37 1.466716 -0.000002 0.000002 -0.000025 1.563472 0.000008
    38 1.000036 -0.000001 0.000000 0.000000 0.104394 0.000000
    39 3.395900 -0.914873 0.005474 -0.082179 0.303787 0.413166
    40 1.533478 0.000002 0.000002 0.006036 1.504506 0.025545
    41 0.933959 0.000002 -0.000001 0.005031 0.251403 0.017241
    42 0.789901 -0.963112 -0.860479 -0.263813 -0.008924 -0.322157
    43 1.873061 -0.000034 0.000002 -0.006505 0.021885 -0.021357
    44 1.217062 0.000001 0.000001 0.011345 0.001903 -0.233271
  time 5
    0 -7.205743 -5.090680 -8.036319 -0.296607 -0.171269 -2.254321
    1 0.000000 2.645919 0.075564 0.000000 0.000000 0.000000
    2 0.476084 -2.060261 1.444903 0.000000 0.000000 3.140500
    3 0.229091 5.068880 2.384721 0.000000 0.000000 0.000000
    4 0.000000 1.386027 0.596948 0.000000 0.000000 0.000000
    5 -3.272265 -8.416524 -8.290879 -0.296595 -0.171265 -2.254321
    6 0.206289 -0.316416 -0.215622 0.000000 0.000000 0.000000
    7 -13.836787 6.190171 -4.657045 -3.141592 1.439897 3.141592
    8 -0.003388 0.018329 -0.000001 -0.297915 -0.205958 -0.345465
    9 8.473082 -0.000001 -0.000001 -3.141592 0.000000 -1.863147
    10 8.737236 0.000003 0.000000 2.599208 0.475360 -0.948275
    11 0.740394 -1.124922 0.974274 -1.572761 -0.167899 0.032928
    12 1.693970 0.000000 0.000000 0.088732 -0.263870 -0.023922
    13 1.194236 0.000000 0.000000 -0.000874 0.002596 -0.007777
    14 3.077486 -0.881879 0.092652 -2.745214 0.060681 0.027237
    15 1.708897 0.000001 0.000000 0.000000 -0.082383 -0.024686
    16 0.954917 0.000000 0.000000 -0.004618 0.406733 0.003351
    17 3.057266 -0.134123 0.063502 -2.447781 -0.771453 -0.050986
    18 1.803337 0.000000 0.000000 3.141592 0.770701 -3.128522
    19 1.060696 0.000000 0.000000 -0.005760 0.132075 -0.044206
    20 3.080836 0.608362 0.166303 -2.270358 -0.901982 -0.166783
    21 1.709264 0.000000 0.000000 3.136208 1.076529 3.121940
    22 0.884620 -0.000001 0.000000 -0.043415 0.502648 -0.049954
    23 3.080836 1.362635 0.248058 -2.103305 -0.835477 -0.355092
    24 1.190336 0.000000 0.000000 -0.003712 1.535791 -0.036537
    25 0.648630 -0.000001 0.000000 -0.008249 0.266042 0.004951
    26 9.468456 -1.389827 -7.064188 -3.141592 0.767945 3.141592
    27 -0.003387 0.018329 0.000000 0.295060 0.300422 0.253076
    28 8.473082 -0.000001 0.000002 0.000000 0.000000 -1.479637
    29 8.737238 0.000001 0.000001 -0.341068 -0.365081 -0.413026
    30 3.169858 1.366647 -0.189203 -0.283762 0.879803 0.336594
    31 1.060754 0.000037 0.000001 0.002196 1.563037 0.027202
    32 0.719018 -0.000002 0.000001 0.000000 0.146909 -0.016343
    33 3.383820 0.671293 0.018296 -0.156708 0.706252 0.514881
    34 1.461449 -0.000001 0.000001 -3.141592 1.470726 3.133528
    35 0.848556 0.000001 0.000000 0.001021 0.049505 0.021383
    36 3.496453 -0.114845 0.068540 -0.110468 0.511808 0.494943
    37 1.466716 -0.000002 0.000002 -0.000025 1.563472 0.000008
    38 1.000036 -0.000001 0.000000 0.000000 0.104394 0.000000
    39 3.395900 -0.914873 0.005474 -0.082179 0.303787 0.413166
    40 1.533478 0.000002 0.000002 0.006036 1.504506 0.025545
    41 0.933959 0.000002 -0.000001 0.005031 0.251403 0.017241
    42 0.789901 -0.963112 -0.860479 -0.263813 -0.008924 -0.322157
    43 1.873061 -0.000034 0.000002 -0.006505 0.021885 -0.021357
    44 1.217062 0.000001 0.000001 0.011345 0.001903 -0.233271
  time 6
    0 -7.104177 -5.211777 -7.817562 -0.283555 -0.161972 -2.295309
    1 0.000000 2.645919 0.075564 0.000000 0.000000 0.000000
    2 0.476084 -2.060261 1.444903 0.000000 0.000000 3.140500
    3 0.229091 5.068880 2.384721 0.000000 0.000000 0.000000
    4 0.000000 1.386027 0.596948 0.000000 0.000000 0.000000
    5 -3.299610 -8.689970 -8.005714 -0.283568 -0.161972 -2.295309
    6 0.206289 -0.316416 -0.215622 0.000000 0.000000 0.000000
    7 -13.836787 6.190171 -4.657045 -3.141592 1.439897 3.141592
    8 -0.003388 0.018329 -0.000001 -0.309672 -0.214024 -0.362814
    9 8.473082 -0.000001 -0.000001 -3.141592 0.000000 -1.861281
    10 8.737236 0.000003 0.000000 2.635357 0.428450 -0.944056
    11 0.740394 -1.124922 0.974274 -1.572761 -0.167899 0.032928
    12 1.693970 0.000000 0.000000 0.088732 -0.263870 -0.023922
    13 1.194236 0.000000 0.000000 -0.000874 0.002596 -0.007777
    14 3.077486 -0.881879 0.092652 -2.745214 0.060681 0.027237
    15 1.708897 0.000001 0.000000 0.000000 -0.082383 -0.024686
    16 0.954917 0.000000 0.000000 -0.004618 0.406733 0.003351
    17 3.057266 -0.134123 0.063502 -2.447781 -0.771453 -0.050986
    18 1.803337 0.000000 0.000000 3.141592 0.770701 -3.128522
    19 1.060696 0.000000 0.000000 -0.005760 0.132075 -0.044206
    20 3.080836 0.608362 0.166303 -2.270358 -0.901982 -0.166783
    21 1.709264 0.000000 0.000000 3.136208 1.076529 3.121940
    22 0.884620 -0.000001 0.000000 -0.043415 0.502648 -0.049954
    23 3.080836 1.362635 0.248058 -2.103305 -0.835477 -0.355092
    24 1.190336 0.000000 0.000000 -0.003712 1.535791 -0.036537
    25 0.648630 -0.000001 0.000000 -0.008249 0.266042 0.004951
    26 9.468456 -1.389827 -7.064188 -3.141592 0.767945 3.141592
    27 -0.003387 0.018329 0.000000 0.304350 0.312885 0.212106
    28 8.473082 -0.000001 0.000002 0.000000 0.000000 -1.466808
    29 8.737238 0.000001 0.000001 -0.327006 -0.369007 -0.352128
    30 3.169858 1.366647 -0.189203 -0.283762 0.879803 0.336594
    31 1.060754 0.000037 0.000001 0.002196 1.563037 0.027202
    32 0.719018 -0.000002 0.000001 0.000000 0.146909 -0.016343
    33 3.383820 0.671293 0.018296 -0.156708 0.706252 0.514881
    34 1.461449 -0.000001 0.000001 -3.141592 1.470726 3.133528
    35 0.848556 0.000001 0.000000 0.001021 0.049505 0.021383
    36 3.496453 -0.114845 0.068540 -0.110468 0.511808 0.494943
    37 1.466716 -0.000002 0.000002 -0.000025 1.563472 0.000008
    38 1.000036 -0.000001 0.000000 0.000000 0.104394 0.000000
    39 3.395900 -0.914873 0.005474 -0.082179 0.303787 0.413166
    40 1.533478 0.000002 0.000002 0.006036 1.504506 0.025545
    41 0.933959 0.000002 -0.000001 0.005031 0.251403 0.017241
    42 0.789901 -0.963112 -0.860479 -0.263813 -0.008924 -0.322157
    43 1.873061 -0.000034 0.000002 -0.006505 0.021885 -0.021357
    44 1.217062 0.000001 0.000001 0.011345 0.001903 -0.233271
  time 7
    0 -6.975267 -5.352407 -7.575367 -0.268707 -0.151374 -2.341963
    1 0.000000 2.645919 0.075564 0.000000 0.000000 0.000000
    2 0.476084 -2.060261 1.444903 0.000000 0.000000 3.140500
    3 0.229091 5.068880 2.384721 0.000000 0.000000 0.000000
    4 0.000000 1.386027 0.596948 0.000000 0.000000 0.000000
    5 -3.323048 -8.998573 -7.689298 -0.268703 -0.151375 -2.341963
    6 0.206289 -0.316416 -0.215622 0.000000 0.000000 0.000000
    7 -13.836787 6.190171 -4.657045 -3.141592 1.439897 3.141592
    8 -0.003388 0.018329 -0.000001 -0.324149 -0.224443 -0.383552
    9 8.473082 -0.000001 -0.000001 -3.141592 0.000000 -1.856822
    10 8.737236 0.000003 0.000000 2.674735 0.372655 -0.939981
    11 0.740394 -1.124922 0.974274 -1.572761 -0.167899 0.032928
    12 1.693970 0.000000 0.000000 0.088732 -0.263870 -0.023922
    13 1.194236 0.000000 0.000000 -0.000874 0.002596 -0.007777
    14 3.077486 -0.881879 0.092652 -2.745214 0.060681 0.027237
    15 1.708897 0.000001 0.000000 0.000000 -0.082383 -0.024686
    16 0.954917 0.000000 0.000000 -0.004618 0.406733 0.003351
    17 3.057266 -0.134123 0.063502 -2.447781 -0.771453 -0.050986
    18 1.803337 0.000000 0.000000 3.141592 0.770701 -3.128522
    19 1.060696 0.000000 0.000000 -0.005760 0.132075 -0.044206
    20 3.080836 0.608362 0.166303 -2.270358 -0.901982 -0.166783
    21 1.709264 0.000000 0.000000 3.136208 1.076529 3.121940
    22 0.884620 -0.000001 0.000000 -0.043415 0.502648 -0.049954
    23 3.080836 1.362635 0.248058 -2.103305 -0.835477 -0.355092
    24 1.190336 0.000000 0.000000 -0.003712 1.535791 -0.036537
    25 0.648630 -0.000001 0.000000 -0.008249 0.266042 0.004951
    26 9.468456 -1.389827 -7.064188 -3.141592 0.767945 3.141592
    27 -0.003387 0.018329 0.000000 0.313458 0.327096 0.163527
    28 8.473082 -0.000001 0.000002 0.000000 0.000000 -1.448261
    29 8.737238 0.000001 0.000001 -0.314330 -0.373593 -0.283794
    30 3.169858 1.366647 -0.189203 -0.283762 0.879803 0.336594
    31 1.060754 0.000037 0.000001 0.002196 1.563037 0.027214
    32 0.719018 -0.000002 0.000001 0.000000 0.146909 -0.016343
    33 3.383820 0.671293 0.018296 -0.156708 0.706252 0.514881
    34 1.461449 -0.000001 0.000001 -3.141592 1.470726 3.133528
    35 0.848556 0.000001 0.000000 0.001021 0.049505 0.021383
    36 3.496453 -0.114845 0.068540 -0.110468 0.511808 0.494943
    37 1.466716 -0.000002 0.000002 -0.000025 1.563472 0.000008
    38 1.000036 -0.000001 0.000000 0.000000 0.104394 0.000000
    39 3.395900 -0.914873 0.005474 -0.082179 0.303787 0.413166
    40 1.533478 0.000002 0.000002 0.006036 1.504506 0.025545
    41 0.933959 0.000002 -0.000001 0.005031 0.251403 0.017241
    42 0.789901 -0.963112 -0.860479 -0.263813 -0.008924 -0.322157
    43 1.873061 -0.000034 0.000002 -0.006505 0.021885 -0.021357
    44 1.217062 0.000001 0.000001 0.011345 0.001903 -0.233271
  time 8
    0 -6.815106 -5.508661 -7.309734 -0.252348 -0.139729 -2.393274
    1 0.000000 2.645919 0.075564 0.000000 0.000000 0.000000
    2 0.476084 -2.060261 1.444903 0.000000 0.000000 3.140500
    3 0.229091 5.068880 2.384721 0.000000 0.000000 0.000000
    4 0.000000 1.386027 0.596948 0.000000 0.000000 0.000000
    5 -3.346486 -9.326708 -7.337725 -0.252330 -0.139721 -2.393274
    6 0.206289 -0.316416 -0.215622 0.000000 0.000000 0.000000
    7 -13.836787 6.190171 -4.657045 -3.141592 1.439897 3.141592
    8 -0.003388 0.018329 -0.000001 -0.341215 -0.237433 -0.407616
    9 8.473082 -0.000001 -0.000001 -3.141592 0.000000 -1.848748
    10 8.737236 0.000003 0.000000 2.716046 0.308393 -0.936038
    11 0.740394 -1.124922 0.974274 -1.572761 -0.167899 0.032928
    12 1.693970 0.000000 0.000000 0.088732 -0.263870 -0.023922
    13 1.194236 0.000000 0.000000 -0.000874 0.002596 -0.007777
    14 3.077486 -0.881879 0.092652 -2.745214 0.060681 0.027237
    15 1.708897 0.000001 0.000000 0.000000 -0.082383 -0.024686
    16 0.954917 0.000000 0.000000 -0.004618 0.406733 0.003351
    17 3.057266 -0.134123 0.063502 -2.447781 -0.771453 -0.050986
    18 1.803337 0.000000 0.000000 3.141592 0.770701 -3.128522
    19 1.060696 0.000000 0.000000 -0.005760 0.132075 -0.044206
    20 3.080836 0.608362 0.166303 -2.270358 -0.901982 -0.166783
    21 1.709264 0.000000 0.000000 3.136208 1.076529 3.121940
    22 0.884620 -0.000001 0.000000 -0.043415 0.502648 -0.049954
    23 3.080836 1.362635 0.248058 -2.103305 -0.835477 -0.355092
    24 1.190336 0.000000 0.000000 -0.003712 1.535791 -0.036537
    25 0.648630 -0.000001 0.000000 -0.008249 0.266042 0.004951
    26 9.468456 -1.389827 -7.064188 -3.141592 0.767945 3.141592
    27 -0.003387 0.018329 0.000000 0.321524 0.342902 0.107721
    28 8.473082 -0.000001 0.000002 0.000000 0.000000 -1.422716
    29 8.737238 0.000001 0.000001 -0.304465 -0.378159 -0.210378
    30 3.169858 1.366647 -0.189203 -0.283762 0.879803 0.336594
    31 1.060754 0.000037 0.000001 0.002208 1.563037 0.027190
    32 0.719018 -0.000002 0.000001 0.000000 0.146909 -0.016343
    33 3.383820 0.671293 0.018296 -0.156708 0.706252 0.514881
    34 1.461449 -0.000001 0.000001 -3.141592 1.470726 3.133528
    35 0.848556 0.000001 0.000000 0.001021 0.049505 0.021383
    36 3.496453 -0.114845 0.068540 -0.110468 0.511808 0.494943
    37 1.466716 -0.000002 0.000002 -0.000025 1.563472 0.000008
    38 1.000036 -0.000001 0.000000 0.000000 0.104394 0.000000
    39 3.395900 -0.914873 0.005474 -0.082179 0.303787 0.413166
    40 1.533478 0.000002 0.000002 0.006036 1.504506 0.025545
    41 0.933959 0.000002 -0.000001 0.005031 0.251403 0.017241
    42 0.789901 -0.963112 -0.860479 -0.263813 -0.008924 -0.322157
    43 1.873061 -0.000034 0.000002 -0.006505 0.021885 -0.021357
    44 1.217062 0.000001 0.000001 0.011345 0.001903 -0.233271
  time 9
    0 -6.627600 -5.676635 -7.028476 -0.234802 -0.127229 -2.448234
    1 0.000000 2.645919 0.075564 0.000000 0.000000 0.000000
    2 0.476084 -2.060261 1.444903 0.000000 0.000000 3.140500
    3 0.229091 5.068880 2.384721 0.000000 0.000000 0.000000
    4 0.000000 1.386027 0.596948 0.000000 0.000000 0.000000
    5 -3.366018 -9.674375 -6.970526 -0.234794 -0.127235 -2.448234
    6 0.206289 -0.316416 -0.215622 0.000000 0.000000 0.000000
    7 -13.836787 6.190171 -4.657045 -3.141592 1.439897 3.141592
    8 -0.003388 0.018329 -0.000001 -0.360474 -0.253152 -0.434982
    9 8.473082 -0.000001 -0.000001 -3.141592 0.000000 -1.835852
    10 8.737236 0.000003 0.000000 2.758164 0.236782 -0.932048
    11 0.740394 -1.124922 0.974274 -1.572761 -0.167899 0.032928
    12 1.693970 0.000000 0.000000 0.088732 -0.263870 -0.023922
    13 1.194236 0.000000 0.000000 -0.000874 0.002596 -0.007777
    14 3.077486 -0.881879 0.092652 -2.745214 0.060681 0.027237
    15 1.708897 0.000001 0.000000 0.000000 -0.082383 -0.024686
    16 0.954917 0.000000 0.000000 -0.004618 0.406733 0.003351
    17 3.057266 -0.134123 0.063502 -2.447781 -0.771453 -0.050986
    18 1.803337 0.000000 0.000000 3.141592 0.770701 -3.128522
    19 1.060696 0.000000 0.000000 -0.005760 0.132075 -0.044206
    20 3.080836 0.608362 0.166303 -2.270358 -0.901982 -0.166783
    21 1.709264 0.000000 0.000000 3.136208 1.076529 3.121940
    22 0.884620 -0.000001 0.000000 -0.043415 0.502648 -0.049954
    23 3.080836 1.362635 0.248058 -2.103305 -0.835477 -0.355092
    24 1.190336 0.000000 0.000000 -0.003712 1.535791 -0.036537
    25 0.648630 -0.000001 0.000000 -0.008249 0.266042 0.004951
    26 9.468456 -1.389827 -7.064188 -3.141592 0.767945 3.141592
    27 -0.003387 0.018329 0.000000 0.327798 0.359836 0.045791
    28 8.473082 -0.000001 0.000002 0.000000 0.000000 -1.390173
    29 8.737238 0.000001 0.000001 -0.298463 -0.381579 -0.133861
    30 3.169858 1.366647 -0.189203 -0.283762 0.879803 0.336594
    31 1.060754 0.000037 0.000001 0.002196 1.563037 0.027190
    32 0.719018 -0.000002 0.000001 0.000000 0.146909 -0.016343
    33 3.383820 0.671293 0.018296 -0.156708 0.706252 0.514881
    34 1.461449 -0.000001 0.000001 -3.141592 1.470726 3.133528
    35 0.848556 0.000001 0.000000 0.001021 0.049505 0.021383
    36 3.496453 -0.114845 0.068540 -0.110468 0.511808 0.494943
    37 1.466716 -0.000002 0.000002 -0.000025 1.563472 0.000008
    38 1.000036 -0.000001 0.000000 0.000000 0.104394 0.000000
    39 3.395900 -0.914873 0.005474 -0.082179 0.303787 0.413166
    40 1.533478 0.000002 0.000002 0.006036 1.504506 0.025545
    41 0.933959 0.000002 -0.000001 0.005031 0.251403 0.017241
    42 0.789901 -0.963112 -0.860479 -0.263813 -0.008924 -0.322157
    43 1.873061 -0.000034 0.000002 -0.006505 0.021885 -0.021357
    44 1.217062 0.000001 0.000001 0.011345 0.001903 -0.233271
  time 10
    0 -6.408843 -5.852422 -6.743311 -0.216418 -0.114166 -2.505834
    1 0.000000 2.645919 0.075564 0.000000 0.000000 0.000000
    2 0.476084 -2.060261 1.444903 0.000000 0.000000 3.140500
    3 0.229091 5.068880 2.384721 0.000000 0.000000 0.000000
    4 0.000000 1.386027 0.596948 0.000000 0.000000 0.000000
    5 -3.377737 -10.025948 -6.587702 -0.216410 -0.114183 -2.505834
    6 0.206289 -0.316416 -0.215622 0.000000 0.000000 0.000000
    7 -13.836787 6.190171 -4.657045 -3.141592 1.439897 3.141592
    8 -0.003388 0.018329 -0.000001 -0.381292 -0.271650 -0.465598
    9 8.473082 -0.000001 -0.000001 -3.141592 0.000000 -1.817160
    10 8.737236 0.000003 0.000000 2.800225 0.158986 -0.927541
    11 0.740394 -1.124922 0.974274 -1.572761 -0.167899 0.032928
    12 1.693970 0.000000 0.000000 0.088732 -0.263870 -0.023922
    13 1.194236 0.000000 0.000000 -0.000874 0.002596 -0.007777
    14 3.077486 -0.881879 0.092652 -2.745214 0.060681 0.027237
    15 1.708897 0.000001 0.000000 0.000000 -0.082383 -0.024686
    16 0.954917 0.000000 0.000000 -0.004618 0.406733 0.003351
    17 3.057266 -0.134123 0.063502 -2.447781 -0.771453 -0.050986
    18 1.803337 0.000000 0.000000 3.141592 0.770701 -3.128522
    19 1.060696 0.000000 0.000000 -0.005760 0.132075 -0.044206
    20 3.080836 0.608362 0.166303 -2.270358 -0.901982 -0.166783
    21 1.709264 0.000000 0.000000 3.136208 1.076529 3.121940
    22 0.884620 -0.000001 0.000000 -0.043415 0.502648 -0.049954
    23 3.080836 1.362635 0.248058 -2.103305 -0.835477 -0.355092
    24 1.190336 0.000000 0.000000 -0.003712 1.535791 -0.036537
    25 0.648630 -0.000001 0.000000 -0.008249 0.266042 0.004951
    26 9.468456 -1.389827 -7.064188 -3.141592 0.767945 3.141592
    27 -0.003387 0.018329 0.000000 0.331367 0.377766 -0.021960
    28 8.473082 -0.000001 0.000002 0.000000 0.000000 -1.348926
    29 8.737238 0.000001 0.000001 -0.296700 -0.382648 -0.057143
    30 3.169858 1.366647 -0.189203 -0.283762 0.879803 0.336594
    31 1.060754 0.000037 0.000001 0.002196 1.563037 0.027202
    32 0.719018 -0.000002 0.000001 0.000000 0.146909 -0.016343
    33 3.383820 0.671293 0.018296 -0.156708 0.706252 0.514881
    34 1.461449 -0.000001 0.000001 -3.141592 1.470726 3.133528
    35 0.848556 0.000001 0.000000 0.001021 0.049505 0.021383
    36 3.496453 -0.114845 0.068540 -0.110468 0.511808 0.494943
    37 1.466716 -0.000002 0.000002 -0.000025 1.563472 0.000008
    38 1.000036 -0.000001 0.000000 0.000000 0.104394 0.000000
    39 3.395900 -0.914873 0.005474 -0.082179 0.303787 0.413166
    40 1.533478 0.000002 0.000002 0.006036 1.504506 0.025545
    41 0.933959 0.000002 -0.000001 0.005031 0.251403 0.017241
    42 0.789901 -0.963112 -0.860479 -0.263813 -0.008924 -0.322157
    43 1.873061 -0.000034 0.000002 -0.006505 0.021885 -0.021357
    44 1.217062 0.000001 0.000001 0.011345 0.001903 -0.233271
  time 11
    0 -6.162742 -6.039928 -6.454239 -0.197470 -0.100774 -2.564986
    1 0.000000 2.645919 0.075564 0.000000 0.000000 0.000000
    2 0.476084 -2.060261 1.444903 0.000000 0.000000 3.140500
    3 0.229091 5.068880 2.384721 0.000000 0.000000 0.000000
    4 0.000000 1.386027 0.596948 0.000000 0.000000 0.000000
    5 -3.377737 -10.373615 -6.204878 -0.197481 -0.100772 -2.564986
    6 0.206289 -0.316416 -0.215622 0.000000 0.000000 0.000000
    7 -13.836787 6.190171 -4.657045 -3.141592 1.439897 3.141592
    8 -0.003388 0.018329 -0.000001 -0.402876 -0.292682 -0.498772
    9 8.473082 -0.000001 -0.000001 -3.141592 0.000000 -1.792639
    10 8.737236 0.000003 0.000000 2.841499 0.076789 -0.922508
    11 0.740394 -1.124922 0.974274 -1.572761 -0.167899 0.032928
    12 1.693970 0.000000 0.000000 0.088732 -0.263870 -0.023922
    13 1.194236 0.000000 0.000000 -0.000874 0.002596 -0.007777
    14 3.077486 -0.881879 0.092652 -2.745214 0.060681 0.027237
    15 1.708897 0.000001 0.000000 0.000000 -0.082383 -0.024686
    16 0.954917 0.000000 0.000000 -0.004618 0.406733 0.003351
    17 3.057266 -0.134123 0.063502 -2.447781 -0.771453 -0.050986
    18 1.803337 0.000000 0.000000 3.141592 0.770701 -3.128522
    19 1.060696 0.000000 0.000000 -0.005760 0.132075 -0.044206
    20 3.080836 0.608362 0.166303 -2.270358 -0.901982 -0.166783
    21 1.709264 0.000000 0.000000 3.136208 1.076529 3.121940
    22 0.884620 -0.000001 0.000000 -0.043415 0.502648 -0.049954
    23 3.080836 1.362635 0.248058 -2.103305 -0.835477 -0.355092
    24 1.190336 0.000000 0.000000 -0.003712 1.535791 -0.036537
    25 0.648630 -0.000001 0.000000 -0.008249 0.266042 0.004951
    26 9.468456 -1.389827 -7.064188 -3.141592 0.767945 3.141592
    27 -0.003387 0.018329 0.000000 0.332191 0.395962 -0.093097
    28 8.473082 -0.000001 0.000002 0.000000 0.000000 -1.301648
    29 8.737238 0.000001 0.000001 -0.299051 -0.380122 0.018685
    30 3.169858 1.366647 -0.189203 -0.283762 0.879803 0.336594
    31 1.060754 0.000037 0.000001 0.002196 1.563037 0.027202
    32 0.719018 -0.000002 0.000001 0.000000 0.146909 -0.016343
    33 3.383820 0.671293 0.018296 -0.156708 0.706252 0.514881
    34 1.461449 -0.000001 0.000001 -3.141592 1.470726 3.133528
    35 0.848556 0.000001 0.000000 0.001021 0.049505 0.021383
    36 3.496453 -0.114845 0.068540 -0.110468 0.511808 0.494943
    37 1.466716 -0.000002 0.000002 -0.000025 1.563472 0.000008
    38 1.000036 -0.000001 0.000000 0.000000 0.104394 0.000000
    39 3.395900 -0.914873 0.005474 -0.082179 0.303787 0.413166
    40 1.533478 0.000002 0.000002 0.006036 1.504506 0.025545
    41 0.933959 0.000002 -0.000001 0.005031 0.251403 0.017241
    42 0.789901 -0.963112 -0.860479 -0.263813 -0.008924 -0.322157
    43 1.873061 -0.000034 0.000002 -0.006505 0.021885 -0.021357
    44 1.217062 0.000001 0.000001 0.011345 0.001903 -0.233271
  time 12
    0 -5.897109 -6.231340 -6.169075 -0.178319 -0.087304 -2.624759
    1 0.000000 2.645919 0.075564 0.000000 0.000000 0.000000
    2 0.476084 -2.060261 1.444903 0.000000 0.000000 3.140500
    3 0.229091 5.068880 2.384721 0.000000 0.000000 0.000000
    4 0.000000 1.386027 0.596948 0.000000 0.000000 0.000000
    5 -3.373831 -10.717375 -5.822053 -0.178322 -0.087304 -2.624759
    6 0.206289 -0.316416 -0.215622 0.000000 0.000000 0.000000
    7 -13.836787 6.190171 -4.657045 -3.141592 1.439897 3.141592
    8 -0.003388 0.018329 -0.000001 -0.424041 -0.316261 -0.534712
    9 8.473082 -0.000001 -0.000001 -3.141592 0.000000 -1.760638
    10 8.737236 0.000003 0.000000 2.881364 -0.008023 -0.915808
    11 0.740394 -1.124922 0.974274 -1.572761 -0.167899 0.032928
    12 1.693970 0.000000 0.000000 0.088732 -0.263870 -0.023922
    13 1.194236 0.000000 0.000000 -0.000874 0.002596 -0.007777
    14 3.077486 -0.881879 0.092652 -2.745214 0.060681 0.027237
    15 1.708897 0.000001 0.000000 0.000000 -0.082383 -0.024686
    16 0.954917 0.000000 0.000000 -0.004618 0.406733 0.003351
    17 3.057266 -0.134123 0.063502 -2.447781 -0.771453 -0.050986
    18 1.803337 0.000000 0.000000 3.141592 0.770701 -3.128522
    19 1.060696 0.000000 0.000000 -0.005760 0.132075 -0.044206
    20 3.080836 0.608362 0.166303 -2.270358 -0.901982 -0.166783
    21 1.709264 0.000000 0.000000 3.136208 1.076529 3.121940
    22 0.884620 -0.000001 0.000000 -0.043415 0.502648 -0.049954
    23 3.080836 1.362635 0.248058 -2.103305 -0.835477 -0.355092
    24 1.190336 0.000000 0.000000 -0.003712 1.535791 -0.036537
    25 0.648630 -0.000001 0.000000 -0.008249 0.266042 0.004951
    26 9.468456 -1.389827 -7.064188 -3.141592 0.767945 3.141592
    27 -0.003387 0.018329 0.000000 0.329447 0.414579 -0.167733
    28 8.473082 -0.000001 0.000002 0.000000 0.000000 -1.245893
    29 8.737238 0.000001 0.000001 -0.304591 -0.373146 0.089747
    30 3.169858 1.366647 -0.189203 -0.283762 0.879803 0.336594
    31 1.060754 0.000037 0.000001 0.002208 1.563037 0.027202
    32 0.719018 -0.000002 0.000001 0.000000 0.146909 -0.016343
    33 3.383820 0.671293 0.018296 -0.156708 0.706252 0.514881
    34 1.461449 -0.000001 0.000001 -3.141592 1.470726 3.133528
    35 0.848556 0.000001 0.000000 0.001021 0.049505 0.021383
    36 3.496453 -0.114845 0.068540 -0.110468 0.511808 0.494943
    37 1.466716 -0.000002 0.000002 -0.000025 1.563472 0.000008
    38 1.000036 -0.000001 0.000000 0.000000 0.104394 0.000000
    39 3.395900 -0.914873 0.005474 -0.082179 0.303787 0.413166
    40 1.533478 0.000002 0.000002 0.006036 1.504506 0.025545
    41 0.933959 0.000002 -0.000001 0.005031 0.251403 0.017241
    42 0.789901 -0.963112 -0.860479 -0.263813 -0.008924 -0.322157
    43 1.873061 -0.000034 0.000002 -0.006505 0.021885 -0.021357
    44 1.217062 0.000001 0.000001 0.011345 0.001903 -0.233271
  time 13
    0 -5.608038 -6.426658 -5.899535 -0.159215 -0.074028 -2.684066
    1 0.000000 2.645919 0.075564 0.000000 0.000000 0.000000
    2 0.476084 -2.060261 1.444903 0.000000 0.000000 3.140500
    3 0.229091 5.068880 2.384721 0.000000 0.000000 0.000000
    4 0.000000 1.386027 0.596948 0.000000 0.000000 0.000000
    5 -3.358205 -11.049417 -5.450948 -0.159220 -0.074025 -2.684066
    6 0.206289 -0.316416 -0.215622 0.000000 0.000000 0.000000
    7 -13.836787 6.190171 -4.657045 -3.141592 1.439897 3.141592
    8 -0.003388 0.018329 -0.000001 -0.443731 -0.341960 -0.572676
    9 8.473082 -0.000001 -0.000001 -3.141592 0.000000 -1.721421
    10 8.737236 0.000003 0.000000 2.919259 -0.093416 -0.907168
    11 0.740394 -1.124922 0.974274 -1.572761 -0.167899 0.032928
    12 1.693970 0.000000 0.000000 0.088732 -0.263870 -0.023922
    13 1.194236 0.000000 0.000000 -0.000874 0.002596 -0.007777
    14 3.077486 -0.881879 0.092652 -2.745214 0.060681 0.027237
    15 1.708897 0.000001 0.000000 0.000000 -0.082383 -0.024686
    16 0.954917 0.000000 0.000000 -0.004618 0.406733 0.003351
    17 3.057266 -0.134123 0.063502 -2.447781 -0.771453 -0.050986
    18 1.803337 0.000000 0.000000 3.141592 0.770701 -3.128522
    19 1.060696 0.000000 0.000000 -0.005760 0.132075 -0.044206
    20 3.080836 0.608362 0.166303 -2.270358 -0.901982 -0.166783
    21 1.709264 0.000000 0.000000 3.136208 1.076529 3.121940
    22 0.884620 -0.000001 0.000000 -0.043415 0.502648 -0.049954
    23 3.080836 1.362635 0.248058 -2.103305 -0.835477 -0.355092
    24 1.190336 0.000000 0.000000 -0.003712 1.535791 -0.036537
    25 0.648630 -0.000001 0.000000 -0.008249 0.266042 0.004951
    26 9.468456 -1.389827 -7.064188 -3.141592 0.767945 3.141592
    27 -0.003387 0.018329 0.000000 0.323263 0.432952 -0.243929
    28 8.473082 -0.000001 0.000002 0.000000 0.000000 -1.183624
    29 8.737238 0.000001 0.000001 -0.312063 -0.361311 0.154664
    30 3.169858 1.366647 -0.189203 -0.283762 0.879803 0.336594
    31 1.060754 0.000037 0.000001 0.002196 1.563037 0.027202
    32 0.719018 -0.000002 0.000001 0.000000 0.146909 -0.016343
    33 3.383820 0.671293 0.018296 -0.156708 0.706252 0.514881
    34 1.461449 -0.000001 0.000001 -3.141592 1.470726 3.133528
    35 0.848556 0.000001 0.000000 0.001021 0.049505 0.021383
    36 3.496453 -0.114845 0.068540 -0.110468 0.511808 0.494943
    37 1.466716 -0.000002 0.000002 -0.000025 1.563472 0.000008
    38 1.000036 -0.000001 0.000000 0.000000 0.104394 0.000000
    39 3.395900 -0.914873 0.005474 -0.082179 0.303787 0.413166
    40 1.533478 0.000002 0.000002 0.006036 1.504506 0.025545
    41 0.933959 0.000002 -0.000001 0.005031 0.251403 0.017241
    42 0.789901 -0.963112 -0.860479 -0.263813 -0.008924 -0.322157
    43 1.873061 -0.000034 0.000002 -0.006505 0.021885 -0.021357
    44 1.217062 0.000001 0.000001 0.011345 0.001903 -0.233271
  time 14
    0 -5.318966 -6.621977 -5.645621 -0.140495 -0.061179 -2.742053
    1 0.000000 2.645919 0.075564 0.000000 0.000000 0.000000
    2 0.476084 -2.060261 1.444903 0.000000 0.000000 3.140500
    3 0.229091 5.068880 2.384721 0.000000 0.000000 0.000000
    4 0.000000 1.386027 0.596948 0.000000 0.000000 0.000000
    5 -3.334767 -11.358020 -5.099375 -0.140492 -0.061162 -2.742053
    6 0.206289 -0.316416 -0.215622 0.000000 0.000000 0.000000
    7 -13.836787 6.190171 -4.657045 -3.141592 1.439897 3.141592
    8 -0.003388 0.018329 -0.000001 -0.461217 -0.369011 -0.611322
    9 8.473082 -0.000001 -0.000001 -3.141592 0.000000 -1.676623
    10 8.737236 0.000003 0.000000 2.954639 -0.177356 -0.896693
    11 0.740394 -1.124922 0.974274 -1.572761 -0.167899 0.032928
    12 1.693970 0.000000 0.000000 0.088732 -0.263870 -0.023922
    13 1.194236 0.000000 0.000000 -0.000874 0.002596 -0.007777
    14 3.077486 -0.881879 0.092652 -2.745214 0.060681 0.027237
    15 1.708897 0.000001 0.000000 0.000000 -0.082383 -0.024686
    16 0.954917 0.000000 0.000000 -0.004618 0.406733 0.003351
    17 3.057266 -0.134123 0.063502 -2.447781 -0.771453 -0.050986
    18 1.803337 0.000000 0.000000 3.141592 0.770701 -3.128522
    19 1.060696 0.000000 0.000000 -0.005760 0.132075 -0.044206
    20 3.080836 0.608362 0.166303 -2.270358 -0.901982 -0.166783
    21 1.709264 0.000000 0.000000 3.136208 1.076529 3.121940
    22 0.884620 -0.000001 0.000000 -0.043415 0.502648 -0.049954
    23 3.080836 1.362635 0.248058 -2.103305 -0.835477 -0.355092
    24 1.190336 0.000000 0.000000 -0.003712 1.535791 -0.036537
    25 0.648630 -0.000001 0.000000 -0.008249 0.266042 0.004951
    26 9.468456 -1.389827 -7.064188 -3.141592 0.767945 3.141592
    27 -0.003387 0.018329 0.000000 0.313896 0.450683 -0.319859
    28 8.473082 -0.000001 0.000002 0.000000 0.000000 -1.116775
    29 8.737238 0.000001 0.000001 -0.320206 -0.344774 0.211887
    30 3.169858 1.366647 -0.189203 -0.283762 0.879803 0.336594
    31 1.060754 0.000037 0.000001 0.002196 1.563037 0.027214
    32 0.719018 -0.000002 0.000001 0.000000 0.146909 -0.016343
    33 3.383820 0.671293 0.018296 -0.156708 0.706252 0.514881
    34 1.461449 -0.000001 0.000001 -3.141592 1.470726 3.133528
    35 0.848556 0.000001 0.000000 0.001021 0.049505 0.021383
    36 3.496453 -0.114845 0.068540 -0.110468 0.511808 0.494943
    37 1.466716 -0.000002 0.000002 -0.000025 1.563472 0.000008
    38 1.000036 -0.000001 0.000000 0.000000 0.104394 0.000000
    39 3.395900 -0.914873 0.005474 -0.082179 0.303787 0.413166
    40 1.533478 0.000002 0.000002 0.006036 1.504506 0.025545
    41 0.933959 0.000002 -0.000001 0.005031 0.251403 0.017241
    42 0.789901 -0.963112 -0.860479 -0.263813 -0.008924 -0.322157
    43 1.873061 -0.000034 0.000002 -0.006505 0.021885 -0.021357
    44 1.217062 0.000001 0.000001 0.011345 0.001903 -0.233271
  time 15
    0 -5.018176 -6.813389 -5.419052 -0.122447 -0.049028 -2.797635
    1 0.000000 2.645919 0.075564 0.000000 0.000000 0.000000
    2 0.476084 -2.060261 1.444903 0.000000 0.000000 3.140500
    3 0.229091 5.068880 2.384721 0.000000 0.000000 0.000000
    4 0.000000 1.386027 0.596948 0.000000 0.000000 0.000000
    5 -3.303516 -11.643185 -4.775146 -0.122438 -0.049017 -2.797635
    6 0.206289 -0.316416 -0.215622 0.000000 0.000000 0.000000
    7 -13.836787 6.190171 -4.657045 -3.141592 1.439897 3.141592
    8 -0.003388 0.018329 -0.000001 -0.475562 -0.397014 -0.650254
    9 8.473082 -0.000001 -0.000001 -3.141592 0.000000 -1.626227
    10 8.737236 0.000003 0.000000 2.986922 -0.258100 -0.883666
    11 0.740394 -1.124922 0.974274 -1.572761 -0.167899 0.032928
    12 1.693970 0.000000 0.000000 0.088732 -0.263870 -0.023922
    13 1.194236 0.000000 0.000000 -0.000874 0.002596 -0.007777
    14 3.077486 -0.881879 0.092652 -2.745214 0.060681 0.027237
    15 1.708897 0.000001 0.000000 0.000000 -0.082383 -0.024686
    16 0.954917 0.000000 0.000000 -0.004618 0.406733 0.003351
    17 3.057266 -0.134123 0.063502 -2.447781 -0.771453 -0.050986
    18 1.803337 0.000000 0.000000 3.141592 0.770701 -3.128522
    19 1.060696 0.000000 0.000000 -0.005760 0.132075 -0.044206
    20 3.080836 0.608362 0.166303 -2.270358 -0.901982 -0.166783
    21 1.709264 0.000000 0.000000 3.136208 1.076529 3.121940
    22 0.884620 -0.000001 0.000000 -0.043415 0.502648 -0.049954
    23 3.080836 1.362635 0.248058 -2.103305 -0.835477 -0.355092
    24 1.190336 0.000000 0.000000 -0.003712 1.535791 -0.036537
    25 0.648630 -0.000001 0.000000 -0.008249 0.266042 0.004951
    26 9.468456 -1.389827 -7.064188 -3.141592 0.767945 3.141592
    27 -0.003387 0.018329 0.000000 0.301348 0.467684 -0.394913
    28 8.473082 -0.000001 0.000002 0.000000 0.000000 -1.045033
    29 8.737238 0.000001 0.000001 -0.327720 -0.324254 0.259376
    30 3.169858 1.366647 -0.189203 -0.283762 0.879803 0.336594
    31 1.060754 0.000037 0.000001 0.002196 1.563037 0.027214
    32 0.719018 -0.000002 0.000001 0.000000 0.146909 -0.016343
    33 3.383820 0.671293 0.018296 -0.156708 0.706252 0.514881
    34 1.461449 -0.000001 0.000001 -3.141592 1.470726 3.133528
    35 0.848556 0.000001 0.000000 0.001021 0.049505 0.021383
    36 3.496453 -0.114845 0.068540 -0.110468 0.511808 0.494943
    37 1.466716 -0.000002 0.000002 -0.000025 1.563472 0.000008
    38 1.000036 -0.000001 0.000000 0.000000 0.104394 0.000000
    39 3.395900 -0.914873 0.005474 -0.082179 0.303787 0.413166
    40 1.533478 0.000002 0.000002 0.006036 1.504506 0.025545
    41 0.933959 0.000002 -0.000001 0.005031 0.251403 0.017241
    42 0.789901 -0.963112 -0.860479 -0.263813 -0.008924 -0.322157
    43 1.873061 -0.000034 0.000002 -0.006505 0.021885 -0.021357
    44 1.217062 0.000001 0.000001 0.011345 0.001903 -0.233271
  time 16
    0 -4.721292 -6.993082 -5.215920 -0.105345 -0.037848 -2.849955
    1 0.000000 2.645919 0.075564 0.000000 0.000000 0.000000
    2 0.476084 -2.060261 1.444903 0.000000 0.000000 3.140500
    3 0.229091 5.068880 2.384721 0.000000 0.000000 0.000000
    4 0.000000 1.386027 0.596948 0.000000 0.000000 0.000000
    5 -3.272265 -11.893193 -4.489982 -0.105333 -0.037834 -2.849955
    6 0.206289 -0.316416 -0.215622 0.000000 0.000000 0.000000
    7 -13.836787 6.190171 -4.657045 -3.141592 1.439897 3.141592
    8 -0.003388 0.018329 -0.000001 -0.486744 -0.424894 -0.687535
    9 8.473082 -0.000001 -0.000001 -3.141592 0.000000 -1.573272
    10 8.737236 0.000003 0.000000 3.015507 -0.334028 -0.868661
    11 0.740394 -1.124922 0.974274 -1.572761 -0.167899 0.032928
    12 1.693970 0.000000 0.000000 0.088732 -0.263870 -0.023922
    13 1.194236 0.000000 0.000000 -0.000874 0.002596 -0.007777
    14 3.077486 -0.881879 0.092652 -2.745214 0.060681 0.027237
    15 1.708897 0.000001 0.000000 0.000000 -0.082383 -0.024686
    16 0.954917 0.000000 0.000000 -0.004618 0.406733 0.003351
    17 3.057266 -0.134123 0.063502 -2.447781 -0.771453 -0.050986
    18 1.803337 0.000000 0.000000 3.141592 0.770701 -3.128522
    19 1.060696 0.000000 0.000000 -0.005760 0.132075 -0.044206
    20 3.080836 0.608362 0.166303 -2.270358 -0.901982 -0.166783
    21 1.709264 0.000000 0.000000 3.136208 1.076529 3.121940
    22 0.884620 -0.000001 0.000000 -0.043415 0.502648 -0.049954
    23 3.080836 1.362635 0.248058 -2.103305 -0.835477 -0.355092
    24 1.190336 0.000000 0.000000 -0.003712 1.535791 -0.036537
    25 0.648630 -0.000001 0.000000 -0.008249 0.266042 0.004951
    26 9.468456 -1.389827 -7.064188 -3.141592 0.767945 3.141592
    27 -0.003387 0.018329 0.000000 0.286428 0.483268 -0.466773
    28 8.473082 -0.000001 0.000002 0.000000 0.000000 -0.971613
    29 8.737238 0.000001 0.000001 -0.333722 -0.300857 0.297132
    30 3.169858 1.366647 -0.189203 -0.283762 0.879803 0.336594
    31 1.060754 0.000037 0.000001 0.002208 1.563037 0.027190
    32 0.719018 -0.000002 0.000001 0.000000 0.146909 -0.016343
    33 3.383820 0.671293 0.018296 -0.156708 0.706252 0.514881
    34 1.461449 -0.000001 0.000001 -3.141592 1.470726 3.133528
    35 0.848556 0.000001 0.000000 0.001021 0.049505 0.021383
    36 3.496453 -0.114845 0.068540 -0.110468 0.511808 0.494943
    37 1.466716 -0.000002 0.000002 -0.000025 1.563472 0.000008
    38 1.000036 -0.000001 0.000000 0.000000 0.104394 0.000000
    39 3.395900 -0.914873 0.005474 -0.082179 0.303787 0.413166
    40 1.533478 0.000002 0.000002 0.006036 1.504506 0.025545
    41 0.933959 0.000002 -0.000001 0.005031 0.251403 0.017241
    42 0.789901 -0.963112 -0.860479 -0.263813 -0.008924 -0.322157
    43 1.873061 -0.000034 0.000002 -0.006505 0.021885 -0.021357
    44 1.217062 0.000001 0.000001 0.011345 0.001903 -0.233271
  time 17
    0 -4.443940 -7.149336 -5.051853 -0.089489 -0.027891 -2.898007
    1 0.000000 2.645919 0.075564 0.000000 0.000000 0.000000
    2 0.476084 -2.060261 1.444903 0.000000 0.000000 3.140500
    3 0.229091 5.068880 2.384721 0.000000 0.000000 0.000000
    4 0.000000 1.386027 0.596948 0.000000 0.000000 0.000000
    5 -3.237108 -12.104136 -4.247787 -0.089477 -0.027899 -2.898007
    6 0.206289 -0.316416 -0.215622 0.000000 0.000000 0.000000
    7 -13.836787 6.190171 -4.657045 -3.141592 1.439897 3.141592
    8 -0.003388 0.018329 -0.000001 -0.494834 -0.451848 -0.721875
    9 8.473082 -0.000001 -0.000001 -3.141592 0.000000 -1.519838
    10 8.737236 0.000003 0.000000 3.039701 -0.403729 -0.851727
    11 0.740394 -1.124922 0.974274 -1.572761 -0.167899 0.032928
    12 1.693970 0.000000 0.000000 0.088732 -0.263870 -0.023922
    13 1.194236 0.000000 0.000000 -0.000874 0.002596 -0.007777
    14 3.077486 -0.881879 0.092652 -2.745214 0.060681 0.027237
    15 1.708897 0.000001 0.000000 0.000000 -0.082383 -0.024686
    16 0.954917 0.000000 0.000000 -0.004618 0.406733 0.003351
    17 3.057266 -0.134123 0.063502 -2.447781 -0.771453 -0.050986
    18 1.803337 0.000000 0.000000 3.141592 0.770701 -3.128522
    19 1.060696 0.000000 0.000000 -0.005760 0.132075 -0.044206
    20 3.080836 0.608362 0.166303 -2.270358 -0.901982 -0.166783
    21 1.709264 0.000000 0.000000 3.136208 1.076529 3.121940
    22 0.884620 -0.000001 0.000000 -0.043415 0.502648 -0.049954
    23 3.080836 1.362635 0.248058 -2.103305 -0.835477 -0.355092
    24 1.190336 0.000000 0.000000 -0.003712 1.535791 -0.036537
    25 0.648630 -0.000001 0.000000 -0.008249 0.266042 0.004951
    26 9.468456 -1.389827 -7.064188 -3.141592 0.767945 3.141592
    27 -0.003387 0.018329 0.000000 0.270117 0.497125 -0.533306
    28 8.473082 -0.000001 0.000002 0.000000 0.000000 -0.899359
    29 8.737238 0.000001 0.000001 -0.337668 -0.276003 0.325270
    30 3.169858 1.366647 -0.189203 -0.283762 0.879803 0.336594
    31 1.060754 0.000037 0.000001 0.002208 1.563037 0.027202
    32 0.719018 -0.000002 0.000001 0.000000 0.146909 -0.016343
    33 3.383820 0.671293 0.018296 -0.156708 0.706252 0.514881
    34 1.461449 -0.000001 0.000001 -3.141592 1.470726 3.133528
    35 0.848556 0.000001 0.000000 0.001021 0.049505 0.021383
    36 3.496453 -0.114845 0.068540 -0.110468 0.511808 0.494943
    37 1.466716 -0.000002 0.000002 -0.000025 1.563472 0.000008
    38 1.000036 -0.000001 0.000000 0.000000 0.104394 0.000000
    39 3.395900 -0.914873 0.005474 -0.082179 0.303787 0.413166
    40 1.533478 0.000002 0.000002 0.006036 1.504506 0.025545
    41 0.933959 0.000002 -0.000001 0.005031 0.251403 0.017241
    42 0.789901 -0.963112 -0.860479 -0.263813 -0.008924 -0.322157
    43 1.873061 -0.000034 0.000002 -0.006505 0.021885 -0.021357
    44 1.217062 0.000001 0.000001 0.011345 0.001903 -0.233271
  time 18
    0 -4.193932 -7.278247 -4.926849 -0.075155 -0.019468 -2.940779
    1 0.000000 2.645919 0.075564 0.000000 0.000000 0.000000
    2 0.476084 -2.060261 1.444903 0.000000 0.000000 3.140500
    3 0.229091 5.068880 2.384721 0.000000 0.000000 0.000000
    4 0.000000 1.386027 0.596948 0.000000 0.000000 0.000000
    5 -3.209763 -12.272110 -4.052468 -0.075158 -0.019456 -2.940779
    6 0.206289 -0.316416 -0.215622 0.000000 0.000000 0.000000
    7 -13.836787 6.190171 -4.657045 -3.141592 1.439897 3.141592
    8 -0.003388 0.018329 -0.000001 -0.500538 -0.476780 -0.751102
    9 8.473082 -0.000001 -0.000001 -3.141592 0.000000 -1.469574
    10 8.737236 0.000003 0.000000 3.058845 -0.466207 -0.833570
    11 0.740394 -1.124922 0.974274 -1.572761 -0.167899 0.032928
    12 1.693970 0.000000 0.000000 0.088732 -0.263870 -0.023922
    13 1.194236 0.000000 0.000000 -0.000874 0.002596 -0.007777
    14 3.077486 -0.881879 0.092652 -2.745214 0.060681 0.027237
    15 1.708897 0.000001 0.000000 0.000000 -0.082383 -0.024686
    16 0.954917 0.000000 0.000000 -0.004618 0.406733 0.003351
    17 3.057266 -0.134123 0.063502 -2.447781 -0.771453 -0.050986
    18 1.803337 0.000000 0.000000 3.141592 0.770701 -3.128522
    19 1.060696 0.000000 0.000000 -0.005760 0.132075 -0.044206
    20 3.080836 0.608362 0.166303 -2.270358 -0.901982 -0.166783
    21 1.709264 0.000000 0.000000 3.136208 1.076529 3.121940
    22 0.884620 -0.000001 0.000000 -0.043415 0.502648 -0.049954
    23 3.080836 1.362635 0.248058 -2.103305 -0.835477 -0.355092
    24 1.190336 0.000000 0.000000 -0.003712 1.535791 -0.036537
    25 0.648630 -0.000001 0.000000 -0.008249 0.266042 0.004951
    26 9.468456 -1.389827 -7.064188 -3.141592 0.767945 3.141592
    27 -0.003387 0.018329 0.000000 0.253716 0.508791 -0.591775
    28 8.473082 -0.000001 0.000002 0.000000 0.000000 -0.832197
    29 8.737238 0.000001 0.000001 -0.339305 -0.251188 0.344880
    30 3.169858 1.366647 -0.189203 -0.283762 0.879803 0.336594
    31 1.060754 0.000037 0.000001 0.002208 1.563037 0.027190
    32 0.719018 -0.000002 0.000001 0.000000 0.146909 -0.016343
    33 3.383820 0.671293 0.018296 -0.156708 0.706252 0.514881
    34 1.461449 -0.000001 0.000001 -3.141592 1.470726 3.133528
    35 0.848556 0.000001 0.000000 0.001021 0.049505 0.021383
    36 3.496453 -0.114845 0.068540 -0.110468 0.511808 0.494943
    37 1.466716 -0.000002 0.000002 -0.000025 1.563472 0.000008
    38 1.000036 -0.000001 0.000000 0.000000 0.104394 0.000000
    39 3.395900 -0.914873 0.005474 -0.082179 0.303787 0.413166
    40 1.533478 0.000002 0.000002 0.006036 1.504506 0.025545
    41 0.933959 0.000002 -0.000001 0.005031 0.251403 0.017241
    42 0.789901 -0.963112 -0.860479 -0.263813 -0.008924 -0.322157
    43 1.873061 -0.000034 0.000002 -0.006505 0.021885 -0.021357
    44 1.217062 0.000001 0.000001 0.011345 0.001903 -0.233271
  time 19
    0 -3.982988 -7.372000 -4.852628 -0.062655 -0.012810 -2.977497
    1 0.000000 2.645919 0.075564 0.000000 0.000000 0.000000
    2 0.476084 -2.060261 1.444903 0.000000 0.000000 3.140500
    3 0.229091 5.068880 2.384721 0.000000 0.000000 0.000000
    4 0.000000 1.386027 0.596948 0.000000 0.000000 0.000000
    5 -3.190231 -12.385395 -3.915745 -0.062663 -0.012807 -2.977497
    6 0.206289 -0.316416 -0.215622 0.000000 0.000000 0.000000
    7 -13.836787 6.190171 -4.657045 -3.141592 1.439897 3.141592
    8 -0.003388 0.018329 -0.000001 -0.505033 -0.498628 -0.772870
    9 8.473082 -0.000001 -0.000001 -3.141592 0.000000 -1.426311
    10 8.737236 0.000003 0.000000 3.072115 -0.520465 -0.814946
    11 0.740394 -1.124922 0.974274 -1.572761 -0.167899 0.032928
    12 1.693970 0.000000 0.000000 0.088732 -0.263870 -0.023922
    13 1.194236 0.000000 0.000000 -0.000874 0.002596 -0.007777
    14 3.077486 -0.881879 0.092652 -2.745214 0.060681 0.027237
    15 1.708897 0.000001 0.000000 0.000000 -0.082383 -0.024686
    16 0.954917 0.000000 0.000000 -0.004618 0.406733 0.003351
    17 3.057266 -0.134123 0.063502 -2.447781 -0.771453 -0.050986
    18 1.803337 0.000000 0.000000 3.141592 0.770701 -3.128522
    19 1.060696 0.000000 0.000000 -0.005760 0.132075 -0.044206
    20 3.080836 0.608362 0.166303 -2.270358 -0.901982 -0.166783
    21 1.709264 0.000000 0.000000 3.136208 1.076529 3.121940
    22 0.884620 -0.000001 0.000000 -0.043415 0.502648 -0.049954
    23 3.080836 1.362635 0.248058 -2.103305 -0.835477 -0.355092
    24 1.190336 0.000000 0.000000 -0.003712 1.535791 -0.036537
    25 0.648630 -0.000001 0.000000 -0.008249 0.266042 0.004951
    26 9.468456 -1.389827 -7.064188 -3.141592 0.767945 3.141592
    27 -0.003387 0.018329 0.000000 0.238887 0.517801 -0.638870
    28 8.473082 -0.000001 0.000002 0.000000 0.000000 -0.774906
    29 8.737238 0.000001 0.000001 -0.338717 -0.227888 0.357513
    30 3.169858 1.366647 -0.189203 -0.283762 0.879803 0.336594
    31 1.060754 0.000037 0.000001 0.002196 1.563037 0.027202
    32 0.719018 -0.000002 0.000001 0.000000 0.146909 -0.016343
    33 3.383820 0.671293 0.018296 -0.156708 0.706252 0.514881
    34 1.461449 -0.000001 0.000001 -3.141592 1.470726 3.133528
    35 0.848556 0.000001 0.000000 0.001021 0.049505 0.021383
    36 3.496453 -0.114845 0.068540 -0.110468 0.511808 0.494943
    37 1.466716 -0.000002 0.000002 -0.000025 1.563472 0.000008
    38 1.000036 -0.000001 0.000000 0.000000 0.104394 0.000000
    39 3.395900 -0.914873 0.005474 -0.082179 0.303787 0.413166
    40 1.533478 0.000002 0.000002 0.006036 1.504506 0.025545
    41 0.933959 0.000002 -0.000001 0.005031 0.251403 0.017241
    42 0.789901 -0.963112 -0.860479 -0.263813 -0.008924 -0.322157
    43 1.873061 -0.000034 0.000002 -0.006505 0.021885 -0.021357
    44 1.217062 0.000001 0.000001 0.011345 0.001903 -0.233271
  time 20
    0 -3.822827 -7.411063 -4.833096 -0.052289 -0.008191 -3.006995
    1 0.000000 2.645919 0.075564 0.000000 0.000000 0.000000
    2 0.476084 -2.060261 1.444903 0.000000 0.000000 3.140500
    3 0.229091 5.068880 2.384721 0.000000 0.000000 0.000000
    4 0.000000 1.386027 0.596948 0.000000 0.000000 0.000000
    5 -3.182418 -12.440084 -3.845431 -0.052279 -0.008198 -3.006995
    6 0.206289 -0.316416 -0.215622 0.000000 0.000000 0.000000
    7 -13.836787 6.190171 -4.657045 -3.141592 1.439897 3.141592
    8 -0.003388 0.018329 -0.000001 -0.509862 -0.516187 -0.784238
    9 8.473082 -0.000001 -0.000001 -3.141592 0.000000 -1.394806
    10 8.737236 0.000003 0.000000 3.078703 -0.565673 -0.796981
    11 0.740394 -1.124922 0.974274 -1.572761 -0.167899 0.032928
    12 1.693970 0.000000 0.000000 0.088732 -0.263870 -0.023922
    13 1.194236 0.000000 0.000000 -0.000874 0.002596 -0.007777
    14 3.077486 -0.881879 0.092652 -2.745214 0.060681 0.027237
    15 1.708897 0.000001 0.000000 0.000000 -0.082383 -0.024686
    16 0.954917 0.000000 0.000000 -0.004618 0.406733 0.003351
    17 3.057266 -0.134123 0.063502 -2.447781 -0.771453 -0.050986
    18 1.803337 0.000000 0.000000 3.141592 0.770701 -3.128522
    19 1.060696 0.000000 0.000000 -0.005760 0.132075 -0.044206
    20 3.080836 0.608362 0.166303 -2.270358 -0.901982 -0.166783
    21 1.709264 0.000000 0.000000 3.136208 1.076529 3.121940
    22 0.884620 -0.000001 0.000000 -0.043415 0.502648 -0.049954
    23 3.080836 1.362635 0.248058 -2.103305 -0.835477 -0.355092
    24 1.190336 0.000000 0.000000 -0.003712 1.535791 -0.036537
    25 0.648630 -0.000001 0.000000 -0.008249 0.266042 0.004951
    26 9.468456 -1.389827 -7.064188 -3.141592 0.767945 3.141592
    27 -0.003387 0.018329 0.000000 0.227614 0.523800 -0.670634
    28 8.473082 -0.000001 0.000002 0.000000 0.000000 -0.733061
    29 8.737238 0.000001 0.000001 -0.335989 -0.207445 0.365122
    30 3.169858 1.366647 -0.189203 -0.283762 0.879803 0.336594
    31 1.060754 0.000037 0.000001 0.002184 1.563037 0.027214
    32 0.719018 -0.000002 0.000001 0.000000 0.146909 -0.016343
    33 3.383820 0.671293 0.018296 -0.156708 0.706252 0.514881
    34 1.461449 -0.000001 0.000001 -3.141592 1.470726 3.133528
    35 0.848556 0.000001 0.000000 0.001021 0.049505 0.021383
    36 3.496453 -0.114845 0.068540 -0.110468 0.511808 0.494943
    37 1.466716 -0.000002 0.000002 -0.000025 1.563472 0.000008
    38 1.000036 -0.000001 0.000000 0.000000 0.104394 0.000000
    39 3.395900 -0.914873 0.005474 -0.082179 0.303787 0.413166
    40 1.533478 0.000002 0.000002 0.006036 1.504506 0.025545
    41 0.933959 0.000002 -0.000001 0.005031 0.251403 0.017241
    42 0.789901 -0.963112 -0.860479 -0.263813 -0.008924 -0.322157
    43 1.873061 -0.000034 0.000002 -0.006505 0.021885 -0.021357
    44 1.217062 0.000001 0.000001 0.011345 0.001903 -0.233271
  time 21
    0 -3.697823 -7.403250 -4.872160 -0.042881 -0.005241 -3.032612
    1 0.000000 2.645919 0.075564 0.000000 0.000000 0.000000
    2 0.476084 -2.060261 1.444903 0.000000 0.000000 3.140500
    3 0.229091 5.068880 2.384721 0.000000 0.000000 0.000000
    4 0.000000 1.386027 0.596948 0.000000 0.000000 0.000000
    5 -3.190231 -12.440084 -3.833712 -0.042871 -0.005213 -3.032612
    6 0.206289 -0.316416 -0.215622 0.000000 0.000000 0.000000
    7 -13.836787 6.190171 -4.657045 -3.141592 1.439897 3.141592
    8 -0.003388 0.018329 -0.000001 -0.516873 -0.530956 -0.784685
    9 8.473082 -0.000001 -0.000001 -3.141592 0.000000 -1.373951
    10 8.737236 0.000003 0.000000 3.078665 -0.606896 -0.777854
    11 0.740394 -1.124922 0.974274 -1.572761 -0.167899 0.032928
    12 1.693970 0.000000 0.000000 0.088732 -0.263870 -0.023922
    13 1.194236 0.000000 0.000000 -0.000874 0.002596 -0.007777
    14 3.077486 -0.881879 0.092652 -2.747802 0.102995 0.035314
    15 1.708897 0.000001 0.000000 0.000000 0.284174 -0.024686
    16 0.954917 0.000000 0.000000 -0.004618 0.399746 0.003351
    17 3.057266 -0.134123 0.063502 -2.447781 -0.771453 -0.050986
    18 1.803337 0.000000 0.000000 3.141592 0.770701 -3.128522
    19 1.060696 0.000000 0.000000 -0.005760 0.132075 -0.044206
    20 3.080836 0.608362 0.166303 -2.270358 -0.901982 -0.166783
    21 1.709264 0.000000 0.000000 3.136208 1.076529 3.121940
    22 0.884620 -0.000001 0.000000 -0.043415 0.502648 -0.049954
    23 3.080836 1.362635 0.248058 -2.103305 -0.835477 -0.355092
    24 1.190336 0.000000 0.000000 -0.003712 1.535791 -0.036537
    25 0.648630 -0.000001 0.000000 -0.008249 0.266042 0.004951
    26 9.468456 -1.389827 -7.064188 -3.141592 0.767945 3.141592
    27 -0.003387 0.018329 0.000000 0.220180 0.527187 -0.687828
    28 8.473082 -0.000001 0.000002 0.000000 0.000000 -0.706492
    29 8.737238 0.000001 0.000001 -0.331036 -0.188149 0.370893
    30 3.169858 1.366647 -0.189203 -0.283762 0.879803 0.336594
    31 1.060754 0.000037 0.000001 0.002208 1.563037 0.027202
    32 0.719018 -0.000002 0.000001 0.000000 0.146909 -0.016343
    33 3.383820 0.671293 0.018296 -0.156708 0.706252 0.514881
    34 1.461449 -0.000001 0.000001 -3.141592 1.470726 3.133528
    35 0.848556 0.000001 0.000000 0.001021 0.049505 0.021383
    36 3.496453 -0.114845 0.068540 -0.110468 0.511808 0.494943
    37 1.466716 -0.000002 0.000002 -0.000025 1.563472 0.000008
    38 1.000036 -0.000001 0.000000 0.000000 0.104394 0.000000
    39 3.395900 -0.914873 0.005474 -0.082179 0.303787 0.413166
    40 1.533478 0.000002 0.000002 0.006036 1.504506 0.025545
    41 0.933959 0.000002 -0.000001 0.005031 0.251403 0.017241
    42 0.789901 -0.963112 -0.860479 -0.263813 -0.008924 -0.322157
    43 1.873061 -0.000034 0.000002 -0.006505 0.021885 -0.021357
    44 1.217062 0.000001 0.000001 0.011345 0.001903 -0.233271
  time 22
    0 -3.588445 -7.356374 -4.950287 -0.033389 -0.003203 -3.057531
    1 0.000000 2.645919 0.075564 0.000000 0.000000 0.000000
    2 0.476084 -2.060261 1.444903 0.000000 0.000000 3.140500
    3 0.229091 5.068880 2.384721 0.000000 0.000000 0.000000
    4 0.000000 1.386027 0.596948 0.000000 0.000000 0.000000
    5 -3.209763 -12.389301 -3.864962 -0.033407 -0.003173 -3.057531
    6 0.206289 -0.316416 -0.215622 0.000000 0.000000 0.000000
    7 -13.836787 6.190171 -4.657045 -3.141592 1.439897 3.141592
    8 -0.003388 0.018329 -0.000001 -0.526054 -0.544969 -0.777338
    9 8.473082 -0.000001 -0.000001 -3.141592 0.000000 -1.358710
    10 8.737236 0.000003 0.000000 3.073204 -0.648700 -0.755467
    11 0.740394 -1.124922 0.974274 -1.572761 -0.167899 0.032928
    12 1.693970 0.000000 0.000000 0.088732 -0.263870 -0.023922
    13 1.194236 0.000000 0.000000 -0.000874 0.002596 -0.007777
    14 3.077486 -0.881879 0.092652 -2.752836 0.166363 0.046604
    15 1.708897 0.000001 0.000000 0.000000 0.876755 -0.024686
    16 0.954917 0.000000 0.000000 -0.004618 0.387522 0.003351
    17 3.057266 -0.134123 0.063502 -2.447781 -0.771453 -0.050986
    18 1.803337 0.000000 0.000000 3.141592 0.770701 -3.128522
    19 1.060696 0.000000 0.000000 -0.005760 0.132075 -0.044206
    20 3.080836 0.608362 0.166303 -2.270358 -0.901982 -0.166783
    21 1.709264 0.000000 0.000000 3.136208 1.076529 3.121940
    22 0.884620 -0.000001 0.000000 -0.043415 0.502648 -0.049954
    23 3.080836 1.362635 0.248058 -2.103305 -0.835477 -0.355092
    24 1.190336 0.000000 0.000000 -0.003712 1.535791 -0.036537
    25 0.648630 -0.000001 0.000000 -0.008249 0.266042 0.004951
    26 9.468456 -1.389827 -7.064188 -3.141592 0.767945 3.141592
    27 -0.003387 0.018329 0.000000 0.214782 0.529179 -0.696464
    28 8.473082 -0.000001 0.000002 0.000000 0.000000 -0.687974
    29 8.737238 0.000001 0.000001 -0.324110 -0.168250 0.375659
    30 3.169858 1.366647 -0.189203 -0.283762 0.879803 0.336594
    31 1.060754 0.000037 0.000001 0.002208 1.563037 0.027190
    32 0.719018 -0.000002 0.000001 0.000000 0.146909 -0.016343
    33 3.383820 0.671293 0.018296 -0.156708 0.706252 0.514881
    34 1.461449 -0.000001 0.000001 -3.141592 1.470726 3.133528
    35 0.848556 0.000001 0.000000 0.001021 0.049505 0.021383
    36 3.496453 -0.114845 0.068540 -0.110468 0.511808 0.494943
    37 1.466716 -0.000002 0.000002 -0.000025 1.563472 0.000008
    38 1.000036 -0.000001 0.000000 0.000000 0.104394 0.000000
    39 3.395900 -0.914873 0.005474 -0.082179 0.303787 0.413166
    40 1.533478 0.000002 0.000002 0.006036 1.504506 0.025545
    41 0.933959 0.000002 -0.000001 0.005031 0.251403 0.017241
    42 0.789901 -0.963112 -0.860479 -0.263813 -0.008924 -0.322157
    43 1.873061 -0.000034 0.000002 -0.006505 0.021885 -0.021357
    44 1.217062 0.000001 0.000001 0.011345 0.001903 -0.233271
  time 23
    0 -3.494692 -7.286059 -5.055759 -0.024293 -0.001844 -3.080896
    1 0.000000 2.645919 0.075564 0.000000 0.000000 0.000000
    2 0.476084 -2.060261 1.444903 0.000000 0.000000 3.140500
    3 0.229091 5.068880 2.384721 0.000000 0.000000 0.000000
    4 0.000000 1.386027 0.596948 0.000000 0.000000 0.000000
    5 -3.237108 -12.315080 -3.927464 -0.024287 -0.001870 -3.080896
    6 0.206289 -0.316416 -0.215622 0.000000 0.000000 0.000000
    7 -13.836787 6.190171 -4.657045 -3.141592 1.439897 3.141592
    8 -0.003388 0.018329 -0.000001 -0.536049 -0.558069 -0.765287
    9 8.473082 -0.000001 -0.000001 -3.141592 0.000000 -1.346936
    10 8.737236 0.000003 0.000000 3.063275 -0.688885 -0.730335
    11 0.740394 -1.124922 0.974274 -1.572761 -0.167899 0.032928
    12 1.693970 0.000000 0.000000 0.088732 -0.263870 -0.023922
    13 1.194236 0.000000 0.000000 -0.000874 0.002596 -0.007777
    14 3.077486 -0.881879 0.092652 -2.759847 0.187172 0.046556
    15 1.708897 0.000001 0.000000 0.000000 1.274057 -0.024686
    16 0.954917 0.000000 0.000000 -0.004618 0.375286 0.003351
    17 3.057266 -0.134123 0.063502 -2.447781 -0.771453 -0.050986
    18 1.803337 0.000000 0.000000 3.141592 0.770701 -3.128522
    19 1.060696 0.000000 0.000000 -0.005760 0.132075 -0.044206
    20 3.080836 0.608362 0.166303 -2.270358 -0.901982 -0.166783
    21 1.709264 0.000000 0.000000 3.136208 1.076529 3.121940
    22 0.884620 -0.000001 0.000000 -0.043415 0.502648 -0.049954
    23 3.080836 1.362635 0.248058 -2.103305 -0.835477 -0.355092
    24 1.190336 0.000000 0.000000 -0.003712 1.535791 -0.036537
    25 0.648630 -0.000001 0.000000 -0.008249 0.266042 0.004951
    26 9.468456 -1.389827 -7.064188 -3.141592 0.767945 3.141592
    27 -0.003387 0.018329 0.000000 0.211548 0.529954 -0.697795
    28 8.473082 -0.000001 0.000002 0.000000 0.000000 -0.677505
    29 8.737238 0.000001 0.000001 -0.316093 -0.148837 0.380540
    30 3.169858 1.366647 -0.189203 -0.283762 0.879803 0.336594
    31 1.060754 0.000037 0.000001 0.002184 1.563037 0.027214
    32 0.719018 -0.000002 0.000001 0.000000 0.146909 -0.016343
    33 3.383820 0.671293 0.018296 -0.156708 0.706252 0.514881
    34 1.461449 -0.000001 0.000001 -3.141592 1.470726 3.133528
    35 0.848556 0.000001 0.000000 0.001021 0.049505 0.021383
    36 3.496453 -0.114845 0.068540 -0.110468 0.511808 0.494943
    37 1.466716 -0.000002 0.000002 -0.000025 1.563472 0.000008
    38 1.000036 -0.000001 0.000000 0.000000 0.104394 0.000000
    39 3.395900 -0.914873 0.005474 -0.082179 0.303787 0.413166
    40 1.533478 0.000002 0.000002 0.006036 1.504506 0.025545
    41 0.933959 0.000002 -0.000001 0.005031 0.251403 0.017241
    42 0.789901 -0.963112 -0.860479 -0.263813 -0.008924 -0.322157
    43 1.873061 -0.000034 0.000002 -0.006505 0.021885 -0.021357
    44 1.217062 0.000001 0.000001 0.011345 0.001903 -0.233271
  time 24
    0 -3.416564 -7.207932 -5.172950 -0.015963 -0.001029 -3.101856
    1 0.000000 2.645919 0.075564 0.000000 0.000000 0.000000
    2 0.476084 -2.060261 1.444903 0.000000 0.000000 3.140500
    3 0.229091 5.068880 2.384721 0.000000 0.000000 0.000000
    4 0.000000 1.386027 0.596948 0.000000 0.000000 0.000000
    5 -3.264452 -12.233047 -4.001685 -0.015971 -0.001058 -3.101856
    6 0.206289 -0.316416 -0.215622 0.000000 0.000000 0.000000
    7 -13.836787 6.190171 -4.657045 -3.141592 1.439897 3.141592
    8 -0.003388 0.018329 -0.000001 -0.546092 -0.569584 -0.750531
    9 8.473082 -0.000001 -0.000001 -3.141592 0.000000 -1.338499
    10 8.737236 0.000003 0.000000 3.050268 -0.725334 -0.704376
    11 0.740394 -1.124922 0.974274 -1.572761 -0.167899 0.032928
    12 1.693970 0.000000 0.000000 0.088732 -0.263870 -0.023922
    13 1.194236 0.000000 0.000000 -0.000874 0.002596 -0.007777
    14 3.077486 -0.881879 0.092652 -2.771112 0.115679 0.021927
    15 1.708897 0.000001 0.000000 0.000000 1.248177 -0.024686
    16 0.954917 0.000000 0.000000 -0.004618 0.363037 0.003351
    17 3.057266 -0.134123 0.063502 -2.447781 -0.771453 -0.050986
    18 1.803337 0.000000 0.000000 3.141592 0.770701 -3.128522
    19 1.060696 0.000000 0.000000 -0.005760 0.132075 -0.044206
    20 3.080836 0.608362 0.166303 -2.270358 -0.901982 -0.166783
    21 1.709264 0.000000 0.000000 3.136208 1.076529 3.121940
    22 0.884620 -0.000001 0.000000 -0.043415 0.502648 -0.049954
    23 3.080836 1.362635 0.248058 -2.103305 -0.835477 -0.355092
    24 1.190336 0.000000 0.000000 -0.003712 1.535791 -0.036537
    25 0.648630 -0.000001 0.000000 -0.008249 0.266042 0.004951
    26 9.468456 -1.389827 -7.064188 -3.141592 0.767945 3.141592
    27 -0.003387 0.018329 0.000000 0.209796 0.529909 -0.694600
    28 8.473082 -0.000001 0.000002 0.000000 0.000000 -0.672470
    29 8.737238 0.000001 0.000001 -0.307949 -0.130959 0.385134
    30 3.169858 1.366647 -0.189203 -0.283762 0.879803 0.336594
    31 1.060754 0.000037 0.000001 0.002196 1.563037 0.027202
    32 0.719018 -0.000002 0.000001 0.000000 0.146909 -0.016343
    33 3.383820 0.671293 0.018296 -0.156708 0.706252 0.514881
    34 1.461449 -0.000001 0.000001 -3.141592 1.470726 3.133528
    35 0.848556 0.000001 0.000000 0.001021 0.049505 0.021383
    36 3.496453 -0.114845 0.068540 -0.110468 0.511808 0.494943
    37 1.466716 -0.000002 0.000002 -0.000025 1.563472 0.000008
    38 1.000036 -0.000001 0.000000 0.000000 0.104394 0.000000
    39 3.395900 -0.914873 0.005474 -0.082179 0.303787 0.413166
    40 1.533478 0.000002 0.000002 0.006036 1.504506 0.025545
    41 0.933959 0.000002 -0.000001 0.005031 0.251403 0.017241
    42 0.789901 -0.963112 -0.860479 -0.263813 -0.008924 -0.322157
    43 1.873061 -0.000034 0.000002 -0.006505 0.021885 -0.021357
    44 1.217062 0.000001 0.000001 0.011345 0.001903 -0.233271
  time 25
    0 -3.354063 -7.129805 -5.286235 -0.008869 -0.000602 -3.119555
    1 0.000000 2.645919 0.075564 0.000000 0.000000 0.000000
    2 0.476084 -2.060261 1.444903 0.000000 0.000000 3.140500
    3 0.229091 5.068880 2.384721 0.000000 0.000000 0.000000
    4 0.000000 1.386027 0.596948 0.000000 0.000000 0.000000
    5 -3.291797 -12.151013 -4.075906 -0.008862 -0.000586 -3.119555
    6 0.206289 -0.316416 -0.215622 0.000000 0.000000 0.000000
    7 -13.836787 6.190171 -4.657045 -3.141592 1.439897 3.141592
    8 -0.003388 0.018329 -0.000001 -0.554960 -0.579271 -0.736023
    9 8.473082 -0.000001 -0.000001 -3.141592 0.000000 -1.332059
    10 8.737236 0.000003 0.000000 3.036228 -0.756220 -0.679520
    11 0.740394 -1.124922 0.974274 -1.572761 -0.167899 0.032928
    12 1.693970 0.000000 0.000000 0.088732 -0.263870 -0.023922
    13 1.194236 0.000000 0.000000 -0.000874 0.002596 -0.007777
    14 3.077486 -0.881879 0.092652 -2.784355 0.001641 -0.014014
    15 1.708897 0.000001 0.000000 0.000000 1.026959 -0.024686
    16 0.954917 0.000000 0.000000 -0.004618 0.350813 0.003351
    17 3.057266 -0.134123 0.063502 -2.447781 -0.771453 -0.050986
    18 1.803337 0.000000 0.000000 3.141592 0.770701 -3.128522
    19 1.060696 0.000000 0.000000 -0.005760 0.132075 -0.044206
    20 3.080836 0.608362 0.166303 -2.270358 -0.901982 -0.166783
    21 1.709264 0.000000 0.000000 3.136208 1.076529 3.121940
    22 0.884620 -0.000001 0.000000 -0.043415 0.502648 -0.049954
    23 3.080836 1.362635 0.248058 -2.103305 -0.835477 -0.355092
    24 1.190336 0.000000 0.000000 -0.003712 1.535791 -0.036537
    25 0.648630 -0.000001 0.000000 -0.008249 0.266042 0.004951
    26 9.468456 -1.389827 -7.064188 -3.141592 0.767945 3.141592
    27 -0.003387 0.018329 0.000000 0.209010 0.529511 -0.689388
    28 8.473082 -0.000001 0.000002 0.000000 0.000000 -0.670621
    29 8.737238 0.000001 0.000001 -0.300478 -0.115608 0.389125
    30 3.169858 1.366647 -0.189203 -0.283762 0.879803 0.336594
    31 1.060754 0.000037 0.000001 0.002208 1.563037 0.027190
    32 0.719018 -0.000002 0.000001 0.000000 0.146909 -0.016343
    33 3.383820 0.671293 0.018296 -0.156708 0.706252 0.514881
    34 1.461449 -0.000001 0.000001 -3.141592 1.470726 3.133528
    35 0.848556 0.000001 0.000000 0.001021 0.049505 0.021383
    36 3.496453 -0.114845 0.068540 -0.110468 0.511808 0.494943
    37 1.466716 -0.000002 0.000002 -0.000025 1.563472 0.000008
    38 1.000036 -0.000001 0.000000 0.000000 0.104394 0.000000
    39 3.395900 -0.914873 0.005474 -0.082179 0.303787 0.413166
    40 1.533478 0.000002 0.000002 0.006036 1.504506 0.025545
    41 0.933959 0.000002 -0.000001 0.005031 0.251403 0.017241
    42 0.789901 -0.963112 -0.860479 -0.263813 -0.008924 -0.322157
    43 1.873061 -0.000034 0.000002 -0.006505 0.021885 -0.021357
    44 1.217062 0.000001 0.000001 0.011345 0.001903 -0.233271
  time 26
    0 -3.307186 -7.071209 -5.372175 -0.003404 -0.000272 -3.133140
    1 0.000000 2.645919 0.075564 0.000000 0.000000 0.000000
    2 0.476084 -2.060261 1.444903 0.000000 0.000000 3.140500
    3 0.229091 5.068880 2.384721 0.000000 0.000000 0.000000
    4 0.000000 1.386027 0.596948 0.000000 0.000000 0.000000
    5 -3.311329 -12.088511 -4.138408 -0.003404 -0.000283 -3.133140
    6 0.206289 -0.316416 -0.215622 0.000000 0.000000 0.000000
    7 -13.836787 6.190171 -4.657045 -3.141592 1.439897 3.141592
    8 -0.003388 0.018329 -0.000001 -0.561720 -0.586741 -0.724432
    9 8.473082 -0.000001 -0.000001 -3.141592 0.000000 -1.326874
    10 8.737236 0.000003 0.000000 3.023878 -0.779758 -0.658727
    11 0.740394 -1.124922 0.974274 -1.572761 -0.167899 0.032928
    12 1.693970 0.000000 0.000000 0.088732 -0.263870 -0.023922
    13 1.194236 0.000000 0.000000 -0.000874 0.002596 -0.007777
    14 3.077486 -0.881879 0.092652 -2.792205 -0.069619 -0.036174
    15 1.708897 0.000001 0.000000 0.000000 0.872665 -0.024686
    16 0.954917 0.000000 0.000000 -0.004618 0.343838 0.003351
    17 3.057266 -0.134123 0.063502 -2.447781 -0.771453 -0.050986
    18 1.803337 0.000000 0.000000 3.141592 0.770701 -3.128522
    19 1.060696 0.000000 0.000000 -0.005760 0.132075 -0.044206
    20 3.080836 0.608362 0.166303 -2.270358 -0.901982 -0.166783
    21 1.709264 0.000000 0.000000 3.136208 1.076529 3.121940
    22 0.884620 -0.000001 0.000000 -0.043415 0.502648 -0.049954
    23 3.080836 1.362635 0.248058 -2.103305 -0.835477 -0.355092
    24 1.190336 0.000000 0.000000 -0.003712 1.535791 -0.036537
    25 0.648630 -0.000001 0.000000 -0.008249 0.266042 0.004951
    26 9.468456 -1.389827 -7.064188 -3.141592 0.767945 3.141592
    27 -0.003387 0.018329 0.000000 0.208520 0.529068 -0.684709
    28 8.473082 -0.000001 0.000002 0.000000 0.000000 -0.669853
    29 8.737238 0.000001 0.000001 -0.294517 -0.103754 0.392283
    30 3.169858 1.366647 -0.189203 -0.283762 0.879803 0.336594
    31 1.060754 0.000037 0.000001 0.002196 1.563037 0.027190
    32 0.719018 -0.000002 0.000001 0.000000 0.146909 -0.016343
    33 3.383820 0.671293 0.018296 -0.156708 0.706252 0.514881
    34 1.461449 -0.000001 0.000001 -3.141592 1.470726 3.133528
    35 0.848556 0.000001 0.000000 0.001021 0.049505 0.021383
    36 3.496453 -0.114845 0.068540 -0.110468 0.511808 0.494943
    37 1.466716 -0.000002 0.000002 -0.000025 1.563472 0.000008
    38 1.000036 -0.000001 0.000000 0.000000 0.104394 0.000000
    39 3.395900 -0.914873 0.005474 -0.082179 0.303787 0.413166
    40 1.533478 0.000002 0.000002 0.006036 1.504506 0.025545
    41 0.933959 0.000002 -0.000001 0.005031 0.251403 0.017241
    42 0.789901 -0.963112 -0.860479 -0.263813 -0.008924 -0.322157
    43 1.873061 -0.000034 0.000002 -0.006505 0.021885 -0.021357
    44 1.217062 0.000001 0.000001 0.011345 0.001903 -0.233271
  time 27
    0 -3.275935 -7.039958 -5.422958 0.000000 0.000000 -3.141679
    1 0.000000 2.645919 0.075564 0.000000 0.000000 0.000000
    2 0.476084 -2.060261 1.444903 0.000000 0.000000 3.140500
    3 0.229091 5.068880 2.384721 0.000000 0.000000 0.000000
    4 0.000000 1.386027 0.596948 0.000000 0.000000 0.000000
    5 -3.323048 -12.045541 -4.169659 0.000000 0.000000 -3.141679
    6 0.206289 -0.316416 -0.215622 0.000000 0.000000 0.000000
    7 -13.836787 6.190171 -4.657045 -3.141592 1.439897 3.141592
    8 -0.003388 0.018329 -0.000001 -0.565327 -0.591591 -0.718487
    9 8.473082 -0.000001 -0.000001 -3.141592 0.000000 -1.322333
    10 8.737236 0.000003 0.000000 3.016352 -0.794122 -0.645448
    11 0.740394 -1.124922 0.974274 -1.572761 -0.167899 0.032928
    12 1.693970 0.000000 0.000000 0.088732 -0.263870 -0.023922
    13 1.194236 0.000000 0.000000 -0.000874 0.002596 -0.007777
    14 3.077486 -0.881879 0.092652 -2.792205 -0.069619 -0.036174
    15 1.708897 0.000001 0.000000 0.000000 0.872665 -0.024686
    16 0.954917 0.000000 0.000000 -0.004618 0.343838 0.003351
    17 3.057266 -0.134123 0.063502 -2.447781 -0.771453 -0.050986
    18 1.803337 0.000000 0.000000 3.141592 0.770701 -3.128522
    19 1.060696 0.000000 0.000000 -0.005760 0.132075 -0.044206
    20 3.080836 0.608362 0.166303 -2.270358 -0.901982 -0.166783
    21 1.709264 0.000000 0.000000 3.136208 1.076529 3.121940
    22 0.884620 -0.000001 0.000000 -0.043415 0.502648 -0.049954
    23 3.080836 1.362635 0.248058 -2.103305 -0.835477 -0.355092
    24 1.190336 0.000000 0.000000 -0.003712 1.535791 -0.036537
    25 0.648630 -0.000001 0.000000 -0.008249 0.266042 0.004951
    26 9.468456 -1.389827 -7.064188 -3.141592 0.767945 3.141592
    27 -0.003387 0.018329 0.000000 0.207889 0.529002 -0.683073
    28 8.473082 -0.000001 0.000002 0.000000 0.000000 -0.668118
    29 8.737238 0.000001 0.000001 -0.291033 -0.096408 0.394178
    30 3.169858 1.366647 -0.189203 -0.283762 0.879803 0.336594
    31 1.060754 0.000037 0.000001 0.002196 1.563037 0.027190
    32 0.719018 -0.000002 0.000001 0.000000 0.146909 -0.016343
    33 3.383820 0.671293 0.018296 -0.156708 0.706252 0.514881
    34 1.461449 -0.000001 0.000001 -3.141592 1.470726 3.133528
    35 0.848556 0.000001 0.000000 0.001021 0.049505 0.021383
    36 3.496453 -0.114845 0.068540 -0.110468 0.511808 0.494943
    37 1.466716 -0.000002 0.000002 -0.000025 1.563472 0.000008
    38 1.000036 -0.000001 0.000000 0.000000 0.104394 0.000000
    39 3.395900 -0.914873 0.005474 -0.082179 0.303787 0.413166
    40 1.533478 0.000002 0.000002 0.006036 1.504506 0.025545
    41 0.933959 0.000002 -0.000001 0.005031 0.251403 0.017241
    42 0.789901 -0.963112 -0.860479 -0.263813 -0.008924 -0.322157
    43 1.873061 -0.000034 0.000002 -0.006505 0.021885 -0.021357
    44 1.217062 0.000001 0.000001 0.011345 0.001903 -0.233271
  time 28
    0 -3.256403 -7.024333 -5.438583 0.001474 0.000233 -3.145560
    1 0.000000 2.645919 0.075564 0.000000 0.000000 0.000000
    2 0.476084 -2.060261 1.444903 0.000000 0.000000 3.140500
    3 0.229091 5.068880 2.384721 0.000000 0.000000 0.000000
    4 0.000000 1.386027 0.596948 0.000000 0.000000 0.000000
    5 -3.326954 -12.033822 -4.181378 0.001465 0.000246 -3.145560
    6 0.206289 -0.316416 -0.215622 0.000000 0.000000 0.000000
    7 -13.836787 6.190171 -4.657045 -3.141592 1.439897 3.141592
    8 -0.003388 0.018329 -0.000001 -0.566454 -0.593882 -0.717047
    9 8.473082 -0.000001 -0.000001 -3.141592 0.000000 -1.319344
    10 8.737236 0.000003 0.000000 3.013649 -0.800307 -0.639851
    11 0.740394 -1.124922 0.974274 -1.572761 -0.167899 0.032928
    12 1.693970 0.000000 0.000000 0.088732 -0.263870 -0.023922
    13 1.194236 0.000000 0.000000 -0.000874 0.002596 -0.007777
    14 3.077486 -0.881879 0.092652 -2.792205 -0.069619 -0.036174
    15 1.708897 0.000001 0.000000 0.000000 0.872665 -0.024686
    16 0.954917 0.000000 0.000000 -0.004618 0.343838 0.003351
    17 3.057266 -0.134123 0.063502 -2.447781 -0.771453 -0.050986
    18 1.803337 0.000000 0.000000 3.141592 0.770701 -3.128522
    19 1.060696 0.000000 0.000000 -0.005760 0.132075 -0.044206
    20 3.080836 0.608362 0.166303 -2.270358 -0.901982 -0.166783
    21 1.709264 0.000000 0.000000 3.136208 1.076529 3.121940
    22 0.884620 -0.000001 0.000000 -0.043415 0.502648 -0.049954
    23 3.080836 1.362635 0.248058 -2.103305 -0.835477 -0.355092
    24 1.190336 0.000000 0.000000 -0.003712 1.535791 -0.036537
    25 0.648630 -0.000001 0.000000 -0.008249 0.266042 0.004951
    26 9.468456 -1.389827 -7.064188 -3.141592 0.767945 3.141592
    27 -0.003387 0.018329 0.000000 0.207270 0.529157 -0.683492
    28 8.473082 -0.000001 0.000002 0.000000 0.000000 -0.666098
    29 8.737238 0.000001 0.000001 -0.289606 -0.093241 0.395011
    30 3.169858 1.366647 -0.189203 -0.283762 0.879803 0.336594
    31 1.060754 0.000037 0.000001 0.002208 1.563037 0.027190
    32 0.719018 -0.000002 0.000001 0.000000 0.146909 -0.016343
    33 3.383820 0.671293 0.018296 -0.156708 0.706252 0.514881
    34 1.461449 -0.000001 0.000001 -3.141592 1.470726 3.133528
    35 0.848556 0.000001 0.000000 0.001021 0.049505 0.021383
    36 3.496453 -0.114845 0.068540 -0.110468 0.511808 0.494943
    37 1.466716 -0.000002 0.000002 -0.000025 1.563472 0.000008
    38 1.000036 -0.000001 0.000000 0.000000 0.104394 0.000000
    39 3.395900 -0.914873 0.005474 -0.082179 0.303787 0.413166
    40 1.533478 0.000002 0.000002 0.006036 1.504506 0.025545
    41 0.933959 0.000002 -0.000001 0.005031 0.251403 0.017241
    42 0.789901 -0.963112 -0.860479 -0.263813 -0.008924 -0.322157
    43 1.873061 -0.000034 0.000002 -0.006505 0.021885 -0.021357
    44 1.217062 0.000001 0.000001 0.011345 0.001903 -0.233271
  time 29
    0 -3.256403 -7.024333 -5.438583 0.001474 0.000233 -3.145560
    1 0.000000 2.645919 0.075564 0.000000 0.000000 0.000000
    2 0.476084 -2.060261 1.444903 0.000000 0.000000 3.140500
    3 0.229091 5.068880 2.384721 0.000000 0.000000 0.000000
    4 0.000000 1.386027 0.596948 0.000000 0.000000 0.000000
    5 -3.326954 -12.033822 -4.181378 0.001465 0.000246 -3.145560
    6 0.206289 -0.316416 -0.215622 0.000000 0.000000 0.000000
    7 -13.836787 6.190171 -4.657045 -3.141592 1.439897 3.141592
    8 -0.003388 0.018329 -0.000001 -0.566454 -0.593882 -0.717047
    9 8.473082 -0.000001 -0.000001 -3.141592 0.000000 -1.319344
    10 8.737236 0.000003 0.000000 3.013649 -0.800307 -0.639851
    11 0.740394 -1.124922 0.974274 -1.572761 -0.167899 0.032928
    12 1.693970 0.000000 0.000000 0.088732 -0.263870 -0.023922
    13 1.194236 0.000000 0.000000 -0.000874 0.002596 -0.007777
    14 3.077486 -0.881879 0.092652 -2.792205 -0.069619 -0.036174
    15 1.708897 0.000001 0.000000 0.000000 0.872665 -0.024686
    16 0.954917 0.000000 0.000000 -0.004618 0.343838 0.003351
    17 3.057266 -0.134123 0.063502 -2.447781 -0.771453 -0.050986
    18 1.803337 0.000000 0.000000 3.141592 0.770701 -3.128522
    19 1.060696 0.000000 0.000000 -0.005760 0.132075 -0.044206
    20 3.080836 0.608362 0.166303 -2.270358 -0.901982 -0.166783
    21 1.709264 0.000000 0.000000 3.136208 1.076529 3.121940
    22 0.884620 -0.000001 0.000000 -0.043415 0.502648 -0.049954
    23 3.080836 1.362635 0.248058 -2.103305 -0.835477 -0.355092
    24 1.190336 0.000000 0.000000 -0.003712 1.535791 -0.036537
    25 0.648630 -0.000001 0.000000 -0.008249 0.266042 0.004951
    26 9.468456 -1.389827 -7.064188 -3.141592 0.767945 3.141592
    27 -0.003387 0.018329 0.000000 0.207270 0.529157 -0.683492
    28 8.473082 -0.000001 0.000002 0.000000 0.000000 -0.666098
    29 8.737238 0.000001 0.000001 -0.289606 -0.093241 0.395011
    30 3.169858 1.366647 -0.189203 -0.283762 0.879803 0.336594
    31 1.060754 0.000037 0.000001 0.002208 1.563037 0.027190
    32 0.719018 -0.000002 0.000001 0.000000 0.146909 -0.016343
    33 3.383820 0.671293 0.018296 -0.156708 0.706252 0.514881
    34 1.461449 -0.000001 0.000001 -3.141592 1.470726 3.133528
    35 0.848556 0.000001 0.000000 0.001021 0.049505 0.021383
    36 3.496453 -0.114845 0.068540 -0.110468 0.511808 0.494943
    37 1.466716 -0.000002 0.000002 -0.000025 1.563472 0.000008
    38 1.000036 -0.000001 0.000000 0.000000 0.104394 0.000000
    39 3.395900 -0.914873 0.005474 -0.082179 0.303787 0.413166
    40 1.533478 0.000002 0.000002 0.006036 1.504506 0.025545
    41 0.933959 0.000002 -0.000001 0.005031 0.251403 0.017241
    42 0.789901 -0.963112 -0.860479 -0.263813 -0.008924 -0.322157
    43 1.873061 -0.000034 0.000002 -0.006505 0.021885 -0.021357
    44 1.217062 0.000001 0.000001 0.011345 0.001903 -0.233271
  time 30
    0 -3.275935 -7.039958 -5.422958 0.000000 0.000000 -3.141679
    1 0.000000 2.645919 0.075564 0.000000 0.000000 0.000000
    2 0.476084 -2.060261 1.444903 0.000000 0.000000 3.140500
    3 0.229091 5.068880 2.384721 0.000000 0.000000 0.000000
    4 0.000000 1.386027 0.596948 0.000000 0.000000 0.000000
    5 -3.323048 -12.045541 -4.169659 0.000000 0.000000 -3.141679
    6 0.206289 -0.316416 -0.215622 0.000000 0.000000 0.000000
    7 -13.836787 6.190171 -4.657045 -3.141592 1.439897 3.141592
    8 -0.003388 0.018329 -0.000001 -0.565327 -0.591591 -0.718487
    9 8.473082 -0.000001 -0.000001 -3.141592 0.000000 -1.322333
    10 8.737236 0.000003 0.000000 3.016352 -0.794122 -0.645448
    11 0.740394 -1.124922 0.974274 -1.572761 -0.167899 0.032928
    12 1.693970 0.000000 0.000000 0.088732 -0.263870 -0.023922
    13 1.194236 0.000000 0.000000 -0.000874 0.002596 -0.007777
    14 3.077486 -0.881879 0.092652 -2.792205 -0.069619 -0.036174
    15 1.708897 0.000001 0.000000 0.000000 0.872665 -0.024686
    16 0.954917 0.000000 0.000000 -0.004618 0.343838 0.003351
    17 3.057266 -0.134123 0.063502 -2.447781 -0.771453 -0.050986
    18 1.803337 0.000000 0.000000 3.141592 0.770701 -3.128522
    19 1.060696 0.000000 0.000000 -0.005760 0.132075 -0.044206
    20 3.080836 0.608362 0.166303 -2.270358 -0.901982 -0.166783
    21 1.709264 0.000000 0.000000 3.136208 1.076529 3.121940
    22 0.884620 -0.000001 0.000000 -0.043415 0.502648 -0.049954
    23 3.080836 1.362635 0.248058 -2.103305 -0.835477 -0.355092
    24 1.190336 0.000000 0.000000 -0.003712 1.535791 -0.036537
    25 0.648630 -0.000001 0.000000 -0.008249 0.266042 0.004951
    26 9.468456 -1.389827 -7.064188 -3.141592 0.767945 3.141592
    27 -0.003387 0.018329 0.000000 0.207889 0.529002 -0.683073
    28 8.473082 -0.000001 0.000002 0.000000 0.000000 -0.668118
    29 8.737238 0.000001 0.000001 -0.291033 -0.096408 0.394178
    30 3.169858 1.366647 -0.189203 -0.283762 0.879803 0.336594
    31 1.060754 0.000037 0.000001 0.002196 1.563037 0.027190
    32 0.719018 -0.000002 0.000001 0.000000 0.146909 -0.016343
    33 3.383820 0.671293 0.018296 -0.156708 0.706252 0.514881
    34 1.461449 -0.000001 0.000001 -3.141592 1.470726 3.133528
    35 0.848556 0.000001 0.000000 0.001021 0.049505 0.021383
    36 3.496453 -0.114845 0.068540 -0.110468 0.511808 0.494943
    37 1.466716 -0.000002 0.000002 -0.000025 1.563472 0.000008
    38 1.000036 -0.000001 0.000000 0.000000 0.104394 0.000000
    39 3.395900 -0.914873 0.005474 -0.082179 0.303787 0.413166
    40 1.533478 0.000002 0.000002 0.006036 1.504506 0.025545
    41 0.933959 0.000002 -0.000001 0.005031 0.251403 0.017241
    42 0.789901 -0.963112 -0.860479 -0.263813 -0.008924 -0.322157
    43 1.873061 -0.000034 0.000002 -0.006505 0.021885 -0.021357
    44 1.217062 0.000001 0.000001 0.011345 0.001903 -0.233271
end
