// Created by Crowbar 0.29.0.0
version 1
nodes
  0 "HavanaDaydreamin" -1
  1 "ComeMonday" 0
  2 "CowboyInTheJungle" 0
  3 "Margaritaville" 0
  4 "TheyDontDanceLikeCarmenNoMore" 0
  5 "TheGoodFight" -1
  6 "SphereGizmo03" -1
  7 "Dummy04" 6
  8 "Bone24" 7
  9 "Bone25" 8
  10 "Bone26" 9
  11 "Bone43" 10
  12 "Bone44" 11
  13 "Bone45" 12
  14 "Bone27" 10
  15 "Bone28" 14
  16 "Bone29" 15
  17 "Bone31" 10
  18 "Bone32" 17
  19 "Bone33" 18
  20 "Bone35" 10
  21 "Bone36" 20
  22 "Bone37" 21
  23 "Bone39" 10
  24 "Bone40" 23
  25 "Bone41" 24
  26 "Dummy02" 6
  27 "Bone01" 26
  28 "Bone02" 27
  29 "Bone03" 28
  30 "Bone13" 29
  31 "Bone14" 30
  32 "Bone15" 31
  33 "Bone10" 29
  34 "Bone11" 33
  35 "Bone12" 34
  36 "Bone07" 29
  37 "Bone08" 36
  38 "Bone09" 37
  39 "Bone04" 29
  40 "Bone05" 39
  41 "Bone06" 40
  42 "Bone16" 29
  43 "Bone17" 42
  44 "Bone18" 43
end
skeleton
  time 0
    0 -3.275935 -7.039958 -5.422958 0.000000 0.000000 -3.141679
    1 0.000000 2.645919 0.075564 0.000000 0.000000 0.000000
    2 0.476084 -2.060261 1.444903 0.000000 0.000000 3.141591
    3 0.229091 3.025849 2.384721 0.000000 0.000000 0.000000
    4 0.000000 1.292274 0.639918 -0.116131 0.000000 0.000000
    5 -3.323048 -12.045541 -4.169659 0.000000 0.000000 -3.141679
    6 0.206289 -0.316416 -0.215622 0.000000 0.000000 0.000000
    7 -13.836787 6.190171 -4.657045 -3.141592 1.439897 3.141592
    8 -0.003388 0.018329 -0.000001 -0.565327 -0.591591 -0.718487
    9 8.473082 -0.000001 -0.000001 -3.141592 0.000000 -1.322333
    10 8.737236 0.000003 0.000000 3.016352 -0.794122 -0.645448
    11 0.740394 -1.124922 0.974274 -1.572761 -0.167899 0.032928
    12 1.693970 0.000000 0.000000 0.088732 -0.263870 -0.023922
    13 1.194236 0.000000 0.000000 -0.000874 0.002596 -0.007777
    14 3.077486 -0.881879 0.092652 -2.787687 -0.162449 -0.060778
    15 1.708897 0.000001 0.000000 0.000000 1.132061 -0.024686
    16 0.954917 0.000000 0.000000 -0.004618 0.494185 0.003351
    17 3.057266 -0.134123 0.063502 -2.447781 -0.771453 -0.050986
    18 1.803337 0.000000 0.000000 3.141592 0.770701 -3.128522
    19 1.060696 0.000000 0.000000 -0.005760 0.132075 -0.044206
    20 3.080836 0.608362 0.166303 -2.270358 -0.901982 -0.166783
    21 1.709264 0.000000 0.000000 3.136208 1.076529 3.121940
    22 0.884620 -0.000001 0.000000 -0.043415 0.502648 -0.049954
    23 3.080836 1.362635 0.248058 -2.103305 -0.835477 -0.355092
    24 1.190336 0.000000 0.000000 -0.003712 1.535791 -0.036537
    25 0.648630 -0.000001 0.000000 -0.008249 0.266042 0.004951
    26 9.468456 -1.389827 -7.064188 -3.141592 0.767945 3.141592
    27 -0.003387 0.018329 0.000000 0.207889 0.529002 -0.683073
    28 8.473082 -0.000001 0.000002 0.000000 0.000000 -0.668118
    29 8.737238 0.000001 0.000001 -0.291033 -0.096408 0.394178
    30 3.169858 1.366647 -0.189203 -0.283762 0.879803 0.336594
    31 1.060754 0.000037 0.000001 0.002196 1.563037 0.027190
    32 0.719018 -0.000002 0.000001 0.000000 0.146909 -0.016343
    33 3.383820 0.671293 0.018296 -0.156708 0.706252 0.514881
    34 1.461449 -0.000001 0.000001 -3.141592 1.470726 3.133528
    35 0.848556 0.000001 0.000000 0.001021 0.049505 0.021383
    36 3.496453 -0.114845 0.068540 -0.110468 0.511808 0.494943
    37 1.466716 -0.000002 0.000002 -0.000025 1.563472 0.000008
    38 1.000036 -0.000001 0.000000 0.000000 0.104394 0.000000
    39 3.395900 -0.914873 0.005474 -0.082179 0.303787 0.413166
    40 1.533478 0.000002 0.000002 0.006036 1.504506 0.025545
    41 0.933959 0.000002 -0.000001 0.005031 0.251403 0.017241
    42 0.789901 -0.963112 -0.860479 -0.263813 -0.008924 -0.322157
    43 1.873061 -0.000034 0.000002 -0.006505 0.021885 -0.021357
    44 1.217062 0.000001 0.000001 0.011345 0.001903 -0.233271
  time 1
    0 -3.275935 -6.211808 -5.637808 0.047315 0.000000 -3.141679
    1 0.000000 2.645919 0.075564 0.000000 0.000000 0.000000
    2 0.476084 -2.060261 1.444903 0.000000 0.000000 3.141591
    3 0.229091 0.721091 2.384721 0.000000 0.000000 0.000000
    4 0.000000 1.292274 0.639918 -0.116131 0.000000 0.000000
    5 -3.323048 -11.158795 -4.154034 0.047324 0.000000 -3.141679
    6 0.206289 -0.316416 -0.215622 0.000000 0.000000 0.000000
    7 -13.836787 6.190171 -4.657045 -3.141592 1.439897 3.141592
    8 -0.003388 0.018329 -0.000001 -0.633232 -0.593723 -0.605266
    9 8.473082 -0.000001 -0.000001 -3.141592 0.000000 -1.413399
    10 8.737236 0.000003 0.000000 2.915280 -0.840409 -0.554126
    11 0.740394 -1.124922 0.974274 -1.572761 -0.167899 0.032928
    12 1.693970 0.000000 0.000000 0.088732 -0.263870 -0.023922
    13 1.194236 0.000000 0.000000 -0.000874 0.002596 -0.007777
    14 3.077486 -0.881879 0.092652 -2.787687 -0.162449 -0.060778
    15 1.708897 0.000001 0.000000 0.000000 1.132061 -0.024686
    16 0.954917 0.000000 0.000000 -0.004618 0.494185 0.003351
    17 3.057266 -0.134123 0.063502 -2.447781 -0.771453 -0.050986
    18 1.803337 0.000000 0.000000 3.141592 0.770701 -3.128522
    19 1.060696 0.000000 0.000000 -0.005760 0.132075 -0.044206
    20 3.080836 0.608362 0.166303 -2.270358 -0.901982 -0.166783
    21 1.709264 0.000000 0.000000 3.136208 1.076529 3.121940
    22 0.884620 -0.000001 0.000000 -0.043415 0.502648 -0.049954
    23 3.080836 1.362635 0.248058 -2.103305 -0.835477 -0.355092
    24 1.190336 0.000000 0.000000 -0.003712 1.535791 -0.036537
    25 0.648630 -0.000001 0.000000 -0.008249 0.266042 0.004951
    26 9.468456 -1.389827 -7.064188 -3.141592 0.767945 3.141592
    27 -0.003387 0.018329 0.000000 0.276997 0.533075 -0.543501
    28 8.473082 -0.000001 0.000002 0.000000 0.000000 -0.854044
    29 8.737238 0.000001 0.000001 -0.245239 -0.098352 0.441323
    30 3.169858 1.366647 -0.189203 -0.283762 0.879803 0.336594
    31 1.060754 0.000037 0.000001 0.002196 1.563037 0.027202
    32 0.719018 -0.000002 0.000001 0.000000 0.146909 -0.016343
    33 3.383820 0.671293 0.018296 -0.156708 0.706252 0.514881
    34 1.461449 -0.000001 0.000001 -3.141592 1.470726 3.133528
    35 0.848556 0.000001 0.000000 0.001021 0.049505 0.021383
    36 3.496453 -0.114845 0.068540 -0.110468 0.511808 0.494943
    37 1.466716 -0.000002 0.000002 -0.000025 1.563472 0.000008
    38 1.000036 -0.000001 0.000000 0.000000 0.104394 0.000000
    39 3.395900 -0.914873 0.005474 -0.082179 0.303787 0.413166
    40 1.533478 0.000002 0.000002 0.006036 1.504506 0.025545
    41 0.933959 0.000002 -0.000001 0.005031 0.251403 0.017241
    42 0.789901 -0.963112 -0.860479 -0.263813 -0.008924 -0.322157
    43 1.873061 -0.000034 0.000002 -0.006505 0.021885 -0.021357
    44 1.217062 0.000001 0.000001 0.011345 0.001903 -0.233271
  time 2
    0 -3.275935 -6.192276 -5.661247 0.039765 0.000000 -3.141679
    1 0.000000 2.645919 0.075564 0.000000 0.000000 0.000000
    2 0.476084 -2.060261 1.444903 0.000000 0.000000 3.141591
    3 0.229091 1.404706 2.384721 0.000000 0.000000 0.000000
    4 0.000000 1.288368 0.639918 -0.116131 0.000000 0.000000
    5 -3.323048 -11.147076 -4.212629 0.039755 0.000000 -3.141679
    6 0.206289 -0.316416 -0.215622 0.000000 0.000000 0.000000
    7 -13.836787 6.190171 -4.657045 -3.141592 1.439897 3.141592
    8 -0.003388 0.018329 -0.000001 -0.635665 -0.593626 -0.603156
    9 8.473082 -0.000001 -0.000001 -3.141592 0.000000 -1.416784
    10 8.737236 0.000003 0.000000 2.923914 -0.841738 -0.567524
    11 0.740394 -1.124922 0.974274 -1.572761 -0.167899 0.032928
    12 1.693970 0.000000 0.000000 0.088732 -0.263870 -0.023922
    13 1.194236 0.000000 0.000000 -0.000874 0.002596 -0.007777
    14 3.077486 -0.881879 0.092652 -2.787687 -0.162449 -0.060778
    15 1.708897 0.000001 0.000000 0.000000 1.132061 -0.024686
    16 0.954917 0.000000 0.000000 -0.004618 0.494185 0.003351
    17 3.057266 -0.134123 0.063502 -2.447781 -0.771453 -0.050986
    18 1.803337 0.000000 0.000000 3.141592 0.770701 -3.128522
    19 1.060696 0.000000 0.000000 -0.005760 0.132075 -0.044206
    20 3.080836 0.608362 0.166303 -2.270358 -0.901982 -0.166783
    21 1.709264 0.000000 0.000000 3.136208 1.076529 3.121940
    22 0.884620 -0.000001 0.000000 -0.043415 0.502648 -0.049954
    23 3.080836 1.362635 0.248058 -2.103305 -0.835477 -0.355092
    24 1.190336 0.000000 0.000000 -0.003712 1.535791 -0.036537
    25 0.648630 -0.000001 0.000000 -0.008249 0.266042 0.004951
    26 9.468456 -1.389827 -7.064188 -3.141592 0.767945 3.141592
    27 -0.003387 0.018329 0.000000 0.277087 0.529555 -0.536768
    28 8.473082 -0.000001 0.000002 0.000000 0.000000 -0.860302
    29 8.737238 0.000001 0.000001 -0.248177 -0.100003 0.444166
    30 3.169858 1.366647 -0.189203 -0.283762 0.879803 0.336594
    31 1.060754 0.000037 0.000001 0.002208 1.563037 0.027190
    32 0.719018 -0.000002 0.000001 0.000000 0.146909 -0.016343
    33 3.383820 0.671293 0.018296 -0.156708 0.706252 0.514881
    34 1.461449 -0.000001 0.000001 -3.141592 1.470726 3.133528
    35 0.848556 0.000001 0.000000 0.001021 0.049505 0.021383
    36 3.496453 -0.114845 0.068540 -0.110468 0.511808 0.494943
    37 1.466716 -0.000002 0.000002 -0.000025 1.563472 0.000008
    38 1.000036 -0.000001 0.000000 0.000000 0.104394 0.000000
    39 3.395900 -0.914873 0.005474 -0.082179 0.303787 0.413166
    40 1.533478 0.000002 0.000002 0.006036 1.504506 0.025545
    41 0.933959 0.000002 -0.000001 0.005031 0.251403 0.017241
    42 0.789901 -0.963112 -0.860479 -0.263813 -0.008924 -0.322157
    43 1.873061 -0.000034 0.000002 -0.006505 0.021885 -0.021357
    44 1.217062 0.000001 0.000001 0.011345 0.001903 -0.233271
  time 3
    0 -3.275935 -6.317280 -5.637808 0.024556 0.000000 -3.141679
    1 0.000000 2.645919 0.075564 0.000000 0.000000 0.000000
    2 0.476084 -2.060261 1.444903 0.000000 0.000000 3.141591
    3 0.229091 5.068880 2.384721 0.000000 0.000000 0.000000
    4 0.000000 1.292274 0.639918 -0.116131 0.000000 0.000000
    5 -3.323048 -11.291612 -4.267318 0.024574 0.000000 -3.141679
    6 0.206289 -0.316416 -0.215622 0.000000 0.000000 0.000000
    7 -13.836787 6.190171 -4.657045 -3.141592 1.439897 3.141592
    8 -0.003388 0.018329 -0.000001 -0.626149 -0.593151 -0.621089
    9 8.473082 -0.000001 -0.000001 -3.141592 0.000000 -1.405209
    10 8.737236 0.000003 0.000000 2.951392 -0.835179 -0.598265
    11 0.740394 -1.124922 0.974274 -1.572761 -0.167899 0.032928
    12 1.693970 0.000000 0.000000 0.088732 -0.263870 -0.023922
    13 1.194236 0.000000 0.000000 -0.000874 0.002596 -0.007777
    14 3.077486 -0.881879 0.092652 -2.787687 -0.162449 -0.060778
    15 1.708897 0.000001 0.000000 0.000000 1.132061 -0.024686
    16 0.954917 0.000000 0.000000 -0.004618 0.494185 0.003351
    17 3.057266 -0.134123 0.063502 -2.447781 -0.771453 -0.050986
    18 1.803337 0.000000 0.000000 3.141592 0.770701 -3.128522
    19 1.060696 0.000000 0.000000 -0.005760 0.132075 -0.044206
    20 3.080836 0.608362 0.166303 -2.270358 -0.901982 -0.166783
    21 1.709264 0.000000 0.000000 3.136208 1.076529 3.121940
    22 0.884620 -0.000001 0.000000 -0.043415 0.502648 -0.049954
    23 3.080836 1.362635 0.248058 -2.103305 -0.835477 -0.355092
    24 1.190336 0.000000 0.000000 -0.003712 1.535791 -0.036537
    25 0.648630 -0.000001 0.000000 -0.008249 0.266042 0.004951
    26 9.468456 -1.389827 -7.064188 -3.141592 0.767945 3.141592
    27 -0.003387 0.018329 0.000000 0.266098 0.525726 -0.552973
    28 8.473082 -0.000001 0.000002 0.000000 0.000000 -0.837431
    29 8.737238 0.000001 0.000001 -0.259174 -0.101228 0.440605
    30 3.169858 1.366647 -0.189203 -0.283762 0.879803 0.336594
    31 1.060754 0.000037 0.000001 0.002196 1.563037 0.027202
    32 0.719018 -0.000002 0.000001 0.000000 0.146909 -0.016343
    33 3.383820 0.671293 0.018296 -0.156708 0.706252 0.514881
    34 1.461449 -0.000001 0.000001 -3.141592 1.470726 3.133528
    35 0.848556 0.000001 0.000000 0.001021 0.049505 0.021383
    36 3.496453 -0.114845 0.068540 -0.110468 0.511808 0.494943
    37 1.466716 -0.000002 0.000002 -0.000025 1.563472 0.000008
    38 1.000036 -0.000001 0.000000 0.000000 0.104394 0.000000
    39 3.395900 -0.914873 0.005474 -0.082179 0.303787 0.413166
    40 1.533478 0.000002 0.000002 0.006036 1.504506 0.025545
    41 0.933959 0.000002 -0.000001 0.005031 0.251403 0.017241
    42 0.789901 -0.963112 -0.860479 -0.263813 -0.008924 -0.322157
    43 1.873061 -0.000034 0.000002 -0.006505 0.021885 -0.021357
    44 1.217062 0.000001 0.000001 0.011345 0.001903 -0.233271
  time 4
    0 -3.275935 -6.364156 -5.629996 0.017246 0.000000 -3.141679
    1 0.000000 2.645919 0.075564 0.000000 0.000000 0.000000
    2 0.476084 -2.060261 1.444903 0.000000 0.000000 3.141591
    3 0.229091 5.068880 2.384721 0.000000 0.000000 0.000000
    4 0.000000 1.288368 0.639918 -0.116131 0.000000 0.000000
    5 -3.323048 -11.350207 -4.294663 0.017249 0.000000 -3.141679
    6 0.206289 -0.316416 -0.215622 0.000000 0.000000 0.000000
    7 -13.836787 6.190171 -4.657045 -3.141592 1.439897 3.141592
    8 -0.003388 0.018329 -0.000001 -0.622482 -0.592895 -0.628647
    9 8.473082 -0.000001 -0.000001 -3.141592 0.000000 -1.400800
    10 8.737236 0.000003 0.000000 2.964136 -0.832356 -0.613138
    11 0.740394 -1.124922 0.974274 -1.572761 -0.167899 0.032928
    12 1.693970 0.000000 0.000000 0.088732 -0.263870 -0.023922
    13 1.194236 0.000000 0.000000 -0.000874 0.002596 -0.007777
    14 3.077486 -0.881879 0.092652 -2.787687 -0.162449 -0.060778
    15 1.708897 0.000001 0.000000 0.000000 1.132061 -0.024686
    16 0.954917 0.000000 0.000000 -0.004618 0.494185 0.003351
    17 3.057266 -0.134123 0.063502 -2.447781 -0.771453 -0.050986
    18 1.803337 0.000000 0.000000 3.141592 0.770701 -3.128522
    19 1.060696 0.000000 0.000000 -0.005760 0.132075 -0.044206
    20 3.080836 0.608362 0.166303 -2.270358 -0.901982 -0.166783
    21 1.709264 0.000000 0.000000 3.136208 1.076529 3.121940
    22 0.884620 -0.000001 0.000000 -0.043415 0.502648 -0.049954
    23 3.080836 1.362635 0.248058 -2.103305 -0.835477 -0.355092
    24 1.190336 0.000000 0.000000 -0.003712 1.535791 -0.036537
    25 0.648630 -0.000001 0.000000 -0.008249 0.266042 0.004951
    26 9.468456 -1.389827 -7.064188 -3.141592 0.767945 3.141592
    27 -0.003387 0.018329 0.000000 0.261640 0.523844 -0.558984
    28 8.473082 -0.000001 0.000002 0.000000 0.000000 -0.828499
    29 8.737238 0.000001 0.000001 -0.264211 -0.102160 0.439572
    30 3.169858 1.366647 -0.189203 -0.283762 0.879803 0.336594
    31 1.060754 0.000037 0.000001 0.002196 1.563037 0.027202
    32 0.719018 -0.000002 0.000001 0.000000 0.146909 -0.016343
    33 3.383820 0.671293 0.018296 -0.156708 0.706252 0.514881
    34 1.461449 -0.000001 0.000001 -3.141592 1.470726 3.133528
    35 0.848556 0.000001 0.000000 0.001021 0.049505 0.021383
    36 3.496453 -0.114845 0.068540 -0.110468 0.511808 0.494943
    37 1.466716 -0.000002 0.000002 -0.000025 1.563472 0.000008
    38 1.000036 -0.000001 0.000000 0.000000 0.104394 0.000000
    39 3.395900 -0.914873 0.005474 -0.082179 0.303787 0.413166
    40 1.533478 0.000002 0.000002 0.006036 1.504506 0.025545
    41 0.933959 0.000002 -0.000001 0.005031 0.251403 0.017241
    42 0.789901 -0.963112 -0.860479 -0.263813 -0.008924 -0.322157
    43 1.873061 -0.000034 0.000002 -0.006505 0.021885 -0.021357
    44 1.217062 0.000001 0.000001 0.011345 0.001903 -0.233271
  time 5
    0 -3.275935 -6.414939 -5.618276 0.009540 0.000000 -3.141679
    1 0.000000 2.645919 0.075564 0.000000 0.000000 0.000000
    2 0.476084 -2.060261 1.444903 0.000000 0.000000 3.141591
    3 0.229091 5.068880 2.384721 0.000000 0.000000 0.000000
    4 0.000000 1.292274 0.639918 -0.116131 0.000000 0.000000
    5 -3.323048 -11.412709 -4.322008 0.009537 0.000000 -3.141679
    6 0.206289 -0.316416 -0.215622 0.000000 0.000000 0.000000
    7 -13.836787 6.190171 -4.657045 -3.141592 1.439897 3.141592
    8 -0.003388 0.018329 -0.000001 -0.618658 -0.592627 -0.636565
    9 8.473082 -0.000001 -0.000001 -3.141592 0.000000 -1.396226
    10 8.737236 0.000003 0.000000 2.977387 -0.829284 -0.628706
    11 0.740394 -1.124922 0.974274 -1.572761 -0.167899 0.032928
    12 1.693970 0.000000 0.000000 0.088732 -0.263870 -0.023922
    13 1.194236 0.000000 0.000000 -0.000874 0.002596 -0.007777
    14 3.077486 -0.881879 0.092652 -2.787687 -0.162449 -0.060778
    15 1.708897 0.000001 0.000000 0.000000 1.132061 -0.024686
    16 0.954917 0.000000 0.000000 -0.004618 0.494185 0.003351
    17 3.057266 -0.134123 0.063502 -2.447781 -0.771453 -0.050986
    18 1.803337 0.000000 0.000000 3.141592 0.770701 -3.128522
    19 1.060696 0.000000 0.000000 -0.005760 0.132075 -0.044206
    20 3.080836 0.608362 0.166303 -2.270358 -0.901982 -0.166783
    21 1.709264 0.000000 0.000000 3.136208 1.076529 3.121940
    22 0.884620 -0.000001 0.000000 -0.043415 0.502648 -0.049954
    23 3.080836 1.362635 0.248058 -2.103305 -0.835477 -0.355092
    24 1.190336 0.000000 0.000000 -0.003712 1.535791 -0.036537
    25 0.648630 -0.000001 0.000000 -0.008249 0.266042 0.004951
    26 9.468456 -1.389827 -7.064188 -3.141592 0.767945 3.141592
    27 -0.003387 0.018329 0.000000 0.257027 0.521852 -0.565222
    28 8.473082 -0.000001 0.000002 0.000000 0.000000 -0.819197
    29 8.737238 0.000001 0.000001 -0.269500 -0.103171 0.438509
    30 3.169858 1.366647 -0.189203 -0.283762 0.879803 0.336594
    31 1.060754 0.000037 0.000001 0.002196 1.563037 0.027202
    32 0.719018 -0.000002 0.000001 0.000000 0.146909 -0.016343
    33 3.383820 0.671293 0.018296 -0.156708 0.706252 0.514881
    34 1.461449 -0.000001 0.000001 -3.141592 1.470726 3.133528
    35 0.848556 0.000001 0.000000 0.001021 0.049505 0.021383
    36 3.496453 -0.114845 0.068540 -0.110468 0.511808 0.494943
    37 1.466716 -0.000002 0.000002 -0.000025 1.563472 0.000008
    38 1.000036 -0.000001 0.000000 0.000000 0.104394 0.000000
    39 3.395900 -0.914873 0.005474 -0.082179 0.303787 0.413166
    40 1.533478 0.000002 0.000002 0.006036 1.504506 0.025545
    41 0.933959 0.000002 -0.000001 0.005031 0.251403 0.017241
    42 0.789901 -0.963112 -0.860479 -0.263813 -0.008924 -0.322157
    43 1.873061 -0.000034 0.000002 -0.006505 0.021885 -0.021357
    44 1.217062 0.000001 0.000001 0.011345 0.001903 -0.233271
  time 6
    0 -3.275935 -6.465722 -5.614370 0.001750 0.000000 -3.141679
    1 0.000000 2.645919 0.075564 0.000000 0.000000 0.000000
    2 0.476084 -2.060261 1.444903 0.000000 0.000000 3.141591
    3 0.229091 5.068880 2.384721 0.000000 0.000000 0.000000
    4 0.000000 1.288368 0.639918 -0.116131 0.000000 0.000000
    5 -3.323048 -11.471305 -4.349352 0.001738 0.000000 -3.141679
    6 0.206289 -0.316416 -0.215622 0.000000 0.000000 0.000000
    7 -13.836787 6.190171 -4.657045 -3.141592 1.439897 3.141592
    8 -0.003388 0.018329 -0.000001 -0.614752 -0.592359 -0.644645
    9 8.473082 -0.000001 -0.000001 -3.141592 0.000000 -1.391487
    10 8.737236 0.000003 0.000000 2.990638 -0.825963 -0.644298
    11 0.740394 -1.124922 0.974274 -1.572761 -0.167899 0.032928
    12 1.693970 0.000000 0.000000 0.088732 -0.263870 -0.023922
    13 1.194236 0.000000 0.000000 -0.000874 0.002596 -0.007777
    14 3.077486 -0.881879 0.092652 -2.787687 -0.162449 -0.060778
    15 1.708897 0.000001 0.000000 0.000000 1.132061 -0.024686
    16 0.954917 0.000000 0.000000 -0.004618 0.494185 0.003351
    17 3.057266 -0.134123 0.063502 -2.447781 -0.771453 -0.050986
    18 1.803337 0.000000 0.000000 3.141592 0.770701 -3.128522
    19 1.060696 0.000000 0.000000 -0.005760 0.132075 -0.044206
    20 3.080836 0.608362 0.166303 -2.270358 -0.901982 -0.166783
    21 1.709264 0.000000 0.000000 3.136208 1.076529 3.121940
    22 0.884620 -0.000001 0.000000 -0.043415 0.502648 -0.049954
    23 3.080836 1.362635 0.248058 -2.103305 -0.835477 -0.355092
    24 1.190336 0.000000 0.000000 -0.003712 1.535791 -0.036537
    25 0.648630 -0.000001 0.000000 -0.008249 0.266042 0.004951
    26 9.468456 -1.389827 -7.064188 -3.141592 0.767945 3.141592
    27 -0.003387 0.018329 0.000000 0.252441 0.519882 -0.571537
    28 8.473082 -0.000001 0.000002 0.000000 0.000000 -0.809753
    29 8.737238 0.000001 0.000001 -0.274831 -0.104240 0.437390
    30 3.169858 1.366647 -0.189203 -0.283762 0.879803 0.336594
    31 1.060754 0.000037 0.000001 0.002208 1.563037 0.027190
    32 0.719018 -0.000002 0.000001 0.000000 0.146909 -0.016343
    33 3.383820 0.671293 0.018296 -0.156708 0.706252 0.514881
    34 1.461449 -0.000001 0.000001 -3.141592 1.470726 3.133528
    35 0.848556 0.000001 0.000000 0.001021 0.049505 0.021383
    36 3.496453 -0.114845 0.068540 -0.110468 0.511808 0.494943
    37 1.466716 -0.000002 0.000002 -0.000025 1.563472 0.000008
    38 1.000036 -0.000001 0.000000 0.000000 0.104394 0.000000
    39 3.395900 -0.914873 0.005474 -0.082179 0.303787 0.413166
    40 1.533478 0.000002 0.000002 0.006036 1.504506 0.025545
    41 0.933959 0.000002 -0.000001 0.005031 0.251403 0.017241
    42 0.789901 -0.963112 -0.860479 -0.263813 -0.008924 -0.322157
    43 1.873061 -0.000034 0.000002 -0.006505 0.021885 -0.021357
    44 1.217062 0.000001 0.000001 0.011345 0.001903 -0.233271
  time 7
    0 -3.275935 -6.516505 -5.602651 -0.005801 0.000000 -3.141679
    1 0.000000 2.645919 0.075564 0.000000 0.000000 0.000000
    2 0.476084 -2.060261 1.444903 0.000000 0.000000 3.141591
    3 0.229091 5.068880 2.384721 0.000000 0.000000 0.000000
    4 0.000000 1.292274 0.639918 -0.116131 0.000000 0.000000
    5 -3.323048 -11.533807 -4.372790 -0.005802 0.000000 -3.141679
    6 0.206289 -0.316416 -0.215622 0.000000 0.000000 0.000000
    7 -13.836787 6.190171 -4.657045 -3.141592 1.439897 3.141592
    8 -0.003388 0.018329 -0.000001 -0.610833 -0.592091 -0.652711
    9 8.473082 -0.000001 -0.000001 -3.141592 0.000000 -1.386682
    10 8.737236 0.000003 0.000000 3.003439 -0.822476 -0.659278
    11 0.740394 -1.124922 0.974274 -1.572761 -0.167899 0.032928
    12 1.693970 0.000000 0.000000 0.088732 -0.263870 -0.023922
    13 1.194236 0.000000 0.000000 -0.000874 0.002596 -0.007777
    14 3.077486 -0.881879 0.092652 -2.787687 -0.162449 -0.060778
    15 1.708897 0.000001 0.000000 0.000000 1.132061 -0.024686
    16 0.954917 0.000000 0.000000 -0.004618 0.494185 0.003351
    17 3.057266 -0.134123 0.063502 -2.447781 -0.771453 -0.050986
    18 1.803337 0.000000 0.000000 3.141592 0.770701 -3.128522
    19 1.060696 0.000000 0.000000 -0.005760 0.132075 -0.044206
    20 3.080836 0.608362 0.166303 -2.270358 -0.901982 -0.166783
    21 1.709264 0.000000 0.000000 3.136208 1.076529 3.121940
    22 0.884620 -0.000001 0.000000 -0.043415 0.502648 -0.049954
    23 3.080836 1.362635 0.248058 -2.103305 -0.835477 -0.355092
    24 1.190336 0.000000 0.000000 -0.003712 1.535791 -0.036537
    25 0.648630 -0.000001 0.000000 -0.008249 0.266042 0.004951
    26 9.468456 -1.389827 -7.064188 -3.141592 0.767945 3.141592
    27 -0.003387 0.018329 0.000000 0.247932 0.517978 -0.577890
    28 8.473082 -0.000001 0.000002 0.000000 0.000000 -0.800280
    29 8.737238 0.000001 0.000001 -0.280120 -0.105270 0.436299
    30 3.169858 1.366647 -0.189203 -0.283762 0.879803 0.336594
    31 1.060754 0.000037 0.000001 0.002208 1.563037 0.027190
    32 0.719018 -0.000002 0.000001 0.000000 0.146909 -0.016343
    33 3.383820 0.671293 0.018296 -0.156708 0.706252 0.514881
    34 1.461449 -0.000001 0.000001 -3.141592 1.470726 3.133528
    35 0.848556 0.000001 0.000000 0.001021 0.049505 0.021383
    36 3.496453 -0.114845 0.068540 -0.110468 0.511808 0.494943
    37 1.466716 -0.000002 0.000002 -0.000025 1.563472 0.000008
    38 1.000036 -0.000001 0.000000 0.000000 0.104394 0.000000
    39 3.395900 -0.914873 0.005474 -0.082179 0.303787 0.413166
    40 1.533478 0.000002 0.000002 0.006036 1.504506 0.025545
    41 0.933959 0.000002 -0.000001 0.005031 0.251403 0.017241
    42 0.789901 -0.963112 -0.860479 -0.263813 -0.008924 -0.322157
    43 1.873061 -0.000034 0.000002 -0.006505 0.021885 -0.021357
    44 1.217062 0.000001 0.000001 0.011345 0.001903 -0.233271
  time 8
    0 -3.275935 -6.567287 -5.590932 -0.012859 0.000000 -3.141679
    1 0.000000 2.645919 0.075564 0.000000 0.000000 0.000000
    2 0.476084 -2.060261 1.444903 0.000000 0.000000 3.141591
    3 0.229091 5.068880 2.384721 0.000000 0.000000 0.000000
    4 0.000000 1.292274 0.639918 -0.116131 0.000000 0.000000
    5 -3.323048 -11.592402 -4.396229 -0.012869 0.000000 -3.141679
    6 0.206289 -0.316416 -0.215622 0.000000 0.000000 0.000000
    7 -13.836787 6.190171 -4.657045 -3.141592 1.439897 3.141592
    8 -0.003388 0.018329 -0.000001 -0.606962 -0.591823 -0.660542
    9 8.473082 -0.000001 -0.000001 -3.141592 0.000000 -1.381877
    10 8.737236 0.000003 0.000000 3.015320 -0.818988 -0.673121
    11 0.740394 -1.124922 0.974274 -1.572761 -0.167899 0.032928
    12 1.693970 0.000000 0.000000 0.088732 -0.263870 -0.023922
    13 1.194236 0.000000 0.000000 -0.000874 0.002596 -0.007777
    14 3.077486 -0.881879 0.092652 -2.787687 -0.162449 -0.060778
    15 1.708897 0.000001 0.000000 0.000000 1.132061 -0.024686
    16 0.954917 0.000000 0.000000 -0.004618 0.494185 0.003351
    17 3.057266 -0.134123 0.063502 -2.447781 -0.771453 -0.050986
    18 1.803337 0.000000 0.000000 3.141592 0.770701 -3.128522
    19 1.060696 0.000000 0.000000 -0.005760 0.132075 -0.044206
    20 3.080836 0.608362 0.166303 -2.270358 -0.901982 -0.166783
    21 1.709264 0.000000 0.000000 3.136208 1.076529 3.121940
    22 0.884620 -0.000001 0.000000 -0.043415 0.502648 -0.049954
    23 3.080836 1.362635 0.248058 -2.103305 -0.835477 -0.355092
    24 1.190336 0.000000 0.000000 -0.003712 1.535791 -0.036537
    25 0.648630 -0.000001 0.000000 -0.008249 0.266042 0.004951
    26 9.468456 -1.389827 -7.064188 -3.141592 0.767945 3.141592
    27 -0.003387 0.018329 0.000000 0.243615 0.516273 -0.584205
    28 8.473082 -0.000001 0.000002 0.000000 0.000000 -0.790893
    29 8.737238 0.000001 0.000001 -0.284989 -0.106222 0.435179
    30 3.169858 1.366647 -0.189203 -0.283762 0.879803 0.336594
    31 1.060754 0.000037 0.000001 0.002208 1.563037 0.027190
    32 0.719018 -0.000002 0.000001 0.000000 0.146909 -0.016343
    33 3.383820 0.671293 0.018296 -0.156708 0.706252 0.514881
    34 1.461449 -0.000001 0.000001 -3.141592 1.470726 3.133528
    35 0.848556 0.000001 0.000000 0.001021 0.049505 0.021383
    36 3.496453 -0.114845 0.068540 -0.110468 0.511808 0.494943
    37 1.466716 -0.000002 0.000002 -0.000025 1.563472 0.000008
    38 1.000036 -0.000001 0.000000 0.000000 0.104394 0.000000
    39 3.395900 -0.914873 0.005474 -0.082179 0.303787 0.413166
    40 1.533478 0.000002 0.000002 0.006036 1.504506 0.025545
    41 0.933959 0.000002 -0.000001 0.005031 0.251403 0.017241
    42 0.789901 -0.963112 -0.860479 -0.263813 -0.008924 -0.322157
    43 1.873061 -0.000034 0.000002 -0.006505 0.021885 -0.021357
    44 1.217062 0.000001 0.000001 0.011345 0.001903 -0.233271
  time 9
    0 -3.275935 -6.614164 -5.579213 -0.019115 0.000000 -3.141679
    1 0.000000 2.645919 0.075564 0.000000 0.000000 0.000000
    2 0.476084 -2.060261 1.444903 0.000000 0.000000 3.141591
    3 0.229091 5.068880 2.384721 0.000000 0.000000 0.000000
    4 0.000000 1.292274 0.639918 -0.116131 0.000000 0.000000
    5 -3.323048 -11.647091 -4.415761 -0.019116 0.000000 -3.141679
    6 0.206289 -0.316416 -0.215622 0.000000 0.000000 0.000000
    7 -13.836787 6.190171 -4.657045 -3.141592 1.439897 3.141592
    8 -0.003388 0.018329 -0.000001 -0.603210 -0.591591 -0.667951
    9 8.473082 -0.000001 -0.000001 -3.141592 0.000000 -1.377171
    10 8.737236 0.000003 0.000000 3.025793 -0.815626 -0.685237
    11 0.740394 -1.124922 0.974274 -1.572761 -0.167899 0.032928
    12 1.693970 0.000000 0.000000 0.088732 -0.263870 -0.023922
    13 1.194236 0.000000 0.000000 -0.000874 0.002596 -0.007777
    14 3.077486 -0.881879 0.092652 -2.787687 -0.162449 -0.060778
    15 1.708897 0.000001 0.000000 0.000000 1.132061 -0.024686
    16 0.954917 0.000000 0.000000 -0.004618 0.494185 0.003351
    17 3.057266 -0.134123 0.063502 -2.447781 -0.771453 -0.050986
    18 1.803337 0.000000 0.000000 3.141592 0.770701 -3.128522
    19 1.060696 0.000000 0.000000 -0.005760 0.132075 -0.044206
    20 3.080836 0.608362 0.166303 -2.270358 -0.901982 -0.166783
    21 1.709264 0.000000 0.000000 3.136208 1.076529 3.121940
    22 0.884620 -0.000001 0.000000 -0.043415 0.502648 -0.049954
    23 3.080836 1.362635 0.248058 -2.103305 -0.835477 -0.355092
    24 1.190336 0.000000 0.000000 -0.003712 1.535791 -0.036537
    25 0.648630 -0.000001 0.000000 -0.008249 0.266042 0.004951
    26 9.468456 -1.389827 -7.064188 -3.141592 0.767945 3.141592
    27 -0.003387 0.018329 0.000000 0.239609 0.514790 -0.590406
    28 8.473082 -0.000001 0.000002 0.000000 0.000000 -0.781847
    29 8.737238 0.000001 0.000001 -0.289396 -0.107019 0.433916
    30 3.169858 1.366647 -0.189203 -0.283762 0.879803 0.336594
    31 1.060754 0.000037 0.000001 0.002184 1.563037 0.027214
    32 0.719018 -0.000002 0.000001 0.000000 0.146909 -0.016343
    33 3.383820 0.671293 0.018296 -0.156708 0.706252 0.514881
    34 1.461449 -0.000001 0.000001 -3.141592 1.470726 3.133528
    35 0.848556 0.000001 0.000000 0.001021 0.049505 0.021383
    36 3.496453 -0.114845 0.068540 -0.110468 0.511808 0.494943
    37 1.466716 -0.000002 0.000002 -0.000025 1.563472 0.000008
    38 1.000036 -0.000001 0.000000 0.000000 0.104394 0.000000
    39 3.395900 -0.914873 0.005474 -0.082179 0.303787 0.413166
    40 1.533478 0.000002 0.000002 0.006036 1.504506 0.025545
    41 0.933959 0.000002 -0.000001 0.005031 0.251403 0.017241
    42 0.789901 -0.963112 -0.860479 -0.263813 -0.008924 -0.322157
    43 1.873061 -0.000034 0.000002 -0.006505 0.021885 -0.021357
    44 1.217062 0.000001 0.000001 0.011345 0.001903 -0.233271
  time 10
    0 -3.275935 -6.661040 -5.567494 -0.024281 0.000000 -3.141679
    1 0.000000 2.645919 0.075564 0.000000 0.000000 0.000000
    2 0.476084 -2.060261 1.444903 0.000000 0.000000 3.141591
    3 0.229091 5.068880 2.384721 0.000000 0.000000 0.000000
    4 0.000000 1.292274 0.639918 -0.116131 0.000000 0.000000
    5 -3.323048 -11.697874 -4.431386 -0.024272 0.000000 -3.141679
    6 0.206289 -0.316416 -0.215622 0.000000 0.000000 0.000000
    7 -13.836787 6.190171 -4.657045 -3.141592 1.439897 3.141592
    8 -0.003388 0.018329 -0.000001 -0.599651 -0.591396 -0.674740
    9 8.473082 -0.000001 -0.000001 -3.141592 0.000000 -1.372597
    10 8.737236 0.000003 0.000000 3.034539 -0.812388 -0.695052
    11 0.740394 -1.124922 0.974274 -1.572761 -0.167899 0.032928
    12 1.693970 0.000000 0.000000 0.088732 -0.263870 -0.023922
    13 1.194236 0.000000 0.000000 -0.000874 0.002596 -0.007777
    14 3.077486 -0.881879 0.092652 -2.787687 -0.162449 -0.060778
    15 1.708897 0.000001 0.000000 0.000000 1.132061 -0.024686
    16 0.954917 0.000000 0.000000 -0.004618 0.494185 0.003351
    17 3.057266 -0.134123 0.063502 -2.447781 -0.771453 -0.050986
    18 1.803337 0.000000 0.000000 3.141592 0.770701 -3.128522
    19 1.060696 0.000000 0.000000 -0.005760 0.132075 -0.044206
    20 3.080836 0.608362 0.166303 -2.270358 -0.901982 -0.166783
    21 1.709264 0.000000 0.000000 3.136208 1.076529 3.121940
    22 0.884620 -0.000001 0.000000 -0.043415 0.502648 -0.049954
    23 3.080836 1.362635 0.248058 -2.103305 -0.835477 -0.355092
    24 1.190336 0.000000 0.000000 -0.003712 1.535791 -0.036537
    25 0.648630 -0.000001 0.000000 -0.008249 0.266042 0.004951
    26 9.468456 -1.389827 -7.064188 -3.141592 0.767945 3.141592
    27 -0.003387 0.018329 0.000000 0.235563 0.513816 -0.597253
    28 8.473082 -0.000001 0.000002 0.000000 0.000000 -0.771834
    29 8.737238 0.000001 0.000001 -0.293174 -0.107621 0.431934
    30 3.169858 1.366647 -0.189203 -0.283762 0.879803 0.336594
    31 1.060754 0.000037 0.000001 0.002184 1.563037 0.027202
    32 0.719018 -0.000002 0.000001 0.000000 0.146909 -0.016343
    33 3.383820 0.671293 0.018296 -0.156708 0.706252 0.514881
    34 1.461449 -0.000001 0.000001 -3.141592 1.470726 3.133528
    35 0.848556 0.000001 0.000000 0.001021 0.049505 0.021383
    36 3.496453 -0.114845 0.068540 -0.110468 0.511808 0.494943
    37 1.466716 -0.000002 0.000002 -0.000025 1.563472 0.000008
    38 1.000036 -0.000001 0.000000 0.000000 0.104394 0.000000
    39 3.395900 -0.914873 0.005474 -0.082179 0.303787 0.413166
    40 1.533478 0.000002 0.000002 0.006036 1.504506 0.025545
    41 0.933959 0.000002 -0.000001 0.005031 0.251403 0.017241
    42 0.789901 -0.963112 -0.860479 -0.263813 -0.008924 -0.322157
    43 1.873061 -0.000034 0.000002 -0.006505 0.021885 -0.021357
    44 1.217062 0.000001 0.000001 0.011345 0.001903 -0.233271
  time 11
    0 -3.275935 -6.700104 -5.555775 -0.028032 0.000000 -3.141679
    1 0.000000 2.645919 0.075564 0.000000 0.000000 0.000000
    2 0.476084 -2.060261 1.444903 0.000000 0.000000 3.141591
    3 0.229091 5.068880 2.384721 0.000000 0.000000 0.000000
    4 0.000000 1.288368 0.639918 -0.116131 0.000000 0.000000
    5 -3.323048 -11.740844 -4.439199 -0.028035 0.000000 -3.141679
    6 0.206289 -0.316416 -0.215622 0.000000 0.000000 0.000000
    7 -13.836787 6.190171 -4.657045 -3.141592 1.439897 3.141592
    8 -0.003388 0.018329 -0.000001 -0.596331 -0.591238 -0.680697
    9 8.473082 -0.000001 -0.000001 -3.141592 0.000000 -1.368270
    10 8.737236 0.000003 0.000000 3.041108 -0.809606 -0.702063
    11 0.740394 -1.124922 0.974274 -1.572761 -0.167899 0.032928
    12 1.693970 0.000000 0.000000 0.088732 -0.263870 -0.023922
    13 1.194236 0.000000 0.000000 -0.000874 0.002596 -0.007777
    14 3.077486 -0.881879 0.092652 -2.787687 -0.162449 -0.060778
    15 1.708897 0.000001 0.000000 0.000000 1.132061 -0.024686
    16 0.954917 0.000000 0.000000 -0.004618 0.494185 0.003351
    17 3.057266 -0.134123 0.063502 -2.447781 -0.771453 -0.050986
    18 1.803337 0.000000 0.000000 3.141592 0.770701 -3.128522
    19 1.060696 0.000000 0.000000 -0.005760 0.132075 -0.044206
    20 3.080836 0.608362 0.166303 -2.270358 -0.901982 -0.166783
    21 1.709264 0.000000 0.000000 3.136208 1.076529 3.121940
    22 0.884620 -0.000001 0.000000 -0.043415 0.502648 -0.049954
    23 3.080836 1.362635 0.248058 -2.103305 -0.835477 -0.355092
    24 1.190336 0.000000 0.000000 -0.003712 1.535791 -0.036537
    25 0.648630 -0.000001 0.000000 -0.008249 0.266042 0.004951
    26 9.468456 -1.389827 -7.064188 -3.141592 0.767945 3.141592
    27 -0.003387 0.018329 0.000000 0.232226 0.513152 -0.603416
    28 8.473082 -0.000001 0.000002 0.000000 0.000000 -0.763186
    29 8.737238 0.000001 0.000001 -0.296196 -0.107951 0.430212
    30 3.169858 1.366647 -0.189203 -0.283762 0.879803 0.336594
    31 1.060754 0.000037 0.000001 0.002208 1.563037 0.027190
    32 0.719018 -0.000002 0.000001 0.000000 0.146909 -0.016343
    33 3.383820 0.671293 0.018296 -0.156708 0.706252 0.514881
    34 1.461449 -0.000001 0.000001 -3.141592 1.470726 3.133528
    35 0.848556 0.000001 0.000000 0.001021 0.049505 0.021383
    36 3.496453 -0.114845 0.068540 -0.110468 0.511808 0.494943
    37 1.466716 -0.000002 0.000002 -0.000025 1.563472 0.000008
    38 1.000036 -0.000001 0.000000 0.000000 0.104394 0.000000
    39 3.395900 -0.914873 0.005474 -0.082179 0.303787 0.413166
    40 1.533478 0.000002 0.000002 0.006036 1.504506 0.025545
    41 0.933959 0.000002 -0.000001 0.005031 0.251403 0.017241
    42 0.789901 -0.963112 -0.860479 -0.263813 -0.008924 -0.322157
    43 1.873061 -0.000034 0.000002 -0.006505 0.021885 -0.021357
    44 1.217062 0.000001 0.000001 0.011345 0.001903 -0.233271
  time 12
    0 -3.275935 -6.735261 -5.547962 -0.030081 0.000000 -3.141679
    1 0.000000 2.645919 0.075564 0.000000 0.000000 0.000000
    2 0.476084 -2.060261 1.444903 0.000000 0.000000 3.141591
    3 0.229091 5.068880 2.384721 0.000000 0.000000 0.000000
    4 0.000000 1.292274 0.639918 -0.116131 0.000000 0.000000
    5 -3.323048 -11.779908 -4.439199 -0.030089 0.000000 -3.141679
    6 0.206289 -0.316416 -0.215622 0.000000 0.000000 0.000000
    7 -13.836787 6.190171 -4.657045 -3.141592 1.439897 3.141592
    8 -0.003388 0.018329 -0.000001 -0.593359 -0.591128 -0.685661
    9 8.473082 -0.000001 -0.000001 -3.141592 0.000000 -1.364291
    10 8.737236 0.000003 0.000000 3.045144 -0.807199 -0.705767
    11 0.740394 -1.124922 0.974274 -1.572761 -0.167899 0.032928
    12 1.693970 0.000000 0.000000 0.088732 -0.263870 -0.023922
    13 1.194236 0.000000 0.000000 -0.000874 0.002596 -0.007777
    14 3.077486 -0.881879 0.092652 -2.787687 -0.162449 -0.060778
    15 1.708897 0.000001 0.000000 0.000000 1.132061 -0.024686
    16 0.954917 0.000000 0.000000 -0.004618 0.494185 0.003351
    17 3.057266 -0.134123 0.063502 -2.447781 -0.771453 -0.050986
    18 1.803337 0.000000 0.000000 3.141592 0.770701 -3.128522
    19 1.060696 0.000000 0.000000 -0.005760 0.132075 -0.044206
    20 3.080836 0.608362 0.166303 -2.270358 -0.901982 -0.166783
    21 1.709264 0.000000 0.000000 3.136208 1.076529 3.121940
    22 0.884620 -0.000001 0.000000 -0.043415 0.502648 -0.049954
    23 3.080836 1.362635 0.248058 -2.103305 -0.835477 -0.355092
    24 1.190336 0.000000 0.000000 -0.003712 1.535791 -0.036537
    25 0.648630 -0.000001 0.000000 -0.008249 0.266042 0.004951
    26 9.468456 -1.389827 -7.064188 -3.141592 0.767945 3.141592
    27 -0.003387 0.018329 0.000000 0.229418 0.513019 -0.609350
    28 8.473082 -0.000001 0.000002 0.000000 0.000000 -0.755221
    29 8.737238 0.000001 0.000001 -0.298211 -0.107951 0.428259
    30 3.169858 1.366647 -0.189203 -0.283762 0.879803 0.336594
    31 1.060754 0.000037 0.000001 0.002196 1.563037 0.027202
    32 0.719018 -0.000002 0.000001 0.000000 0.146909 -0.016343
    33 3.383820 0.671293 0.018296 -0.156708 0.706252 0.514881
    34 1.461449 -0.000001 0.000001 -3.141592 1.470726 3.133528
    35 0.848556 0.000001 0.000000 0.001021 0.049505 0.021383
    36 3.496453 -0.114845 0.068540 -0.110468 0.511808 0.494943
    37 1.466716 -0.000002 0.000002 -0.000025 1.563472 0.000008
    38 1.000036 -0.000001 0.000000 0.000000 0.104394 0.000000
    39 3.395900 -0.914873 0.005474 -0.082179 0.303787 0.413166
    40 1.533478 0.000002 0.000002 0.006036 1.504506 0.025545
    41 0.933959 0.000002 -0.000001 0.005031 0.251403 0.017241
    42 0.789901 -0.963112 -0.860479 -0.263813 -0.008924 -0.322157
    43 1.873061 -0.000034 0.000002 -0.006505 0.021885 -0.021357
    44 1.217062 0.000001 0.000001 0.011345 0.001903 -0.233271
  time 13
    0 -3.275935 -6.766512 -5.536243 -0.030705 0.000000 -3.141679
    1 0.000000 2.645919 0.075564 0.000000 0.000000 0.000000
    2 0.476084 -2.060261 1.444903 0.000000 0.000000 3.141591
    3 0.229091 5.068880 2.384721 0.000000 0.000000 0.000000
    4 0.000000 1.303993 0.632105 -0.102193 0.000000 0.000000
    5 -3.323048 -11.811159 -4.435292 -0.030707 0.000000 -3.141679
    6 0.206289 -0.316416 -0.215622 0.000000 0.000000 0.000000
    7 -13.836787 6.190171 -4.657045 -3.141592 1.439897 3.141592
    8 -0.003388 0.018329 -0.000001 -0.590650 -0.591055 -0.689806
    9 8.473082 -0.000001 -0.000001 -3.141592 0.000000 -1.360576
    10 8.737236 0.000003 0.000000 3.047058 -0.805331 -0.706629
    11 0.740394 -1.124922 0.974274 -1.572761 -0.167899 0.032928
    12 1.693970 0.000000 0.000000 0.088732 -0.263870 -0.023922
    13 1.194236 0.000000 0.000000 -0.000874 0.002596 -0.007777
    14 3.077486 -0.881879 0.092652 -2.788070 -0.154338 -0.058621
    15 1.708897 0.000001 0.000000 0.000000 1.109405 -0.024686
    16 0.954917 0.000000 0.000000 -0.004618 0.481062 0.003351
    17 3.057266 -0.134123 0.063502 -2.447781 -0.771453 -0.050986
    18 1.803337 0.000000 0.000000 3.141592 0.770701 -3.128522
    19 1.060696 0.000000 0.000000 -0.005760 0.132075 -0.044206
    20 3.080836 0.608362 0.166303 -2.270358 -0.901982 -0.166783
    21 1.709264 0.000000 0.000000 3.136208 1.076529 3.121940
    22 0.884620 -0.000001 0.000000 -0.043415 0.502648 -0.049954
    23 3.080836 1.362635 0.248058 -2.103305 -0.835477 -0.355092
    24 1.190336 0.000000 0.000000 -0.003712 1.535791 -0.036537
    25 0.648630 -0.000001 0.000000 -0.008249 0.266042 0.004951
    26 9.468456 -1.389827 -7.064188 -3.141592 0.767945 3.141592
    27 -0.003387 0.018329 0.000000 0.227008 0.513329 -0.615208
    28 8.473082 -0.000001 0.000002 0.000000 0.000000 -0.747711
    29 8.737238 0.000001 0.000001 -0.299344 -0.107640 0.426135
    30 3.169858 1.366647 -0.189203 -0.283762 0.879803 0.336594
    31 1.060754 0.000037 0.000001 0.002196 1.563037 0.027202
    32 0.719018 -0.000002 0.000001 0.000000 0.146909 -0.016343
    33 3.383820 0.671293 0.018296 -0.156708 0.706252 0.514881
    34 1.461449 -0.000001 0.000001 -3.141592 1.470726 3.133528
    35 0.848556 0.000001 0.000000 0.001021 0.049505 0.021383
    36 3.496453 -0.114845 0.068540 -0.110468 0.511808 0.494943
    37 1.466716 -0.000002 0.000002 -0.000025 1.563472 0.000008
    38 1.000036 -0.000001 0.000000 0.000000 0.104394 0.000000
    39 3.395900 -0.914873 0.005474 -0.082179 0.303787 0.413166
    40 1.533478 0.000002 0.000002 0.006036 1.504506 0.025545
    41 0.933959 0.000002 -0.000001 0.005031 0.251403 0.017241
    42 0.789901 -0.963112 -0.860479 -0.263813 -0.008924 -0.322157
    43 1.873061 -0.000034 0.000002 -0.006505 0.021885 -0.021357
    44 1.217062 0.000001 0.000001 0.011345 0.001903 -0.233271
  time 14
    0 -3.275935 -6.797763 -5.528430 -0.030381 0.000000 -3.141679
    1 0.000000 2.645919 0.075564 0.000000 0.000000 0.000000
    2 0.476084 -2.060261 1.444903 0.000000 0.000000 3.141591
    3 0.229091 5.068880 2.384721 0.000000 0.000000 0.000000
    4 0.000000 1.323525 0.620386 -0.074304 0.000000 0.000000
    5 -3.323048 -11.842410 -4.423573 -0.030376 0.000000 -3.141679
    6 0.206289 -0.316416 -0.215622 0.000000 0.000000 0.000000
    7 -13.836787 6.190171 -4.657045 -3.141592 1.439897 3.141592
    8 -0.003388 0.018329 -0.000001 -0.588086 -0.591006 -0.693455
    9 8.473082 -0.000001 -0.000001 -3.141592 0.000000 -1.356959
    10 8.737236 0.000003 0.000000 3.047603 -0.803712 -0.705707
    11 0.740394 -1.124922 0.974274 -1.572761 -0.167899 0.032928
    12 1.693970 0.000000 0.000000 0.088732 -0.263870 -0.023922
    13 1.194236 0.000000 0.000000 -0.000874 0.002596 -0.007777
    14 3.077486 -0.881879 0.092652 -2.788897 -0.137378 -0.054139
    15 1.708897 0.000001 0.000000 0.000000 1.062063 -0.024686
    16 0.954917 0.000000 0.000000 -0.004618 0.453617 0.003351
    17 3.057266 -0.134123 0.063502 -2.447781 -0.771453 -0.050986
    18 1.803337 0.000000 0.000000 3.141592 0.770701 -3.128522
    19 1.060696 0.000000 0.000000 -0.005760 0.132075 -0.044206
    20 3.080836 0.608362 0.166303 -2.270358 -0.901982 -0.166783
    21 1.709264 0.000000 0.000000 3.136208 1.076529 3.121940
    22 0.884620 -0.000001 0.000000 -0.043415 0.502648 -0.049954
    23 3.080836 1.362635 0.248058 -2.103305 -0.835477 -0.355092
    24 1.190336 0.000000 0.000000 -0.003712 1.535791 -0.036537
    25 0.648630 -0.000001 0.000000 -0.008249 0.266042 0.004951
    26 9.468456 -1.389827 -7.064188 -3.141592 0.767945 3.141592
    27 -0.003387 0.018329 0.000000 0.224805 0.513949 -0.621067
    28 8.473082 -0.000001 0.000002 0.000000 0.000000 -0.740315
    29 8.737238 0.000001 0.000001 -0.299932 -0.107135 0.423780
    30 3.169858 1.366647 -0.189203 -0.283762 0.879803 0.336594
    31 1.060754 0.000037 0.000001 0.002184 1.563037 0.027202
    32 0.719018 -0.000002 0.000001 0.000000 0.146909 -0.016343
    33 3.383820 0.671293 0.018296 -0.156708 0.706252 0.514881
    34 1.461449 -0.000001 0.000001 -3.141592 1.470726 3.133528
    35 0.848556 0.000001 0.000000 0.001021 0.049505 0.021383
    36 3.496453 -0.114845 0.068540 -0.110468 0.511808 0.494943
    37 1.466716 -0.000002 0.000002 -0.000025 1.563472 0.000008
    38 1.000036 -0.000001 0.000000 0.000000 0.104394 0.000000
    39 3.395900 -0.914873 0.005474 -0.082179 0.303787 0.413166
    40 1.533478 0.000002 0.000002 0.006036 1.504506 0.025545
    41 0.933959 0.000002 -0.000001 0.005031 0.251403 0.017241
    42 0.789901 -0.963112 -0.860479 -0.263813 -0.008924 -0.322157
    43 1.873061 -0.000034 0.000002 -0.006505 0.021885 -0.021357
    44 1.217062 0.000001 0.000001 0.011345 0.001903 -0.233271
  time 15
    0 -3.275935 -6.825108 -5.516711 -0.029230 0.000000 -3.141679
    1 0.000000 2.645919 0.075564 0.000000 0.000000 0.000000
    2 0.476084 -2.060261 1.444903 0.000000 0.000000 3.141591
    3 0.229091 5.068880 2.384721 0.000000 0.000000 0.000000
    4 0.000000 1.354776 0.608667 -0.041790 0.000000 0.000000
    5 -3.323048 -11.865848 -4.407948 -0.029242 0.000000 -3.141679
    6 0.206289 -0.316416 -0.215622 0.000000 0.000000 0.000000
    7 -13.836787 6.190171 -4.657045 -3.141592 1.439897 3.141592
    8 -0.003388 0.018329 -0.000001 -0.585617 -0.590994 -0.696694
    9 8.473082 -0.000001 -0.000001 -3.141592 0.000000 -1.353459
    10 8.737236 0.000003 0.000000 3.047002 -0.802259 -0.703226
    11 0.740394 -1.124922 0.974274 -1.572761 -0.167899 0.032928
    12 1.693970 0.000000 0.000000 0.088732 -0.263870 -0.023922
    13 1.194236 0.000000 0.000000 -0.000874 0.002596 -0.007777
    14 3.077486 -0.881879 0.092652 -2.789952 -0.116028 -0.048470
    15 1.708897 0.000001 0.000000 0.000000 1.002363 -0.024686
    16 0.954917 0.000000 0.000000 -0.004618 0.418993 0.003351
    17 3.057266 -0.134123 0.063502 -2.447781 -0.771453 -0.050986
    18 1.803337 0.000000 0.000000 3.141592 0.770701 -3.128522
    19 1.060696 0.000000 0.000000 -0.005760 0.132075 -0.044206
    20 3.080836 0.608362 0.166303 -2.270358 -0.901982 -0.166783
    21 1.709264 0.000000 0.000000 3.136208 1.076529 3.121940
    22 0.884620 -0.000001 0.000000 -0.043415 0.502648 -0.049954
    23 3.080836 1.362635 0.248058 -2.103305 -0.835477 -0.355092
    24 1.190336 0.000000 0.000000 -0.003712 1.535791 -0.036537
    25 0.648630 -0.000001 0.000000 -0.008249 0.266042 0.004951
    26 9.468456 -1.389827 -7.064188 -3.141592 0.767945 3.141592
    27 -0.003387 0.018329 0.000000 0.222808 0.514790 -0.626963
    28 8.473082 -0.000001 0.000002 0.000000 0.000000 -0.733090
    29 8.737238 0.000001 0.000001 -0.300058 -0.106474 0.421340
    30 3.169858 1.366647 -0.189203 -0.283762 0.879803 0.336594
    31 1.060754 0.000037 0.000001 0.002196 1.563037 0.027202
    32 0.719018 -0.000002 0.000001 0.000000 0.146909 -0.016343
    33 3.383820 0.671293 0.018296 -0.156708 0.706252 0.514881
    34 1.461449 -0.000001 0.000001 -3.141592 1.470726 3.133528
    35 0.848556 0.000001 0.000000 0.001021 0.049505 0.021383
    36 3.496453 -0.114845 0.068540 -0.110468 0.511808 0.494943
    37 1.466716 -0.000002 0.000002 -0.000025 1.563472 0.000008
    38 1.000036 -0.000001 0.000000 0.000000 0.104394 0.000000
    39 3.395900 -0.914873 0.005474 -0.082179 0.303787 0.413166
    40 1.533478 0.000002 0.000002 0.006036 1.504506 0.025545
    41 0.933959 0.000002 -0.000001 0.005031 0.251403 0.017241
    42 0.789901 -0.963112 -0.860479 -0.263813 -0.008924 -0.322157
    43 1.873061 -0.000034 0.000002 -0.006505 0.021885 -0.021357
    44 1.217062 0.000001 0.000001 0.011345 0.001903 -0.233271
  time 16
    0 -3.275935 -6.852452 -5.508898 -0.027421 0.000000 -3.141679
    1 0.000000 2.645919 0.075564 0.000000 0.000000 0.000000
    2 0.476084 -2.060261 1.444903 0.000000 0.000000 3.141591
    3 0.229091 5.068880 2.384721 0.000000 0.000000 0.000000
    4 0.000000 1.378214 0.596948 -0.013914 0.000000 0.000000
    5 -3.323048 -11.893193 -4.388416 -0.027418 0.000000 -3.141679
    6 0.206289 -0.316416 -0.215622 0.000000 0.000000 0.000000
    7 -13.836787 6.190171 -4.657045 -3.141592 1.439897 3.141592
    8 -0.003388 0.018329 -0.000001 -0.582944 -0.591311 -0.700144
    9 8.473082 -0.000001 -0.000001 -3.141592 0.000000 -1.348967
    10 8.737236 0.000003 0.000000 3.045425 -0.801055 -0.698887
    11 0.740394 -1.124922 0.974274 -1.572761 -0.167899 0.032928
    12 1.693970 0.000000 0.000000 0.088732 -0.263870 -0.023922
    13 1.194236 0.000000 0.000000 -0.000874 0.002596 -0.007777
    14 3.077486 -0.881879 0.092652 -2.790995 -0.094664 -0.042801
    15 1.708897 0.000001 0.000000 0.000000 0.942663 -0.024686
    16 0.954917 0.000000 0.000000 -0.004618 0.384406 0.003351
    17 3.057266 -0.134123 0.063502 -2.447781 -0.771453 -0.050986
    18 1.803337 0.000000 0.000000 3.141592 0.770701 -3.128522
    19 1.060696 0.000000 0.000000 -0.005760 0.132075 -0.044206
    20 3.080836 0.608362 0.166303 -2.270358 -0.901982 -0.166783
    21 1.709264 0.000000 0.000000 3.136208 1.076529 3.121940
    22 0.884620 -0.000001 0.000000 -0.043415 0.502648 -0.049954
    23 3.080836 1.362635 0.248058 -2.103305 -0.835477 -0.355092
    24 1.190336 0.000000 0.000000 -0.003712 1.535791 -0.036537
    25 0.648630 -0.000001 0.000000 -0.008249 0.266042 0.004951
    26 9.468456 -1.389827 -7.064188 -3.141592 0.767945 3.141592
    27 -0.003387 0.018329 0.000000 0.220992 0.515875 -0.632821
    28 8.473082 -0.000001 0.000002 0.000000 0.000000 -0.726035
    29 8.737238 0.000001 0.000001 -0.299848 -0.105639 0.418756
    30 3.169858 1.366647 -0.189203 -0.283762 0.879803 0.336594
    31 1.060754 0.000037 0.000001 0.002196 1.563037 0.027202
    32 0.719018 -0.000002 0.000001 0.000000 0.146909 -0.016343
    33 3.383820 0.671293 0.018296 -0.156708 0.706252 0.514881
    34 1.461449 -0.000001 0.000001 -3.141592 1.470726 3.133528
    35 0.848556 0.000001 0.000000 0.001021 0.049505 0.021383
    36 3.496453 -0.114845 0.068540 -0.110468 0.511808 0.494943
    37 1.466716 -0.000002 0.000002 -0.000025 1.563472 0.000008
    38 1.000036 -0.000001 0.000000 0.000000 0.104394 0.000000
    39 3.395900 -0.914873 0.005474 -0.082179 0.303787 0.413166
    40 1.533478 0.000002 0.000002 0.006036 1.504506 0.025545
    41 0.933959 0.000002 -0.000001 0.005031 0.251403 0.017241
    42 0.789901 -0.963112 -0.860479 -0.263813 -0.008924 -0.322157
    43 1.873061 -0.000034 0.000002 -0.006505 0.021885 -0.021357
    44 1.217062 0.000001 0.000001 0.011345 0.001903 -0.233271
  time 17
    0 -3.275935 -6.875891 -5.497179 -0.025024 0.000000 -3.141679
    1 0.000000 2.645919 0.075564 0.000000 0.000000 0.000000
    2 0.476084 -2.060261 1.444903 0.000000 0.000000 3.141591
    3 0.229091 5.068880 2.384721 0.000000 0.000000 0.000000
    4 0.000000 1.386027 0.596948 0.000000 0.000000 0.000000
    5 -3.323048 -11.912724 -4.364978 -0.025019 0.000000 -3.141679
    6 0.206289 -0.316416 -0.215622 0.000000 0.000000 0.000000
    7 -13.836787 6.190171 -4.657045 -3.141592 1.439897 3.141592
    8 -0.003388 0.018329 -0.000001 -0.580811 -0.591201 -0.702502
    9 8.473082 -0.000001 -0.000001 -3.141592 0.000000 -1.346045
    10 8.737236 0.000003 0.000000 3.043079 -0.800017 -0.694225
    11 0.740394 -1.124922 0.974274 -1.572761 -0.167899 0.032928
    12 1.693970 0.000000 0.000000 0.088732 -0.263870 -0.023922
    13 1.194236 0.000000 0.000000 -0.000874 0.002596 -0.007777
    14 3.077486 -0.881879 0.092652 -2.791822 -0.077718 -0.038307
    15 1.708897 0.000001 0.000000 0.000000 0.895291 -0.024686
    16 0.954917 0.000000 0.000000 -0.004618 0.356949 0.003351
    17 3.057266 -0.134123 0.063502 -2.447781 -0.771453 -0.050986
    18 1.803337 0.000000 0.000000 3.141592 0.770701 -3.128522
    19 1.060696 0.000000 0.000000 -0.005760 0.132075 -0.044206
    20 3.080836 0.608362 0.166303 -2.270358 -0.901982 -0.166783
    21 1.709264 0.000000 0.000000 3.136208 1.076529 3.121940
    22 0.884620 -0.000001 0.000000 -0.043415 0.502648 -0.049954
    23 3.080836 1.362635 0.248058 -2.103305 -0.835477 -0.355092
    24 1.190336 0.000000 0.000000 -0.003712 1.535791 -0.036537
    25 0.648630 -0.000001 0.000000 -0.008249 0.266042 0.004951
    26 9.468456 -1.389827 -7.064188 -3.141592 0.767945 3.141592
    27 -0.003387 0.018329 0.000000 0.219317 0.517137 -0.638641
    28 8.473082 -0.000001 0.000002 0.000000 0.000000 -0.719236
    29 8.737238 0.000001 0.000001 -0.299261 -0.104706 0.416086
    30 3.169858 1.366647 -0.189203 -0.283762 0.879803 0.336594
    31 1.060754 0.000037 0.000001 0.002196 1.563037 0.027202
    32 0.719018 -0.000002 0.000001 0.000000 0.146909 -0.016343
    33 3.383820 0.671293 0.018296 -0.156708 0.706252 0.514881
    34 1.461449 -0.000001 0.000001 -3.141592 1.470726 3.133528
    35 0.848556 0.000001 0.000000 0.001021 0.049505 0.021383
    36 3.496453 -0.114845 0.068540 -0.110468 0.511808 0.494943
    37 1.466716 -0.000002 0.000002 -0.000025 1.563472 0.000008
    38 1.000036 -0.000001 0.000000 0.000000 0.104394 0.000000
    39 3.395900 -0.914873 0.005474 -0.082179 0.303787 0.413166
    40 1.533478 0.000002 0.000002 0.006036 1.504506 0.025545
    41 0.933959 0.000002 -0.000001 0.005031 0.251403 0.017241
    42 0.789901 -0.963112 -0.860479 -0.263813 -0.008924 -0.322157
    43 1.873061 -0.000034 0.000002 -0.006505 0.021885 -0.021357
    44 1.217062 0.000001 0.000001 0.011345 0.001903 -0.233271
  time 18
    0 -3.275935 -6.899329 -5.489366 -0.022160 0.000000 -3.141679
    1 0.000000 2.645919 0.075564 0.000000 0.000000 0.000000
    2 0.476084 -2.060261 1.444903 0.000000 0.000000 3.141591
    3 0.229091 5.068880 2.384721 0.000000 0.000000 0.000000
    4 0.000000 1.386027 0.596948 0.000000 0.000000 0.000000
    5 -3.323048 -11.932256 -4.345446 -0.022175 0.000000 -3.141679
    6 0.206289 -0.316416 -0.215622 0.000000 0.000000 0.000000
    7 -13.836787 6.190171 -4.657045 -3.141592 1.439897 3.141592
    8 -0.003388 0.018329 -0.000001 -0.578654 -0.591262 -0.704860
    9 8.473082 -0.000001 -0.000001 -3.141592 0.000000 -1.342792
    10 8.737236 0.000003 0.000000 3.040095 -0.799104 -0.688533
    11 0.740394 -1.124922 0.974274 -1.572761 -0.167899 0.032928
    12 1.693970 0.000000 0.000000 0.088732 -0.263870 -0.023922
    13 1.194236 0.000000 0.000000 -0.000874 0.002596 -0.007777
    14 3.077486 -0.881879 0.092652 -2.792205 -0.069619 -0.036174
    15 1.708897 0.000001 0.000000 0.000000 0.872665 -0.024686
    16 0.954917 0.000000 0.000000 -0.004618 0.343838 0.003351
    17 3.057266 -0.134123 0.063502 -2.447781 -0.771453 -0.050986
    18 1.803337 0.000000 0.000000 3.141592 0.770701 -3.128522
    19 1.060696 0.000000 0.000000 -0.005760 0.132075 -0.044206
    20 3.080836 0.608362 0.166303 -2.270358 -0.901982 -0.166783
    21 1.709264 0.000000 0.000000 3.136208 1.076529 3.121940
    22 0.884620 -0.000001 0.000000 -0.043415 0.502648 -0.049954
    23 3.080836 1.362635 0.248058 -2.103305 -0.835477 -0.355092
    24 1.190336 0.000000 0.000000 -0.003712 1.535791 -0.036537
    25 0.648630 -0.000001 0.000000 -0.008249 0.266042 0.004951
    26 9.468456 -1.389827 -7.064188 -3.141592 0.767945 3.141592
    27 -0.003387 0.018329 0.000000 0.217771 0.518465 -0.644424
    28 8.473082 -0.000001 0.000002 0.000000 0.000000 -0.712580
    29 8.737238 0.000001 0.000001 -0.298421 -0.103676 0.413387
    30 3.169858 1.366647 -0.189203 -0.283762 0.879803 0.336594
    31 1.060754 0.000037 0.000001 0.002208 1.563037 0.027190
    32 0.719018 -0.000002 0.000001 0.000000 0.146909 -0.016343
    33 3.383820 0.671293 0.018296 -0.156708 0.706252 0.514881
    34 1.461449 -0.000001 0.000001 -3.141592 1.470726 3.133528
    35 0.848556 0.000001 0.000000 0.001021 0.049505 0.021383
    36 3.496453 -0.114845 0.068540 -0.110468 0.511808 0.494943
    37 1.466716 -0.000002 0.000002 -0.000025 1.563472 0.000008
    38 1.000036 -0.000001 0.000000 0.000000 0.104394 0.000000
    39 3.395900 -0.914873 0.005474 -0.082179 0.303787 0.413166
    40 1.533478 0.000002 0.000002 0.006036 1.504506 0.025545
    41 0.933959 0.000002 -0.000001 0.005031 0.251403 0.017241
    42 0.789901 -0.963112 -0.860479 -0.263813 -0.008924 -0.322157
    43 1.873061 -0.000034 0.000002 -0.006505 0.021885 -0.021357
    44 1.217062 0.000001 0.000001 0.011345 0.001903 -0.233271
  time 19
    0 -3.275935 -6.922767 -5.477647 -0.019008 0.000000 -3.141679
    1 0.000000 2.645919 0.075564 0.000000 0.000000 0.000000
    2 0.476084 -2.060261 1.444903 0.000000 0.000000 3.141591
    3 0.229091 5.068880 2.384721 0.000000 0.000000 0.000000
    4 0.000000 1.386027 0.596948 0.000000 0.000000 0.000000
    5 -3.323048 -11.951788 -4.322008 -0.019001 0.000000 -3.141679
    6 0.206289 -0.316416 -0.215622 0.000000 0.000000 0.000000
    7 -13.836787 6.190171 -4.657045 -3.141592 1.439897 3.141592
    8 -0.003388 0.018329 -0.000001 -0.576569 -0.591311 -0.707007
    9 8.473082 -0.000001 -0.000001 -3.141592 0.000000 -1.339621
    10 8.737236 0.000003 0.000000 3.036679 -0.798315 -0.682253
    11 0.740394 -1.124922 0.974274 -1.572761 -0.167899 0.032928
    12 1.693970 0.000000 0.000000 0.088732 -0.263870 -0.023922
    13 1.194236 0.000000 0.000000 -0.000874 0.002596 -0.007777
    14 3.077486 -0.881879 0.092652 -2.792205 -0.069619 -0.036174
    15 1.708897 0.000001 0.000000 0.000000 0.872665 -0.024686
    16 0.954917 0.000000 0.000000 -0.004618 0.343838 0.003351
    17 3.057266 -0.134123 0.063502 -2.447781 -0.771453 -0.050986
    18 1.803337 0.000000 0.000000 3.141592 0.770701 -3.128522
    19 1.060696 0.000000 0.000000 -0.005760 0.132075 -0.044206
    20 3.080836 0.608362 0.166303 -2.270358 -0.901982 -0.166783
    21 1.709264 0.000000 0.000000 3.136208 1.076529 3.121940
    22 0.884620 -0.000001 0.000000 -0.043415 0.502648 -0.049954
    23 3.080836 1.362635 0.248058 -2.103305 -0.835477 -0.355092
    24 1.190336 0.000000 0.000000 -0.003712 1.535791 -0.036537
    25 0.648630 -0.000001 0.000000 -0.008249 0.266042 0.004951
    26 9.468456 -1.389827 -7.064188 -3.141592 0.767945 3.141592
    27 -0.003387 0.018329 0.000000 0.216328 0.519948 -0.650092
    28 8.473082 -0.000001 0.000002 0.000000 0.000000 -0.706094
    29 8.737238 0.000001 0.000001 -0.297414 -0.102588 0.410688
    30 3.169858 1.366647 -0.189203 -0.283762 0.879803 0.336594
    31 1.060754 0.000037 0.000001 0.002196 1.563037 0.027190
    32 0.719018 -0.000002 0.000001 0.000000 0.146909 -0.016343
    33 3.383820 0.671293 0.018296 -0.156708 0.706252 0.514881
    34 1.461449 -0.000001 0.000001 -3.141592 1.470726 3.133528
    35 0.848556 0.000001 0.000000 0.001021 0.049505 0.021383
    36 3.496453 -0.114845 0.068540 -0.110468 0.511808 0.494943
    37 1.466716 -0.000002 0.000002 -0.000025 1.563472 0.000008
    38 1.000036 -0.000001 0.000000 0.000000 0.104394 0.000000
    39 3.395900 -0.914873 0.005474 -0.082179 0.303787 0.413166
    40 1.533478 0.000002 0.000002 0.006036 1.504506 0.025545
    41 0.933959 0.000002 -0.000001 0.005031 0.251403 0.017241
    42 0.789901 -0.963112 -0.860479 -0.263813 -0.008924 -0.322157
    43 1.873061 -0.000034 0.000002 -0.006505 0.021885 -0.021357
    44 1.217062 0.000001 0.000001 0.011345 0.001903 -0.233271
  time 20
    0 -3.275935 -6.942299 -5.469834 -0.015640 0.000000 -3.141679
    1 0.000000 2.645919 0.075564 0.000000 0.000000 0.000000
    2 0.476084 -2.060261 1.444903 0.000000 0.000000 3.141591
    3 0.229091 5.068880 2.384721 0.000000 0.000000 0.000000
    4 0.000000 1.386027 0.596948 0.000000 0.000000 0.000000
    5 -3.323048 -11.967414 -4.294663 -0.015640 0.000000 -3.141679
    6 0.206289 -0.316416 -0.215622 0.000000 0.000000 0.000000
    7 -13.836787 6.190171 -4.657045 -3.141592 1.439897 3.141592
    8 -0.003388 0.018329 -0.000001 -0.574543 -0.591372 -0.709005
    9 8.473082 -0.000001 -0.000001 -3.141592 0.000000 -1.336534
    10 8.737236 0.000003 0.000000 3.032981 -0.797568 -0.675601
    11 0.740394 -1.124922 0.974274 -1.572761 -0.167899 0.032928
    12 1.693970 0.000000 0.000000 0.088732 -0.263870 -0.023922
    13 1.194236 0.000000 0.000000 -0.000874 0.002596 -0.007777
    14 3.077486 -0.881879 0.092652 -2.792205 -0.069619 -0.036174
    15 1.708897 0.000001 0.000000 0.000000 0.872665 -0.024686
    16 0.954917 0.000000 0.000000 -0.004618 0.343838 0.003351
    17 3.057266 -0.134123 0.063502 -2.447781 -0.771453 -0.050986
    18 1.803337 0.000000 0.000000 3.141592 0.770701 -3.128522
    19 1.060696 0.000000 0.000000 -0.005760 0.132075 -0.044206
    20 3.080836 0.608362 0.166303 -2.270358 -0.901982 -0.166783
    21 1.709264 0.000000 0.000000 3.136208 1.076529 3.121940
    22 0.884620 -0.000001 0.000000 -0.043415 0.502648 -0.049954
    23 3.080836 1.362635 0.248058 -2.103305 -0.835477 -0.355092
    24 1.190336 0.000000 0.000000 -0.003712 1.535791 -0.036537
    25 0.648630 -0.000001 0.000000 -0.008249 0.266042 0.004951
    26 9.468456 -1.389827 -7.064188 -3.141592 0.767945 3.141592
    27 -0.003387 0.018329 0.000000 0.214975 0.521475 -0.655684
    28 8.473082 -0.000001 0.000002 0.000000 0.000000 -0.699836
    29 8.737238 0.000001 0.000001 -0.296280 -0.101480 0.407989
    30 3.169858 1.366647 -0.189203 -0.283762 0.879803 0.336594
    31 1.060754 0.000037 0.000001 0.002208 1.563037 0.027190
    32 0.719018 -0.000002 0.000001 0.000000 0.146909 -0.016343
    33 3.383820 0.671293 0.018296 -0.156708 0.706252 0.514881
    34 1.461449 -0.000001 0.000001 -3.141592 1.470726 3.133528
    35 0.848556 0.000001 0.000000 0.001021 0.049505 0.021383
    36 3.496453 -0.114845 0.068540 -0.110468 0.511808 0.494943
    37 1.466716 -0.000002 0.000002 -0.000025 1.563472 0.000008
    38 1.000036 -0.000001 0.000000 0.000000 0.104394 0.000000
    39 3.395900 -0.914873 0.005474 -0.082179 0.303787 0.413166
    40 1.533478 0.000002 0.000002 0.006036 1.504506 0.025545
    41 0.933959 0.000002 -0.000001 0.005031 0.251403 0.017241
    42 0.789901 -0.963112 -0.860479 -0.263813 -0.008924 -0.322157
    43 1.873061 -0.000034 0.000002 -0.006505 0.021885 -0.021357
    44 1.217062 0.000001 0.000001 0.011345 0.001903 -0.233271
  time 21
    0 -3.275935 -6.961831 -5.462022 -0.012164 0.000000 -3.141679
    1 0.000000 2.645919 0.075564 0.000000 0.000000 0.000000
    2 0.476084 -2.060261 1.444903 0.000000 0.000000 3.141591
    3 0.229091 5.068880 2.384721 0.000000 0.000000 0.000000
    4 0.000000 1.386027 0.596948 0.000000 0.000000 0.000000
    5 -3.323048 -11.986945 -4.267318 -0.012179 0.000000 -3.141679
    6 0.206289 -0.316416 -0.215622 0.000000 0.000000 0.000000
    7 -13.836787 6.190171 -4.657045 -3.141592 1.439897 3.141592
    8 -0.003388 0.018329 -0.000001 -0.572602 -0.591420 -0.710904
    9 8.473082 -0.000001 -0.000001 -3.141592 0.000000 -1.333528
    10 8.737236 0.000003 0.000000 3.029190 -0.796862 -0.668866
    11 0.740394 -1.124922 0.974274 -1.572761 -0.167899 0.032928
    12 1.693970 0.000000 0.000000 0.088732 -0.263870 -0.023922
    13 1.194236 0.000000 0.000000 -0.000874 0.002596 -0.007777
    14 3.077486 -0.881879 0.092652 -2.792205 -0.069619 -0.036174
    15 1.708897 0.000001 0.000000 0.000000 0.872665 -0.024686
    16 0.954917 0.000000 0.000000 -0.004618 0.343838 0.003351
    17 3.057266 -0.134123 0.063502 -2.447781 -0.771453 -0.050986
    18 1.803337 0.000000 0.000000 3.141592 0.770701 -3.128522
    19 1.060696 0.000000 0.000000 -0.005760 0.132075 -0.044206
    20 3.080836 0.608362 0.166303 -2.270358 -0.901982 -0.166783
    21 1.709264 0.000000 0.000000 3.136208 1.076529 3.121940
    22 0.884620 -0.000001 0.000000 -0.043415 0.502648 -0.049954
    23 3.080836 1.362635 0.248058 -2.103305 -0.835477 -0.355092
    24 1.190336 0.000000 0.000000 -0.003712 1.535791 -0.036537
    25 0.648630 -0.000001 0.000000 -0.008249 0.266042 0.004951
    26 9.468456 -1.389827 -7.064188 -3.141592 0.767945 3.141592
    27 -0.003387 0.018329 0.000000 0.213352 0.523180 -0.661808
    28 8.473082 -0.000001 0.000002 0.000000 0.000000 -0.692525
    29 8.737238 0.000001 0.000001 -0.295021 -0.100353 0.404744
    30 3.169858 1.366647 -0.189203 -0.283762 0.879803 0.336594
    31 1.060754 0.000037 0.000001 0.002208 1.563037 0.027190
    32 0.719018 -0.000002 0.000001 0.000000 0.146909 -0.016343
    33 3.383820 0.671293 0.018296 -0.156708 0.706252 0.514881
    34 1.461449 -0.000001 0.000001 -3.141592 1.470726 3.133528
    35 0.848556 0.000001 0.000000 0.001021 0.049505 0.021383
    36 3.496453 -0.114845 0.068540 -0.110468 0.511808 0.494943
    37 1.466716 -0.000002 0.000002 -0.000025 1.563472 0.000008
    38 1.000036 -0.000001 0.000000 0.000000 0.104394 0.000000
    39 3.395900 -0.914873 0.005474 -0.082179 0.303787 0.413166
    40 1.533478 0.000002 0.000002 0.006036 1.504506 0.025545
    41 0.933959 0.000002 -0.000001 0.005031 0.251403 0.017241
    42 0.789901 -0.963112 -0.860479 -0.263813 -0.008924 -0.322157
    43 1.873061 -0.000034 0.000002 -0.006505 0.021885 -0.021357
    44 1.217062 0.000001 0.000001 0.011345 0.001903 -0.233271
  time 22
    0 -3.275935 -6.981363 -5.450303 -0.008773 0.000000 -3.141679
    1 0.000000 2.645919 0.075564 0.000000 0.000000 0.000000
    2 0.476084 -2.060261 1.444903 0.000000 0.000000 3.141591
    3 0.229091 5.068880 2.384721 0.000000 0.000000 0.000000
    4 0.000000 1.386027 0.596948 0.000000 0.000000 0.000000
    5 -3.323048 -12.002571 -4.239974 -0.008761 0.000000 -3.141679
    6 0.206289 -0.316416 -0.215622 0.000000 0.000000 0.000000
    7 -13.836787 6.190171 -4.657045 -3.141592 1.439897 3.141592
    8 -0.003388 0.018329 -0.000001 -0.570696 -0.591481 -0.712753
    9 8.473082 -0.000001 -0.000001 -3.141592 0.000000 -1.330606
    10 8.737236 0.000003 0.000000 3.025436 -0.796198 -0.662227
    11 0.740394 -1.124922 0.974274 -1.572761 -0.167899 0.032928
    12 1.693970 0.000000 0.000000 0.088732 -0.263870 -0.023922
    13 1.194236 0.000000 0.000000 -0.000874 0.002596 -0.007777
    14 3.077486 -0.881879 0.092652 -2.792205 -0.069619 -0.036174
    15 1.708897 0.000001 0.000000 0.000000 0.872665 -0.024686
    16 0.954917 0.000000 0.000000 -0.004618 0.343838 0.003351
    17 3.057266 -0.134123 0.063502 -2.447781 -0.771453 -0.050986
    18 1.803337 0.000000 0.000000 3.141592 0.770701 -3.128522
    19 1.060696 0.000000 0.000000 -0.005760 0.132075 -0.044206
    20 3.080836 0.608362 0.166303 -2.270358 -0.901982 -0.166783
    21 1.709264 0.000000 0.000000 3.136208 1.076529 3.121940
    22 0.884620 -0.000001 0.000000 -0.043415 0.502648 -0.049954
    23 3.080836 1.362635 0.248058 -2.103305 -0.835477 -0.355092
    24 1.190336 0.000000 0.000000 -0.003712 1.535791 -0.036537
    25 0.648630 -0.000001 0.000000 -0.008249 0.266042 0.004951
    26 9.468456 -1.389827 -7.064188 -3.141592 0.767945 3.141592
    27 -0.003387 0.018329 0.000000 0.211986 0.524752 -0.667248
    28 8.473082 -0.000001 0.000002 0.000000 0.000000 -0.686295
    29 8.737238 0.000001 0.000001 -0.293888 -0.099246 0.401959
    30 3.169858 1.366647 -0.189203 -0.283762 0.879803 0.336594
    31 1.060754 0.000037 0.000001 0.002196 1.563037 0.027202
    32 0.719018 -0.000002 0.000001 0.000000 0.146909 -0.016343
    33 3.383820 0.671293 0.018296 -0.156708 0.706252 0.514881
    34 1.461449 -0.000001 0.000001 -3.141592 1.470726 3.133528
    35 0.848556 0.000001 0.000000 0.001021 0.049505 0.021383
    36 3.496453 -0.114845 0.068540 -0.110468 0.511808 0.494943
    37 1.466716 -0.000002 0.000002 -0.000025 1.563472 0.000008
    38 1.000036 -0.000001 0.000000 0.000000 0.104394 0.000000
    39 3.395900 -0.914873 0.005474 -0.082179 0.303787 0.413166
    40 1.533478 0.000002 0.000002 0.006036 1.504506 0.025545
    41 0.933959 0.000002 -0.000001 0.005031 0.251403 0.017241
    42 0.789901 -0.963112 -0.860479 -0.263813 -0.008924 -0.322157
    43 1.873061 -0.000034 0.000002 -0.006505 0.021885 -0.021357
    44 1.217062 0.000001 0.000001 0.011345 0.001903 -0.233271
  time 23
    0 -3.275935 -7.000894 -5.442490 -0.005525 0.000000 -3.141679
    1 0.000000 2.645919 0.075564 0.000000 0.000000 0.000000
    2 0.476084 -2.060261 1.444903 0.000000 0.000000 3.141591
    3 0.229091 5.068880 2.384721 0.000000 0.000000 0.000000
    4 0.000000 1.386027 0.596948 0.000000 0.000000 0.000000
    5 -3.323048 -12.014290 -4.216536 -0.005501 0.000000 -3.141679
    6 0.206289 -0.316416 -0.215622 0.000000 0.000000 0.000000
    7 -13.836787 6.190171 -4.657045 -3.141592 1.439897 3.141592
    8 -0.003388 0.018329 -0.000001 -0.568863 -0.591542 -0.714590
    9 8.473082 -0.000001 -0.000001 -3.141592 0.000000 -1.327766
    10 8.737236 0.000003 0.000000 3.021964 -0.795492 -0.655959
    11 0.740394 -1.124922 0.974274 -1.572761 -0.167899 0.032928
    12 1.693970 0.000000 0.000000 0.088732 -0.263870 -0.023922
    13 1.194236 0.000000 0.000000 -0.000874 0.002596 -0.007777
    14 3.077486 -0.881879 0.092652 -2.792205 -0.069619 -0.036174
    15 1.708897 0.000001 0.000000 0.000000 0.872665 -0.024686
    16 0.954917 0.000000 0.000000 -0.004618 0.343838 0.003351
    17 3.057266 -0.134123 0.063502 -2.447781 -0.771453 -0.050986
    18 1.803337 0.000000 0.000000 3.141592 0.770701 -3.128522
    19 1.060696 0.000000 0.000000 -0.005760 0.132075 -0.044206
    20 3.080836 0.608362 0.166303 -2.270358 -0.901982 -0.166783
    21 1.709264 0.000000 0.000000 3.136208 1.076529 3.121940
    22 0.884620 -0.000001 0.000000 -0.043415 0.502648 -0.049954
    23 3.080836 1.362635 0.248058 -2.103305 -0.835477 -0.355092
    24 1.190336 0.000000 0.000000 -0.003712 1.535791 -0.036537
    25 0.648630 -0.000001 0.000000 -0.008249 0.266042 0.004951
    26 9.468456 -1.389827 -7.064188 -3.141592 0.767945 3.141592
    27 -0.003387 0.018329 0.000000 0.210620 0.526279 -0.672688
    28 8.473082 -0.000001 0.000002 0.000000 0.000000 -0.680122
    29 8.737238 0.000001 0.000001 -0.292754 -0.098216 0.399232
    30 3.169858 1.366647 -0.189203 -0.283762 0.879803 0.336594
    31 1.060754 0.000037 0.000001 0.002208 1.563037 0.027190
    32 0.719018 -0.000002 0.000001 0.000000 0.146909 -0.016343
    33 3.383820 0.671293 0.018296 -0.156708 0.706252 0.514881
    34 1.461449 -0.000001 0.000001 -3.141592 1.470726 3.133528
    35 0.848556 0.000001 0.000000 0.001021 0.049505 0.021383
    36 3.496453 -0.114845 0.068540 -0.110468 0.511808 0.494943
    37 1.466716 -0.000002 0.000002 -0.000025 1.563472 0.000008
    38 1.000036 -0.000001 0.000000 0.000000 0.104394 0.000000
    39 3.395900 -0.914873 0.005474 -0.082179 0.303787 0.413166
    40 1.533478 0.000002 0.000002 0.006036 1.504506 0.025545
    41 0.933959 0.000002 -0.000001 0.005031 0.251403 0.017241
    42 0.789901 -0.963112 -0.860479 -0.263813 -0.008924 -0.322157
    43 1.873061 -0.000034 0.000002 -0.006505 0.021885 -0.021357
    44 1.217062 0.000001 0.000001 0.011345 0.001903 -0.233271
  time 24
    0 -3.275935 -7.020426 -5.430771 -0.002553 0.000000 -3.141679
    1 0.000000 2.645919 0.075564 0.000000 0.000000 0.000000
    2 0.476084 -2.060261 1.444903 0.000000 0.000000 3.141591
    3 0.229091 5.068880 2.384721 0.000000 0.000000 0.000000
    4 0.000000 1.386027 0.596948 0.000000 0.000000 0.000000
    5 -3.323048 -12.029915 -4.193097 -0.002556 0.000000 -3.141679
    6 0.206289 -0.316416 -0.215622 0.000000 0.000000 0.000000
    7 -13.836787 6.190171 -4.657045 -3.141592 1.439897 3.141592
    8 -0.003388 0.018329 -0.000001 -0.567077 -0.591579 -0.716501
    9 8.473082 -0.000001 -0.000001 -3.141592 0.000000 -1.325008
    10 8.737236 0.000003 0.000000 3.018867 -0.794828 -0.650302
    11 0.740394 -1.124922 0.974274 -1.572761 -0.167899 0.032928
    12 1.693970 0.000000 0.000000 0.088732 -0.263870 -0.023922
    13 1.194236 0.000000 0.000000 -0.000874 0.002596 -0.007777
    14 3.077486 -0.881879 0.092652 -2.792205 -0.069619 -0.036174
    15 1.708897 0.000001 0.000000 0.000000 0.872665 -0.024686
    16 0.954917 0.000000 0.000000 -0.004618 0.343838 0.003351
    17 3.057266 -0.134123 0.063502 -2.447781 -0.771453 -0.050986
    18 1.803337 0.000000 0.000000 3.141592 0.770701 -3.128522
    19 1.060696 0.000000 0.000000 -0.005760 0.132075 -0.044206
    20 3.080836 0.608362 0.166303 -2.270358 -0.901982 -0.166783
    21 1.709264 0.000000 0.000000 3.136208 1.076529 3.121940
    22 0.884620 -0.000001 0.000000 -0.043415 0.502648 -0.049954
    23 3.080836 1.362635 0.248058 -2.103305 -0.835477 -0.355092
    24 1.190336 0.000000 0.000000 -0.003712 1.535791 -0.036537
    25 0.648630 -0.000001 0.000000 -0.008249 0.266042 0.004951
    26 9.468456 -1.389827 -7.064188 -3.141592 0.767945 3.141592
    27 -0.003387 0.018329 0.000000 0.209280 0.527718 -0.677976
    28 8.473082 -0.000001 0.000002 0.000000 0.000000 -0.674063
    29 8.737238 0.000001 0.000001 -0.291789 -0.097244 0.396676
    30 3.169858 1.366647 -0.189203 -0.283762 0.879803 0.336594
    31 1.060754 0.000037 0.000001 0.002208 1.563037 0.027190
    32 0.719018 -0.000002 0.000001 0.000000 0.146909 -0.016343
    33 3.383820 0.671293 0.018296 -0.156708 0.706252 0.514881
    34 1.461449 -0.000001 0.000001 -3.141592 1.470726 3.133528
    35 0.848556 0.000001 0.000000 0.001021 0.049505 0.021383
    36 3.496453 -0.114845 0.068540 -0.110468 0.511808 0.494943
    37 1.466716 -0.000002 0.000002 -0.000025 1.563472 0.000008
    38 1.000036 -0.000001 0.000000 0.000000 0.104394 0.000000
    39 3.395900 -0.914873 0.005474 -0.082179 0.303787 0.413166
    40 1.533478 0.000002 0.000002 0.006036 1.504506 0.025545
    41 0.933959 0.000002 -0.000001 0.005031 0.251403 0.017241
    42 0.789901 -0.963112 -0.860479 -0.263813 -0.008924 -0.322157
    43 1.873061 -0.000034 0.000002 -0.006505 0.021885 -0.021357
    44 1.217062 0.000001 0.000001 0.011345 0.001903 -0.233271
  time 25
    0 -3.275935 -7.039958 -5.422958 0.000000 0.000000 -3.141679
    1 0.000000 2.645919 0.075564 0.000000 0.000000 0.000000
    2 0.476084 -2.060261 1.444903 0.000000 0.000000 3.141591
    3 0.229091 5.068880 2.384721 0.000000 0.000000 0.000000
    4 0.000000 1.386027 0.596948 0.000000 0.000000 0.000000
    5 -3.323048 -12.045541 -4.169659 0.000000 0.000000 -3.141679
    6 0.206289 -0.316416 -0.215622 0.000000 0.000000 0.000000
    7 -13.836787 6.190171 -4.657045 -3.141592 1.439897 3.141592
    8 -0.003388 0.018329 -0.000001 -0.565327 -0.591591 -0.718487
    9 8.473082 -0.000001 -0.000001 -3.141592 0.000000 -1.322333
    10 8.737236 0.000003 0.000000 3.016352 -0.794122 -0.645448
    11 0.740394 -1.124922 0.974274 -1.572761 -0.167899 0.032928
    12 1.693970 0.000000 0.000000 0.088732 -0.263870 -0.023922
    13 1.194236 0.000000 0.000000 -0.000874 0.002596 -0.007777
    14 3.077486 -0.881879 0.092652 -2.792205 -0.069619 -0.036174
    15 1.708897 0.000001 0.000000 0.000000 0.872665 -0.024686
    16 0.954917 0.000000 0.000000 -0.004618 0.343838 0.003351
    17 3.057266 -0.134123 0.063502 -2.447781 -0.771453 -0.050986
    18 1.803337 0.000000 0.000000 3.141592 0.770701 -3.128522
    19 1.060696 0.000000 0.000000 -0.005760 0.132075 -0.044206
    20 3.080836 0.608362 0.166303 -2.270358 -0.901982 -0.166783
    21 1.709264 0.000000 0.000000 3.136208 1.076529 3.121940
    22 0.884620 -0.000001 0.000000 -0.043415 0.502648 -0.049954
    23 3.080836 1.362635 0.248058 -2.103305 -0.835477 -0.355092
    24 1.190336 0.000000 0.000000 -0.003712 1.535791 -0.036537
    25 0.648630 -0.000001 0.000000 -0.008249 0.266042 0.004951
    26 9.468456 -1.389827 -7.064188 -3.141592 0.767945 3.141592
    27 -0.003387 0.018329 0.000000 0.207889 0.529002 -0.683073
    28 8.473082 -0.000001 0.000002 0.000000 0.000000 -0.668118
    29 8.737238 0.000001 0.000001 -0.291033 -0.096408 0.394178
    30 3.169858 1.366647 -0.189203 -0.283762 0.879803 0.336594
    31 1.060754 0.000037 0.000001 0.002196 1.563037 0.027190
    32 0.719018 -0.000002 0.000001 0.000000 0.146909 -0.016343
    33 3.383820 0.671293 0.018296 -0.156708 0.706252 0.514881
    34 1.461449 -0.000001 0.000001 -3.141592 1.470726 3.133528
    35 0.848556 0.000001 0.000000 0.001021 0.049505 0.021383
    36 3.496453 -0.114845 0.068540 -0.110468 0.511808 0.494943
    37 1.466716 -0.000002 0.000002 -0.000025 1.563472 0.000008
    38 1.000036 -0.000001 0.000000 0.000000 0.104394 0.000000
    39 3.395900 -0.914873 0.005474 -0.082179 0.303787 0.413166
    40 1.533478 0.000002 0.000002 0.006036 1.504506 0.025545
    41 0.933959 0.000002 -0.000001 0.005031 0.251403 0.017241
    42 0.789901 -0.963112 -0.860479 -0.263813 -0.008924 -0.322157
    43 1.873061 -0.000034 0.000002 -0.006505 0.021885 -0.021357
    44 1.217062 0.000001 0.000001 0.011345 0.001903 -0.233271
end
