
VertexLitGeneric
{

	$baseTexture				models/jessev92/hl2/weapons/glock19/glock_d
	$bumpmap					models/jessev92/hl2/weapons/glock19/glock_b

	$halflambert				1
	$ambientocclusion			1
	$nocull						1

	$phong						1
	$phongexponent				30
	$phongboost					1.6
 	$phongtint					"[ 0.7 0.9 1 ]"
 	$phongfresnelranges			"[ 1 9 3 ]"
 	$phongexponenttexture		models/jessev92/hl2/weapons/glock19/glock_x
	
	$rimlight					1
	$rimlightexponent			28
	$rimlightboost				0.2
	
	$detail						detail/metal_detail_01
	$detailscale				2
	$detailblendfactor			0.95
	$detailblendmode			0
	
}
