"VertexLitGeneric"
{
	"$baseTexture" 			"models/ins1ons\thanez.psg1\Hend"
	"$bumpmap" 			"models/ins1ons\thanez.psg1\Hend_Normal"
	"$halflambert" 			"1"
	"$envmap" 			"env_cubemap"
	"$normalmapalphaenvmapmask" 	"1"
	"$envmapcontrast" 		"0.4"
	"$envmapsaturation" 		"0.8"
	"$envmaptint" 			"[ 0.6 0.6 0.6 ]"
	"$phong" 			"1"
	"$phongexponent" 		"40"
	"$phongexponenttexture" 	"models/ins1ons\thanez.psg1\Hend"
	"$phongboost"			"1"
	"$phongfresnelranges"		"[1 3 6]"
	"$phongalbedotint" 		"1"
}
