version 1
nodes
  0 "Dummy11"  -1
  1 "Bone_L_UpperArm01"   0
  2 "Bone_L_LowerArm01"   1
  3 "Bone_L_Hand01"   2
  4 "Dummy01"   3
  5 "Bone01"   4
  6 "Bone02"   5
  7 "Bone03"   6
  8 "Dummy02"   3
  9 "Bone05"   8
 10 "Bone06"   9
 11 "Bone07"  10
 12 "Dummy04"   3
 13 "Bone09"  12
 14 "Bone10"  13
 15 "Bone11"  14
 16 "Dummy05"   3
 17 "Bone13"  16
 18 "Bone14"  17
 19 "Bone15"  18
 20 "Dummy03"   3
 21 "Bone_L_UpperThumb01"  20
 22 "Bone_L_MiddleThumb01"  21
 23 "Bone_L_LowerThumb01"  22
 24 "Dummy12"  -1
 25 "Bone_R_UpperArm01"  24
 26 "Bone_R_LowerArm01"  25
 27 "Bone_R_Hand01"  26
 28 "Dummy06"  27
 29 "Bone_R_UpperThumb01"  28
 30 "Bone_R_MiddleThumb01"  29
 31 "Bone_R_LowerThumb01"  30
 32 "Dummy07"  27
 33 "Bone01(mirrored)"  32
 34 "Bone02(mirrored)"  33
 35 "Bone03(mirrored)"  34
 36 "Dummy09"  27
 37 "Bone09(mirrored)"  36
 38 "Bone10(mirrored)"  37
 39 "Bone11(mirrored)"  38
 40 "Dummy10"  27
 41 "Bone13(mirrored)"  40
 42 "Bone14(mirrored)"  41
 43 "Bone15(mirrored)"  42
 44 "Dummy08"  27
 45 "Bone05(mirrored)"  44
 46 "Bone06(mirrored)"  45
 47 "Bone07(mirrored)"  46
 48 "Cylinder02"  -1
 49 "eject"  48
 50 "muzzle"  48
 51 "LP"  -1
 52 "Pump"  -1
 53 "Bolt"  -1
 54 "Trigger"  -1
 55 "SMDImport"  -1
end
skeleton
time 0
  0 11.877006 11.578296 -10.819918 -0.940924 -0.015373 -0.013162
  1 0.000000 0.000000 0.000000 0.041758 2.299552 -0.237858
  2 9.389583 -0.000002 -0.000004 -0.007150 -2.124639 0.115864
  3 8.186136 0.002636 0.000007 -1.717866 0.185635 0.630748
  4 4.197927 -0.856476 -0.012589 0.058053 0.064630 -0.035524
  5 0.000000 0.000000 0.000000 0.000000 0.964340 0.000000
  6 0.605735 0.000001 0.000000 -0.036045 1.327834 -0.049895
  7 0.712168 -0.000002 0.000000 -0.142903 1.206575 -0.277189
  8 4.162197 -0.086807 -0.006349 0.059900 0.182754 0.000937
  9 -0.000002 -0.000000 0.000000 -0.296292 0.888128 0.051722
 10 0.681959 0.000002 0.000002 -0.163493 1.269579 -0.143563
 11 0.920143 0.000000 0.000002 -0.005397 1.179512 -0.008446
 12 3.986738 0.675515 -0.113667 -0.017792 0.182754 0.000937
 13 0.000000 0.000001 -0.000001 -0.253063 0.795621 0.271670
 14 0.663656 0.000003 -0.000002 0.033085 1.315151 0.023777
 15 0.879454 0.000003 0.000001 0.118350 1.045243 0.046624
 16 3.570824 1.366357 -0.274604 -0.010012 0.271959 0.027277
 17 0.000000 0.000000 0.000000 -0.455542 0.810708 0.083926
 18 0.457815 0.000002 -0.000006 -0.057748 1.120755 -0.027917
 19 0.711123 0.000002 0.000000 0.025117 1.067660 -0.002028
 20 0.620014 -0.345516 -0.385599 1.525782 0.350291 -0.647162
 21 0.000000 0.000000 0.000000 0.003988 0.162330 0.025804
 22 2.157641 -0.000001 0.000002 0.035213 0.877399 -0.022773
 23 0.957851 -0.000001 -0.000000 0.083773 1.041497 0.041386
 24 -5.331482 -6.461182 7.690796 -0.000460 0.000001 0.018844
 25 0.000000 0.000000 0.000000 0.053140 1.635136 0.269086
 26 9.389593 0.000000 -0.000001 0.007051 -1.490915 -0.135982
 27 8.186137 -0.002630 0.000004 1.750354 0.261347 -0.031902
 28 0.620014 0.345502 -0.385602 -1.525782 0.350290 0.647162
 29 0.000000 0.000000 0.000000 -0.095678 0.324730 0.199315
 30 2.157643 0.000000 -0.000002 -0.136224 0.353261 -0.047715
 31 0.957850 -0.000001 -0.000003 0.038839 0.852407 0.049410
 32 4.197933 0.856169 -0.012594 -0.058053 0.064629 0.035524
 33 0.000000 0.000000 0.000000 0.044048 0.146798 0.151141
 34 0.605735 -0.000001 0.000000 -0.042040 0.213600 -0.074639
 35 0.712168 0.000000 -0.000000 -0.054304 0.620533 -0.048561
 36 3.986744 -0.675711 -0.113673 0.017792 0.182754 -0.000937
 37 0.021461 0.004611 -0.092389 -0.555924 1.811366 -0.689340
 38 0.663654 -0.000000 0.000000 0.049561 0.232471 0.032537
 39 0.879452 -0.000001 0.000000 0.059507 0.786539 0.015253
 40 3.570829 -1.366420 -0.274605 0.010012 0.271959 -0.027277
 41 0.035347 0.006562 -0.108214 1.520546 1.274614 1.310823
 42 0.457816 0.000000 -0.000001 0.048333 0.185296 0.020670
 43 0.711125 0.000000 -0.000001 -0.141435 0.781026 -0.149034
 44 4.162197 0.087013 -0.006354 -0.059900 0.182754 -0.000938
 45 0.036274 0.019891 -0.155088 -0.407995 1.679261 -0.582848
 46 0.681960 0.000000 -0.000001 0.135657 0.260088 0.060874
 47 0.920145 0.000001 0.000000 -0.100049 0.915274 -0.140756
 48 11.538637 -3.040450 -4.169892 -0.124509 -0.071325 1.643887
 49 -0.320811 0.612275 2.429818 -0.000814 -2.848701 -0.013624
 50 -0.065445 -18.140972 2.557334 0.000781 -0.056174 -0.013903
 51 10.596139 -2.703372 -9.843193 1.446287 -0.071325 1.643887
 52 11.538637 -3.040450 -4.169892 -0.124509 -0.071325 1.643887
 53 11.538637 -3.040450 -4.169892 -0.124509 -0.071325 1.643887
 54 11.538637 -3.040450 -4.169892 -0.124509 -0.071325 1.643887
 55 0.000000 0.000000 0.000000 0.000000 -0.000000 0.000000
time 1
  0 11.427774 11.453292 -10.819918 -0.935555 -0.034407 0.014741
  1 0.000000 0.000000 0.000000 1.165928 1.762594 -0.340429
  2 9.389580 -0.000001 -0.000003 -0.007054 -1.232085 0.128514
  3 8.186138 0.002633 0.000005 -0.141906 -1.115778 -0.024697
  4 4.197929 -0.856478 -0.012592 0.058053 0.064630 -0.035524
  5 0.000000 0.000000 0.000000 0.048502 0.147332 0.319365
  6 0.605737 0.000000 -0.000000 -0.029362 1.279341 -0.042634
  7 0.712171 -0.000003 -0.000001 -0.244783 1.367158 -0.375454
  8 4.162199 -0.086808 -0.006352 0.059900 0.182754 0.000937
  9 -0.000002 0.000000 -0.000001 -0.373844 1.042100 -0.042297
 10 0.681961 0.000001 0.000000 -0.345956 1.427878 -0.329966
 11 0.920143 0.000001 0.000002 -0.011449 1.342360 -0.014235
 12 3.986742 0.675512 -0.113671 -0.017792 0.182754 0.000937
 13 0.000000 0.000001 -0.000000 -0.306993 0.952268 0.201572
 14 0.663655 -0.000003 0.000000 0.074684 1.477921 0.064908
 15 0.879454 0.000000 0.000001 0.156281 1.206943 0.092657
 16 3.570827 1.366355 -0.274607 -0.010012 0.271959 0.027277
 17 0.000000 0.000000 0.000000 -0.551249 0.953674 -0.039718
 18 0.457818 -0.000001 -0.000003 -0.088645 1.283249 -0.060935
 19 0.711123 0.000004 -0.000000 0.036298 1.230476 0.010173
 20 0.620012 -0.345517 -0.385599 1.525782 0.350291 -0.647162
 21 0.000000 0.000000 0.000000 0.021449 0.064500 0.288363
 22 2.157638 -0.000001 0.000001 0.022365 0.403861 -0.037406
 23 0.957850 -0.000001 -0.000001 0.034060 -0.277661 -0.034177
 24 -5.331482 -6.461182 7.690796 -0.000460 0.000001 0.018844
 25 0.000000 0.000000 0.000000 0.058434 1.634989 0.277121
 26 9.389591 -0.000000 -0.000001 0.007051 -1.492259 -0.135982
 27 8.186139 -0.002630 0.000005 1.751697 0.264795 -0.035395
 28 0.620014 0.345502 -0.385602 -1.525782 0.350290 0.647162
 29 0.000000 0.000000 0.000000 -0.095678 0.324730 0.199315
 30 2.157643 -0.000001 -0.000002 -0.136224 0.353261 -0.047715
 31 0.957850 0.000000 -0.000003 0.038839 0.852407 0.049410
 32 4.197935 0.856170 -0.012594 -0.058053 0.064629 0.035524
 33 0.000000 0.000000 0.000000 0.044048 0.146798 0.151141
 34 0.605736 -0.000001 0.000000 -0.042040 0.213600 -0.074639
 35 0.712169 0.000000 0.000000 -0.054304 0.620533 -0.048561
 36 3.986746 -0.675710 -0.113673 0.017792 0.182754 -0.000937
 37 0.021461 0.004611 -0.092389 -0.555924 1.811366 -0.689340
 38 0.663653 -0.000000 0.000000 0.049561 0.232471 0.032537
 39 0.879453 -0.000001 -0.000000 0.059507 0.786539 0.015253
 40 3.570830 -1.366418 -0.274606 0.010012 0.271959 -0.027277
 41 0.035348 0.006562 -0.108214 1.520546 1.274614 1.310823
 42 0.457815 0.000000 -0.000000 0.048333 0.185296 0.020670
 43 0.711125 -0.000000 -0.000001 -0.141435 0.781026 -0.149034
 44 4.162199 0.087013 -0.006354 -0.059900 0.182754 -0.000938
 45 0.036273 0.019891 -0.155087 -0.407994 1.679261 -0.582847
 46 0.681960 0.000000 -0.000001 0.135657 0.260088 0.060874
 47 0.920144 0.000001 -0.000001 -0.100049 0.915274 -0.140756
 48 11.538637 -3.036543 -4.169892 -0.123087 -0.071589 1.642240
 49 -0.320810 0.612277 2.429818 -0.000814 -2.848701 -0.013624
 50 -0.065445 -18.140972 2.557334 0.000781 -0.056174 -0.013903
 51 9.182034 -2.855720 -9.042387 0.052996 -0.071589 1.642240
 52 11.538637 -3.036543 -4.169892 -0.123087 -0.071589 1.642240
 53 11.538637 -3.036543 -4.169892 -0.123087 -0.071589 1.642240
 54 11.538637 -3.036543 -4.169892 -0.123087 -0.071589 1.642240
 55 0.000000 0.000000 0.000000 0.000000 -0.000000 0.000000
time 2
  0 10.224612 11.125157 -10.819918 -0.926507 -0.085841 0.088228
  1 0.000000 0.000000 0.000000 1.220677 1.756949 -0.315159
  2 9.389584 -0.000001 -0.000002 -0.007054 -1.333342 0.132540
  3 8.186138 0.002634 0.000006 -0.292518 -0.911566 0.156935
  4 4.197929 -0.856476 -0.012591 0.058053 0.064630 -0.035524
  5 0.000000 0.000000 0.000000 0.048502 0.147332 0.319365
  6 0.605736 0.000001 0.000000 -0.029362 1.279341 -0.042634
  7 0.712170 0.000000 -0.000000 -0.244783 1.367158 -0.375454
  8 4.162199 -0.086808 -0.006351 0.059900 0.182754 0.000937
  9 -0.000002 0.000000 -0.000001 -0.373844 1.042100 -0.042297
 10 0.681961 -0.000001 -0.000001 -0.345956 1.427878 -0.329967
 11 0.920143 0.000000 0.000002 -0.011449 1.342408 -0.014235
 12 3.986742 0.675513 -0.113670 -0.017792 0.182754 0.000937
 13 0.000000 0.000001 0.000000 -0.306993 0.952268 0.201572
 14 0.663655 0.000002 0.000000 0.074683 1.477921 0.064907
 15 0.879455 0.000003 0.000001 0.156281 1.206943 0.092657
 16 3.570826 1.366359 -0.274606 -0.010012 0.271959 0.027277
 17 0.000000 0.000000 0.000000 -0.551249 0.953674 -0.039718
 18 0.457817 -0.000001 -0.000003 -0.088645 1.283249 -0.060935
 19 0.711123 0.000002 0.000000 0.036298 1.230476 0.010184
 20 0.620013 -0.345515 -0.385599 1.525782 0.350291 -0.647162
 21 0.000000 0.000000 0.000000 0.021449 0.027527 0.288111
 22 2.157640 -0.000001 0.000001 0.022365 0.403861 -0.037418
 23 0.957850 -0.000000 -0.000000 0.034060 -0.277661 -0.034177
 24 -5.331482 -6.461182 7.690796 -0.000460 0.000001 0.018844
 25 0.000000 0.000000 0.000000 0.072248 1.634598 0.297802
 26 9.389589 -0.000000 -0.000001 0.007051 -1.495844 -0.136078
 27 8.186137 -0.002631 0.000004 1.755114 0.274035 -0.044351
 28 0.620014 0.345502 -0.385602 -1.525782 0.350290 0.647162
 29 0.000000 0.000000 0.000000 -0.095678 0.324730 0.199315
 30 2.157642 -0.000000 -0.000002 -0.136224 0.353261 -0.047715
 31 0.957850 0.000000 -0.000003 0.038839 0.852407 0.049410
 32 4.197933 0.856169 -0.012594 -0.058053 0.064629 0.035524
 33 0.000000 0.000000 0.000000 0.044048 0.146798 0.151141
 34 0.605735 -0.000001 0.000000 -0.042040 0.213600 -0.074639
 35 0.712169 0.000000 0.000000 -0.054304 0.620533 -0.048561
 36 3.986744 -0.675711 -0.113673 0.017792 0.182754 -0.000937
 37 0.021461 0.004611 -0.092389 -0.555924 1.811366 -0.689340
 38 0.663654 0.000000 0.000000 0.049561 0.232471 0.032537
 39 0.879453 -0.000002 0.000000 0.059507 0.786539 0.015253
 40 3.570829 -1.366419 -0.274606 0.010012 0.271959 -0.027277
 41 0.035348 0.006562 -0.108213 1.520546 1.274614 1.310823
 42 0.457815 0.000000 0.000000 0.048333 0.185296 0.020670
 43 0.711126 -0.000000 -0.000001 -0.141435 0.781026 -0.149034
 44 4.162198 0.087013 -0.006354 -0.059900 0.182754 -0.000938
 45 0.036273 0.019891 -0.155087 -0.407994 1.679263 -0.582848
 46 0.681961 -0.000000 -0.000000 0.135657 0.260088 0.060874
 47 0.920145 0.000001 -0.000000 -0.100049 0.915274 -0.140756
 48 11.538637 -3.028731 -4.173799 -0.119237 -0.072260 1.637939
 49 -0.320810 0.612275 2.429818 -0.000814 -2.848701 -0.013624
 50 -0.065445 -18.140974 2.557334 0.000781 -0.056174 -0.013903
 51 9.092187 -2.886971 -8.307990 0.104648 -0.072260 1.637939
 52 11.538637 -3.028731 -4.173799 -0.119237 -0.072260 1.637939
 53 11.538637 -3.028731 -4.173799 -0.119237 -0.072260 1.637939
 54 11.538637 -3.028731 -4.173799 -0.119237 -0.072260 1.637939
 55 0.000000 0.000000 0.000000 0.000000 -0.000000 0.000000
time 3
  0 8.529248 10.664206 -10.819918 -0.926663 -0.160284 0.192312
  1 0.000000 0.000000 0.000000 1.177041 1.756013 -0.393759
  2 9.389581 -0.000002 -0.000003 -0.007054 -1.466566 0.135608
  3 8.186140 0.002633 0.000004 -0.486702 -0.653243 0.390821
  4 4.197931 -0.856477 -0.012593 0.058053 0.064630 -0.035524
  5 0.000000 0.000000 0.000000 0.048502 0.147332 0.319365
  6 0.605735 0.000000 0.000000 -0.029362 1.279341 -0.042634
  7 0.712170 -0.000001 0.000000 -0.244783 1.367159 -0.375454
  8 4.162200 -0.086808 -0.006352 0.059900 0.182754 0.000937
  9 -0.000002 0.000001 -0.000001 -0.373844 1.042100 -0.042297
 10 0.681961 0.000000 -0.000001 -0.345956 1.427878 -0.329966
 11 0.920143 0.000002 0.000002 -0.011449 1.342360 -0.014235
 12 3.986744 0.675513 -0.113671 -0.017792 0.182754 0.000937
 13 0.000001 0.000001 0.000000 -0.306993 0.952268 0.201572
 14 0.663654 0.000001 0.000000 0.074684 1.477920 0.064896
 15 0.879455 0.000000 0.000000 0.156281 1.206943 0.092657
 16 3.570827 1.366356 -0.274607 -0.010012 0.271959 0.027277
 17 0.000000 0.000000 0.000000 -0.551249 0.953674 -0.039718
 18 0.457817 0.000000 -0.000002 -0.088645 1.283249 -0.060935
 19 0.711123 0.000003 -0.000001 0.036298 1.230476 0.010173
 20 0.620016 -0.345518 -0.385599 1.525782 0.350291 -0.647162
 21 0.000000 0.000000 0.000000 0.021461 -0.006701 0.287524
 22 2.157641 -0.000001 0.000002 0.022365 0.403861 -0.037406
 23 0.957851 -0.000002 -0.000001 0.034060 -0.277661 -0.034177
 24 -5.331482 -6.461182 7.690796 -0.000460 0.000001 0.018844
 25 0.000000 0.000000 0.000000 0.091356 1.633929 0.326200
 26 9.389591 -0.000000 -0.000000 0.007051 -1.501058 -0.136078
 27 8.186136 -0.002627 0.000004 1.759659 0.287366 -0.056454
 28 0.620014 0.345502 -0.385602 -1.525782 0.350290 0.647162
 29 0.000000 0.000000 0.000000 -0.095678 0.324730 0.199315
 30 2.157642 0.000000 -0.000001 -0.136224 0.353261 -0.047715
 31 0.957851 0.000000 -0.000002 0.038839 0.852407 0.049410
 32 4.197932 0.856169 -0.012594 -0.058053 0.064629 0.035524
 33 0.000000 0.000000 0.000000 0.044048 0.146798 0.151141
 34 0.605736 -0.000001 -0.000000 -0.042040 0.213600 -0.074639
 35 0.712168 -0.000000 -0.000000 -0.054304 0.620533 -0.048561
 36 3.986742 -0.675711 -0.113672 0.017792 0.182754 -0.000937
 37 0.021461 0.004611 -0.092389 -0.555924 1.811366 -0.689340
 38 0.663654 -0.000000 0.000000 0.049561 0.232471 0.032537
 39 0.879453 -0.000000 0.000001 0.059507 0.786539 0.015253
 40 3.570828 -1.366419 -0.274606 0.010012 0.271959 -0.027277
 41 0.035347 0.006562 -0.108213 1.520546 1.274614 1.310823
 42 0.457815 0.000000 -0.000001 0.048333 0.185296 0.020670
 43 0.711125 0.000000 -0.000000 -0.141435 0.781026 -0.149034
 44 4.162197 0.087014 -0.006354 -0.059900 0.182754 -0.000938
 45 0.036274 0.019891 -0.155087 -0.407995 1.679261 -0.582848
 46 0.681960 -0.000000 0.000000 0.135657 0.260088 0.060874
 47 0.920145 0.000001 0.000000 -0.100049 0.915274 -0.140756
 48 11.538637 -3.017012 -4.181612 -0.113728 -0.073183 1.632098
 49 -0.320810 0.612276 2.429818 -0.000814 -2.848701 -0.013624
 50 -0.065445 -18.140972 2.557333 0.000781 -0.056174 -0.013903
 51 9.017966 -2.910409 -7.511091 0.238338 -0.073183 1.632098
 52 11.538637 -3.017012 -4.181612 -0.113728 -0.073183 1.632098
 53 11.538637 -3.017012 -4.181612 -0.113728 -0.073183 1.632098
 54 11.538637 -3.017012 -4.181612 -0.113728 -0.073183 1.632098
 55 0.000000 0.000000 0.000000 0.000000 -0.000000 0.000000
time 4
  0 6.587782 10.132940 -10.819918 -0.946126 -0.245326 0.314145
  1 0.000000 0.000000 0.000000 1.153181 1.753869 -0.437612
  2 9.389584 -0.000002 -0.000003 -0.007148 -1.589654 0.136369
  3 8.186138 0.002634 0.000006 -0.640611 -0.346863 0.590531
  4 4.197929 -0.856476 -0.012591 0.058053 0.064630 -0.035524
  5 0.000000 0.000000 0.000000 0.048502 0.147332 0.319365
  6 0.605735 0.000001 0.000000 -0.029362 1.279341 -0.042634
  7 0.712170 -0.000001 0.000000 -0.244783 1.367158 -0.375454
  8 4.162199 -0.086806 -0.006351 0.059900 0.182754 0.000937
  9 -0.000001 -0.000002 -0.000001 -0.373844 1.042100 -0.042297
 10 0.681961 0.000000 -0.000001 -0.345955 1.427878 -0.329966
 11 0.920144 0.000000 0.000002 -0.011449 1.342360 -0.014235
 12 3.986742 0.675516 -0.113670 -0.017792 0.182754 0.000937
 13 -0.000000 0.000000 0.000000 -0.306993 0.952268 0.201572
 14 0.663655 0.000000 0.000000 0.074683 1.477921 0.064895
 15 0.879455 0.000000 0.000002 0.156281 1.206943 0.092657
 16 3.570826 1.366358 -0.274605 -0.010012 0.271959 0.027277
 17 0.000000 0.000000 0.000000 -0.551249 0.953674 -0.039718
 18 0.457817 0.000000 -0.000001 -0.088645 1.283249 -0.060935
 19 0.711123 0.000002 -0.000000 0.036298 1.230476 0.010173
 20 0.620014 -0.345516 -0.385599 1.525782 0.350291 -0.647162
 21 0.000000 0.000000 0.000000 0.021461 -0.035032 0.286817
 22 2.157640 -0.000000 0.000001 0.022365 0.403861 -0.037406
 23 0.957851 -0.000000 0.000000 0.034060 -0.277661 -0.034177
 24 -5.331482 -6.461182 7.690796 -0.000460 0.000001 0.018844
 25 0.000000 0.000000 0.000000 0.112616 1.633056 0.357462
 26 9.389593 0.000000 -0.000002 0.007050 -1.507288 -0.136174
 27 8.186138 -0.002629 0.000004 1.764435 0.303134 -0.069441
 28 0.620014 0.345502 -0.385601 -1.525782 0.350290 0.647162
 29 0.000000 0.000000 0.000000 -0.095678 0.324730 0.199315
 30 2.157643 -0.000000 -0.000002 -0.136224 0.353261 -0.047715
 31 0.957851 0.000000 -0.000003 0.038839 0.852407 0.049410
 32 4.197933 0.856169 -0.012594 -0.058053 0.064629 0.035524
 33 0.000000 0.000000 0.000000 0.044048 0.146798 0.151141
 34 0.605736 -0.000001 0.000000 -0.042040 0.213600 -0.074639
 35 0.712169 0.000000 0.000000 -0.054304 0.620533 -0.048561
 36 3.986742 -0.675712 -0.113673 0.017792 0.182754 -0.000937
 37 0.021461 0.004611 -0.092389 -0.555924 1.811366 -0.689340
 38 0.663654 0.000000 0.000000 0.049561 0.232471 0.032537
 39 0.879453 -0.000001 0.000000 0.059507 0.786539 0.015253
 40 3.570828 -1.366420 -0.274606 0.010012 0.271959 -0.027277
 41 0.035348 0.006562 -0.108214 1.520545 1.274614 1.310823
 42 0.457815 0.000000 -0.000000 0.048333 0.185296 0.020670
 43 0.711125 0.000000 -0.000001 -0.141435 0.781026 -0.149034
 44 4.162196 0.087012 -0.006355 -0.059900 0.182754 -0.000938
 45 0.036275 0.019892 -0.155087 -0.407995 1.679261 -0.582848
 46 0.681960 0.000000 -0.000000 0.135657 0.260088 0.060874
 47 0.920144 0.000001 -0.000000 -0.100049 0.915274 -0.140756
 48 11.542543 -3.001386 -4.185518 -0.107213 -0.074201 1.625619
 49 -0.320810 0.612275 2.429818 -0.000814 -2.848701 -0.013624
 50 -0.065445 -18.140972 2.557334 0.000781 -0.056174 -0.013903
 51 8.978903 -2.922128 -6.663408 0.430432 -0.074201 1.625619
 52 11.542543 -3.001386 -4.185518 -0.107213 -0.074201 1.625619
 53 11.542543 -3.001386 -4.185518 -0.107213 -0.074201 1.625619
 54 11.542543 -3.001386 -4.185518 -0.107213 -0.074201 1.625619
 55 0.000000 0.000000 0.000000 0.000000 -0.000000 0.000000
time 5
  0 4.642410 9.601673 -10.819918 -0.986993 -0.326432 0.441228
  1 0.000000 0.000000 0.000000 1.253938 1.746475 -0.323892
  2 9.389585 -0.000003 -0.000002 -0.007150 -1.669459 0.135700
  3 8.186135 0.002637 0.000009 -0.742244 -0.027448 0.753620
  4 4.197928 -0.856477 -0.012590 0.058053 0.064630 -0.035524
  5 0.000000 0.000000 0.000000 0.048502 0.147332 0.319365
  6 0.605736 0.000001 -0.000000 -0.029362 1.279341 -0.042634
  7 0.712170 0.000000 0.000001 -0.244783 1.367158 -0.375454
  8 4.162198 -0.086807 -0.006350 0.059900 0.182754 0.000937
  9 -0.000001 -0.000001 -0.000001 -0.373844 1.042100 -0.042297
 10 0.681961 -0.000002 -0.000001 -0.345956 1.427878 -0.329966
 11 0.920143 0.000001 0.000001 -0.011449 1.342360 -0.014235
 12 3.986741 0.675515 -0.113669 -0.017792 0.182754 0.000937
 13 0.000000 0.000000 0.000000 -0.306993 0.952268 0.201572
 14 0.663655 0.000002 0.000000 0.074684 1.477920 0.064896
 15 0.879455 -0.000001 -0.000000 0.156281 1.206943 0.092657
 16 3.570825 1.366358 -0.274606 -0.010012 0.271959 0.027277
 17 0.000000 0.000000 0.000000 -0.551249 0.953674 -0.039718
 18 0.457817 0.000000 -0.000005 -0.088645 1.283249 -0.060935
 19 0.711123 0.000002 -0.000001 0.036298 1.230520 0.010173
 20 0.620014 -0.345516 -0.385599 1.525782 0.350291 -0.647162
 21 0.000000 0.000000 0.000000 0.021461 -0.054340 0.286230
 22 2.157640 -0.000000 0.000000 0.022365 0.403861 -0.037406
 23 0.957851 -0.000001 0.000000 0.034060 -0.277661 -0.034177
 24 -5.331482 -6.461182 7.690796 -0.000460 0.000001 0.018844
 25 0.000000 0.000000 0.000000 0.132964 1.632109 0.386814
 26 9.389593 0.000000 -0.000002 0.007050 -1.514008 -0.136269
 27 8.186138 -0.002629 0.000004 1.768648 0.319591 -0.081122
 28 0.620015 0.345502 -0.385602 -1.525782 0.350290 0.647162
 29 0.000000 0.000000 0.000000 -0.095678 0.324730 0.199315
 30 2.157643 -0.000002 -0.000002 -0.136224 0.353261 -0.047715
 31 0.957850 0.000000 -0.000003 0.038839 0.852407 0.049410
 32 4.197934 0.856170 -0.012594 -0.058053 0.064629 0.035524
 33 0.000000 0.000000 0.000000 0.044048 0.146798 0.151141
 34 0.605736 -0.000001 0.000000 -0.042040 0.213600 -0.074639
 35 0.712168 -0.000000 0.000001 -0.054304 0.620533 -0.048561
 36 3.986745 -0.675711 -0.113672 0.017792 0.182754 -0.000937
 37 0.021461 0.004611 -0.092389 -0.555923 1.811367 -0.689339
 38 0.663654 -0.000000 -0.000000 0.049561 0.232471 0.032537
 39 0.879454 -0.000001 0.000000 0.059507 0.786539 0.015253
 40 3.570830 -1.366419 -0.274605 0.010012 0.271959 -0.027277
 41 0.035347 0.006562 -0.108214 1.520546 1.274614 1.310823
 42 0.457815 -0.000000 -0.000001 0.048333 0.185296 0.020670
 43 0.711125 0.000000 -0.000001 -0.141435 0.781026 -0.149034
 44 4.162198 0.087013 -0.006354 -0.059900 0.182754 -0.000938
 45 0.036274 0.019891 -0.155087 -0.407995 1.679261 -0.582848
 46 0.681961 0.000000 0.000001 0.135657 0.260088 0.060874
 47 0.920145 0.000000 -0.000000 -0.100049 0.915274 -0.140756
 48 11.546450 -2.989667 -4.189424 -0.100460 -0.075136 1.619512
 49 -0.320811 0.612276 2.429818 -0.000814 -2.848701 -0.013624
 50 -0.065445 -18.140976 2.557334 0.000781 -0.056174 -0.013903
 51 9.002341 -2.933847 -5.788382 0.657178 -0.075136 1.619512
 52 11.546450 -2.989667 -4.189424 -0.100460 -0.075136 1.619512
 53 11.546450 -2.989667 -4.189424 -0.100460 -0.075136 1.619512
 54 11.546450 -2.989667 -4.189424 -0.100460 -0.075136 1.619512
 55 0.000000 0.000000 0.000000 0.000000 -0.000000 0.000000
time 6
  0 2.947046 9.140722 -10.819918 -1.040612 -0.390853 0.558297
  1 0.000000 0.000000 0.000000 1.351586 1.746246 -0.092551
  2 9.389583 -0.000002 -0.000002 -0.007149 -1.640362 0.136083
  3 8.186138 0.002633 0.000006 -0.999299 0.221751 0.665857
  4 4.197929 -0.856478 -0.012591 0.058053 0.064630 -0.035524
  5 0.000000 0.000000 0.000000 0.049293 0.258667 0.319629
  6 0.605735 -0.000002 -0.000001 -0.037191 1.346195 -0.050086
  7 0.712170 -0.000001 0.000000 -0.545303 1.468822 -0.665573
  8 4.162199 -0.086809 -0.006351 0.059900 0.182754 0.000937
  9 -0.000002 0.000000 -0.000001 -0.373844 1.042100 -0.042297
 10 0.681961 0.000000 0.000000 -0.345955 1.427878 -0.329966
 11 0.920143 0.000001 0.000002 -0.011449 1.342360 -0.014235
 12 3.986742 0.675512 -0.113670 -0.017792 0.182754 0.000937
 13 0.000000 0.000002 -0.000000 -0.306993 0.952268 0.201572
 14 0.663655 0.000001 -0.000001 0.074684 1.477921 0.064896
 15 0.879454 0.000000 0.000001 0.156281 1.206943 0.092657
 16 3.570827 1.366356 -0.274606 -0.010012 0.271959 0.027277
 17 0.000000 0.000000 0.000000 -0.551249 0.953674 -0.039718
 18 0.457817 0.000000 -0.000003 -0.088645 1.283249 -0.060935
 19 0.711124 0.000002 -0.000000 0.036298 1.230476 0.010173
 20 0.620014 -0.345516 -0.385599 1.525782 0.350291 -0.647162
 21 0.000000 0.000000 0.000000 0.021461 -0.061470 0.285978
 22 2.157641 -0.000001 0.000001 0.022365 0.403861 -0.037406
 23 0.957850 -0.000001 0.000001 0.034060 -0.277661 -0.034177
 24 -5.331482 -6.461182 7.690796 -0.000460 0.000001 0.018844
 25 0.000000 0.000000 0.000000 0.149013 1.631253 0.409168
 26 9.389591 0.000000 -0.000000 0.007050 -1.520853 -0.136365
 27 8.186138 -0.002630 0.000005 1.771683 0.335037 -0.089374
 28 0.620015 0.345502 -0.385603 -1.525782 0.350290 0.647162
 29 0.000000 0.000000 0.000000 -0.095678 0.324730 0.199315
 30 2.157643 0.000000 -0.000001 -0.136224 0.353261 -0.047715
 31 0.957851 -0.000001 -0.000002 0.038839 0.852407 0.049410
 32 4.197933 0.856171 -0.012594 -0.058053 0.064629 0.035524
 33 0.000000 0.000000 0.000000 0.044048 0.146798 0.151141
 34 0.605735 -0.000001 0.000000 -0.042040 0.213600 -0.074639
 35 0.712168 0.000000 0.000000 -0.054304 0.620533 -0.048561
 36 3.986744 -0.675710 -0.113673 0.017792 0.182754 -0.000937
 37 0.021461 0.004611 -0.092389 -0.555924 1.811367 -0.689340
 38 0.663654 -0.000000 0.000000 0.049561 0.232471 0.032537
 39 0.879453 -0.000001 0.000000 0.059507 0.786539 0.015253
 40 3.570829 -1.366418 -0.274606 0.010012 0.271959 -0.027277
 41 0.035348 0.006562 -0.108214 1.520546 1.274614 1.310823
 42 0.457815 -0.000000 -0.000001 0.048333 0.185296 0.020670
 43 0.711125 -0.000000 -0.000000 -0.141435 0.781026 -0.149034
 44 4.162199 0.087015 -0.006354 -0.059900 0.182754 -0.000938
 45 0.036274 0.019891 -0.155087 -0.407995 1.679262 -0.582848
 46 0.681961 -0.000000 0.000000 0.135657 0.260088 0.060874
 47 0.920144 0.000001 0.000000 -0.100049 0.915274 -0.140756
 48 11.546450 -2.981854 -4.189424 -0.094122 -0.075831 1.614786
 49 -0.320811 0.612275 2.429818 -0.000814 -2.848701 -0.013624
 50 -0.065445 -18.140976 2.557334 0.000781 -0.056174 -0.013903
 51 9.111719 -2.949473 -4.921168 0.895060 -0.075831 1.614786
 52 11.546450 -2.981854 -4.189424 -0.094122 -0.075831 1.614786
 53 11.546450 -2.981854 -4.189424 -0.094122 -0.075831 1.614786
 54 11.546450 -2.981854 -4.189424 -0.094122 -0.075831 1.614786
 55 0.000000 0.000000 0.000000 0.000000 -0.000000 0.000000
time 7
  0 1.743884 8.812587 -10.819918 -1.088682 -0.431256 0.645252
  1 0.000000 0.000000 0.000000 1.324458 1.749434 0.029904
  2 9.389584 -0.000003 -0.000004 -0.007056 -1.542959 0.136280
  3 8.186137 0.002632 0.000006 -1.138774 0.128958 0.335570
  4 4.197929 -0.856477 -0.012591 0.058053 0.064630 -0.035524
  5 0.000000 0.000000 0.000000 0.052540 0.464630 0.330667
  6 0.605736 0.000001 0.000000 -0.100489 1.493083 -0.112952
  7 0.712170 -0.000001 0.000000 0.420677 1.700295 0.318500
  8 4.162198 -0.086808 -0.006351 0.059900 0.182754 0.000937
  9 -0.000002 0.000000 -0.000001 -0.373844 1.042100 -0.042297
 10 0.681961 0.000000 -0.000000 -0.345957 1.427878 -0.329966
 11 0.920143 -0.000001 0.000002 -0.011449 1.342360 -0.014235
 12 3.986741 0.675514 -0.113670 -0.017792 0.182754 0.000937
 13 0.000000 0.000001 -0.000000 -0.306993 0.952268 0.201572
 14 0.663655 0.000001 0.000000 0.074683 1.477921 0.064907
 15 0.879456 0.000000 0.000001 0.156281 1.206943 0.092657
 16 3.570825 1.366356 -0.274607 -0.010012 0.271959 0.027277
 17 0.000000 0.000000 0.000000 -0.551249 0.953674 -0.039718
 18 0.457817 0.000000 -0.000004 -0.088645 1.283249 -0.060935
 19 0.711122 0.000003 0.000000 0.036298 1.230476 0.010173
 20 0.620014 -0.345517 -0.385599 1.525782 0.350291 -0.647162
 21 0.000000 0.000000 0.000000 0.021413 0.022362 0.287464
 22 2.157640 -0.000001 0.000001 0.022365 0.403861 -0.037406
 23 0.957851 -0.000001 0.000000 0.034060 -0.277661 -0.034177
 24 -5.331482 -6.461182 7.690796 -0.000460 0.000001 0.018844
 25 0.000000 0.000000 0.000000 0.157035 1.630772 0.419429
 26 9.389593 -0.000000 -0.000001 0.007052 -1.527409 -0.136366
 27 8.186137 -0.002630 0.000004 1.772977 0.347817 -0.092138
 28 0.620014 0.345502 -0.385602 -1.525782 0.350290 0.647162
 29 0.000000 0.000000 0.000000 -0.095678 0.324730 0.199315
 30 2.157643 -0.000001 -0.000002 -0.136224 0.353261 -0.047715
 31 0.957850 0.000000 -0.000003 0.038839 0.852407 0.049410
 32 4.197933 0.856170 -0.012593 -0.058053 0.064629 0.035524
 33 0.000000 0.000000 0.000000 0.044048 0.146798 0.151141
 34 0.605735 -0.000001 0.000000 -0.042040 0.213600 -0.074639
 35 0.712168 0.000000 0.000000 -0.054304 0.620533 -0.048561
 36 3.986744 -0.675711 -0.113672 0.017792 0.182754 -0.000937
 37 0.021461 0.004611 -0.092390 -0.555924 1.811366 -0.689340
 38 0.663654 0.000000 0.000000 0.049561 0.232471 0.032537
 39 0.879454 -0.000001 0.000000 0.059507 0.786539 0.015253
 40 3.570828 -1.366419 -0.274606 0.010012 0.271959 -0.027277
 41 0.035347 0.006562 -0.108215 1.520546 1.274614 1.310823
 42 0.457816 0.000000 -0.000002 0.048333 0.185296 0.020670
 43 0.711126 -0.000000 -0.000002 -0.141435 0.781026 -0.149034
 44 4.162197 0.087014 -0.006353 -0.059900 0.182754 -0.000938
 45 0.036273 0.019891 -0.155087 -0.407995 1.679262 -0.582848
 46 0.681961 0.000000 0.000000 0.135657 0.260088 0.060874
 47 0.920144 0.000001 -0.000000 -0.100049 0.915274 -0.140756
 48 11.546450 -2.974042 -4.185518 -0.088910 -0.076119 1.612503
 49 -0.320810 0.612275 2.429818 -0.000814 -2.848701 -0.013624
 50 -0.065445 -18.140972 2.557333 0.000781 -0.056174 -0.013903
 51 9.314850 -2.969005 -4.120362 1.120266 -0.076119 1.612503
 52 11.546450 -2.974042 -4.185518 -0.088910 -0.076119 1.612503
 53 11.546450 -2.974042 -4.185518 -0.088910 -0.076119 1.612503
 54 11.546450 -2.974042 -4.185518 -0.088910 -0.076119 1.612503
 55 0.000000 0.000000 0.000000 0.000000 -0.000000 0.000000
time 8
  0 1.290745 8.687583 -10.819918 -1.109068 -0.445213 0.679094
  1 0.000000 0.000000 0.000000 1.359841 1.747625 0.153564
  2 9.389585 0.000000 -0.000002 -0.007054 -1.519059 0.136183
  3 8.186135 0.002634 0.000004 -0.991461 0.095827 0.201128
  4 4.197929 -0.856475 -0.012591 0.058053 0.064630 -0.035524
  5 0.000000 0.000000 0.000000 0.057178 0.574775 0.343346
  6 0.605736 0.000001 0.000000 0.102795 1.641006 0.090488
  7 0.712170 -0.000002 0.000000 0.192407 1.804550 0.104114
  8 4.162199 -0.086805 -0.006351 0.059900 0.182754 0.000937
  9 -0.000002 -0.000001 -0.000001 -0.373844 1.042100 -0.042297
 10 0.681962 0.000001 -0.000002 -0.345956 1.427878 -0.329966
 11 0.920143 -0.000001 0.000001 -0.011449 1.342408 -0.014235
 12 3.986743 0.675516 -0.113670 -0.017792 0.182754 0.000937
 13 0.000000 0.000001 0.000000 -0.306993 0.952268 0.201572
 14 0.663655 0.000002 0.000000 0.074684 1.477920 0.064896
 15 0.879455 0.000000 0.000001 0.156281 1.206943 0.092657
 16 3.570826 1.366359 -0.274606 -0.010012 0.271959 0.027277
 17 0.000000 0.000000 0.000000 -0.551249 0.953674 -0.039718
 18 0.457817 0.000001 -0.000001 -0.088645 1.283249 -0.060935
 19 0.711123 0.000002 0.000000 0.036298 1.230476 0.010173
 20 0.620014 -0.345516 -0.385599 1.525782 0.350291 -0.647162
 21 0.000000 0.000000 0.000000 0.021210 0.033340 0.285283
 22 2.157639 -0.000001 0.000002 0.022317 0.399260 -0.037526
 23 0.957851 -0.000001 0.000000 0.033989 -0.267528 -0.033829
 24 -5.331482 -6.461182 7.690796 -0.000460 0.000001 0.018844
 25 0.000000 0.000000 0.000000 0.161171 1.630454 0.423882
 26 9.389593 -0.000000 -0.000001 0.007051 -1.533927 -0.136366
 27 8.186137 -0.002630 0.000004 1.768897 0.359493 -0.093609
 28 0.620014 0.345502 -0.385601 -1.525782 0.350290 0.647162
 29 0.000000 0.000000 0.000000 -0.095678 0.324730 0.199315
 30 2.157643 -0.000001 -0.000002 -0.136224 0.353261 -0.047715
 31 0.957850 -0.000000 -0.000003 0.038839 0.852407 0.049410
 32 4.197934 0.856170 -0.012593 -0.058053 0.064629 0.035524
 33 0.000000 0.000000 0.000000 0.044048 0.146798 0.151141
 34 0.605735 -0.000002 0.000000 -0.042040 0.213600 -0.074639
 35 0.712168 0.000000 0.000001 -0.054304 0.620533 -0.048561
 36 3.986743 -0.675710 -0.113672 0.017792 0.182754 -0.000937
 37 0.021461 0.004611 -0.092389 -0.555924 1.811366 -0.689340
 38 0.663655 -0.000000 0.000000 0.049561 0.232471 0.032537
 39 0.879453 -0.000001 0.000000 0.059507 0.786539 0.015253
 40 3.570828 -1.366420 -0.274605 0.010012 0.271959 -0.027277
 41 0.035347 0.006562 -0.108214 1.520546 1.274614 1.310823
 42 0.457815 -0.000000 -0.000002 0.048333 0.185296 0.020670
 43 0.711125 -0.000000 -0.000001 -0.141435 0.781026 -0.149034
 44 4.162197 0.087013 -0.006354 -0.059900 0.182754 -0.000938
 45 0.036274 0.019891 -0.155087 -0.407994 1.679261 -0.582848
 46 0.681961 0.000000 -0.000001 0.135657 0.260088 0.060874
 47 0.920145 0.000001 0.000000 -0.100049 0.915274 -0.140756
 48 11.546450 -2.974042 -4.173799 -0.084704 -0.072020 1.611919
 49 -0.320811 0.612275 2.429818 -0.000814 -2.848701 -0.013624
 50 -0.065445 -18.140980 2.557334 0.000781 -0.056174 -0.013903
 51 9.592203 -2.984630 -3.452373 1.310109 -0.072020 1.611919
 52 11.546450 -2.974042 -4.173799 -0.084704 -0.072020 1.611919
 53 11.546450 -2.974042 -4.173799 -0.084704 -0.072020 1.611919
 54 11.546450 -2.974042 -4.173799 -0.084704 -0.072020 1.611919
 55 0.000000 0.000000 0.000000 0.000000 -0.000000 0.000000
time 9
  0 1.290745 8.687583 -10.819918 -1.109068 -0.445213 0.679094
  1 0.000000 0.000000 0.000000 1.505867 1.745814 0.320986
  2 9.389585 -0.000002 -0.000002 -0.007055 -1.476644 0.135705
  3 8.186141 0.002635 0.000005 -0.993407 0.032550 0.155359
  4 4.197931 -0.856475 -0.012591 0.058053 0.064630 -0.035524
  5 0.000000 0.000000 0.000000 0.056160 0.552287 0.340830
  6 0.605736 0.000000 -0.000000 0.050763 1.707707 0.038352
  7 0.712171 -0.000001 0.000000 0.196614 1.717488 0.120101
  8 4.162201 -0.086804 -0.006351 0.059900 0.182754 0.000937
  9 -0.000002 0.000000 -0.000001 -0.373844 1.042100 -0.042297
 10 0.681961 0.000001 -0.000002 -0.345956 1.427878 -0.329966
 11 0.920143 0.000001 0.000002 -0.011449 1.342360 -0.014235
 12 3.986744 0.675515 -0.113670 -0.017792 0.182754 0.000937
 13 -0.000000 0.000001 0.000000 -0.306993 0.952268 0.201572
 14 0.663655 0.000001 0.000001 0.074683 1.477921 0.064907
 15 0.879455 -0.000001 0.000000 0.156281 1.206943 0.092657
 16 3.570828 1.366359 -0.274606 -0.010012 0.271959 0.027277
 17 0.000000 0.000000 0.000000 -0.551249 0.953674 -0.039718
 18 0.457817 0.000001 -0.000002 -0.088645 1.283249 -0.060935
 19 0.711124 0.000002 0.000000 0.036298 1.230476 0.010173
 20 0.620013 -0.345516 -0.385599 1.525782 0.350291 -0.647162
 21 0.000000 0.000000 0.000000 0.020790 0.040926 0.279638
 22 2.157640 -0.000000 0.000002 0.022197 0.386481 -0.037825
 23 0.957852 -0.000001 -0.000001 0.033833 -0.241500 -0.032942
 24 -5.331482 -6.461182 7.690796 -0.000460 0.000001 0.018844
 25 0.000000 0.000000 0.000000 0.165888 1.630139 0.429373
 26 9.389590 0.000000 -0.000001 0.007051 -1.539467 -0.136366
 27 8.186137 -0.002629 0.000004 1.761135 0.369790 -0.096987
 28 0.620014 0.345502 -0.385602 -1.525782 0.350290 0.647162
 29 0.000000 0.000000 0.000000 -0.095678 0.324730 0.199315
 30 2.157643 -0.000000 -0.000002 -0.136224 0.353261 -0.047715
 31 0.957850 0.000000 -0.000003 0.038839 0.852407 0.049410
 32 4.197934 0.856170 -0.012594 -0.058053 0.064629 0.035524
 33 0.000000 0.000000 0.000000 0.044048 0.146798 0.151141
 34 0.605735 -0.000001 0.000000 -0.042040 0.213600 -0.074639
 35 0.712170 0.000000 0.000000 -0.054304 0.620533 -0.048561
 36 3.986744 -0.675710 -0.113673 0.017792 0.182754 -0.000937
 37 0.021461 0.004611 -0.092389 -0.555924 1.811366 -0.689340
 38 0.663653 0.000000 0.000000 0.049561 0.232471 0.032537
 39 0.879453 -0.000002 -0.000000 0.059507 0.786539 0.015253
 40 3.570829 -1.366419 -0.274606 0.010012 0.271959 -0.027277
 41 0.035348 0.006562 -0.108214 1.520546 1.274614 1.310823
 42 0.457815 -0.000000 -0.000001 0.048333 0.185296 0.020670
 43 0.711125 -0.000000 -0.000001 -0.141435 0.781026 -0.149034
 44 4.162198 0.087014 -0.006354 -0.059900 0.182754 -0.000938
 45 0.036274 0.019891 -0.155087 -0.407995 1.679261 -0.582848
 46 0.681961 0.000000 0.000000 0.135657 0.260088 0.060874
 47 0.920145 0.000001 -0.000001 -0.100049 0.915274 -0.140756
 48 11.546450 -2.974042 -4.169892 -0.081446 -0.064506 1.611759
 49 -0.320810 0.612275 2.429818 -0.000814 -2.848701 -0.013624
 50 -0.065445 -18.140968 2.557334 0.000781 -0.056174 -0.013903
 51 9.924244 -2.984630 -2.991421 1.441548 -0.064506 1.611759
 52 11.546450 -2.974042 -4.169892 -0.081446 -0.064506 1.611759
 53 11.546450 -2.974042 -4.169892 -0.081446 -0.064506 1.611759
 54 11.546450 -2.974042 -4.169892 -0.081446 -0.064506 1.611759
 55 0.000000 0.000000 0.000000 0.000000 -0.000000 0.000000
time 10
  0 1.290745 8.687583 -10.819918 -1.109068 -0.445213 0.679094
  1 0.000000 0.000000 0.000000 -1.490270 1.393824 -2.668980
  2 9.389582 -0.000003 -0.000003 -0.007054 -1.442998 0.135320
  3 8.186136 0.002635 0.000005 -0.996164 0.013755 0.146609
  4 4.197930 -0.856477 -0.012590 0.058053 0.064630 -0.035524
  5 0.000000 0.000000 0.000000 0.054062 0.495110 0.335401
  6 0.605737 0.000001 0.000000 0.095348 1.634262 0.082749
  7 0.712170 -0.000002 0.000000 -0.113272 1.498098 -0.176026
  8 4.162200 -0.086805 -0.006350 0.059900 0.182754 0.000937
  9 -0.000002 0.000000 -0.000001 -0.373844 1.042100 -0.042297
 10 0.681961 0.000001 -0.000001 -0.345956 1.427878 -0.329966
 11 0.920143 0.000001 0.000002 -0.011449 1.342408 -0.014235
 12 3.986742 0.675513 -0.113669 -0.017792 0.182754 0.000937
 13 0.000000 0.000001 0.000000 -0.306993 0.952268 0.201572
 14 0.663655 0.000000 0.000000 0.074684 1.477921 0.064896
 15 0.879454 0.000000 0.000001 0.156281 1.206943 0.092657
 16 3.570827 1.366357 -0.274605 -0.010012 0.271959 0.027277
 17 0.000000 0.000000 0.000000 -0.551249 0.953674 -0.039718
 18 0.457817 0.000001 -0.000004 -0.088645 1.283249 -0.060935
 19 0.711124 0.000002 0.000001 0.036298 1.230476 0.010173
 20 0.620015 -0.345514 -0.385599 1.525782 0.350291 -0.647162
 21 0.000000 0.000000 0.000000 0.020263 0.046187 0.271848
 22 2.157638 -0.000001 0.000001 0.022030 0.366981 -0.038293
 23 0.957851 -0.000000 -0.000002 0.033605 -0.205856 -0.031744
 24 -5.331482 -6.461182 7.690796 -0.000460 0.000001 0.018844
 25 0.000000 0.000000 0.000000 0.168201 1.629951 0.432154
 26 9.389591 -0.000000 -0.000002 0.007052 -1.541789 -0.136368
 27 8.186138 -0.002630 0.000004 1.756938 0.374250 -0.098906
 28 0.620014 0.345502 -0.385602 -1.525782 0.350290 0.647162
 29 0.000000 0.000000 0.000000 -0.095678 0.324730 0.199315
 30 2.157642 -0.000001 -0.000002 -0.136224 0.353261 -0.047715
 31 0.957850 0.000000 -0.000002 0.038839 0.852407 0.049410
 32 4.197933 0.856170 -0.012593 -0.058053 0.064629 0.035524
 33 0.000000 0.000000 0.000000 0.044048 0.146798 0.151141
 34 0.605735 -0.000001 0.000000 -0.042040 0.213600 -0.074639
 35 0.712167 0.000000 0.000000 -0.054304 0.620533 -0.048561
 36 3.986744 -0.675711 -0.113672 0.017792 0.182754 -0.000937
 37 0.021461 0.004611 -0.092389 -0.555924 1.811366 -0.689340
 38 0.663654 -0.000000 -0.000001 0.049561 0.232471 0.032537
 39 0.879453 -0.000001 -0.000001 0.059507 0.786539 0.015253
 40 3.570828 -1.366418 -0.274605 0.010012 0.271959 -0.027277
 41 0.035348 0.006562 -0.108214 1.520546 1.274614 1.310823
 42 0.457815 -0.000000 -0.000001 0.048333 0.185296 0.020670
 43 0.711124 -0.000000 -0.000001 -0.141435 0.781026 -0.149034
 44 4.162198 0.087014 -0.006354 -0.059900 0.182754 -0.000938
 45 0.036273 0.019891 -0.155087 -0.407994 1.679262 -0.582847
 46 0.681960 -0.000000 0.000000 0.135657 0.260088 0.060874
 47 0.920144 0.000001 -0.000000 -0.100049 0.915274 -0.140756
 48 11.546450 -2.974042 -4.165986 -0.080143 -0.060467 1.611706
 49 -0.320811 0.612276 2.429818 -0.000814 -2.848701 -0.013624
 50 -0.065445 -18.140976 2.557333 0.000781 -0.056174 -0.013903
 51 10.264098 -2.972911 -2.800009 1.490653 -0.060467 1.611706
 52 11.546450 -2.974042 -4.165986 -0.080143 -0.060467 1.611706
 53 11.546450 -2.974042 -4.165986 -0.080143 -0.060467 1.611706
 54 11.546450 -2.974042 -4.165986 -0.080143 -0.060467 1.611706
 55 0.000000 0.000000 0.000000 0.000000 -0.000000 0.000000
time 11
  0 1.290745 8.687583 -10.819918 -1.109068 -0.445213 0.679094
  1 0.000000 0.000000 0.000000 -1.327819 1.387424 -2.473966
  2 9.389585 -0.000001 -0.000003 -0.007054 -1.378508 0.133787
  3 8.186139 0.002632 0.000004 -0.972161 0.028387 0.158334
  4 4.197930 -0.856477 -0.012591 0.058053 0.064630 -0.035524
  5 0.000000 0.000000 0.000000 0.052097 0.418846 0.330068
  6 0.605735 0.000000 -0.000001 -0.033658 1.458418 -0.046646
  7 0.712171 0.000000 0.000001 0.021167 1.216723 -0.027274
  8 4.162200 -0.086805 -0.006352 0.059900 0.182754 0.000937
  9 -0.000002 0.000000 -0.000001 -0.373844 1.042100 -0.042297
 10 0.681961 0.000000 -0.000002 -0.345955 1.427878 -0.329966
 11 0.920145 -0.000001 0.000002 -0.011449 1.342408 -0.014235
 12 3.986743 0.675515 -0.113671 -0.017792 0.182754 0.000937
 13 0.000000 0.000000 0.000000 -0.306993 0.952268 0.201572
 14 0.663655 0.000000 0.000002 0.074684 1.477921 0.064896
 15 0.879454 0.000001 0.000001 0.156281 1.206943 0.092657
 16 3.570827 1.366359 -0.274607 -0.010012 0.271959 0.027277
 17 0.000000 0.000000 0.000000 -0.551249 0.953674 -0.039718
 18 0.457817 0.000001 -0.000003 -0.088645 1.283249 -0.060935
 19 0.711123 0.000002 -0.000000 0.036298 1.230476 0.010173
 20 0.620016 -0.345514 -0.385599 1.525782 0.350291 -0.647162
 21 0.000000 0.000000 0.000000 0.019700 0.050190 0.263231
 22 2.157640 -0.000001 0.000002 0.021826 0.342164 -0.038868
 23 0.957851 -0.000001 0.000000 0.033353 -0.167040 -0.030426
 24 -5.331482 -6.461182 7.690796 -0.000460 0.000001 0.018844
 25 0.000000 0.000000 0.000000 0.206172 1.595262 0.459201
 26 9.389591 0.000001 -0.000001 0.007051 -1.486923 -0.135886
 27 8.186140 -0.002631 0.000004 1.766376 0.334669 -0.081979
 28 0.620015 0.345502 -0.385602 -1.525782 0.350290 0.647162
 29 0.000000 0.000000 0.000000 -0.095678 0.324730 0.199315
 30 2.157642 -0.000002 -0.000002 -0.136224 0.353261 -0.047715
 31 0.957850 0.000000 -0.000003 0.038839 0.852407 0.049410
 32 4.197933 0.856170 -0.012595 -0.058053 0.064629 0.035524
 33 0.000000 0.000000 0.000000 0.044048 0.146798 0.151141
 34 0.605736 -0.000000 0.000000 -0.042040 0.213600 -0.074639
 35 0.712168 0.000000 0.000000 -0.054304 0.620533 -0.048561
 36 3.986743 -0.675711 -0.113673 0.017792 0.182754 -0.000937
 37 0.021461 0.004611 -0.092389 -0.555924 1.811366 -0.689340
 38 0.663654 0.000000 0.000000 0.049561 0.232471 0.032537
 39 0.879454 -0.000001 -0.000001 0.059507 0.786539 0.015253
 40 3.570828 -1.366418 -0.274606 0.010012 0.271959 -0.027277
 41 0.035348 0.006562 -0.108213 1.520545 1.274614 1.310823
 42 0.457815 0.000000 -0.000000 0.048333 0.185296 0.020670
 43 0.711125 -0.000000 -0.000001 -0.141435 0.781026 -0.149034
 44 4.162197 0.087014 -0.006355 -0.059900 0.182754 -0.000938
 45 0.036273 0.019891 -0.155087 -0.407994 1.679262 -0.582848
 46 0.681960 -0.000000 0.000000 0.135657 0.260088 0.060874
 47 0.920145 0.000001 -0.000000 -0.100049 0.915274 -0.140756
 48 11.890210 -2.962322 -4.177705 -0.095011 -0.076215 1.612450
 49 -0.320811 0.612275 2.429819 -0.000814 -2.848701 -0.013624
 50 -0.065445 -18.140972 2.557334 0.000781 -0.056174 -0.013903
 51 11.076623 -2.969005 -2.772665 1.475785 -0.076215 1.612450
 52 11.890210 -2.962322 -4.177705 -0.095011 -0.076215 1.612450
 53 11.890210 -2.962322 -4.177705 -0.095011 -0.076215 1.612450
 54 11.890210 -2.962322 -4.177705 -0.095011 -0.076215 1.612450
 55 0.000000 0.000000 0.000000 0.000000 -0.000000 0.000000
time 12
  0 1.290745 8.687583 -10.819918 -1.109068 -0.445213 0.679094
  1 0.000000 0.000000 0.000000 -1.142893 1.373570 -2.249778
  2 9.389584 -0.000001 -0.000002 -0.007054 -1.294617 0.131102
  3 8.186138 0.002635 0.000004 -0.928643 0.084223 0.234594
  4 4.197928 -0.856476 -0.012590 0.058053 0.064630 -0.035524
  5 0.000000 0.000000 0.000000 0.050695 0.339224 0.326520
  6 0.605737 0.000001 0.000000 -0.002917 1.249057 -0.016551
  7 0.712170 0.000000 0.000001 0.022996 0.934435 -0.012501
  8 4.162198 -0.086807 -0.006351 0.059900 0.182754 0.000937
  9 -0.000001 0.000000 -0.000001 -0.373844 1.042100 -0.042297
 10 0.681961 0.000000 -0.000001 -0.345957 1.427878 -0.329967
 11 0.920143 0.000000 0.000002 -0.011449 1.342360 -0.014235
 12 3.986742 0.675515 -0.113669 -0.017792 0.182754 0.000937
 13 0.000000 0.000000 0.000000 -0.306993 0.952268 0.201572
 14 0.663655 0.000002 0.000001 0.074684 1.477921 0.064908
 15 0.879454 0.000000 0.000001 0.156281 1.206943 0.092657
 16 3.570827 1.366358 -0.274605 -0.010012 0.271959 0.027277
 17 0.000000 0.000000 0.000000 -0.551249 0.953674 -0.039718
 18 0.457818 -0.000001 -0.000004 -0.088645 1.283249 -0.060935
 19 0.711123 0.000001 0.000000 0.036298 1.230476 0.010173
 20 0.620014 -0.345516 -0.385599 1.525782 0.350291 -0.647162
 21 0.000000 0.000000 0.000000 0.019196 0.054013 0.255118
 22 2.157640 -0.000001 0.000001 0.021610 0.313564 -0.039527
 23 0.957851 -0.000000 0.000000 0.033138 -0.131429 -0.029215
 24 -5.331482 -6.461182 7.690796 -0.000460 0.000001 0.018844
 25 0.000000 0.000000 0.000000 0.051260 1.544758 0.290310
 26 9.389591 -0.000000 -0.000001 0.007051 -1.404607 -0.134544
 27 8.186138 -0.002630 0.000005 1.781453 0.273759 -0.059180
 28 0.620014 0.345502 -0.385602 -1.525782 0.350290 0.647162
 29 0.000000 0.000000 0.000000 -0.095678 0.324730 0.199315
 30 2.157642 -0.000000 -0.000001 -0.136224 0.353261 -0.047715
 31 0.957850 -0.000001 -0.000003 0.038839 0.852407 0.049410
 32 4.197933 0.856170 -0.012593 -0.058053 0.064629 0.035524
 33 0.000000 0.000000 0.000000 0.044048 0.146798 0.151141
 34 0.605735 -0.000001 0.000001 -0.042040 0.213600 -0.074639
 35 0.712167 0.000000 0.000000 -0.054304 0.620533 -0.048561
 36 3.986744 -0.675711 -0.113672 0.017792 0.182754 -0.000937
 37 0.021461 0.004611 -0.092389 -0.555924 1.811366 -0.689340
 38 0.663653 0.000000 -0.000000 0.049561 0.232471 0.032537
 39 0.879453 -0.000001 -0.000001 0.059507 0.786539 0.015253
 40 3.570829 -1.366419 -0.274605 0.010012 0.271959 -0.027277
 41 0.035347 0.006562 -0.108213 1.520546 1.274614 1.310824
 42 0.457815 -0.000001 -0.000000 0.048333 0.185296 0.020670
 43 0.711125 0.000000 -0.000001 -0.141435 0.781026 -0.149034
 44 4.162198 0.087014 -0.006353 -0.059900 0.182754 -0.000938
 45 0.036274 0.019891 -0.155087 -0.407995 1.679263 -0.582848
 46 0.681960 -0.000000 0.000001 0.135657 0.260088 0.060874
 47 0.920144 0.000001 -0.000001 -0.100049 0.915274 -0.140756
 48 12.374600 -2.950603 -4.177705 -0.117519 -0.101706 1.614043
 49 -0.320810 0.612276 2.429818 -0.000814 -2.848701 -0.013624
 50 -0.065445 -18.140972 2.557333 0.000781 -0.056174 -0.013903
 51 12.162593 -2.984630 -2.714069 1.453277 -0.101706 1.614043
 52 12.374600 -2.950603 -4.177705 -0.117519 -0.101706 1.614043
 53 12.374600 -2.950603 -4.177705 -0.117519 -0.101706 1.614043
 54 12.374600 -2.950603 -4.177705 -0.117519 -0.101706 1.614043
 55 0.000000 0.000000 0.000000 0.000000 -0.000000 0.000000
time 13
  0 1.290745 8.687583 -10.819918 -1.109068 -0.445213 0.679094
  1 0.000000 0.000000 0.000000 -1.019665 1.358661 -2.116825
  2 9.389585 -0.000001 -0.000003 -0.007054 -1.247824 0.129281
  3 8.186134 0.002635 0.000001 -0.889179 0.161165 0.358599
  4 4.197929 -0.856473 -0.012591 0.058053 0.064630 -0.035524
  5 0.000000 0.000000 0.000000 0.049796 0.272143 0.324758
  6 0.605737 0.000000 -0.000000 0.003098 1.073599 -0.010914
  7 0.712171 -0.000002 -0.000002 0.017691 0.717234 -0.008575
  8 4.162201 -0.086803 -0.006351 0.059900 0.182754 0.000937
  9 -0.000004 0.000000 -0.000001 -0.373844 1.042100 -0.042297
 10 0.681962 0.000001 -0.000001 -0.345956 1.427878 -0.329966
 11 0.920144 0.000000 0.000002 -0.011449 1.342360 -0.014235
 12 3.986745 0.675518 -0.113670 -0.017792 0.182754 0.000937
 13 0.000000 0.000001 -0.000000 -0.306993 0.952268 0.201572
 14 0.663656 0.000001 0.000000 0.074684 1.477921 0.064896
 15 0.879456 0.000000 0.000001 0.156281 1.206943 0.092657
 16 3.570829 1.366360 -0.274606 -0.010012 0.271959 0.027277
 17 0.000000 0.000000 0.000000 -0.551249 0.953674 -0.039718
 18 0.457818 0.000000 -0.000004 -0.088645 1.283249 -0.060935
 19 0.711123 0.000002 -0.000001 0.036298 1.230476 0.010173
 20 0.620014 -0.345515 -0.385599 1.525782 0.350291 -0.647162
 21 0.000000 0.000000 0.000000 0.018825 0.058711 0.248826
 22 2.157640 -0.000001 0.000000 0.021406 0.282588 -0.040222
 23 0.957850 -0.000001 0.000000 0.032970 -0.105369 -0.028328
 24 -5.331482 -6.461182 7.690796 -0.000460 0.000001 0.018844
 25 0.000000 0.000000 0.000000 0.086995 1.525335 0.317832
 26 9.389589 0.000000 -0.000000 0.007051 -1.369537 -0.133681
 27 8.186138 -0.002630 0.000005 1.795982 0.241029 -0.044159
 28 0.620014 0.345502 -0.385602 -1.525782 0.350290 0.647162
 29 0.000000 0.000000 0.000000 -0.095678 0.324730 0.199315
 30 2.157644 -0.000001 -0.000002 -0.136224 0.353261 -0.047715
 31 0.957850 0.000000 -0.000003 0.038839 0.852407 0.049410
 32 4.197932 0.856170 -0.012594 -0.058053 0.064629 0.035524
 33 0.000000 0.000000 0.000000 0.044048 0.146798 0.151141
 34 0.605736 -0.000001 0.000001 -0.042040 0.213600 -0.074639
 35 0.712168 0.000000 0.000000 -0.054304 0.620533 -0.048561
 36 3.986744 -0.675710 -0.113673 0.017792 0.182754 -0.000937
 37 0.021461 0.004611 -0.092389 -0.555924 1.811366 -0.689340
 38 0.663653 -0.000001 -0.000000 0.049561 0.232471 0.032537
 39 0.879453 -0.000002 0.000000 0.059507 0.786539 0.015253
 40 3.570828 -1.366418 -0.274607 0.010012 0.271959 -0.027277
 41 0.035348 0.006562 -0.108214 1.520546 1.274614 1.310823
 42 0.457815 0.000000 0.000000 0.048333 0.185296 0.020670
 43 0.711125 0.000000 -0.000000 -0.141435 0.781026 -0.149034
 44 4.162197 0.087014 -0.006354 -0.059900 0.182754 -0.000938
 45 0.036275 0.019892 -0.155087 -0.407994 1.679261 -0.582847
 46 0.681960 -0.000001 0.000001 0.135657 0.260088 0.060874
 47 0.920144 0.000001 -0.000000 -0.100049 0.915274 -0.140756
 48 12.562106 -2.954510 -4.146454 -0.130255 -0.122068 1.616167
 49 -0.320810 0.612274 2.429818 -0.000814 -2.848701 -0.013624
 50 -0.065445 -18.140976 2.557334 0.000781 -0.056174 -0.013903
 51 12.877459 -3.015881 -2.612504 1.440601 -0.122068 1.616167
 52 12.562106 -2.954510 -4.146454 -0.130255 -0.122068 1.616167
 53 12.562106 -2.954510 -4.146454 -0.130255 -0.122068 1.616167
 54 12.562106 -2.954510 -4.146454 -0.130255 -0.122068 1.616167
 55 0.000000 0.000000 0.000000 0.000000 -0.000000 0.000000
time 14
  0 1.290745 8.687583 -10.819918 -1.109068 -0.445213 0.679094
  1 0.000000 0.000000 0.000000 -0.962711 1.350020 -2.051884
  2 9.389585 -0.000005 -0.000002 -0.007054 -1.223806 0.128131
  3 8.186138 0.002633 0.000000 -0.864419 0.190386 0.408787
  4 4.197928 -0.856474 -0.012592 0.058053 0.064630 -0.035524
  5 0.000000 0.000000 0.000000 0.049317 0.233586 0.323668
  6 0.605735 0.000000 -0.000001 0.004626 1.000041 -0.009672
  7 0.712169 -0.000002 0.000000 0.015131 0.630353 -0.007640
  8 4.162200 -0.086806 -0.006352 0.059900 0.182754 0.000937
  9 -0.000003 -0.000001 -0.000001 -0.373844 1.042100 -0.042297
 10 0.681961 0.000001 -0.000002 -0.345956 1.427878 -0.329966
 11 0.920144 -0.000001 0.000001 -0.011449 1.342408 -0.014235
 12 3.986742 0.675514 -0.113671 -0.017792 0.182754 0.000937
 13 0.000001 0.000000 0.000000 -0.306993 0.952268 0.201572
 14 0.663654 0.000001 0.000001 0.074684 1.477921 0.064896
 15 0.879455 -0.000000 0.000001 0.156281 1.206943 0.092657
 16 3.570827 1.366358 -0.274607 -0.010012 0.271959 0.027277
 17 0.000000 0.000000 0.000000 -0.551249 0.953674 -0.039718
 18 0.457818 0.000001 -0.000003 -0.088645 1.283249 -0.060935
 19 0.711123 0.000002 0.000000 0.036298 1.230476 0.010173
 20 0.620016 -0.345516 -0.385599 1.525782 0.350291 -0.647162
 21 0.000000 0.000000 0.000000 0.018681 0.065351 0.245686
 22 2.157640 -0.000002 0.000000 0.021227 0.250717 -0.040929
 23 0.957851 -0.000002 0.000000 0.032898 -0.095268 -0.027981
 24 -5.331482 -6.461182 7.690796 -0.000460 0.000001 0.018844
 25 0.000000 0.000000 0.000000 0.098245 1.513686 0.323401
 26 9.389591 -0.000001 -0.000000 0.007051 -1.345424 -0.133010
 27 8.186136 -0.002630 0.000004 1.807625 0.214136 -0.033220
 28 0.620014 0.345502 -0.385602 -1.525782 0.350290 0.647162
 29 0.000000 0.000000 0.000000 -0.095678 0.324730 0.199315
 30 2.157643 -0.000001 -0.000002 -0.136224 0.353261 -0.047715
 31 0.957850 -0.000000 -0.000003 0.038839 0.852407 0.049410
 32 4.197932 0.856169 -0.012593 -0.058053 0.064629 0.035524
 33 0.000000 0.000000 0.000000 0.044048 0.146798 0.151141
 34 0.605736 -0.000001 0.000000 -0.042040 0.213600 -0.074639
 35 0.712168 0.000000 0.000000 -0.054304 0.620533 -0.048561
 36 3.986743 -0.675710 -0.113673 0.017792 0.182754 -0.000937
 37 0.021461 0.004611 -0.092389 -0.555924 1.811366 -0.689340
 38 0.663654 -0.000000 -0.000001 0.049561 0.232471 0.032537
 39 0.879453 -0.000002 -0.000001 0.059507 0.786539 0.015253
 40 3.570828 -1.366418 -0.274606 0.010012 0.271959 -0.027277
 41 0.035347 0.006561 -0.108213 1.520545 1.274614 1.310823
 42 0.457815 0.000000 -0.000001 0.048333 0.185296 0.020670
 43 0.711124 -0.000000 -0.000000 -0.141435 0.781026 -0.149034
 44 4.162196 0.087013 -0.006354 -0.059900 0.182754 -0.000938
 45 0.036274 0.019892 -0.155088 -0.407994 1.679262 -0.582848
 46 0.681960 0.000000 -0.000000 0.135657 0.260088 0.060874
 47 0.920144 0.000000 0.000000 -0.100049 0.915274 -0.140756
 48 12.671484 -2.958416 -4.107391 -0.141331 -0.138379 1.618663
 49 -0.320810 0.612276 2.429818 -0.000814 -2.848701 -0.013624
 50 -0.065444 -18.140972 2.557334 0.000781 -0.056174 -0.013903
 51 13.201688 -3.043226 -2.538283 1.429465 -0.138379 1.618663
 52 12.671484 -2.958416 -4.107391 -0.141331 -0.138379 1.618663
 53 12.671484 -2.958416 -4.107391 -0.141331 -0.138379 1.618663
 54 12.671484 -2.958416 -4.107391 -0.141331 -0.138379 1.618663
 55 0.000000 0.000000 0.000000 0.000000 -0.000000 0.000000
time 15
  0 1.290745 8.687583 -10.819918 -1.109068 -0.445213 0.679094
  1 0.000000 0.000000 0.000000 -0.944569 1.347563 -2.017414
  2 9.389584 -0.000001 -0.000005 -0.007054 -1.208160 0.127459
  3 8.186138 0.002634 0.000006 -0.857608 0.170541 0.381450
  4 4.197930 -0.856476 -0.012590 0.058053 0.064630 -0.035524
  5 0.000000 0.000000 0.000000 0.049125 0.215987 0.322553
  6 0.605738 0.000002 0.000000 0.004244 1.005526 -0.009959
  7 0.712170 0.000000 0.000002 0.016045 0.645101 -0.009416
  8 4.162198 -0.086808 -0.006351 0.059900 0.182754 0.000937
  9 -0.000002 0.000000 -0.000001 -0.373844 1.042100 -0.042297
 10 0.681961 0.000001 0.000000 -0.345956 1.427878 -0.329966
 11 0.920143 0.000000 0.000002 -0.011449 1.342360 -0.014235
 12 3.986742 0.675515 -0.113669 -0.017792 0.182754 0.000937
 13 0.000000 0.000002 0.000000 -0.306993 0.952268 0.201572
 14 0.663655 0.000001 -0.000001 0.074684 1.477921 0.064896
 15 0.879454 -0.000000 0.000001 0.156281 1.206943 0.092657
 16 3.570826 1.366357 -0.274606 -0.010012 0.271959 0.027277
 17 0.000000 0.000000 0.000000 -0.551249 0.953674 -0.039718
 18 0.457817 0.000000 -0.000002 -0.088645 1.283249 -0.060935
 19 0.711125 0.000002 0.000000 0.036298 1.230476 0.010173
 20 0.620015 -0.345516 -0.385599 1.525782 0.350291 -0.647162
 21 0.000000 0.000000 0.000000 0.019232 0.073872 0.244703
 22 2.157639 -0.000001 0.000001 0.021071 0.206527 -0.041876
 23 0.957851 -0.000001 0.000000 0.032898 -0.095268 -0.027981
 24 -5.331482 -6.461182 7.690796 -0.000460 0.000001 0.018844
 25 0.000000 0.000000 0.000000 0.099982 1.499133 0.321969
 26 9.389591 -0.000001 -0.000000 0.007051 -1.313247 -0.131860
 27 8.186137 -0.002630 0.000004 1.809616 0.179659 -0.029074
 28 0.620015 0.345502 -0.385602 -1.525782 0.350290 0.647162
 29 0.000000 0.000000 0.000000 -0.095678 0.324730 0.199315
 30 2.157642 0.000000 -0.000002 -0.136224 0.353261 -0.047715
 31 0.957849 0.000000 -0.000003 0.038839 0.852407 0.049410
 32 4.197933 0.856169 -0.012595 -0.058053 0.064629 0.035524
 33 0.000000 0.000000 0.000000 0.044048 0.146798 0.151141
 34 0.605735 -0.000001 0.000000 -0.042040 0.213600 -0.074639
 35 0.712168 -0.000000 0.000000 -0.054304 0.620533 -0.048561
 36 3.986744 -0.675711 -0.113674 0.017792 0.182754 -0.000937
 37 0.021461 0.004611 -0.092389 -0.555924 1.811366 -0.689340
 38 0.663654 0.000000 0.000000 0.049561 0.232471 0.032537
 39 0.879453 -0.000001 0.000000 0.059507 0.786539 0.015253
 40 3.570829 -1.366418 -0.274607 0.010012 0.271959 -0.027277
 41 0.035347 0.006562 -0.108213 1.520546 1.274614 1.310823
 42 0.457816 -0.000000 -0.000001 0.048333 0.185296 0.020670
 43 0.711125 -0.000000 -0.000001 -0.141435 0.781026 -0.149034
 44 4.162198 0.087014 -0.006355 -0.059900 0.182754 -0.000938
 45 0.036273 0.019891 -0.155088 -0.407995 1.679261 -0.582848
 46 0.681961 0.000000 0.000000 0.135657 0.260088 0.060874
 47 0.920145 0.000001 0.000000 -0.100049 0.915274 -0.140756
 48 12.800394 -2.962322 -4.080046 -0.156850 -0.145606 1.621265
 49 -0.320810 0.612275 2.429818 -0.000814 -2.848701 -0.013624
 50 -0.065444 -18.140970 2.557334 0.000781 -0.056174 -0.013903
 51 13.307160 -3.058851 -2.503125 1.413946 -0.145606 1.621265
 52 12.800394 -2.962322 -4.080046 -0.156850 -0.145606 1.621265
 53 12.800394 -2.962322 -4.080046 -0.156850 -0.145606 1.621265
 54 12.800394 -2.962322 -4.080046 -0.156850 -0.145606 1.621265
 55 0.000000 0.000000 0.000000 0.000000 -0.000000 0.000000
time 16
  0 1.290745 8.687583 -10.819918 -1.109068 -0.445213 0.679094
  1 0.000000 0.000000 0.000000 -0.942935 1.347803 -2.004407
  2 9.389584 0.000000 -0.000002 -0.007054 -1.204827 0.127268
  3 8.186139 0.002635 0.000003 -0.853445 0.160324 0.365283
  4 4.197930 -0.856476 -0.012591 0.058053 0.064630 -0.035524
  5 0.000000 0.000000 0.000000 0.048981 0.200896 0.321690
  6 0.605736 0.000001 0.000000 0.003289 1.020726 -0.011010
  7 0.712170 0.000000 -0.000001 0.018149 0.685913 -0.014465
  8 4.162199 -0.086806 -0.006351 0.059900 0.182754 0.000937
  9 -0.000002 0.000000 -0.000001 -0.373844 1.042100 -0.042297
 10 0.681960 0.000000 -0.000001 -0.345956 1.427878 -0.329966
 11 0.920142 -0.000001 0.000002 -0.011449 1.342360 -0.014235
 12 3.986743 0.675515 -0.113670 -0.017792 0.182754 0.000937
 13 -0.000001 0.000001 -0.000000 -0.306993 0.952268 0.201572
 14 0.663654 0.000001 0.000000 0.074684 1.477921 0.064896
 15 0.879454 0.000000 0.000001 0.156281 1.206943 0.092657
 16 3.570827 1.366357 -0.274605 -0.010012 0.271959 0.027277
 17 0.000000 0.000000 0.000000 -0.551249 0.953674 -0.039718
 18 0.457818 0.000000 -0.000003 -0.088645 1.283249 -0.060935
 19 0.711124 0.000001 0.000001 0.036298 1.230476 0.010173
 20 0.620014 -0.345516 -0.385599 1.525782 0.350291 -0.647162
 21 0.000000 0.000000 0.000000 0.020742 0.083315 0.243972
 22 2.157640 -0.000001 0.000002 0.020891 0.147207 -0.043134
 23 0.957851 -0.000001 0.000000 0.032898 -0.095268 -0.027981
 24 -5.331482 -6.461182 7.690796 -0.000460 0.000001 0.018844
 25 0.000000 0.000000 0.000000 0.101636 1.491236 0.320935
 26 9.389592 -0.000000 -0.000002 0.007051 -1.294796 -0.131284
 27 8.186135 -0.002629 0.000005 1.807824 0.159156 -0.026375
 28 0.620014 0.345502 -0.385602 -1.525782 0.350290 0.647162
 29 0.000000 0.000000 0.000000 -0.095678 0.324730 0.199315
 30 2.157641 0.000002 -0.000002 -0.136224 0.353261 -0.047715
 31 0.957850 0.000000 -0.000003 0.038839 0.852407 0.049410
 32 4.197931 0.856169 -0.012593 -0.058053 0.064629 0.035524
 33 0.000000 0.000000 0.000000 0.044048 0.146798 0.151141
 34 0.605735 -0.000001 0.000000 -0.042040 0.213600 -0.074639
 35 0.712168 -0.000000 0.000000 -0.054304 0.620533 -0.048561
 36 3.986742 -0.675710 -0.113673 0.017792 0.182754 -0.000937
 37 0.021461 0.004611 -0.092389 -0.555924 1.811366 -0.689340
 38 0.663654 -0.000000 0.000001 0.049561 0.232471 0.032537
 39 0.879454 -0.000001 0.000000 0.059507 0.786539 0.015253
 40 3.570828 -1.366419 -0.274606 0.010012 0.271959 -0.027277
 41 0.035347 0.006562 -0.108214 1.520546 1.274614 1.310823
 42 0.457815 -0.000001 -0.000001 0.048333 0.185296 0.020670
 43 0.711125 -0.000000 -0.000001 -0.141435 0.781026 -0.149034
 44 4.162196 0.087013 -0.006354 -0.059900 0.182754 -0.000938
 45 0.036274 0.019892 -0.155087 -0.407994 1.679261 -0.582848
 46 0.681961 0.000000 0.000000 0.135657 0.260088 0.060874
 47 0.920144 0.000001 0.000000 -0.100049 0.915274 -0.140756
 48 12.866802 -2.966229 -4.064420 -0.166209 -0.147164 1.623601
 49 -0.320810 0.612276 2.429818 -0.000814 -2.848701 -0.013624
 50 -0.065445 -18.140972 2.557334 0.000781 -0.056174 -0.013903
 51 13.357942 -3.066664 -2.483593 1.404587 -0.147164 1.623601
 52 12.866802 -2.966229 -4.064420 -0.166209 -0.147164 1.623601
 53 12.866802 -2.966229 -4.064420 -0.166209 -0.147164 1.623601
 54 12.866802 -2.966229 -4.064420 -0.166209 -0.147164 1.623601
 55 0.000000 0.000000 0.000000 0.000000 -0.000000 0.000000
time 17
  0 1.290745 8.687583 -10.819918 -1.109068 -0.445213 0.679094
  1 0.000000 0.000000 0.000000 -0.944651 1.347420 -2.020666
  2 9.389584 0.000000 -0.000002 -0.007054 -1.206044 0.127364
  3 8.186136 0.002635 0.000004 -0.859176 0.161417 0.386402
  4 4.197928 -0.856475 -0.012593 0.058053 0.064630 -0.035524
  5 0.000000 0.000000 0.000000 0.048873 0.188142 0.321031
  6 0.605736 0.000000 -0.000000 0.001666 1.043696 -0.012538
  7 0.712170 -0.000001 -0.000001 0.020344 0.747496 -0.022880
  8 4.162198 -0.086806 -0.006353 0.059900 0.182754 0.000937
  9 -0.000001 -0.000001 -0.000001 -0.373844 1.042100 -0.042297
 10 0.681961 0.000000 -0.000002 -0.345956 1.427878 -0.329966
 11 0.920143 0.000000 0.000001 -0.011449 1.342360 -0.014235
 12 3.986740 0.675514 -0.113673 -0.017792 0.182754 0.000937
 13 -0.000002 0.000002 -0.000000 -0.306993 0.952268 0.201572
 14 0.663655 0.000001 -0.000001 0.074684 1.477920 0.064896
 15 0.879454 -0.000000 0.000002 0.156281 1.206943 0.092657
 16 3.570826 1.366359 -0.274609 -0.010012 0.271959 0.027277
 17 0.000000 0.000000 0.000000 -0.551249 0.953674 -0.039718
 18 0.457818 0.000000 -0.000003 -0.088645 1.283249 -0.060935
 19 0.711123 0.000001 0.000001 0.036298 1.230476 0.010173
 20 0.620015 -0.345516 -0.385599 1.525782 0.350291 -0.647162
 21 0.000000 0.000000 0.000000 0.022959 0.093407 0.243457
 22 2.157639 -0.000002 0.000000 0.020735 0.087095 -0.044393
 23 0.957851 -0.000002 -0.000002 0.032898 -0.095268 -0.027981
 24 -5.331482 -6.461182 7.690796 -0.000460 0.000001 0.018844
 25 0.000000 0.000000 0.000000 0.109825 1.500992 0.326901
 26 9.389591 0.000001 -0.000001 0.007051 -1.310518 -0.131764
 27 8.186138 -0.002628 0.000004 1.802351 0.170097 -0.024046
 28 0.620014 0.345502 -0.385603 -1.525782 0.350290 0.647162
 29 0.000000 0.000000 0.000000 -0.095678 0.324730 0.199315
 30 2.157643 -0.000000 -0.000002 -0.136224 0.353261 -0.047715
 31 0.957850 -0.000000 -0.000003 0.038839 0.852407 0.049410
 32 4.197932 0.856170 -0.012595 -0.058053 0.064629 0.035524
 33 0.000000 0.000000 0.000000 0.044048 0.146798 0.151141
 34 0.605736 -0.000001 0.000000 -0.042040 0.213600 -0.074639
 35 0.712168 -0.000001 0.000000 -0.054304 0.620533 -0.048561
 36 3.986744 -0.675711 -0.113674 0.017792 0.182754 -0.000937
 37 0.021461 0.004611 -0.092390 -0.555924 1.811366 -0.689340
 38 0.663653 -0.000000 0.000000 0.049561 0.232471 0.032537
 39 0.879453 -0.000002 0.000000 0.059507 0.786539 0.015253
 40 3.570828 -1.366419 -0.274607 0.010012 0.271959 -0.027277
 41 0.035349 0.006562 -0.108214 1.520545 1.274614 1.310823
 42 0.457815 0.000000 -0.000001 0.048333 0.185296 0.020670
 43 0.711126 0.000001 -0.000000 -0.141435 0.781026 -0.149034
 44 4.162197 0.087014 -0.006355 -0.059900 0.182754 -0.000938
 45 0.036274 0.019892 -0.155087 -0.407995 1.679261 -0.582848
 46 0.681959 -0.000000 0.000000 0.135657 0.260088 0.060874
 47 0.920145 0.000000 -0.000000 -0.100049 0.915274 -0.140756
 48 12.780862 -2.974042 -4.076140 -0.161530 -0.140800 1.625460
 49 -0.320810 0.612276 2.429818 -0.000814 -2.848701 -0.013624
 50 -0.065444 -18.140970 2.557334 0.000781 -0.056174 -0.013903
 51 13.279815 -3.062757 -2.499219 1.409266 -0.140800 1.625460
 52 12.780862 -2.974042 -4.076140 -0.161530 -0.140800 1.625460
 53 12.780862 -2.974042 -4.076140 -0.161530 -0.140800 1.625460
 54 12.780862 -2.974042 -4.076140 -0.161530 -0.140800 1.625460
 55 0.000000 0.000000 0.000000 0.000000 -0.000000 0.000000
time 18
  0 1.290745 8.687583 -10.819918 -1.109068 -0.445213 0.679094
  1 0.000000 0.000000 0.000000 -1.066817 1.364833 -2.167182
  2 9.389587 -0.000000 -0.000002 -0.007054 -1.240008 0.128897
  3 8.186139 0.002634 0.000001 -0.872258 0.172348 0.404168
  4 4.197929 -0.856475 -0.012592 0.058053 0.064630 -0.035524
  5 0.000000 0.000000 0.000000 0.048789 0.177515 0.320528
  6 0.605737 0.000000 -0.000000 -0.000530 1.072494 -0.014736
  7 0.712170 -0.000002 0.000001 0.020801 0.824666 -0.035034
  8 4.162200 -0.086804 -0.006351 0.059900 0.182754 0.000937
  9 -0.000002 0.000000 -0.000001 -0.373844 1.042100 -0.042297
 10 0.681962 -0.000001 -0.000003 -0.345956 1.427878 -0.329966
 11 0.920141 0.000000 0.000001 -0.011449 1.342360 -0.014235
 12 3.986744 0.675514 -0.113671 -0.017792 0.182754 0.000937
 13 0.000001 0.000002 0.000000 -0.306993 0.952268 0.201572
 14 0.663656 0.000000 -0.000001 0.074684 1.477921 0.064896
 15 0.879454 -0.000000 0.000000 0.156281 1.206943 0.092657
 16 3.570828 1.366358 -0.274607 -0.010012 0.271959 0.027277
 17 0.000000 0.000000 0.000000 -0.551249 0.953674 -0.039718
 18 0.457818 -0.000002 -0.000004 -0.088645 1.283249 -0.060935
 19 0.711123 0.000002 0.000001 0.036298 1.230476 0.010173
 20 0.620015 -0.345516 -0.385599 1.525782 0.350291 -0.647162
 21 0.000000 0.000000 0.000000 0.025644 0.103845 0.243085
 22 2.157640 -0.000002 0.000003 0.020615 0.040503 -0.045364
 23 0.957851 -0.000001 0.000001 0.032898 -0.095268 -0.027981
 24 -5.331482 -6.461182 7.690796 -0.000460 0.000001 0.018844
 25 0.000000 0.000000 0.000000 0.129182 1.524702 0.345991
 26 9.389591 0.000000 -0.000001 0.007051 -1.349049 -0.133106
 27 8.186137 -0.002630 0.000004 1.790691 0.198506 -0.025594
 28 0.620015 0.345502 -0.385603 -1.525782 0.350290 0.647162
 29 0.000000 0.000000 0.000000 -0.095678 0.324730 0.199315
 30 2.157643 -0.000001 -0.000002 -0.136224 0.353261 -0.047715
 31 0.957850 0.000000 -0.000003 0.038839 0.852407 0.049410
 32 4.197933 0.856169 -0.012594 -0.058053 0.064629 0.035524
 33 0.000000 0.000000 0.000000 0.044048 0.146798 0.151141
 34 0.605735 -0.000001 0.000000 -0.042040 0.213600 -0.074639
 35 0.712168 0.000000 0.000000 -0.054304 0.620533 -0.048561
 36 3.986744 -0.675711 -0.113673 0.017792 0.182754 -0.000937
 37 0.021461 0.004611 -0.092390 -0.555924 1.811366 -0.689340
 38 0.663654 -0.000000 0.000000 0.049561 0.232471 0.032537
 39 0.879453 -0.000002 0.000000 0.059507 0.786539 0.015253
 40 3.570828 -1.366419 -0.274606 0.010012 0.271959 -0.027277
 41 0.035347 0.006562 -0.108214 1.520546 1.274614 1.310823
 42 0.457816 0.000000 -0.000001 0.048333 0.185296 0.020670
 43 0.711125 -0.000000 -0.000001 -0.141435 0.781026 -0.149034
 44 4.162197 0.087013 -0.006354 -0.059900 0.182754 -0.000938
 45 0.036274 0.019891 -0.155087 -0.407995 1.679261 -0.582848
 46 0.681960 -0.000000 0.000000 0.135657 0.260088 0.060874
 47 0.920144 0.000001 0.000000 -0.100049 0.915274 -0.140756
 48 12.566012 -2.985761 -4.107391 -0.149802 -0.124908 1.627425
 49 -0.320810 0.612276 2.429818 -0.000814 -2.848701 -0.013624
 50 -0.065445 -18.140976 2.557333 0.000781 -0.056174 -0.013903
 51 13.084497 -3.043226 -2.534376 1.420994 -0.124908 1.627425
 52 12.566012 -2.985761 -4.107391 -0.149802 -0.124908 1.627425
 53 12.566012 -2.985761 -4.107391 -0.149802 -0.124908 1.627425
 54 12.566012 -2.985761 -4.107391 -0.149802 -0.124908 1.627425
 55 0.000000 0.000000 0.000000 0.000000 -0.000000 0.000000
time 19
  0 1.290745 8.687583 -10.819918 -1.109068 -0.445213 0.679094
  1 0.000000 0.000000 0.000000 -1.427105 1.391367 -2.559350
  2 9.389584 -0.000002 -0.000002 -0.007054 -1.301600 0.131390
  3 8.186140 0.002634 0.000004 -0.890368 0.183785 0.397328
  4 4.197931 -0.856475 -0.012591 0.058053 0.064630 -0.035524
  5 0.000000 0.000000 0.000000 0.048717 0.168885 0.320144
  6 0.605737 0.000000 -0.000000 -0.003394 1.105140 -0.017506
  7 0.712170 -0.000001 -0.000001 0.017691 0.912058 -0.051863
  8 4.162200 -0.086807 -0.006352 0.059900 0.182754 0.000937
  9 -0.000001 0.000000 -0.000001 -0.373844 1.042100 -0.042297
 10 0.681961 0.000000 -0.000001 -0.345956 1.427878 -0.329966
 11 0.920142 0.000002 0.000002 -0.011449 1.342408 -0.014235
 12 3.986743 0.675514 -0.113671 -0.017792 0.182754 0.000937
 13 0.000001 0.000001 0.000000 -0.306993 0.952268 0.201572
 14 0.663655 0.000002 -0.000002 0.074684 1.477921 0.064896
 15 0.879454 0.000000 0.000000 0.156281 1.206943 0.092657
 16 3.570829 1.366357 -0.274606 -0.010012 0.271959 0.027277
 17 0.000000 0.000000 0.000000 -0.551249 0.953674 -0.039718
 18 0.457817 0.000001 -0.000004 -0.088645 1.283249 -0.060935
 19 0.711123 0.000004 0.000000 0.036298 1.230520 0.010173
 20 0.620015 -0.345516 -0.385599 1.525782 0.350291 -0.647162
 21 0.000000 0.000000 0.000000 0.028580 0.114344 0.242821
 22 2.157640 -0.000002 -0.000001 0.020567 0.021820 -0.045747
 23 0.957851 -0.000001 -0.000002 0.032898 -0.095268 -0.027981
 24 -5.331482 -6.461182 7.690796 -0.000460 0.000001 0.018844
 25 0.000000 0.000000 0.000000 0.203795 1.554477 0.421879
 26 9.389593 0.000000 -0.000001 0.007051 -1.398089 -0.134352
 27 8.186139 -0.002629 0.000004 1.775598 0.235742 -0.030405
 28 0.620015 0.345502 -0.385603 -1.525782 0.350290 0.647162
 29 0.000000 0.000000 0.000000 -0.095678 0.324730 0.199315
 30 2.157643 -0.000001 -0.000003 -0.136224 0.353261 -0.047715
 31 0.957850 0.000001 -0.000003 0.038839 0.852407 0.049410
 32 4.197933 0.856169 -0.012595 -0.058053 0.064629 0.035524
 33 0.000000 0.000000 0.000000 0.044048 0.146798 0.151141
 34 0.605735 -0.000001 0.000000 -0.042040 0.213600 -0.074639
 35 0.712169 -0.000000 -0.000000 -0.054304 0.620533 -0.048561
 36 3.986744 -0.675711 -0.113674 0.017792 0.182754 -0.000937
 37 0.021461 0.004610 -0.092389 -0.555924 1.811366 -0.689340
 38 0.663654 -0.000000 0.000000 0.049561 0.232471 0.032537
 39 0.879454 -0.000001 0.000000 0.059507 0.786539 0.015253
 40 3.570829 -1.366420 -0.274606 0.010012 0.271959 -0.027277
 41 0.035348 0.006562 -0.108214 1.520546 1.274614 1.310823
 42 0.457815 -0.000000 -0.000002 0.048333 0.185296 0.020670
 43 0.711126 0.000000 -0.000001 -0.141435 0.781026 -0.149034
 44 4.162198 0.087013 -0.006355 -0.059900 0.182754 -0.000938
 45 0.036273 0.019891 -0.155087 -0.407994 1.679262 -0.582847
 46 0.681960 0.000000 0.000000 0.135657 0.260088 0.060874
 47 0.920145 0.000001 -0.000000 -0.100049 0.915274 -0.140756
 48 12.296473 -2.993573 -4.142548 -0.134519 -0.104247 1.629443
 49 -0.320810 0.612275 2.429818 -0.000814 -2.848701 -0.013624
 50 -0.065445 -18.140976 2.557334 0.000781 -0.056174 -0.013903
 51 12.834489 -3.019787 -2.573440 1.436277 -0.104247 1.629443
 52 12.296473 -2.993573 -4.142548 -0.134519 -0.104247 1.629443
 53 12.296473 -2.993573 -4.142548 -0.134519 -0.104247 1.629443
 54 12.296473 -2.993573 -4.142548 -0.134519 -0.104247 1.629443
 55 0.000000 0.000000 0.000000 0.000000 -0.000000 0.000000
time 20
  0 1.290745 8.687583 -10.819918 -1.109068 -0.445213 0.679094
  1 0.000000 0.000000 0.000000 1.179902 1.758315 0.005469
  2 9.389585 -0.000000 -0.000001 -0.007054 -1.362082 0.133403
  3 8.186138 0.002632 0.000003 -0.907884 0.187274 0.375454
  4 4.197927 -0.856476 -0.012592 0.058053 0.064630 -0.035524
  5 0.000000 0.000000 0.000000 0.048657 0.162041 0.319869
  6 0.605738 0.000000 -0.000000 -0.006926 1.139729 -0.020850
  7 0.712171 -0.000002 -0.000003 0.008363 1.004414 -0.074957
  8 4.162198 -0.086805 -0.006352 0.059900 0.182754 0.000937
  9 -0.000002 0.000001 -0.000001 -0.373844 1.042100 -0.042297
 10 0.681961 -0.000001 -0.000003 -0.345956 1.427878 -0.329966
 11 0.920144 0.000000 0.000002 -0.011449 1.342360 -0.014235
 12 3.986743 0.675516 -0.113671 -0.017792 0.182754 0.000937
 13 0.000000 0.000002 0.000000 -0.306993 0.952268 0.201572
 14 0.663655 0.000001 0.000000 0.074684 1.477921 0.064896
 15 0.879455 -0.000001 0.000001 0.156281 1.206943 0.092657
 16 3.570827 1.366358 -0.274606 -0.010012 0.271959 0.027277
 17 0.000000 0.000000 0.000000 -0.551249 0.953674 -0.039718
 18 0.457817 0.000000 -0.000002 -0.088645 1.283249 -0.060935
 19 0.711122 0.000002 0.000002 0.036298 1.230476 0.010173
 20 0.620014 -0.345516 -0.385599 1.525782 0.350291 -0.647162
 21 0.000000 0.000000 0.000000 0.031504 0.124614 0.242606
 22 2.157640 -0.000002 0.000002 0.022101 0.110787 -0.043362
 23 0.957850 -0.000001 0.000000 0.038195 0.022928 -0.020766
 24 -5.331482 -6.461182 7.690796 -0.000460 0.000001 0.018844
 25 0.000000 0.000000 0.000000 -0.032558 1.583091 0.187871
 26 9.389591 -0.000001 -0.000001 0.007051 -1.445949 -0.135407
 27 8.186142 -0.002630 0.000005 1.760372 0.273437 -0.036636
 28 0.620014 0.345502 -0.385602 -1.525782 0.350290 0.647162
 29 0.000000 0.000000 0.000000 -0.095678 0.324730 0.199315
 30 2.157642 0.000000 -0.000003 -0.136224 0.353261 -0.047715
 31 0.957850 -0.000000 -0.000003 0.038839 0.852407 0.049410
 32 4.197934 0.856170 -0.012594 -0.058053 0.064629 0.035524
 33 0.000000 0.000000 0.000000 0.044048 0.146798 0.151141
 34 0.605736 -0.000001 0.000000 -0.042040 0.213600 -0.074639
 35 0.712168 0.000000 0.000000 -0.054304 0.620533 -0.048561
 36 3.986744 -0.675709 -0.113674 0.017792 0.182754 -0.000937
 37 0.021461 0.004611 -0.092389 -0.555924 1.811366 -0.689340
 38 0.663654 -0.000000 0.000000 0.049561 0.232471 0.032537
 39 0.879454 -0.000002 0.000000 0.059507 0.786539 0.015253
 40 3.570829 -1.366418 -0.274607 0.010012 0.271959 -0.027277
 41 0.035348 0.006562 -0.108214 1.520546 1.274614 1.310823
 42 0.457815 0.000000 0.000000 0.048333 0.185296 0.020670
 43 0.711125 0.000000 -0.000001 -0.141435 0.781026 -0.149034
 44 4.162198 0.087014 -0.006355 -0.059900 0.182754 -0.000938
 45 0.036273 0.019892 -0.155086 -0.407994 1.679261 -0.582847
 46 0.681960 0.000000 0.000000 0.135657 0.260088 0.060874
 47 0.920143 0.000001 0.000000 -0.100049 0.915274 -0.140756
 48 12.030839 -3.005293 -4.165986 -0.119178 -0.083609 1.631461
 49 -0.320810 0.612275 2.429818 -0.000814 -2.848701 -0.013624
 50 -0.065445 -18.140976 2.557334 0.000781 -0.056174 -0.013903
 51 12.592294 -2.992443 -2.604691 1.451618 -0.083609 1.631461
 52 12.030839 -3.005293 -4.165986 -0.119178 -0.083609 1.631461
 53 12.030839 -3.005293 -4.165986 -0.119178 -0.083609 1.631461
 54 12.030839 -3.005293 -4.165986 -0.119178 -0.083609 1.631461
 55 0.000000 0.000000 0.000000 0.000000 -0.000000 0.000000
time 21
  0 1.290745 8.687583 -10.819918 -1.109068 -0.445213 0.679094
  1 0.000000 0.000000 0.000000 0.769687 1.813361 -0.456565
  2 9.389585 -0.000001 -0.000002 -0.007054 -1.398572 0.134266
  3 8.186137 0.002634 0.000005 -0.918858 0.182061 0.346829
  4 4.197931 -0.856476 -0.012592 0.058053 0.064630 -0.035524
  5 0.000000 0.000000 0.000000 0.048610 0.156727 0.319665
  6 0.605737 0.000000 0.000001 -0.011032 1.174318 -0.024863
  7 0.712172 0.000000 -0.000003 -0.010385 1.096332 -0.106559
  8 4.162202 -0.086806 -0.006351 0.059900 0.182754 0.000937
  9 -0.000003 0.000003 -0.000001 -0.373844 1.042100 -0.042297
 10 0.681962 0.000000 0.000000 -0.345956 1.427878 -0.329966
 11 0.920143 0.000000 0.000000 -0.011449 1.342360 -0.014235
 12 3.986745 0.675515 -0.113671 -0.017792 0.182754 0.000937
 13 0.000001 0.000002 0.000000 -0.306993 0.952268 0.201572
 14 0.663655 0.000002 0.000000 0.074684 1.477920 0.064896
 15 0.879454 0.000001 0.000001 0.156281 1.206943 0.092657
 16 3.570828 1.366358 -0.274607 -0.010012 0.271959 0.027277
 17 0.000000 0.000000 0.000000 -0.551249 0.953674 -0.039718
 18 0.457817 -0.000001 -0.000003 -0.088645 1.283249 -0.060935
 19 0.711123 0.000004 0.000001 0.036298 1.230476 0.010173
 20 0.620014 -0.345515 -0.385600 1.525782 0.350291 -0.647162
 21 0.000000 0.000000 0.000000 0.034201 0.134394 0.242402
 22 2.157642 -0.000001 0.000001 0.025721 0.322970 -0.037657
 23 0.957852 -0.000000 -0.000001 0.050803 0.304869 -0.003568
 24 -5.331482 -6.461182 7.690796 -0.000460 0.000001 0.018844
 25 0.000000 0.000000 0.000000 0.057442 1.603155 0.279110
 26 9.389590 0.000000 -0.000001 0.007051 -1.482646 -0.135886
 27 8.186138 -0.002629 0.000004 1.747783 0.303915 -0.041012
 28 0.620014 0.345502 -0.385602 -1.525782 0.350290 0.647162
 29 0.000000 0.000000 0.000000 -0.095678 0.324730 0.199315
 30 2.157642 0.000000 -0.000002 -0.136224 0.353261 -0.047715
 31 0.957849 0.000000 -0.000003 0.038839 0.852407 0.049410
 32 4.197932 0.856169 -0.012594 -0.058053 0.064629 0.035524
 33 0.000000 0.000000 0.000000 0.044048 0.146798 0.151141
 34 0.605735 -0.000001 0.000000 -0.042040 0.213600 -0.074639
 35 0.712168 -0.000000 0.000000 -0.054304 0.620533 -0.048561
 36 3.986743 -0.675712 -0.113674 0.017792 0.182754 -0.000937
 37 0.021461 0.004611 -0.092391 -0.555924 1.811366 -0.689340
 38 0.663653 0.000000 0.000000 0.049561 0.232471 0.032537
 39 0.879452 -0.000001 0.000000 0.059507 0.786539 0.015253
 40 3.570827 -1.366419 -0.274606 0.010012 0.271959 -0.027277
 41 0.035347 0.006562 -0.108214 1.520546 1.274614 1.310823
 42 0.457815 0.000000 -0.000002 0.048333 0.185296 0.020670
 43 0.711124 -0.000000 -0.000001 -0.141435 0.781026 -0.149034
 44 4.162197 0.087013 -0.006354 -0.059900 0.182754 -0.000938
 45 0.036274 0.019891 -0.155087 -0.407995 1.679262 -0.582848
 46 0.681960 0.000000 -0.000000 0.135657 0.260088 0.060874
 47 0.920143 0.000001 -0.000000 -0.100049 0.915274 -0.140756
 48 11.839427 -3.013105 -4.165986 -0.107390 -0.067742 1.633425
 49 -0.320811 0.612275 2.429818 -0.000814 -2.848701 -0.013624
 50 -0.065445 -18.140974 2.557334 0.000781 -0.056174 -0.013903
 51 12.416507 -2.972911 -2.612504 1.463406 -0.067742 1.633425
 52 11.839427 -3.013105 -4.165986 -0.107390 -0.067742 1.633425
 53 11.839427 -3.013105 -4.165986 -0.107390 -0.067742 1.633425
 54 11.839427 -3.013105 -4.165986 -0.107390 -0.067742 1.633425
 55 0.000000 0.000000 0.000000 0.000000 -0.000000 0.000000
time 22
  0 1.290745 8.687583 -10.819918 -1.109068 -0.445213 0.679094
  1 0.000000 0.000000 0.000000 0.544313 1.888958 -0.740865
  2 9.389584 -0.000003 0.000000 -0.007055 -1.406071 0.134458
  3 8.186139 0.002631 0.000002 -0.921128 0.177814 0.318160
  4 4.197929 -0.856474 -0.012594 0.058053 0.064630 -0.035524
  5 0.000000 0.000000 0.000000 0.048574 0.152859 0.319533
  6 0.605736 0.000000 0.000000 -0.015614 1.206964 -0.029258
  7 0.712172 -0.000001 0.000002 -0.042211 1.182446 -0.149847
  8 4.162199 -0.086805 -0.006354 0.059900 0.182754 0.000937
  9 -0.000003 0.000000 -0.000001 -0.373844 1.042100 -0.042297
 10 0.681962 0.000002 -0.000000 -0.345956 1.427878 -0.329966
 11 0.920141 0.000000 0.000003 -0.011449 1.342360 -0.014235
 12 3.986742 0.675516 -0.113672 -0.017792 0.182754 0.000937
 13 0.000000 0.000001 0.000001 -0.306993 0.952268 0.201572
 14 0.663654 0.000001 0.000002 0.074683 1.477921 0.064896
 15 0.879454 0.000000 0.000003 0.156281 1.206943 0.092657
 16 3.570827 1.366360 -0.274609 -0.010012 0.271959 0.027277
 17 0.000000 0.000000 0.000000 -0.551249 0.953674 -0.039718
 18 0.457818 0.000000 -0.000002 -0.088645 1.283249 -0.060935
 19 0.711123 0.000003 0.000001 0.036298 1.230476 0.010173
 20 0.620014 -0.345515 -0.385600 1.525782 0.350291 -0.647162
 21 0.000000 0.000000 0.000000 0.036418 0.143370 0.242150
 22 2.157639 -0.000002 0.000000 0.030047 0.576250 -0.030862
 23 0.957850 -0.000001 -0.000001 0.065856 0.641360 0.016973
 24 -5.331482 -6.461182 7.690796 -0.000460 0.000001 0.018844
 25 0.000000 0.000000 0.000000 0.069850 1.615460 0.291120
 26 9.389591 0.000001 -0.000001 0.007051 -1.502766 -0.136078
 27 8.186139 -0.002629 0.000004 1.742890 0.317109 -0.041523
 28 0.620014 0.345502 -0.385602 -1.525782 0.350290 0.647162
 29 0.000000 0.000000 0.000000 -0.095678 0.324730 0.199315
 30 2.157643 -0.000001 -0.000002 -0.136224 0.353261 -0.047715
 31 0.957850 -0.000000 -0.000003 0.038839 0.852407 0.049410
 32 4.197934 0.856170 -0.012594 -0.058053 0.064629 0.035524
 33 0.000000 0.000000 0.000000 0.044048 0.146798 0.151141
 34 0.605735 -0.000000 0.000000 -0.042040 0.213600 -0.074639
 35 0.712169 -0.000000 0.000000 -0.054304 0.620533 -0.048561
 36 3.986744 -0.675710 -0.113673 0.017792 0.182754 -0.000937
 37 0.021461 0.004611 -0.092390 -0.555924 1.811366 -0.689340
 38 0.663655 -0.000000 -0.000000 0.049561 0.232471 0.032537
 39 0.879454 -0.000001 0.000000 0.059507 0.786539 0.015253
 40 3.570828 -1.366418 -0.274606 0.010012 0.271959 -0.027277
 41 0.035348 0.006562 -0.108214 1.520546 1.274614 1.310823
 42 0.457815 0.000000 -0.000001 0.048333 0.185296 0.020670
 43 0.711125 -0.000000 -0.000000 -0.141435 0.781026 -0.149034
 44 4.162197 0.087014 -0.006354 -0.059900 0.182754 -0.000938
 45 0.036273 0.019891 -0.155087 -0.407996 1.679261 -0.582849
 46 0.681961 -0.000000 0.000000 0.135657 0.260088 0.060874
 47 0.920145 0.000000 -0.000000 -0.100049 0.915274 -0.140756
 48 11.722236 -3.020918 -4.154267 -0.102652 -0.061402 1.635284
 49 -0.320810 0.612275 2.429818 -0.000814 -2.848701 -0.013624
 50 -0.065445 -18.140976 2.557334 0.000781 -0.056174 -0.013903
 51 12.307129 -2.969005 -2.600784 1.468144 -0.061402 1.635284
 52 11.722236 -3.020918 -4.154267 -0.102652 -0.061402 1.635284
 53 11.722236 -3.020918 -4.154267 -0.102652 -0.061402 1.635284
 54 11.722236 -3.020918 -4.154267 -0.102652 -0.061402 1.635284
 55 0.000000 0.000000 0.000000 0.000000 -0.000000 0.000000
time 23
  0 1.290745 8.687583 -10.819918 -1.109068 -0.445213 0.679094
  1 0.000000 0.000000 0.000000 0.425497 1.962952 -0.929190
  2 9.389584 0.000000 0.000000 -0.007054 -1.385941 0.133978
  3 8.186134 0.002634 0.000004 -0.925453 0.181178 0.301704
  4 4.197929 -0.856473 -0.012591 0.058053 0.064630 -0.035524
  5 0.000000 0.000000 0.000000 0.048550 0.150138 0.319449
  6 0.605738 0.000000 0.000001 -0.020388 1.235724 -0.033939
  7 0.712170 -0.000002 -0.000001 -0.090408 1.257389 -0.207628
  8 4.162200 -0.086806 -0.006351 0.059900 0.182754 0.000937
  9 -0.000002 0.000000 -0.000000 -0.373844 1.042100 -0.042297
 10 0.681961 -0.000002 0.000000 -0.345956 1.427878 -0.329966
 11 0.920144 0.000000 0.000001 -0.011449 1.342360 -0.014235
 12 3.986743 0.675516 -0.113669 -0.017792 0.182754 0.000937
 13 0.000000 0.000002 -0.000001 -0.306993 0.952268 0.201572
 14 0.663654 0.000002 0.000000 0.074684 1.477921 0.064896
 15 0.879455 -0.000001 0.000002 0.156281 1.206943 0.092657
 16 3.570827 1.366357 -0.274605 -0.010012 0.271959 0.027277
 17 0.000000 0.000000 0.000000 -0.551249 0.953674 -0.039718
 18 0.457816 0.000000 -0.000003 -0.088645 1.283249 -0.060935
 19 0.711123 0.000002 0.000001 0.036298 1.230476 0.010173
 20 0.620014 -0.345515 -0.385600 1.525782 0.350291 -0.647162
 21 0.000000 0.000000 0.000000 0.037904 0.151268 0.241815
 22 2.157640 -0.000002 0.000002 0.033679 0.788432 -0.025158
 23 0.957850 0.000000 0.000000 0.078475 0.923301 0.034171
 24 -5.331482 -6.461182 7.690796 -0.000460 0.000001 0.018844
 25 0.000000 0.000000 0.000000 0.068690 1.624656 0.288893
 26 9.389592 0.000001 -0.000001 0.007051 -1.507167 -0.136175
 27 8.186139 -0.002630 0.000004 1.744632 0.308466 -0.039374
 28 0.620014 0.345502 -0.385602 -1.525782 0.350290 0.647162
 29 0.000000 0.000000 0.000000 -0.095678 0.324730 0.199315
 30 2.157642 0.000000 -0.000002 -0.136224 0.353261 -0.047715
 31 0.957851 -0.000001 -0.000003 0.038839 0.852407 0.049410
 32 4.197933 0.856170 -0.012593 -0.058053 0.064629 0.035524
 33 0.000000 0.000000 0.000000 0.044048 0.146798 0.151141
 34 0.605736 -0.000001 -0.000001 -0.042040 0.213600 -0.074639
 35 0.712168 0.000000 -0.000000 -0.054304 0.620533 -0.048561
 36 3.986744 -0.675710 -0.113672 0.017792 0.182754 -0.000937
 37 0.021461 0.004611 -0.092390 -0.555924 1.811367 -0.689340
 38 0.663653 0.000000 0.000000 0.049561 0.232471 0.032537
 39 0.879453 -0.000001 0.000000 0.059507 0.786539 0.015253
 40 3.570828 -1.366418 -0.274605 0.010012 0.271959 -0.027277
 41 0.035348 0.006562 -0.108214 1.520546 1.274614 1.310823
 42 0.457815 -0.000000 -0.000000 0.048333 0.185296 0.020670
 43 0.711125 -0.000000 -0.000001 -0.141435 0.781026 -0.149034
 44 4.162198 0.087014 -0.006353 -0.059900 0.182754 -0.000938
 45 0.036274 0.019891 -0.155087 -0.407994 1.679261 -0.582848
 46 0.681961 -0.000000 0.000000 0.135657 0.260088 0.060874
 47 0.920144 0.000000 -0.000000 -0.100049 0.915274 -0.140756
 48 11.636296 -3.024824 -4.150361 -0.106087 -0.062948 1.637620
 49 -0.320810 0.612275 2.429818 -0.000814 -2.848701 -0.013624
 50 -0.065445 -18.140976 2.557334 0.000781 -0.056174 -0.013903
 51 12.217283 -2.976817 -2.596878 1.464709 -0.062948 1.637620
 52 11.636296 -3.024824 -4.150361 -0.106087 -0.062948 1.637620
 53 11.636296 -3.024824 -4.150361 -0.106087 -0.062948 1.637620
 54 11.636296 -3.024824 -4.150361 -0.106087 -0.062948 1.637620
 55 0.000000 0.000000 0.000000 0.000000 -0.000000 0.000000
time 24
  0 1.290745 8.687583 -10.819918 -1.109068 -0.445213 0.679094
  1 0.000000 0.000000 0.000000 0.367315 2.017482 -1.078866
  2 9.389584 0.000000 -0.000003 -0.007054 -1.338937 0.132732
  3 8.186138 0.002635 0.000006 -0.955565 0.195936 0.309743
  4 4.197928 -0.856476 -0.012589 0.058053 0.064630 -0.035524
  5 0.000000 0.000000 0.000000 0.048526 0.148438 0.319389
  6 0.605737 -0.000001 0.000000 -0.024780 1.258656 -0.038143
  7 0.712170 -0.000001 0.000000 -0.153420 1.316015 -0.277844
  8 4.162199 -0.086807 -0.006350 0.059900 0.182754 0.000937
  9 -0.000001 0.000000 -0.000001 -0.373844 1.042100 -0.042297
 10 0.681959 0.000000 -0.000002 -0.345955 1.427878 -0.329965
 11 0.920144 0.000000 0.000002 -0.011449 1.342360 -0.014235
 12 3.986743 0.675513 -0.113668 -0.017792 0.182754 0.000937
 13 0.000000 0.000001 -0.000000 -0.306993 0.952268 0.201572
 14 0.663655 0.000002 0.000002 0.074684 1.477921 0.064896
 15 0.879455 0.000000 0.000000 0.156281 1.206943 0.092657
 16 3.570825 1.366358 -0.274604 -0.010012 0.271959 0.027277
 17 0.000000 0.000000 0.000000 -0.551249 0.953674 -0.039718
 18 0.457817 0.000001 -0.000004 -0.088645 1.283249 -0.060935
 19 0.711123 0.000002 0.000000 0.036298 1.230476 0.010173
 20 0.620013 -0.345516 -0.385598 1.525782 0.350291 -0.647162
 21 0.000000 0.000000 0.000000 0.038455 0.157800 0.241335
 22 2.157639 -0.000001 -0.000001 0.035213 0.877425 -0.022773
 23 0.957850 0.000000 0.000000 0.083773 1.041497 0.041386
 24 -5.331482 -6.461182 7.690796 -0.000460 0.000001 0.018844
 25 0.000000 0.000000 0.000000 0.062487 1.630844 0.280859
 26 9.389591 0.000000 -0.000001 0.007051 -1.502482 -0.136078
 27 8.186138 -0.002628 0.000004 1.747169 0.289251 -0.036098
 28 0.620014 0.345502 -0.385602 -1.525782 0.350290 0.647162
 29 0.000000 0.000000 0.000000 -0.095678 0.324730 0.199315
 30 2.157642 -0.000000 -0.000001 -0.136224 0.353261 -0.047715
 31 0.957850 0.000000 -0.000003 0.038839 0.852407 0.049410
 32 4.197933 0.856170 -0.012594 -0.058053 0.064629 0.035524
 33 0.000000 0.000000 0.000000 0.044048 0.146798 0.151141
 34 0.605736 -0.000001 -0.000000 -0.042040 0.213600 -0.074639
 35 0.712168 0.000000 0.000000 -0.054304 0.620533 -0.048561
 36 3.986744 -0.675711 -0.113673 0.017792 0.182754 -0.000937
 37 0.021461 0.004611 -0.092389 -0.555924 1.811367 -0.689340
 38 0.663654 0.000000 0.000000 0.049561 0.232471 0.032537
 39 0.879454 -0.000001 0.000000 0.059507 0.786539 0.015253
 40 3.570828 -1.366419 -0.274606 0.010012 0.271959 -0.027277
 41 0.035348 0.006562 -0.108214 1.520546 1.274614 1.310823
 42 0.457816 0.000000 -0.000001 0.048333 0.185296 0.020670
 43 0.711125 0.000000 -0.000001 -0.141435 0.781026 -0.149034
 44 4.162198 0.087013 -0.006355 -0.059900 0.182754 -0.000938
 45 0.036274 0.019891 -0.155087 -0.407995 1.679263 -0.582848
 46 0.681960 0.000000 0.000000 0.135657 0.260088 0.060874
 47 0.920144 0.000001 0.000000 -0.100049 0.915274 -0.140756
 48 11.577701 -3.032637 -4.158173 -0.113610 -0.066351 1.640488
 49 -0.320810 0.612275 2.429818 -0.000814 -2.848701 -0.013624
 50 -0.065445 -18.140980 2.557333 0.000781 -0.056174 -0.013903
 51 12.146968 -2.988536 -2.600784 1.457186 -0.066351 1.640488
 52 11.577701 -3.032637 -4.158173 -0.113610 -0.066351 1.640488
 53 11.577701 -3.032637 -4.158173 -0.113610 -0.066351 1.640488
 54 11.577701 -3.032637 -4.158173 -0.113610 -0.066351 1.640488
 55 0.000000 0.000000 0.000000 0.000000 -0.000000 0.000000
time 25
  0 1.290745 8.687583 -10.819918 -1.109068 -0.445213 0.679094
  1 0.000000 0.000000 0.000000 0.341901 2.043776 -1.240249
  2 9.389580 0.000000 -0.000004 -0.007054 -1.280465 0.130623
  3 8.186138 0.002634 0.000008 -1.036871 0.232304 0.347362
  4 4.197928 -0.856475 -0.012591 0.058053 0.064630 -0.035524
  5 0.000000 0.000000 0.000000 0.048514 0.147587 0.319365
  6 0.605737 0.000000 -0.000001 -0.028121 1.273856 -0.041392
  7 0.712172 -0.000002 -0.000001 -0.215975 1.353797 -0.344974
  8 4.162198 -0.086806 -0.006352 0.059900 0.182754 0.000937
  9 -0.000003 0.000000 0.000001 -0.373844 1.042100 -0.042297
 10 0.681962 0.000001 0.000000 -0.345956 1.427878 -0.329966
 11 0.920145 0.000001 0.000002 -0.011449 1.342360 -0.014235
 12 3.986742 0.675515 -0.113669 -0.017792 0.182754 0.000937
 13 0.000000 0.000003 -0.000001 -0.306993 0.952268 0.201572
 14 0.663654 0.000000 0.000000 0.074684 1.477921 0.064896
 15 0.879454 -0.000001 0.000000 0.156281 1.206943 0.092657
 16 3.570827 1.366359 -0.274606 -0.010012 0.271959 0.027277
 17 0.000000 0.000000 0.000000 -0.551249 0.953674 -0.039717
 18 0.457817 0.000000 -0.000003 -0.088645 1.283249 -0.060935
 19 0.711123 0.000001 0.000002 0.036298 1.230476 0.010173
 20 0.620014 -0.345517 -0.385599 1.525782 0.350291 -0.647162
 21 0.000000 0.000000 0.000000 0.003988 0.162330 0.025804
 22 2.157640 -0.000001 0.000000 0.035213 0.877399 -0.022773
 23 0.957851 0.000001 0.000001 0.083773 1.041497 0.041386
 24 -5.331482 -6.461182 7.690796 -0.000460 0.000001 0.018844
 25 0.000000 0.000000 0.000000 0.056035 1.634173 0.272746
 26 9.389591 0.000000 -0.000000 0.007051 -1.494906 -0.135982
 27 8.186137 -0.002629 0.000004 1.749392 0.270082 -0.033169
 28 0.620014 0.345502 -0.385602 -1.525782 0.350290 0.647162
 29 0.000000 0.000000 0.000000 -0.095678 0.324730 0.199315
 30 2.157642 -0.000000 -0.000002 -0.136224 0.353261 -0.047715
 31 0.957850 -0.000001 -0.000003 0.038839 0.852407 0.049410
 32 4.197933 0.856169 -0.012593 -0.058053 0.064629 0.035524
 33 0.000000 0.000000 0.000000 0.044048 0.146798 0.151141
 34 0.605736 -0.000001 0.000000 -0.042040 0.213600 -0.074639
 35 0.712168 0.000000 0.000000 -0.054304 0.620533 -0.048561
 36 3.986744 -0.675711 -0.113671 0.017792 0.182754 -0.000937
 37 0.021461 0.004611 -0.092389 -0.555924 1.811366 -0.689340
 38 0.663654 0.000000 0.000000 0.049561 0.232471 0.032537
 39 0.879452 -0.000001 -0.000000 0.059507 0.786539 0.015253
 40 3.570828 -1.366419 -0.274604 0.010012 0.271959 -0.027277
 41 0.035348 0.006561 -0.108214 1.520546 1.274614 1.310823
 42 0.457814 0.000000 -0.000001 0.048333 0.185296 0.020670
 43 0.711125 0.000000 -0.000001 -0.141435 0.781026 -0.149034
 44 4.162197 0.087013 -0.006353 -0.059900 0.182754 -0.000938
 45 0.036274 0.019891 -0.155087 -0.407994 1.679262 -0.582847
 46 0.681961 0.000000 0.000000 0.135657 0.260088 0.060874
 47 0.920145 0.000001 -0.000000 -0.100049 0.915274 -0.140756
 48 11.546450 -3.040450 -4.165986 -0.121073 -0.069767 1.642878
 49 -0.320810 0.612275 2.429818 -0.000814 -2.848701 -0.013624
 50 -0.065445 -18.140974 2.557334 0.000781 -0.056174 -0.013903
 51 12.103998 -3.000256 -2.600784 1.449723 -0.069767 1.642878
 52 11.546450 -3.040450 -4.165986 -0.121073 -0.069767 1.642878
 53 11.546450 -3.040450 -4.165986 -0.121073 -0.069767 1.642878
 54 11.546450 -3.040450 -4.165986 -0.121073 -0.069767 1.642878
 55 0.000000 0.000000 0.000000 0.000000 -0.000000 0.000000
time 26
  0 1.290745 8.687583 -10.819918 -1.109068 -0.445213 0.679094
  1 0.000000 0.000000 0.000000 0.331605 2.037700 -1.458742
  2 9.389583 0.000000 -0.000001 -0.007054 -1.229863 0.128418
  3 8.186139 0.002634 0.000000 -1.189321 0.304495 0.416338
  4 4.197929 -0.856475 -0.012592 0.058053 0.064630 -0.035524
  5 0.000000 0.000000 0.000000 0.048502 0.147332 0.319365
  6 0.605736 0.000000 0.000000 -0.029362 1.279341 -0.042634
  7 0.712172 -0.000002 -0.000001 -0.244783 1.367158 -0.375454
  8 4.162202 -0.086807 -0.006353 0.059900 0.182754 0.000937
  9 -0.000005 0.000000 -0.000003 -0.373844 1.042100 -0.042297
 10 0.681962 0.000001 0.000001 -0.345956 1.427878 -0.329966
 11 0.920144 -0.000001 0.000003 -0.011449 1.342360 -0.014235
 12 3.986745 0.675516 -0.113670 -0.017792 0.182754 0.000937
 13 0.000000 0.000001 0.000001 -0.306993 0.952268 0.201572
 14 0.663654 0.000000 0.000000 0.074684 1.477920 0.064896
 15 0.879455 -0.000001 0.000002 0.156281 1.206943 0.092657
 16 3.570827 1.366359 -0.274608 -0.010012 0.271959 0.027277
 17 0.000000 0.000000 0.000000 -0.551249 0.953674 -0.039718
 18 0.457816 0.000000 -0.000004 -0.088645 1.283249 -0.060935
 19 0.711124 0.000002 0.000000 0.036298 1.230476 0.010173
 20 0.620014 -0.345518 -0.385601 1.525782 0.350291 -0.647162
 21 0.000000 0.000000 0.000000 0.003988 0.162330 0.025804
 22 2.157639 -0.000002 0.000001 0.035213 0.877399 -0.022773
 23 0.957854 -0.000001 0.000000 0.083773 1.041497 0.041386
 24 -5.331482 -6.461182 7.690796 -0.000460 0.000001 0.018844
 25 0.000000 0.000000 0.000000 0.053140 1.635136 0.269086
 26 9.389593 0.000000 -0.000001 0.007051 -1.490915 -0.135982
 27 8.186137 -0.002630 0.000004 1.750354 0.261347 -0.031902
 28 0.620014 0.345502 -0.385602 -1.525782 0.350290 0.647162
 29 0.000000 0.000000 0.000000 -0.095678 0.324730 0.199315
 30 2.157643 0.000000 -0.000002 -0.136224 0.353261 -0.047715
 31 0.957850 -0.000000 -0.000003 0.038839 0.852407 0.049410
 32 4.197933 0.856169 -0.012594 -0.058053 0.064629 0.035524
 33 0.000000 0.000000 0.000000 0.044048 0.146798 0.151141
 34 0.605735 -0.000001 0.000000 -0.042040 0.213600 -0.074639
 35 0.712168 0.000000 -0.000000 -0.054304 0.620533 -0.048561
 36 3.986744 -0.675711 -0.113673 0.017792 0.182754 -0.000937
 37 0.021461 0.004611 -0.092389 -0.555924 1.811366 -0.689340
 38 0.663654 -0.000000 0.000000 0.049561 0.232471 0.032537
 39 0.879452 -0.000001 0.000000 0.059507 0.786539 0.015253
 40 3.570829 -1.366420 -0.274605 0.010012 0.271959 -0.027277
 41 0.035347 0.006562 -0.108214 1.520546 1.274614 1.310823
 42 0.457816 0.000000 -0.000001 0.048333 0.185296 0.020670
 43 0.711125 0.000000 -0.000001 -0.141435 0.781026 -0.149034
 44 4.162197 0.087013 -0.006354 -0.059900 0.182754 -0.000938
 45 0.036274 0.019891 -0.155088 -0.407995 1.679261 -0.582848
 46 0.681960 0.000000 -0.000001 0.135657 0.260088 0.060874
 47 0.920145 0.000001 0.000000 -0.100049 0.915274 -0.140756
 48 11.538637 -3.040450 -4.169892 -0.124509 -0.071325 1.643887
 49 -0.320811 0.612275 2.429818 -0.000814 -2.848701 -0.013624
 50 -0.065445 -18.140972 2.557334 0.000781 -0.056174 -0.013903
 51 12.088372 -3.004162 -2.604691 1.446287 -0.071325 1.643887
 52 11.538637 -3.040450 -4.169892 -0.124509 -0.071325 1.643887
 53 11.538637 -3.040450 -4.169892 -0.124509 -0.071325 1.643887
 54 11.538637 -3.040450 -4.169892 -0.124509 -0.071325 1.643887
 55 0.000000 0.000000 0.000000 0.000000 -0.000000 0.000000
end
