
//	Action Half-Life 2, Weapons, M61 Frag Grenade, Main
//	Texture @ AHL2 Team
//	Shaders @ Reverend V92
//	Update: 2017/04/08

VertexLitGeneric
{

	$basetexture models/jessev92/ahl2/weapons/grenade/m61_d
	$bumpmap models/jessev92/ahl2/weapons/grenade/m61_b
	$lightwarptexture dev/identitylightwarp

	$nocull 0
	$halflambert 1
	$ambientocclusion 1
	$alphatest 0

	$phong 1
	$phongexponent 8
	$phongexponenttexture models/jessev92/ahl2/weapons/grenade/m61_x
	$phongboost 0.1
	$phongfresnelranges "[ 1 1 1 ]"
	
	$rimlight 1
	$rimlightexponent 4
	$rimlightboost 0.1

	$detail detail/metal_detail_01
	$detailscale 8
	$detailblendfactor 1
	$detailblendmode 0

}
