"VertexlitGeneric"
{
	"$basetexture" "models/weapons/view_models/k98/lens"
        "$bumpmap" "models/weapons/view_models/k98/lens_normal"
	"$nocull" 	"1"
	"$envmap" 	"env_cubemap"
	"$envmapcontrast"  ".3"
	"$envmaptint" "[.2 .2 .2]"
	"$envmapsaturation" ".1"
}
