// Created by Crowbar 0.29.0.0
version 1
nodes
  0 "TMP_Body" -1
  1 "eject" 0
  2 "muzzle" 0
  3 "TMP_pullthis" 0
  4 "TMP_trigger" 0
  5 "TMP_Stock" 0
  6 "TMP_mag" -1
  7 "L_Armdummy" -1
  8 "L_Upperarm" 7
  9 "L_Forearm" 8
  10 "L_Wrist" 9
  11 "L_Thumb1" 10
  12 "L_Thumb2" 11
  13 "L_Thumb3" 12
  14 "L_Index1" 10
  15 "L_Index2" 14
  16 "L_Index3" 15
  17 "L_Mid1" 10
  18 "L_Mid2" 17
  19 "L_Mid3" 18
  20 "L_Ring1" 10
  21 "L_Ring2" 20
  22 "L_Ring3" 21
  23 "L_Pinky1" 10
  24 "L_Pinky2" 23
  25 "L_Pinky3" 24
  26 "R_Armdummy" -1
  27 "R_Upperarm" 26
  28 "R_Forearm" 27
  29 "R_Wrist" 28
  30 "R_Thumb1" 29
  31 "R_Thumb2" 30
  32 "R_Thumb3" 31
  33 "R_Index1" 29
  34 "R_Index2" 33
  35 "R_Index3" 34
  36 "R_Mid1" 29
  37 "R_Mid2" 36
  38 "R_Mid3" 37
  39 "R_Ring1" 29
  40 "R_Ring2" 39
  41 "R_Ring3" 40
  42 "R_Pinky1" 29
  43 "R_Pinky2" 42
  44 "R_Pinky3" 43
end
skeleton
  time 0
    0 5.909814 -14.447945 -6.211853 1.570797 0.043615 -1.570804
    1 -1.949061 2.201124 -0.433554 0.000000 0.000000 0.000000
    2 7.426658 1.822591 0.000000 0.000000 0.000000 0.000000
    3 -3.080630 2.936172 0.000001 0.000000 0.000000 0.000000
    4 1.856765 0.774353 0.000001 0.000000 0.000000 -0.591809
    5 -4.289258 1.370559 -0.526311 0.000000 0.000000 0.000000
    6 5.910387 -14.084651 -8.764222 1.570797 0.043615 -1.570804
    7 -6.398894 -4.644634 -8.579020 -3.141592 -1.554543 -3.141640
    8 0.023288 0.041601 0.000000 0.368041 -0.665960 1.058381
    9 -11.072353 -0.043445 -0.000001 0.000000 0.000000 1.028152
    10 -8.108974 0.000001 0.000000 0.035893 0.744781 -0.545900
    11 -0.758957 -0.993292 -0.533610 1.150144 -0.720310 -0.319658
    12 -1.920300 0.000000 0.000000 0.000000 0.000000 -0.398791
    13 -0.858254 0.000000 0.000000 0.000000 0.000000 0.069433
    14 -2.931401 -0.842323 0.160553 0.009761 -1.130650 0.036947
    15 -1.836087 0.000000 0.000000 2.875289 -1.140584 -2.912709
    16 -0.853993 0.000000 0.000000 0.002756 -0.113413 -0.024347
    17 -2.964058 -0.072899 0.178523 -0.249902 -1.090908 0.154708
    18 -1.814736 0.000000 0.000000 2.619960 -1.205565 -2.478694
    19 -0.982325 -0.000001 0.000000 0.000000 -0.095993 -0.021736
    20 -2.910365 0.632510 0.212797 -0.125651 -0.987490 0.222888
    21 -1.751857 0.000000 -0.000001 3.089152 -1.424068 -3.055356
    22 -0.853992 0.000001 0.000000 -0.112170 -0.424833 -0.044433
    23 -2.899449 1.342928 0.078012 -0.089247 -0.937081 0.400139
    24 -1.152891 -0.000001 0.000000 -0.148505 -1.053336 0.063609
    25 -0.748462 0.000001 0.000002 -0.172839 -0.657551 0.233582
    26 7.282036 5.687362 -7.361735 0.000000 -1.557662 -0.000028
    27 0.023288 0.041601 0.000000 -0.011491 0.028908 1.200946
    28 -11.072353 -0.043445 0.000000 0.000000 0.000000 0.901184
    29 -8.108976 0.000001 0.000000 -3.140453 -0.031654 -0.559900
    30 -0.788882 0.969696 -0.533611 2.183871 -0.617208 -0.066701
    31 -1.920301 0.000001 0.000000 0.000000 0.000000 -0.398791
    32 -0.858251 0.000000 0.000000 0.081890 -0.160113 -0.181525
    33 -2.955714 0.752579 0.160553 -3.123752 -0.194109 -0.127606
    34 -1.836088 0.000000 -0.000001 1.883188 1.426106 1.767533
    35 -0.853994 -0.000001 0.000000 0.100992 0.754840 0.041957
    36 -2.964905 -0.017483 0.178523 3.129027 -1.061108 0.202043
    37 -1.814736 0.000000 0.000000 -2.735940 1.256346 -2.700664
    38 -0.982325 0.000000 0.000000 0.000000 0.095993 -0.021736
    39 -2.889733 -0.720928 0.212797 3.052539 -1.118135 0.122346
    40 -1.751859 0.000001 0.000000 -3.087852 1.407961 -3.066026
    41 -0.853992 0.000000 0.000000 0.000000 0.043633 0.000000
    42 -2.857166 -1.430682 0.078013 3.131547 -1.113726 -0.176716
    43 -1.152892 0.000000 0.000001 0.555740 1.186077 0.359454
    44 -0.748465 0.000000 -0.000001 0.001111 0.817920 0.051381
  time 1
    0 5.909814 -13.854177 -5.774339 1.570797 -0.034888 -1.570804
    1 -1.949061 2.201124 -0.433554 0.000000 0.000000 0.000000
    2 7.426658 1.822591 0.000000 0.000000 0.000000 0.000000
    3 -3.080630 2.936172 0.000001 0.000000 0.000000 0.000000
    4 1.856765 0.774353 0.000001 0.000000 0.000000 -0.591809
    5 -4.289258 1.370559 -0.526311 0.000000 0.000000 0.000000
    6 5.910387 -13.690108 -8.342334 1.570797 -0.034888 -1.570804
    7 -6.398894 -4.644634 -8.579020 -3.141592 -1.554543 -3.141640
    8 0.023288 0.041601 0.000000 0.399500 -0.671503 1.075494
    9 -11.072353 -0.043445 -0.000001 0.000000 0.000000 1.092958
    10 -8.108974 0.000001 0.000000 0.059044 0.760496 -0.552136
    11 -0.758957 -0.993292 -0.533610 1.150144 -0.720310 -0.319658
    12 -1.920300 0.000000 0.000000 0.000000 0.000000 -0.398791
    13 -0.858254 0.000000 0.000000 0.000000 0.000000 0.069433
    14 -2.931401 -0.842323 0.160553 0.009761 -1.130650 0.036947
    15 -1.836087 0.000000 0.000000 2.875289 -1.140584 -2.912709
    16 -0.853993 0.000000 0.000000 0.002756 -0.113413 -0.024347
    17 -2.964058 -0.072899 0.178523 -0.249902 -1.090908 0.154708
    18 -1.814736 0.000000 0.000000 2.619960 -1.205565 -2.478694
    19 -0.982325 -0.000001 0.000000 0.000000 -0.095993 -0.021736
    20 -2.910365 0.632510 0.212797 -0.125651 -0.987490 0.222888
    21 -1.751857 0.000000 -0.000001 3.089152 -1.424068 -3.055356
    22 -0.853992 0.000001 0.000000 -0.112170 -0.424833 -0.044433
    23 -2.899449 1.342928 0.078012 -0.089247 -0.937081 0.400139
    24 -1.152891 -0.000001 0.000000 -0.148505 -1.053336 0.063609
    25 -0.748462 0.000001 0.000002 -0.172839 -0.657551 0.233582
    26 7.282036 5.687362 -7.361735 0.000000 -1.557662 -0.000028
    27 0.023288 0.041601 0.000000 -0.013301 0.029339 1.166801
    28 -11.072353 -0.043445 0.000000 0.000000 0.000000 1.018788
    29 -8.108976 0.000001 0.000000 -3.142467 -0.031737 -0.564816
    30 -0.788882 0.969696 -0.533611 2.183871 -0.617208 -0.066701
    31 -1.920301 0.000001 0.000000 0.000000 0.000000 -0.398791
    32 -0.858251 0.000000 0.000000 0.081890 -0.160113 -0.181525
    33 -2.955714 0.752579 0.160553 -3.123752 -0.194109 -0.127606
    34 -1.836088 0.000000 -0.000001 1.898154 1.425300 1.782320
    35 -0.853994 -0.000001 0.000000 0.100992 0.754840 0.041957
    36 -2.964905 -0.017483 0.178523 3.129027 -1.061108 0.202043
    37 -1.814736 0.000000 0.000000 -2.735940 1.256346 -2.700664
    38 -0.982325 0.000000 0.000000 0.000000 0.095993 -0.021736
    39 -2.889733 -0.720928 0.212797 3.052539 -1.118135 0.122346
    40 -1.751859 0.000001 0.000000 -3.087852 1.407961 -3.066026
    41 -0.853992 0.000000 0.000000 0.000000 0.043633 0.000000
    42 -2.857166 -1.430682 0.078013 3.131547 -1.113726 -0.176716
    43 -1.152892 0.000000 0.000001 0.555740 1.186077 0.359454
    44 -0.748465 0.000000 -0.000001 0.001111 0.817920 0.051381
  time 2
    0 5.909814 -13.854177 -5.774339 1.570797 -0.034888 -1.570804
    1 -1.949061 2.201124 -0.433554 0.000000 0.000000 0.000000
    2 7.426658 1.822591 0.000000 0.000000 0.000000 0.000000
    3 -3.080630 2.936172 0.000001 0.000000 0.000000 0.000000
    4 1.856765 0.774353 0.000001 0.000000 0.000000 -0.591809
    5 -4.289258 1.370559 -0.526311 0.000000 0.000000 0.000000
    6 5.910387 -13.690108 -8.342334 1.570797 -0.034888 -1.570804
    7 -6.398894 -4.644634 -8.579020 -3.141592 -1.554543 -3.141640
    8 0.023288 0.041601 0.000000 0.399500 -0.671503 1.075494
    9 -11.072353 -0.043445 -0.000001 0.000000 0.000000 1.092958
    10 -8.108974 0.000001 0.000000 0.059044 0.760496 -0.552136
    11 -0.758957 -0.993292 -0.533610 1.150144 -0.720310 -0.319658
    12 -1.920300 0.000000 0.000000 0.000000 0.000000 -0.398791
    13 -0.858254 0.000000 0.000000 0.000000 0.000000 0.069433
    14 -2.931401 -0.842323 0.160553 0.009761 -1.130650 0.036947
    15 -1.836087 0.000000 0.000000 2.875289 -1.140584 -2.912709
    16 -0.853993 0.000000 0.000000 0.002756 -0.113413 -0.024347
    17 -2.964058 -0.072899 0.178523 -0.249902 -1.090908 0.154708
    18 -1.814736 0.000000 0.000000 2.619960 -1.205565 -2.478694
    19 -0.982325 -0.000001 0.000000 0.000000 -0.095993 -0.021736
    20 -2.910365 0.632510 0.212797 -0.125651 -0.987490 0.222888
    21 -1.751857 0.000000 -0.000001 3.089152 -1.424068 -3.055356
    22 -0.853992 0.000001 0.000000 -0.112170 -0.424833 -0.044433
    23 -2.899449 1.342928 0.078012 -0.089247 -0.937081 0.400139
    24 -1.152891 -0.000001 0.000000 -0.148505 -1.053336 0.063609
    25 -0.748462 0.000001 0.000002 -0.172839 -0.657551 0.233582
    26 7.282036 5.687362 -7.361735 0.000000 -1.557662 -0.000028
    27 0.023288 0.041601 0.000000 -0.013301 0.029339 1.166801
    28 -11.072353 -0.043445 0.000000 0.000000 0.000000 1.018788
    29 -8.108976 0.000001 0.000000 -3.142467 -0.031737 -0.564816
    30 -0.788882 0.969696 -0.533611 2.183871 -0.617208 -0.066701
    31 -1.920301 0.000001 0.000000 0.000000 0.000000 -0.398791
    32 -0.858251 0.000000 0.000000 0.081890 -0.160113 -0.181525
    33 -2.955714 0.752579 0.160553 -3.123752 -0.194109 -0.127606
    34 -1.836088 0.000000 -0.000001 1.933709 1.423306 1.817480
    35 -0.853994 -0.000001 0.000000 0.100992 0.754840 0.041957
    36 -2.964905 -0.017483 0.178523 3.129027 -1.061108 0.202043
    37 -1.814736 0.000000 0.000000 -2.735940 1.256346 -2.700664
    38 -0.982325 0.000000 0.000000 0.000000 0.095993 -0.021736
    39 -2.889733 -0.720928 0.212797 3.052539 -1.118135 0.122346
    40 -1.751859 0.000001 0.000000 -3.087852 1.407961 -3.066026
    41 -0.853992 0.000000 0.000000 0.000000 0.043633 0.000000
    42 -2.857166 -1.430682 0.078013 3.131547 -1.113726 -0.176716
    43 -1.152892 0.000000 0.000001 0.555740 1.186077 0.359454
    44 -0.748465 0.000000 -0.000001 0.001111 0.817920 0.051381
  time 3
    0 5.909814 -13.897147 -5.774339 1.570797 -0.033089 -1.570804
    1 -1.949061 2.201124 -0.433554 0.000000 0.000000 0.000000
    2 7.426658 1.822591 0.000000 0.000000 0.000000 0.000000
    3 -3.080630 2.936172 0.000001 0.000000 0.000000 0.000000
    4 1.856765 0.774353 0.000001 0.000000 0.000000 -0.591809
    5 -4.289258 1.370559 -0.526311 0.000000 0.000000 0.000000
    6 5.910387 -13.725266 -8.342334 1.570797 -0.033089 -1.570804
    7 -6.398894 -4.644634 -8.579020 -3.141592 -1.554543 -3.141640
    8 0.023288 0.041601 0.000000 0.396768 -0.671062 1.078065
    9 -11.072353 -0.043445 -0.000001 0.000000 0.000000 1.087381
    10 -8.108974 0.000001 0.000000 0.057815 0.759002 -0.550420
    11 -0.758957 -0.993292 -0.533610 1.150144 -0.720310 -0.319658
    12 -1.920300 0.000000 0.000000 0.000000 0.000000 -0.398791
    13 -0.858254 0.000000 0.000000 0.000000 0.000000 0.069433
    14 -2.931401 -0.842323 0.160553 0.009761 -1.130650 0.036947
    15 -1.836087 0.000000 0.000000 2.875289 -1.140584 -2.912709
    16 -0.853993 0.000000 0.000000 0.002756 -0.113413 -0.024347
    17 -2.964058 -0.072899 0.178523 -0.249902 -1.090908 0.154708
    18 -1.814736 0.000000 0.000000 2.619960 -1.205565 -2.478694
    19 -0.982325 -0.000001 0.000000 0.000000 -0.095993 -0.021736
    20 -2.910365 0.632510 0.212797 -0.125651 -0.987490 0.222888
    21 -1.751857 0.000000 -0.000001 3.089152 -1.424068 -3.055356
    22 -0.853992 0.000001 0.000000 -0.112170 -0.424833 -0.044433
    23 -2.899449 1.342928 0.078012 -0.089247 -0.937081 0.400139
    24 -1.152891 -0.000001 0.000000 -0.148505 -1.053336 0.063609
    25 -0.748462 0.000001 0.000002 -0.172839 -0.657551 0.233582
    26 7.282036 5.687362 -7.361735 0.000000 -1.557662 -0.000028
    27 0.023288 0.041601 0.000000 -0.013181 0.029315 1.170442
    28 -11.072353 -0.043445 0.000000 0.000000 0.000000 1.010308
    29 -8.108976 0.000001 0.000000 -3.142409 -0.031695 -0.561773
    30 -0.788882 0.969696 -0.533611 2.183871 -0.617208 -0.066701
    31 -1.920301 0.000001 0.000000 0.000000 0.000000 -0.398791
    32 -0.858251 0.000000 0.000000 0.081890 -0.160113 -0.181525
    33 -2.955714 0.752579 0.160553 -3.123752 -0.194109 -0.127606
    34 -1.836088 0.000000 -0.000001 1.976258 1.420548 1.859527
    35 -0.853994 -0.000001 0.000000 0.100992 0.754840 0.041957
    36 -2.964905 -0.017483 0.178523 3.129027 -1.061108 0.202043
    37 -1.814736 0.000000 0.000000 -2.735940 1.256346 -2.700664
    38 -0.982325 0.000000 0.000000 0.000000 0.095993 -0.021736
    39 -2.889733 -0.720928 0.212797 3.052539 -1.118135 0.122346
    40 -1.751859 0.000001 0.000000 -3.087852 1.407961 -3.066026
    41 -0.853992 0.000000 0.000000 0.000000 0.043633 0.000000
    42 -2.857166 -1.430682 0.078013 3.131547 -1.113726 -0.176716
    43 -1.152892 0.000000 0.000001 0.555740 1.186077 0.359454
    44 -0.748465 0.000000 -0.000001 0.001111 0.817920 0.051381
  time 4
    0 5.909814 -13.986993 -5.774339 1.570797 -0.028808 -1.570804
    1 -1.949061 2.201124 -0.433554 0.000000 0.000000 0.000000
    2 7.426658 1.822591 0.000000 0.000000 0.000000 0.000000
    3 -3.080630 2.936172 0.000001 0.000000 0.000000 0.000000
    4 1.856765 0.774353 0.000001 0.000000 0.000000 -0.591809
    5 -4.289258 1.370559 -0.526311 0.000000 0.000000 0.000000
    6 5.910387 -13.807299 -8.342334 1.570797 -0.028829 -1.570804
    7 -6.398894 -4.644634 -8.579020 -3.141592 -1.554543 -3.141640
    8 0.023288 0.041601 0.000000 0.390548 -0.670056 1.083976
    9 -11.072353 -0.043445 -0.000001 0.000000 0.000000 1.074632
    10 -8.108974 0.000001 0.000000 0.054929 0.755704 -0.546586
    11 -0.758957 -0.993292 -0.533610 1.150144 -0.720310 -0.319658
    12 -1.920300 0.000000 0.000000 0.000000 0.000000 -0.398791
    13 -0.858254 0.000000 0.000000 0.000000 0.000000 0.069433
    14 -2.931401 -0.842323 0.160553 0.009761 -1.130650 0.036947
    15 -1.836087 0.000000 0.000000 2.875289 -1.140584 -2.912709
    16 -0.853993 0.000000 0.000000 0.002756 -0.113413 -0.024347
    17 -2.964058 -0.072899 0.178523 -0.249902 -1.090908 0.154708
    18 -1.814736 0.000000 0.000000 2.619960 -1.205565 -2.478694
    19 -0.982325 -0.000001 0.000000 0.000000 -0.095993 -0.021736
    20 -2.910365 0.632510 0.212797 -0.125651 -0.987490 0.222888
    21 -1.751857 0.000000 -0.000001 3.089152 -1.424068 -3.055356
    22 -0.853992 0.000001 0.000000 -0.112170 -0.424833 -0.044433
    23 -2.899449 1.342928 0.078012 -0.089247 -0.937081 0.400139
    24 -1.152891 -0.000001 0.000000 -0.148505 -1.053336 0.063609
    25 -0.748462 0.000001 0.000002 -0.172839 -0.657551 0.233582
    26 7.282036 5.687362 -7.361735 0.000000 -1.557662 -0.000028
    27 0.023288 0.041601 0.000000 -0.012881 0.029279 1.178888
    28 -11.072353 -0.043445 0.000000 0.000000 0.000000 0.990707
    29 -8.108976 0.000001 0.000000 -3.142237 -0.031591 -0.554887
    30 -0.788882 0.969696 -0.533611 2.183871 -0.617208 -0.066701
    31 -1.920301 0.000001 0.000000 0.000000 0.000000 -0.398791
    32 -0.858251 0.000000 0.000000 0.081890 -0.160113 -0.181525
    33 -2.955714 0.752579 0.160553 -3.123752 -0.194109 -0.127606
    34 -1.836088 0.000000 -0.000001 2.013378 1.417832 1.896228
    35 -0.853994 -0.000001 0.000000 0.100992 0.754840 0.041957
    36 -2.964905 -0.017483 0.178523 3.129027 -1.061108 0.202043
    37 -1.814736 0.000000 0.000000 -2.735940 1.256346 -2.700664
    38 -0.982325 0.000000 0.000000 0.000000 0.095993 -0.021736
    39 -2.889733 -0.720928 0.212797 3.052539 -1.118135 0.122346
    40 -1.751859 0.000001 0.000000 -3.087852 1.407961 -3.066026
    41 -0.853992 0.000000 0.000000 0.000000 0.043633 0.000000
    42 -2.857166 -1.430682 0.078013 3.131547 -1.113726 -0.176716
    43 -1.152892 0.000000 0.000001 0.555740 1.186077 0.359454
    44 -0.748465 0.000000 -0.000001 0.001111 0.817920 0.051381
  time 5
    0 5.909814 -14.123716 -5.774339 1.570797 -0.022645 -1.570804
    1 -1.949061 2.201124 -0.433554 0.000000 0.000000 0.000000
    2 7.426658 1.822591 0.000000 0.000000 0.000000 0.000000
    3 -3.080630 2.936172 0.000001 0.000000 0.000000 0.000000
    4 1.856765 0.774353 0.000001 0.000000 0.000000 -0.591809
    5 -4.289258 1.370559 -0.526311 0.000000 0.000000 0.000000
    6 5.910387 -13.928397 -8.342334 1.570797 -0.022645 -1.570804
    7 -6.398894 -4.644634 -8.579020 -3.141592 -1.554543 -3.141640
    8 0.023288 0.041601 0.000000 0.381511 -0.668555 1.092665
    9 -11.072353 -0.043445 -0.000001 0.000000 0.000000 1.055892
    10 -8.108974 0.000001 0.000000 0.050815 0.750880 -0.540922
    11 -0.758957 -0.993292 -0.533610 1.150144 -0.720310 -0.319658
    12 -1.920300 0.000000 0.000000 0.000000 0.000000 -0.398791
    13 -0.858254 0.000000 0.000000 0.000000 0.000000 0.069433
    14 -2.931401 -0.842323 0.160553 0.009761 -1.130650 0.036947
    15 -1.836087 0.000000 0.000000 2.875289 -1.140584 -2.912709
    16 -0.853993 0.000000 0.000000 0.002756 -0.113413 -0.024347
    17 -2.964058 -0.072899 0.178523 -0.249902 -1.090908 0.154708
    18 -1.814736 0.000000 0.000000 2.619960 -1.205565 -2.478694
    19 -0.982325 -0.000001 0.000000 0.000000 -0.095993 -0.021736
    20 -2.910365 0.632510 0.212797 -0.125651 -0.987490 0.222888
    21 -1.751857 0.000000 -0.000001 3.089152 -1.424068 -3.055356
    22 -0.853992 0.000001 0.000000 -0.112170 -0.424833 -0.044433
    23 -2.899449 1.342928 0.078012 -0.089247 -0.937081 0.400139
    24 -1.152891 -0.000001 0.000000 -0.148505 -1.053336 0.063609
    25 -0.748462 0.000001 0.000002 -0.172839 -0.657551 0.233582
    26 7.282036 5.687362 -7.361735 0.000000 -1.557662 -0.000028
    27 0.023288 0.041601 0.000000 -0.012450 0.029219 1.191287
    28 -11.072353 -0.043445 0.000000 0.000000 0.000000 0.961949
    29 -8.108976 0.000001 0.000000 -3.142035 -0.031445 -0.544704
    30 -0.788882 0.969696 -0.533611 2.183871 -0.617208 -0.066701
    31 -1.920301 0.000001 0.000000 0.000000 0.000000 -0.398791
    32 -0.858251 0.000000 0.000000 0.081890 -0.160113 -0.181525
    33 -2.955714 0.752579 0.160553 -3.123752 -0.194109 -0.127606
    34 -1.836088 0.000000 -0.000001 2.034261 1.416177 1.916843
    35 -0.853994 -0.000001 0.000000 0.100992 0.754840 0.041957
    36 -2.964905 -0.017483 0.178523 3.129027 -1.061108 0.202043
    37 -1.814736 0.000000 0.000000 -2.735940 1.256346 -2.700664
    38 -0.982325 0.000000 0.000000 0.000000 0.095993 -0.021736
    39 -2.889733 -0.720928 0.212797 3.052539 -1.118135 0.122346
    40 -1.751859 0.000001 0.000000 -3.087852 1.407961 -3.066026
    41 -0.853992 0.000000 0.000000 0.000000 0.043633 0.000000
    42 -2.857166 -1.430682 0.078013 3.131547 -1.113726 -0.176716
    43 -1.152892 0.000000 0.000001 0.555740 1.186077 0.359454
    44 -0.748465 0.000000 -0.000001 0.001111 0.817920 0.051381
  time 6
    0 5.909814 -14.291690 -5.774339 1.570797 -0.015138 -1.570804
    1 -1.949061 2.201124 -0.433554 0.000000 0.000000 0.000000
    2 7.426658 1.822591 0.000000 0.000000 0.000000 0.000000
    3 -3.080630 2.936172 0.000001 0.000000 0.000000 0.000000
    4 1.856765 0.774353 0.000001 0.000000 0.000000 -0.591809
    5 -4.289258 1.370559 -0.526311 0.000000 0.000000 0.000000
    6 5.910387 -14.072932 -8.338428 1.570797 -0.015138 -1.570804
    7 -6.398894 -4.644634 -8.579020 -3.141592 -1.554543 -3.141640
    8 0.023288 0.041601 0.000000 0.370078 -0.666843 1.104073
    9 -11.072353 -0.043445 -0.000001 0.000000 0.000000 1.031428
    10 -8.108974 0.000001 0.000000 0.045780 0.744968 -0.533084
    11 -0.758957 -0.993292 -0.533610 1.150144 -0.720310 -0.319658
    12 -1.920300 0.000000 0.000000 0.000000 0.000000 -0.398791
    13 -0.858254 0.000000 0.000000 0.000000 0.000000 0.069433
    14 -2.931401 -0.842323 0.160553 0.009761 -1.130650 0.036947
    15 -1.836087 0.000000 0.000000 2.875289 -1.140584 -2.912709
    16 -0.853993 0.000000 0.000000 0.002756 -0.113413 -0.024347
    17 -2.964058 -0.072899 0.178523 -0.249902 -1.090908 0.154708
    18 -1.814736 0.000000 0.000000 2.619960 -1.205565 -2.478694
    19 -0.982325 -0.000001 0.000000 0.000000 -0.095993 -0.021736
    20 -2.910365 0.632510 0.212797 -0.125651 -0.987490 0.222888
    21 -1.751857 0.000000 -0.000001 3.089152 -1.424068 -3.055356
    22 -0.853992 0.000001 0.000000 -0.112170 -0.424833 -0.044433
    23 -2.899449 1.342928 0.078012 -0.089247 -0.937081 0.400139
    24 -1.152891 -0.000001 0.000000 -0.148505 -1.053336 0.063609
    25 -0.748462 0.000001 0.000002 -0.172839 -0.657551 0.233582
    26 7.282036 5.687362 -7.361735 0.000000 -1.557662 -0.000028
    27 0.023288 0.041601 0.000000 -0.011886 0.029147 1.207665
    28 -11.072353 -0.043445 0.000000 0.000000 0.000000 0.923853
    29 -8.108976 0.000001 0.000000 -3.141776 -0.031278 -0.530502
    30 -0.788882 0.969696 -0.533611 2.183871 -0.617208 -0.066701
    31 -1.920301 0.000001 0.000000 0.000000 0.000000 -0.398791
    32 -0.858251 0.000000 0.000000 0.081890 -0.160113 -0.181525
    33 -2.955714 0.752579 0.160553 -3.123752 -0.194109 -0.127606
    34 -1.836088 0.000000 -0.000001 2.028637 1.416644 1.911304
    35 -0.853994 -0.000001 0.000000 0.100992 0.754840 0.041957
    36 -2.964905 -0.017483 0.178523 3.129027 -1.061108 0.202043
    37 -1.814736 0.000000 0.000000 -2.735940 1.256346 -2.700664
    38 -0.982325 0.000000 0.000000 0.000000 0.095993 -0.021736
    39 -2.889733 -0.720928 0.212797 3.052539 -1.118135 0.122346
    40 -1.751859 0.000001 0.000000 -3.087852 1.407961 -3.066026
    41 -0.853992 0.000000 0.000000 0.000000 0.043633 0.000000
    42 -2.857166 -1.430682 0.078013 3.131547 -1.113726 -0.176716
    43 -1.152892 0.000000 0.000001 0.555740 1.186077 0.359454
    44 -0.748465 0.000000 -0.000001 0.001111 0.817920 0.051381
  time 7
    0 5.909814 -14.479196 -5.774339 1.570797 -0.006825 -1.570804
    1 -1.949061 2.201124 -0.433554 0.000000 0.000000 0.000000
    2 7.426658 1.822591 0.000000 0.000000 0.000000 0.000000
    3 -3.080630 2.936172 0.000001 0.000000 0.000000 0.000000
    4 1.856765 0.774353 0.000001 0.000000 0.000000 -0.591809
    5 -4.289258 1.370559 -0.526311 0.000000 0.000000 0.000000
    6 5.910387 -14.240906 -8.338428 1.570797 -0.006825 -1.570804
    7 -6.398894 -4.644634 -8.579020 -3.141592 -1.554543 -3.141640
    8 0.023288 0.041601 0.000000 0.357218 -0.664831 1.117195
    9 -11.072353 -0.043445 -0.000001 0.000000 0.000000 1.003599
    10 -8.108974 0.000001 0.000000 0.040376 0.738339 -0.523930
    11 -0.758957 -0.993292 -0.533610 1.150144 -0.720310 -0.319658
    12 -1.920300 0.000000 0.000000 0.000000 0.000000 -0.398791
    13 -0.858254 0.000000 0.000000 0.000000 0.000000 0.069433
    14 -2.931401 -0.842323 0.160553 0.009761 -1.130650 0.036947
    15 -1.836087 0.000000 0.000000 2.875289 -1.140584 -2.912709
    16 -0.853993 0.000000 0.000000 0.002756 -0.113413 -0.024347
    17 -2.964058 -0.072899 0.178523 -0.249902 -1.090908 0.154708
    18 -1.814736 0.000000 0.000000 2.619960 -1.205565 -2.478694
    19 -0.982325 -0.000001 0.000000 0.000000 -0.095993 -0.021736
    20 -2.910365 0.632510 0.212797 -0.125651 -0.987490 0.222888
    21 -1.751857 0.000000 -0.000001 3.089152 -1.424068 -3.055356
    22 -0.853992 0.000001 0.000000 -0.112170 -0.424833 -0.044433
    23 -2.899449 1.342928 0.078012 -0.089247 -0.937081 0.400139
    24 -1.152891 -0.000001 0.000000 -0.148505 -1.053336 0.063609
    25 -0.748462 0.000001 0.000002 -0.172839 -0.657551 0.233582
    26 7.282036 5.687362 -7.361735 0.000000 -1.557662 -0.000028
    27 0.023288 0.041601 0.000000 -0.011263 0.029063 1.226533
    28 -11.072353 -0.043445 0.000000 0.000000 0.000000 0.879999
    29 -8.108976 0.000001 0.000000 -3.141460 -0.031090 -0.513804
    30 -0.788882 0.969696 -0.533611 2.183871 -0.617208 -0.066701
    31 -1.920301 0.000001 0.000000 0.000000 0.000000 -0.398791
    32 -0.858251 0.000000 0.000000 0.081890 -0.160113 -0.181525
    33 -2.955714 0.752579 0.160553 -3.123752 -0.194109 -0.127606
    34 -1.836088 0.000000 -0.000001 1.984181 1.419996 1.867378
    35 -0.853994 -0.000001 0.000000 0.100992 0.754840 0.041957
    36 -2.964905 -0.017483 0.178523 3.129027 -1.061108 0.202043
    37 -1.814736 0.000000 0.000000 -2.735940 1.256346 -2.700664
    38 -0.982325 0.000000 0.000000 0.000000 0.095993 -0.021736
    39 -2.889733 -0.720928 0.212797 3.052539 -1.118135 0.122346
    40 -1.751859 0.000001 0.000000 -3.087852 1.407961 -3.066026
    41 -0.853992 0.000000 0.000000 0.000000 0.043633 0.000000
    42 -2.857166 -1.430682 0.078013 3.131547 -1.113726 -0.176716
    43 -1.152892 0.000000 0.000001 0.555740 1.186077 0.359454
    44 -0.748465 0.000000 -0.000001 0.001111 0.817920 0.051381
  time 8
    0 5.909814 -14.678421 -5.774339 1.570797 0.001675 -1.570804
    1 -1.949061 2.201124 -0.433554 0.000000 0.000000 0.000000
    2 7.426658 1.822591 0.000000 0.000000 0.000000 0.000000
    3 -3.080630 2.936172 0.000001 0.000000 0.000000 0.000000
    4 1.856765 0.774353 0.000001 0.000000 0.000000 -0.591809
    5 -4.289258 1.370559 -0.526311 0.000000 0.000000 0.000000
    6 5.910387 -14.420599 -8.338428 1.570797 0.001675 -1.570804
    7 -6.398894 -4.644634 -8.579020 -3.141592 -1.554543 -3.141640
    8 0.023288 0.041601 0.000000 0.343280 -0.662765 1.131973
    9 -11.072353 -0.043445 -0.000001 0.000000 0.000000 0.972495
    10 -8.108974 0.000001 0.000000 0.034911 0.731306 -0.513116
    11 -0.758957 -0.993292 -0.533610 1.150144 -0.720310 -0.319658
    12 -1.920300 0.000000 0.000000 0.000000 0.000000 -0.398791
    13 -0.858254 0.000000 0.000000 0.000000 0.000000 0.069433
    14 -2.931401 -0.842323 0.160553 0.009761 -1.130650 0.036947
    15 -1.836087 0.000000 0.000000 2.875289 -1.140584 -2.912709
    16 -0.853993 0.000000 0.000000 0.002756 -0.113413 -0.024347
    17 -2.964058 -0.072899 0.178523 -0.249902 -1.090908 0.154708
    18 -1.814736 0.000000 0.000000 2.619960 -1.205565 -2.478694
    19 -0.982325 -0.000001 0.000000 0.000000 -0.095993 -0.021736
    20 -2.910365 0.632510 0.212797 -0.125651 -0.987490 0.222888
    21 -1.751857 0.000000 -0.000001 3.089152 -1.424068 -3.055356
    22 -0.853992 0.000001 0.000000 -0.112170 -0.424833 -0.044433
    23 -2.899449 1.342928 0.078012 -0.089247 -0.937081 0.400139
    24 -1.152891 -0.000001 0.000000 -0.148505 -1.053336 0.063609
    25 -0.748462 0.000001 0.000002 -0.172839 -0.657551 0.233582
    26 7.282036 5.687362 -7.361735 0.000000 -1.557662 -0.000028
    27 0.023288 0.041601 0.000000 -0.010544 0.028991 1.248379
    28 -11.072353 -0.043445 0.000000 0.000000 0.000000 0.829050
    29 -8.108976 0.000001 0.000000 -3.141201 -0.030860 -0.493223
    30 -0.788882 0.969696 -0.533611 2.183871 -0.617208 -0.066701
    31 -1.920301 0.000001 0.000000 0.000000 0.000000 -0.398791
    32 -0.858251 0.000000 0.000000 0.081890 -0.160113 -0.181525
    33 -2.955714 0.752579 0.160553 -3.123752 -0.194109 -0.127606
    34 -1.836088 0.000000 -0.000001 1.883188 1.426106 1.767533
    35 -0.853994 -0.000001 0.000000 0.100992 0.754840 0.041957
    36 -2.964905 -0.017483 0.178523 3.129027 -1.061108 0.202043
    37 -1.814736 0.000000 0.000000 -2.735940 1.256346 -2.700664
    38 -0.982325 0.000000 0.000000 0.000000 0.095993 -0.021736
    39 -2.889733 -0.720928 0.212797 3.052539 -1.118135 0.122346
    40 -1.751859 0.000001 0.000000 -3.087852 1.407961 -3.066026
    41 -0.853992 0.000000 0.000000 0.000000 0.043633 0.000000
    42 -2.857166 -1.430682 0.078013 3.131547 -1.113726 -0.176716
    43 -1.152892 0.000000 0.000001 0.555740 1.186077 0.359454
    44 -0.748465 0.000000 -0.000001 0.001111 0.817920 0.051381
  time 9
    0 5.909814 -14.881552 -5.774339 1.570797 0.009844 -1.570804
    1 -1.949061 2.201124 -0.433554 0.000000 0.000000 0.000000
    2 7.426658 1.822591 0.000000 0.000000 0.000000 0.000000
    3 -3.080630 2.936172 0.000001 0.000000 0.000000 0.000000
    4 1.856765 0.774353 0.000001 0.000000 0.000000 -0.591809
    5 -4.289258 1.370559 -0.526311 0.000000 0.000000 0.000000
    6 5.910387 -14.604199 -8.338428 1.570797 0.009844 -1.570804
    7 -6.398894 -4.644634 -8.579020 -3.141592 -1.554543 -3.141640
    8 0.023288 0.041601 0.000000 0.328899 -0.660771 1.147843
    9 -11.072353 -0.043445 -0.000001 0.000000 0.000000 0.939502
    10 -8.108974 0.000001 0.000000 0.029752 0.724273 -0.500758
    11 -0.758957 -0.993292 -0.533610 1.150144 -0.720310 -0.319658
    12 -1.920300 0.000000 0.000000 0.000000 0.000000 -0.398791
    13 -0.858254 0.000000 0.000000 0.000000 0.000000 0.069433
    14 -2.931401 -0.842323 0.160553 0.009761 -1.130650 0.036947
    15 -1.836087 0.000000 0.000000 2.875289 -1.140584 -2.912709
    16 -0.853993 0.000000 0.000000 0.002756 -0.113413 -0.024347
    17 -2.964058 -0.072899 0.178523 -0.249902 -1.090908 0.154708
    18 -1.814736 0.000000 0.000000 2.619960 -1.205565 -2.478694
    19 -0.982325 -0.000001 0.000000 0.000000 -0.095993 -0.021736
    20 -2.910365 0.632510 0.212797 -0.125651 -0.987490 0.222888
    21 -1.751857 0.000000 -0.000001 3.089152 -1.424068 -3.055356
    22 -0.853992 0.000001 0.000000 -0.112170 -0.424833 -0.044433
    23 -2.899449 1.342928 0.078012 -0.089247 -0.937081 0.400139
    24 -1.152891 -0.000001 0.000000 -0.148505 -1.053336 0.063609
    25 -0.748462 0.000001 0.000002 -0.172839 -0.657551 0.233582
    26 7.282036 5.687362 -7.361735 0.000000 -1.557662 -0.000028
    27 0.023288 0.041601 0.000000 -0.009801 0.028920 1.271039
    28 -11.072353 -0.043445 0.000000 0.000000 0.000000 0.776171
    29 -8.108976 0.000001 0.000000 -3.140942 -0.030651 -0.471179
    30 -0.788882 0.969696 -0.533611 2.183871 -0.617208 -0.066701
    31 -1.920301 0.000001 0.000000 0.000000 0.000000 -0.398791
    32 -0.858251 0.000000 0.000000 0.081890 -0.160113 -0.181525
    33 -2.955714 0.752579 0.160553 -3.123752 -0.194109 -0.127606
    34 -1.836088 0.000000 -0.000001 1.694750 1.432768 1.581040
    35 -0.853994 -0.000001 0.000000 0.100992 0.754840 0.041957
    36 -2.964905 -0.017483 0.178523 3.129027 -1.061108 0.202043
    37 -1.814736 0.000000 0.000000 -2.735940 1.256346 -2.700664
    38 -0.982325 0.000000 0.000000 0.000000 0.095993 -0.021736
    39 -2.889733 -0.720928 0.212797 3.052539 -1.118135 0.122346
    40 -1.751859 0.000001 0.000000 -3.087852 1.407961 -3.066026
    41 -0.853992 0.000000 0.000000 0.000000 0.043633 0.000000
    42 -2.857166 -1.430682 0.078013 3.131547 -1.113726 -0.176716
    43 -1.152892 0.000000 0.000001 0.555740 1.186077 0.359454
    44 -0.748465 0.000000 -0.000001 0.001111 0.817920 0.051381
  time 10
    0 5.909814 -15.076870 -5.774339 1.570797 0.017144 -1.570804
    1 -1.886559 2.201124 -0.433554 0.000000 0.000000 0.000000
    2 7.426658 1.822591 0.000000 0.000000 0.000000 0.000000
    3 -3.080630 2.936172 0.000001 0.000000 0.000000 0.000000
    4 1.856765 0.774353 0.000001 0.000000 0.000000 -0.600272
    5 -4.289258 1.370559 -0.526311 0.000000 0.000000 0.000000
    6 5.910387 -14.779985 -8.334521 1.570797 0.017144 -1.570804
    7 -6.398894 -4.644634 -8.579020 -3.141592 -1.554543 -3.141640
    8 0.023288 0.041601 0.000000 0.314913 -0.658829 1.163744
    9 -11.072353 -0.043445 -0.000001 0.000000 0.000000 0.906686
    10 -8.108974 0.000001 0.000000 0.025208 0.717551 -0.487771
    11 -0.758957 -0.993292 -0.533610 1.150144 -0.720310 -0.319658
    12 -1.920300 0.000000 0.000000 0.000000 0.000000 -0.398791
    13 -0.858254 0.000000 0.000000 0.000000 0.000000 0.069433
    14 -2.931401 -0.842323 0.160553 0.009761 -1.130650 0.036947
    15 -1.836087 0.000000 0.000000 2.875289 -1.140584 -2.912709
    16 -0.853993 0.000000 0.000000 0.002756 -0.113413 -0.024347
    17 -2.964058 -0.072899 0.178523 -0.249902 -1.090908 0.154708
    18 -1.814736 0.000000 0.000000 2.619960 -1.205565 -2.478694
    19 -0.982325 -0.000001 0.000000 0.000000 -0.095993 -0.021736
    20 -2.910365 0.632510 0.212797 -0.125651 -0.987490 0.222888
    21 -1.751857 0.000000 -0.000001 3.089152 -1.424068 -3.055356
    22 -0.853992 0.000001 0.000000 -0.112170 -0.424833 -0.044433
    23 -2.899449 1.342928 0.078012 -0.089247 -0.937081 0.400139
    24 -1.152891 -0.000001 0.000000 -0.148505 -1.053336 0.063609
    25 -0.748462 0.000001 0.000002 -0.172839 -0.657551 0.233582
    26 7.282036 5.687362 -7.361735 0.000000 -1.557662 -0.000028
    27 0.023288 0.041601 0.000000 -0.009070 0.028836 1.294511
    28 -11.072353 -0.043445 0.000000 0.000000 0.000000 0.721213
    29 -8.108976 0.000001 0.000000 -3.140683 -0.030443 -0.446989
    30 -0.788882 0.969696 -0.533611 2.183871 -0.617208 -0.066701
    31 -1.920301 0.000001 0.000000 0.000000 0.000000 -0.398791
    32 -0.858251 0.000000 0.000000 0.081890 -0.160113 -0.181525
    33 -2.955714 0.752579 0.160553 -3.123752 -0.194109 -0.127606
    34 -1.836088 0.000000 -0.000001 1.416324 1.433362 1.305347
    35 -0.853994 -0.000001 0.000000 0.100992 0.754840 0.041957
    36 -2.964905 -0.017483 0.178523 3.129027 -1.061108 0.202043
    37 -1.814736 0.000000 0.000000 -2.735940 1.256346 -2.700664
    38 -0.982325 0.000000 0.000000 0.000000 0.095993 -0.021736
    39 -2.889733 -0.720928 0.212797 3.052539 -1.118135 0.122346
    40 -1.751859 0.000001 0.000000 -3.087852 1.407961 -3.066026
    41 -0.853992 0.000000 0.000000 0.000000 0.043633 0.000000
    42 -2.857166 -1.430682 0.078013 3.131547 -1.113726 -0.176716
    43 -1.152892 0.000000 0.000001 0.555740 1.186077 0.359454
    44 -0.748465 0.000000 -0.000001 0.001111 0.817920 0.051381
  time 11
    0 5.909814 -15.252657 -5.774339 1.570797 0.022976 -1.570804
    1 -1.757649 2.201124 -0.433554 0.000000 0.000000 0.000000
    2 7.426658 1.822591 0.000000 0.000000 0.000000 0.000000
    3 -3.080630 2.936172 0.000001 0.000000 0.000000 0.000000
    4 1.856765 0.774353 0.000001 0.000000 0.000000 -0.591809
    5 -4.289258 1.370559 -0.526311 0.000000 0.000000 0.000000
    6 5.910387 -14.940146 -8.334521 1.570797 0.022976 -1.570804
    7 -6.398894 -4.644634 -8.579020 -3.141592 -1.554543 -3.141640
    8 0.023288 0.041601 0.000000 0.302089 -0.657011 1.178817
    9 -11.072353 -0.043445 -0.000001 0.000000 0.000000 0.876083
    10 -8.108974 0.000001 0.000000 0.021708 0.711452 -0.474669
    11 -0.758957 -0.993292 -0.533610 1.150144 -0.720310 -0.319658
    12 -1.920300 0.000000 0.000000 0.000000 0.000000 -0.398791
    13 -0.858254 0.000000 0.000000 0.000000 0.000000 0.069433
    14 -2.931401 -0.842323 0.160553 0.009761 -1.130650 0.036947
    15 -1.836087 0.000000 0.000000 2.875289 -1.140584 -2.912709
    16 -0.853993 0.000000 0.000000 0.002756 -0.113413 -0.024347
    17 -2.964058 -0.072899 0.178523 -0.249902 -1.090908 0.154708
    18 -1.814736 0.000000 0.000000 2.619960 -1.205565 -2.478694
    19 -0.982325 -0.000001 0.000000 0.000000 -0.095993 -0.021736
    20 -2.910365 0.632510 0.212797 -0.125651 -0.987490 0.222888
    21 -1.751857 0.000000 -0.000001 3.089152 -1.424068 -3.055356
    22 -0.853992 0.000001 0.000000 -0.112170 -0.424833 -0.044433
    23 -2.899449 1.342928 0.078012 -0.089247 -0.937081 0.400139
    24 -1.152891 -0.000001 0.000000 -0.148505 -1.053336 0.063609
    25 -0.748462 0.000001 0.000002 -0.172839 -0.657551 0.233582
    26 7.282036 5.687362 -7.361735 0.000000 -1.557662 -0.000028
    27 0.023288 0.041601 0.000000 -0.008339 0.028776 1.317633
    28 -11.072353 -0.043445 0.000000 0.000000 0.000000 0.666816
    29 -8.108976 0.000001 0.000000 -3.140510 -0.030234 -0.421532
    30 -0.788882 0.969696 -0.533611 2.183871 -0.617208 -0.066701
    31 -1.920301 0.000001 0.000000 0.000000 0.000000 -0.398791
    32 -0.858251 0.000000 0.000000 0.081890 -0.160113 -0.181525
    33 -2.955714 0.752579 0.160553 -3.123752 -0.194109 -0.127606
    34 -1.836088 0.000000 -0.000001 1.106645 1.420717 0.998926
    35 -0.853994 -0.000001 0.000000 0.100992 0.754840 0.041957
    36 -2.964905 -0.017483 0.178523 3.129027 -1.061108 0.202043
    37 -1.814736 0.000000 0.000000 -2.735940 1.256346 -2.700664
    38 -0.982325 0.000000 0.000000 0.000000 0.095993 -0.021736
    39 -2.889733 -0.720928 0.212797 3.052539 -1.118135 0.122346
    40 -1.751859 0.000001 0.000000 -3.087852 1.407961 -3.066026
    41 -0.853992 0.000000 0.000000 0.000000 0.043633 0.000000
    42 -2.857166 -1.430682 0.078013 3.131547 -1.113726 -0.176716
    43 -1.152892 0.000000 0.000001 0.555740 1.186077 0.359454
    44 -0.748465 0.000000 -0.000001 0.001111 0.817920 0.051381
  time 12
    0 5.909814 -15.401099 -5.774339 1.570797 0.026802 -1.570804
    1 -1.562331 2.201124 -0.433554 0.000000 0.000000 0.000000
    2 7.426658 1.822591 0.000000 0.000000 0.000000 0.000000
    3 -3.080630 2.936172 0.000001 0.000000 0.000000 0.000000
    4 1.856765 0.774353 0.000001 0.000000 0.000000 -0.541084
    5 -4.289258 1.370559 -0.526311 0.000000 0.000000 0.000000
    6 5.910387 -15.080776 -8.334521 1.570797 0.026802 -1.570804
    7 -6.398894 -4.644634 -8.579020 -3.141592 -1.554543 -3.141640
    8 0.023288 0.041601 0.000000 0.290608 -0.655634 1.193003
    9 -11.072353 -0.043445 -0.000001 0.000000 0.000000 0.847752
    10 -8.108974 0.000001 0.000000 0.019559 0.706255 -0.460938
    11 -0.758957 -0.993292 -0.533610 1.150144 -0.720310 -0.319658
    12 -1.920300 0.000000 0.000000 0.000000 0.000000 -0.398791
    13 -0.858254 0.000000 0.000000 0.000000 0.000000 0.069433
    14 -2.931401 -0.842323 0.160553 0.009761 -1.130650 0.036947
    15 -1.836087 0.000000 0.000000 2.875289 -1.140584 -2.912709
    16 -0.853993 0.000000 0.000000 0.002756 -0.113413 -0.024347
    17 -2.964058 -0.072899 0.178523 -0.249902 -1.090908 0.154708
    18 -1.814736 0.000000 0.000000 2.619960 -1.205565 -2.478694
    19 -0.982325 -0.000001 0.000000 0.000000 -0.095993 -0.021736
    20 -2.910365 0.632510 0.212797 -0.125651 -0.987490 0.222888
    21 -1.751857 0.000000 -0.000001 3.089152 -1.424068 -3.055356
    22 -0.853992 0.000001 0.000000 -0.112170 -0.424833 -0.044433
    23 -2.899449 1.342928 0.078012 -0.089247 -0.937081 0.400139
    24 -1.152891 -0.000001 0.000000 -0.148505 -1.053336 0.063609
    25 -0.748462 0.000001 0.000002 -0.172839 -0.657551 0.233582
    26 7.282036 5.687362 -7.361735 0.000000 -1.557662 -0.000028
    27 0.023288 0.041601 0.000000 -0.007692 0.028716 1.338165
    28 -11.072353 -0.043445 0.000000 0.000000 0.000000 0.618194
    29 -8.108976 0.000001 0.000000 -3.140395 -0.030046 -0.397245
    30 -0.788882 0.969696 -0.533611 2.183871 -0.617208 -0.066701
    31 -1.920301 0.000001 0.000000 0.000000 0.000000 -0.398791
    32 -0.858251 0.000000 0.000000 0.081890 -0.160113 -0.181525
    33 -2.955714 0.752579 0.160553 -3.123752 -0.194109 -0.127606
    34 -1.836088 0.000000 -0.000001 0.841619 1.393477 0.737537
    35 -0.853994 -0.000001 0.000000 0.100992 0.754840 0.041957
    36 -2.964905 -0.017483 0.178523 3.129027 -1.061108 0.202043
    37 -1.814736 0.000000 0.000000 -2.735940 1.256346 -2.700664
    38 -0.982325 0.000000 0.000000 0.000000 0.095993 -0.021736
    39 -2.889733 -0.720928 0.212797 3.052539 -1.118135 0.122346
    40 -1.751859 0.000001 0.000000 -3.087852 1.407961 -3.066026
    41 -0.853992 0.000000 0.000000 0.000000 0.043633 0.000000
    42 -2.857166 -1.430682 0.078013 3.131547 -1.113726 -0.176716
    43 -1.152892 0.000000 0.000001 0.555740 1.186077 0.359454
    44 -0.748465 0.000000 -0.000001 0.001111 0.817920 0.051381
  time 13
    0 5.909814 -15.514384 -5.774339 1.570797 0.028064 -1.570804
    1 -1.304510 2.201124 -0.433554 0.000000 0.000000 0.000000
    2 7.426658 1.822591 0.000000 0.000000 0.000000 0.000000
    3 -3.080630 2.936172 0.000001 0.000000 0.000000 0.000000
    4 1.856765 0.774353 0.000001 0.000000 0.000000 -0.456542
    5 -4.289258 1.370559 -0.526311 0.000000 0.000000 0.000000
    6 5.910387 -15.186248 -8.330615 1.570797 0.028043 -1.570804
    7 -6.398894 -4.644634 -8.579020 -3.141592 -1.554543 -3.141640
    8 0.023288 0.041601 0.000000 0.281835 -0.654539 1.204263
    9 -11.072353 -0.043445 -0.000001 0.000000 0.000000 0.825914
    10 -8.108974 0.000001 0.000000 0.019068 0.702272 -0.448637
    11 -0.758957 -0.993292 -0.533610 1.150144 -0.720310 -0.319658
    12 -1.920300 0.000000 0.000000 0.000000 0.000000 -0.398791
    13 -0.858254 0.000000 0.000000 0.000000 0.000000 0.069433
    14 -2.931401 -0.842323 0.160553 0.009761 -1.130650 0.036947
    15 -1.836087 0.000000 0.000000 2.875289 -1.140584 -2.912709
    16 -0.853993 0.000000 0.000000 0.002756 -0.113413 -0.024347
    17 -2.964058 -0.072899 0.178523 -0.249902 -1.090908 0.154708
    18 -1.814736 0.000000 0.000000 2.619960 -1.205565 -2.478694
    19 -0.982325 -0.000001 0.000000 0.000000 -0.095993 -0.021736
    20 -2.910365 0.632510 0.212797 -0.125651 -0.987490 0.222888
    21 -1.751857 0.000000 -0.000001 3.089152 -1.424068 -3.055356
    22 -0.853992 0.000001 0.000000 -0.112170 -0.424833 -0.044433
    23 -2.899449 1.342928 0.078012 -0.089247 -0.937081 0.400139
    24 -1.152891 -0.000001 0.000000 -0.148505 -1.053336 0.063609
    25 -0.748462 0.000001 0.000002 -0.172839 -0.657551 0.233582
    26 7.282036 5.687362 -7.361735 0.000000 -1.557662 -0.000028
    27 0.023288 0.041601 0.000000 -0.007152 0.028668 1.355269
    28 -11.072353 -0.043445 0.000000 0.000000 0.000000 0.577112
    29 -8.108976 0.000001 0.000000 -3.140366 -0.029900 -0.374499
    30 -0.788882 0.969696 -0.533611 2.183871 -0.617208 -0.066701
    31 -1.920301 0.000001 0.000000 0.000000 0.000000 -0.398791
    32 -0.858251 0.000000 0.000000 0.081890 -0.160113 -0.181525
    33 -2.955714 0.752579 0.160553 -3.123752 -0.194109 -0.127606
    34 -1.836088 0.000000 -0.000001 0.649611 1.356011 0.549311
    35 -0.853994 -0.000001 0.000000 0.100992 0.754840 0.041957
    36 -2.964905 -0.017483 0.178523 3.129027 -1.061108 0.202043
    37 -1.814736 0.000000 0.000000 -2.735940 1.256346 -2.700664
    38 -0.982325 0.000000 0.000000 0.000000 0.095993 -0.021736
    39 -2.889733 -0.720928 0.212797 3.052539 -1.118135 0.122346
    40 -1.751859 0.000001 0.000000 -3.087852 1.407961 -3.066026
    41 -0.853992 0.000000 0.000000 0.000000 0.043633 0.000000
    42 -2.857166 -1.430682 0.078013 3.131547 -1.113726 -0.176716
    43 -1.152892 0.000000 0.000001 0.555740 1.186077 0.359454
    44 -0.748465 0.000000 -0.000001 0.001111 0.817920 0.051381
  time 14
    0 5.909814 -15.576885 -5.774339 1.570797 0.026161 -1.570804
    1 -0.980282 2.201124 -0.433554 0.000000 0.000000 0.000000
    2 7.426658 1.822591 0.000000 0.000000 0.000000 0.000000
    3 -3.080630 2.936172 0.000001 0.000000 0.000000 0.000000
    4 1.856765 0.774353 0.000001 0.000000 0.000000 -0.338166
    5 -4.289258 1.370559 -0.526311 0.000000 0.000000 0.000000
    6 5.910387 -15.256562 -8.334521 1.570797 0.026161 -1.570804
    7 -6.398894 -4.644634 -8.579020 -3.141592 -1.554543 -3.141640
    8 0.023288 0.041601 0.000000 0.276454 -0.653868 1.211711
    9 -11.072353 -0.043445 -0.000001 0.000000 0.000000 0.812369
    10 -8.108974 0.000001 0.000000 0.020603 0.699782 -0.438166
    11 -0.758957 -0.993292 -0.533610 1.150144 -0.720310 -0.319658
    12 -1.920300 0.000000 0.000000 0.000000 0.000000 -0.398791
    13 -0.858254 0.000000 0.000000 0.000000 0.000000 0.069433
    14 -2.931401 -0.842323 0.160553 0.009761 -1.130650 0.036947
    15 -1.836087 0.000000 0.000000 2.875289 -1.140584 -2.912709
    16 -0.853993 0.000000 0.000000 0.002756 -0.113413 -0.024347
    17 -2.964058 -0.072899 0.178523 -0.249902 -1.090908 0.154708
    18 -1.814736 0.000000 0.000000 2.619960 -1.205565 -2.478694
    19 -0.982325 -0.000001 0.000000 0.000000 -0.095993 -0.021736
    20 -2.910365 0.632510 0.212797 -0.125651 -0.987490 0.222888
    21 -1.751857 0.000000 -0.000001 3.089152 -1.424068 -3.055356
    22 -0.853992 0.000001 0.000000 -0.112170 -0.424833 -0.044433
    23 -2.899449 1.342928 0.078012 -0.089247 -0.937081 0.400139
    24 -1.152891 -0.000001 0.000000 -0.148505 -1.053336 0.063609
    25 -0.748462 0.000001 0.000002 -0.172839 -0.657551 0.233582
    26 7.282036 5.687362 -7.361735 0.000000 -1.557662 -0.000028
    27 0.023288 0.041601 0.000000 -0.006841 0.028644 1.365241
    28 -11.072353 -0.043445 0.000000 0.000000 0.000000 0.552215
    29 -8.108976 0.000001 0.000000 -3.140424 -0.029754 -0.357702
    30 -0.788882 0.969696 -0.533611 2.183871 -0.617208 -0.066701
    31 -1.920301 0.000001 0.000000 0.000000 0.000000 -0.398791
    32 -0.858251 0.000000 0.000000 0.081890 -0.160113 -0.181525
    33 -2.955714 0.752579 0.160553 -3.123752 -0.194109 -0.127606
    34 -1.836088 0.000000 -0.000001 0.519128 1.314047 0.422590
    35 -0.853994 -0.000001 0.000000 0.100992 0.754840 0.041957
    36 -2.964905 -0.017483 0.178523 3.129027 -1.061108 0.202043
    37 -1.814736 0.000000 0.000000 -2.735940 1.256346 -2.700664
    38 -0.982325 0.000000 0.000000 0.000000 0.095993 -0.021736
    39 -2.889733 -0.720928 0.212797 3.052539 -1.118135 0.122346
    40 -1.751859 0.000001 0.000000 -3.087852 1.407961 -3.066026
    41 -0.853992 0.000000 0.000000 0.000000 0.043633 0.000000
    42 -2.857166 -1.430682 0.078013 3.131547 -1.113726 -0.176716
    43 -1.152892 0.000000 0.000001 0.555740 1.186077 0.359454
    44 -0.748465 0.000000 -0.000001 0.001111 0.817920 0.051381
  time 15
    0 5.909814 -15.604230 -5.774339 1.570797 0.021797 -1.570804
    1 -0.593551 2.201124 -0.433554 0.000000 0.000000 0.000000
    2 7.426658 1.822591 0.000000 0.000000 0.000000 0.000000
    3 -3.080630 2.936172 0.000001 0.000000 0.000000 0.000000
    4 1.856765 0.774353 0.000001 0.000000 0.000000 -0.185991
    5 -4.289258 1.370559 -0.526311 0.000000 0.000000 0.000000
    6 5.910387 -15.291720 -8.334521 1.570797 0.021797 -1.570804
    7 -6.398894 -4.644634 -8.579020 -3.141592 -1.554543 -3.141640
    8 0.023288 0.041601 0.000000 0.273662 -0.653533 1.216233
    9 -11.072353 -0.043445 -0.000001 0.000000 0.000000 0.805316
    10 -8.108974 0.000001 0.000000 0.023734 0.698382 -0.429127
    11 -0.758957 -0.993292 -0.533610 1.150144 -0.720310 -0.319658
    12 -1.920300 0.000000 0.000000 0.000000 0.000000 -0.398791
    13 -0.858254 0.000000 0.000000 0.000000 0.000000 0.069433
    14 -2.931401 -0.842323 0.160553 0.009761 -1.130650 0.036947
    15 -1.836087 0.000000 0.000000 2.875289 -1.140584 -2.912709
    16 -0.853993 0.000000 0.000000 0.002756 -0.113413 -0.024347
    17 -2.964058 -0.072899 0.178523 -0.249902 -1.090908 0.154708
    18 -1.814736 0.000000 0.000000 2.619960 -1.205565 -2.478694
    19 -0.982325 -0.000001 0.000000 0.000000 -0.095993 -0.021736
    20 -2.910365 0.632510 0.212797 -0.125651 -0.987490 0.222888
    21 -1.751857 0.000000 -0.000001 3.089152 -1.424068 -3.055356
    22 -0.853992 0.000001 0.000000 -0.112170 -0.424833 -0.044433
    23 -2.899449 1.342928 0.078012 -0.089247 -0.937081 0.400139
    24 -1.152891 -0.000001 0.000000 -0.148505 -1.053336 0.063609
    25 -0.748462 0.000001 0.000002 -0.172839 -0.657551 0.233582
    26 7.282036 5.687362 -7.361735 0.000000 -1.557662 -0.000028
    27 0.023288 0.041601 0.000000 -0.006697 0.028620 1.369496
    28 -11.072353 -0.043445 0.000000 0.000000 0.000000 0.540286
    29 -8.108976 0.000001 0.000000 -3.140597 -0.029649 -0.345646
    30 -0.788882 0.969696 -0.533611 2.183871 -0.617208 -0.066701
    31 -1.920301 0.000001 0.000000 0.000000 0.000000 -0.398791
    32 -0.858251 0.000000 0.000000 0.081890 -0.160113 -0.181525
    33 -2.955714 0.752579 0.160553 -3.123752 -0.194109 -0.127606
    34 -1.836088 0.000000 -0.000001 0.431780 1.272550 0.338688
    35 -0.853994 -0.000001 0.000000 0.100992 0.754840 0.041957
    36 -2.964905 -0.017483 0.178523 3.129027 -1.061108 0.202043
    37 -1.814736 0.000000 0.000000 -2.735940 1.256346 -2.700664
    38 -0.982325 0.000000 0.000000 0.000000 0.095993 -0.021736
    39 -2.889733 -0.720928 0.212797 3.052539 -1.118135 0.122346
    40 -1.751859 0.000001 0.000000 -3.087852 1.407961 -3.066026
    41 -0.853992 0.000000 0.000000 0.000000 0.043633 0.000000
    42 -2.857166 -1.430682 0.078013 3.131547 -1.113726 -0.176716
    43 -1.152892 0.000000 0.000001 0.555740 1.186077 0.359454
    44 -0.748465 0.000000 -0.000001 0.001111 0.817920 0.051381
  time 16
    0 5.909814 -15.612043 -5.774339 1.570797 0.015986 -1.570804
    1 -0.144318 2.201124 -0.433554 0.000000 0.000000 0.000000
    2 7.426658 1.822591 0.000000 0.000000 0.000000 0.000000
    3 -3.080630 2.936172 0.000001 0.000000 0.000000 0.000000
    4 1.856765 0.774353 0.000001 0.000000 0.000000 0.000000
    5 -4.289258 1.370559 -0.526311 0.000000 0.000000 0.000000
    6 5.910387 -15.319064 -8.334521 1.570797 0.015986 -1.570804
    7 -6.398894 -4.644634 -8.579020 -3.141592 -1.554543 -3.141640
    8 0.023288 0.041601 0.000000 0.272128 -0.653356 1.219366
    9 -11.072353 -0.043445 -0.000001 0.000000 0.000000 0.801391
    10 -8.108974 0.000001 0.000000 0.027726 0.697479 -0.420487
    11 -0.758957 -0.993292 -0.533610 1.150144 -0.720310 -0.319658
    12 -1.920300 0.000000 0.000000 0.000000 0.000000 -0.398791
    13 -0.858254 0.000000 0.000000 0.000000 0.000000 0.069433
    14 -2.931401 -0.842323 0.160553 0.009761 -1.130650 0.036947
    15 -1.836087 0.000000 0.000000 2.875289 -1.140584 -2.912709
    16 -0.853993 0.000000 0.000000 0.002756 -0.113413 -0.024347
    17 -2.964058 -0.072899 0.178523 -0.249902 -1.090908 0.154708
    18 -1.814736 0.000000 0.000000 2.619960 -1.205565 -2.478694
    19 -0.982325 -0.000001 0.000000 0.000000 -0.095993 -0.021736
    20 -2.910365 0.632510 0.212797 -0.125651 -0.987490 0.222888
    21 -1.751857 0.000000 -0.000001 3.089152 -1.424068 -3.055356
    22 -0.853992 0.000001 0.000000 -0.112170 -0.424833 -0.044433
    23 -2.899449 1.342928 0.078012 -0.089247 -0.937081 0.400139
    24 -1.152891 -0.000001 0.000000 -0.148505 -1.053336 0.063609
    25 -0.748462 0.000001 0.000002 -0.172839 -0.657551 0.233582
    26 7.282036 5.687362 -7.361735 0.000000 -1.557662 -0.000028
    27 0.023288 0.041601 0.000000 -0.006613 0.028596 1.370922
    28 -11.072353 -0.043445 0.000000 0.000000 0.000000 0.534676
    29 -8.108976 0.000001 0.000000 -3.140798 -0.029545 -0.335639
    30 -0.788882 0.969696 -0.533611 2.183871 -0.617208 -0.066701
    31 -1.920301 0.000001 0.000000 0.000000 0.000000 -0.398791
    32 -0.858251 0.000000 0.000000 0.081890 -0.160113 -0.181525
    33 -2.955714 0.752579 0.160553 -3.123752 -0.194109 -0.127606
    34 -1.836088 0.000000 -0.000001 0.431780 1.272550 0.338688
    35 -0.853994 -0.000001 0.000000 0.100992 0.754840 0.041957
    36 -2.964905 -0.017483 0.178523 3.129027 -1.061108 0.202043
    37 -1.814736 0.000000 0.000000 -2.735940 1.256346 -2.700664
    38 -0.982325 0.000000 0.000000 0.000000 0.095993 -0.021736
    39 -2.889733 -0.720928 0.212797 3.052539 -1.118135 0.122346
    40 -1.751859 0.000001 0.000000 -3.087852 1.407961 -3.066026
    41 -0.853992 0.000000 0.000000 0.000000 0.043633 0.000000
    42 -2.857166 -1.430682 0.078013 3.131547 -1.113726 -0.176716
    43 -1.152892 0.000000 0.000001 0.555740 1.186077 0.359454
    44 -0.748465 0.000000 -0.000001 0.001111 0.817920 0.051381
  time 17
    0 5.909814 -15.604230 -5.774339 1.570797 0.008707 -1.570804
    1 -0.144318 2.201124 -0.433554 0.000000 0.000000 0.000000
    2 7.426658 1.822591 0.000000 0.000000 0.000000 0.000000
    3 -3.080630 2.936172 0.000001 0.000000 0.000000 0.000000
    4 1.856765 0.774353 0.000001 0.000000 0.000000 0.000000
    5 -4.289258 1.370559 -0.526311 0.000000 0.000000 0.000000
    6 5.910387 -15.326877 -8.338428 1.570797 0.008707 -1.570804
    7 -6.398894 -4.644634 -8.579020 -3.141592 -1.554543 -3.141640
    8 0.023288 0.041601 0.000000 0.271828 -0.653339 1.221109
    9 -11.072353 -0.043445 -0.000001 0.000000 0.000000 0.800624
    10 -8.108974 0.000001 0.000000 0.032700 0.697106 -0.412306
    11 -0.758957 -0.993292 -0.533610 1.150144 -0.720310 -0.319658
    12 -1.920300 0.000000 0.000000 0.000000 0.000000 -0.398791
    13 -0.858254 0.000000 0.000000 0.000000 0.000000 0.069433
    14 -2.931401 -0.842323 0.160553 0.009761 -1.130650 0.036947
    15 -1.836087 0.000000 0.000000 2.875289 -1.140584 -2.912709
    16 -0.853993 0.000000 0.000000 0.002756 -0.113413 -0.024347
    17 -2.964058 -0.072899 0.178523 -0.249902 -1.090908 0.154708
    18 -1.814736 0.000000 0.000000 2.619960 -1.205565 -2.478694
    19 -0.982325 -0.000001 0.000000 0.000000 -0.095993 -0.021736
    20 -2.910365 0.632510 0.212797 -0.125651 -0.987490 0.222888
    21 -1.751857 0.000000 -0.000001 3.089152 -1.424068 -3.055356
    22 -0.853992 0.000001 0.000000 -0.112170 -0.424833 -0.044433
    23 -2.899449 1.342928 0.078012 -0.089247 -0.937081 0.400139
    24 -1.152891 -0.000001 0.000000 -0.148505 -1.053336 0.063609
    25 -0.748462 0.000001 0.000002 -0.172839 -0.657551 0.233582
    26 7.282036 5.687362 -7.361735 0.000000 -1.557662 -0.000028
    27 0.023288 0.041601 0.000000 -0.006625 0.028584 1.369521
    28 -11.072353 -0.043445 0.000000 0.000000 0.000000 0.535386
    29 -8.108976 0.000001 0.000000 -3.141028 -0.029441 -0.327680
    30 -0.788882 0.969696 -0.533611 2.183871 -0.617208 -0.066701
    31 -1.920301 0.000001 0.000000 0.000000 0.000000 -0.398791
    32 -0.858251 0.000000 0.000000 0.081890 -0.160113 -0.181525
    33 -2.955714 0.752579 0.160553 -3.123752 -0.194109 -0.127606
    34 -1.836088 0.000000 -0.000001 0.431780 1.272550 0.338688
    35 -0.853994 -0.000001 0.000000 0.100992 0.754840 0.041957
    36 -2.964905 -0.017483 0.178523 3.129027 -1.061108 0.202043
    37 -1.814736 0.000000 0.000000 -2.735940 1.256346 -2.700664
    38 -0.982325 0.000000 0.000000 0.000000 0.095993 -0.021736
    39 -2.889733 -0.720928 0.212797 3.052539 -1.118135 0.122346
    40 -1.751859 0.000001 0.000000 -3.087852 1.407961 -3.066026
    41 -0.853992 0.000000 0.000000 0.000000 0.043633 0.000000
    42 -2.857166 -1.430682 0.078013 3.131547 -1.113726 -0.176716
    43 -1.152892 0.000000 0.000001 0.555740 1.186077 0.359454
    44 -0.748465 0.000000 -0.000001 0.001111 0.817920 0.051381
  time 18
    0 5.909814 -15.576885 -5.774339 1.570797 0.000000 -1.570804
    1 -0.144318 2.201124 -0.433554 0.000000 0.000000 0.000000
    2 7.426658 1.822591 0.000000 0.000000 0.000000 0.000000
    3 -3.080630 2.936172 0.000001 0.000000 0.000000 0.000000
    4 1.856765 0.774353 0.000001 0.000000 0.000000 0.000000
    5 -4.289258 1.370559 -0.526311 0.000000 0.000000 0.000000
    6 5.910387 -15.322971 -8.338428 1.570797 0.000000 -1.570804
    7 -6.398894 -4.644634 -8.579020 -3.141592 -1.554543 -3.141640
    8 0.023288 0.041601 0.000000 0.272787 -0.653480 1.221464
    9 -11.072353 -0.043445 -0.000001 0.000000 0.000000 0.803014
    10 -8.108974 0.000001 0.000000 0.038595 0.697137 -0.404582
    11 -0.758957 -0.993292 -0.533610 1.150144 -0.720310 -0.319658
    12 -1.920300 0.000000 0.000000 0.000000 0.000000 -0.398791
    13 -0.858254 0.000000 0.000000 0.000000 0.000000 0.069433
    14 -2.931401 -0.842323 0.160553 0.009761 -1.130650 0.036947
    15 -1.836087 0.000000 0.000000 2.875289 -1.140584 -2.912709
    16 -0.853993 0.000000 0.000000 0.002756 -0.113413 -0.024347
    17 -2.964058 -0.072899 0.178523 -0.249902 -1.090908 0.154708
    18 -1.814736 0.000000 0.000000 2.619960 -1.205565 -2.478694
    19 -0.982325 -0.000001 0.000000 0.000000 -0.095993 -0.021736
    20 -2.910365 0.632510 0.212797 -0.125651 -0.987490 0.222888
    21 -1.751857 0.000000 -0.000001 3.089152 -1.424068 -3.055356
    22 -0.853992 0.000001 0.000000 -0.112170 -0.424833 -0.044433
    23 -2.899449 1.342928 0.078012 -0.089247 -0.937081 0.400139
    24 -1.152891 -0.000001 0.000000 -0.148505 -1.053336 0.063609
    25 -0.748462 0.000001 0.000002 -0.172839 -0.657551 0.233582
    26 7.282036 5.687362 -7.361735 0.000000 -1.557662 -0.000028
    27 0.023288 0.041601 0.000000 -0.006697 0.028584 1.365304
    28 -11.072353 -0.043445 0.000000 0.000000 0.000000 0.542365
    29 -8.108976 0.000001 0.000000 -3.141316 -0.029357 -0.321730
    30 -0.788882 0.969696 -0.533611 2.183871 -0.617208 -0.066701
    31 -1.920301 0.000001 0.000000 0.000000 0.000000 -0.398791
    32 -0.858251 0.000000 0.000000 0.081890 -0.160113 -0.181525
    33 -2.955714 0.752579 0.160553 -3.123752 -0.194109 -0.127606
    34 -1.836088 0.000000 -0.000001 0.431780 1.272550 0.338688
    35 -0.853994 -0.000001 0.000000 0.100992 0.754840 0.041957
    36 -2.964905 -0.017483 0.178523 3.129027 -1.061108 0.202043
    37 -1.814736 0.000000 0.000000 -2.735940 1.256346 -2.700664
    38 -0.982325 0.000000 0.000000 0.000000 0.095993 -0.021736
    39 -2.889733 -0.720928 0.212797 3.052539 -1.118135 0.122346
    40 -1.751859 0.000001 0.000000 -3.087852 1.407961 -3.066026
    41 -0.853992 0.000000 0.000000 0.000000 0.043633 0.000000
    42 -2.857166 -1.430682 0.078013 3.131547 -1.113726 -0.176716
    43 -1.152892 0.000000 0.000001 0.555740 1.186077 0.359454
    44 -0.748465 0.000000 -0.000001 0.001111 0.817920 0.051381
  time 19
    0 5.909814 -15.576885 -5.774339 1.570797 0.000000 -1.570804
    1 -0.144318 2.201124 -0.433554 0.000000 0.000000 0.000000
    2 7.426658 1.822591 0.000000 0.000000 0.000000 0.000000
    3 -3.080630 2.936172 0.000001 0.000000 0.000000 0.000000
    4 1.856765 0.774353 0.000001 0.000000 0.000000 0.000000
    5 -4.289258 1.370559 -0.526311 0.000000 0.000000 0.000000
    6 5.910387 -15.322971 -8.338428 1.570797 0.000000 -1.570804
    7 -6.398894 -4.644634 -8.579020 -3.141592 -1.554543 -3.141640
    8 0.023288 0.041601 0.000000 0.272787 -0.653480 1.221464
    9 -11.072353 -0.043445 -0.000001 0.000000 0.000000 0.803014
    10 -8.108974 0.000001 0.000000 0.038595 0.697137 -0.404582
    11 -0.758957 -0.993292 -0.533610 1.150144 -0.720310 -0.319658
    12 -1.920300 0.000000 0.000000 0.000000 0.000000 -0.398791
    13 -0.858254 0.000000 0.000000 0.000000 0.000000 0.069433
    14 -2.931401 -0.842323 0.160553 0.009761 -1.130650 0.036947
    15 -1.836087 0.000000 0.000000 2.875289 -1.140584 -2.912709
    16 -0.853993 0.000000 0.000000 0.002756 -0.113413 -0.024347
    17 -2.964058 -0.072899 0.178523 -0.249902 -1.090908 0.154708
    18 -1.814736 0.000000 0.000000 2.619960 -1.205565 -2.478694
    19 -0.982325 -0.000001 0.000000 0.000000 -0.095993 -0.021736
    20 -2.910365 0.632510 0.212797 -0.125651 -0.987490 0.222888
    21 -1.751857 0.000000 -0.000001 3.089152 -1.424068 -3.055356
    22 -0.853992 0.000001 0.000000 -0.112170 -0.424833 -0.044433
    23 -2.899449 1.342928 0.078012 -0.089247 -0.937081 0.400139
    24 -1.152891 -0.000001 0.000000 -0.148505 -1.053336 0.063609
    25 -0.748462 0.000001 0.000002 -0.172839 -0.657551 0.233582
    26 7.282036 5.687362 -7.361735 0.000000 -1.557662 -0.000028
    27 0.023288 0.041601 0.000000 -0.006697 0.028584 1.365304
    28 -11.072353 -0.043445 0.000000 0.000000 0.000000 0.542365
    29 -8.108976 0.000001 0.000000 -3.141316 -0.029357 -0.321730
    30 -0.788882 0.969696 -0.533611 2.183871 -0.617208 -0.066701
    31 -1.920301 0.000001 0.000000 0.000000 0.000000 -0.398791
    32 -0.858251 0.000000 0.000000 0.081890 -0.160113 -0.181525
    33 -2.955714 0.752579 0.160553 -3.123752 -0.194109 -0.127606
    34 -1.836088 0.000000 -0.000001 0.431780 1.272550 0.338688
    35 -0.853994 -0.000001 0.000000 0.100992 0.754840 0.041957
    36 -2.964905 -0.017483 0.178523 3.129027 -1.061108 0.202043
    37 -1.814736 0.000000 0.000000 -2.735940 1.256346 -2.700664
    38 -0.982325 0.000000 0.000000 0.000000 0.095993 -0.021736
    39 -2.889733 -0.720928 0.212797 3.052539 -1.118135 0.122346
    40 -1.751859 0.000001 0.000000 -3.087852 1.407961 -3.066026
    41 -0.853992 0.000000 0.000000 0.000000 0.043633 0.000000
    42 -2.857166 -1.430682 0.078013 3.131547 -1.113726 -0.176716
    43 -1.152892 0.000000 0.000001 0.555740 1.186077 0.359454
    44 -0.748465 0.000000 -0.000001 0.001111 0.817920 0.051381
end
