version 1
nodes
  0 "TMP_Body"  -1
  1 "eject"   0
  2 "muzzle"   0
  3 "TMP_pullthis"   0
  4 "TMP_trigger"   0
  5 "TMP_Stock"   0
  6 "TMP_mag"  -1
  7 "L_Armdummy"  -1
  8 "L_Upperarm"   7
  9 "L_Forearm"   8
 10 "L_Wrist"   9
 11 "L_Thumb1"  10
 12 "L_Thumb2"  11
 13 "L_Thumb3"  12
 14 "L_Index1"  10
 15 "L_Index2"  14
 16 "L_Index3"  15
 17 "L_Mid1"  10
 18 "L_Mid2"  17
 19 "L_Mid3"  18
 20 "L_Ring1"  10
 21 "L_Ring2"  20
 22 "L_Ring3"  21
 23 "L_Pinky1"  10
 24 "L_Pinky2"  23
 25 "L_Pinky3"  24
 26 "R_Armdummy"  -1
 27 "R_Upperarm"  26
 28 "R_Forearm"  27
 29 "R_Wrist"  28
 30 "R_Thumb1"  29
 31 "R_Thumb2"  30
 32 "R_Thumb3"  31
 33 "R_Index1"  29
 34 "R_Index2"  33
 35 "R_Index3"  34
 36 "R_Mid1"  29
 37 "R_Mid2"  36
 38 "R_Mid3"  37
 39 "R_Ring1"  29
 40 "R_Ring2"  39
 41 "R_Ring3"  40
 42 "R_Pinky1"  29
 43 "R_Pinky2"  42
 44 "R_Pinky3"  43
 45 "SMDImport"  -1
end
skeleton
time 0
  0 5.909814 -15.576885 -5.774339 -1.570796 -3.141593 1.570789
  1 -0.144319 2.201123 -0.433553 0.000000 -0.000000 0.000000
  2 7.426659 1.822590 0.000000 0.000000 -0.000000 0.000000
  3 -3.080630 2.936172 0.000002 0.000000 -0.000000 0.000000
  4 1.856766 0.774353 0.000002 0.000000 -0.000000 0.000000
  5 -4.289258 1.370559 -0.526310 0.000000 -0.000000 0.000000
  6 5.910387 -15.322971 -8.338428 -1.570796 -3.141593 1.570789
  7 -6.398894 -4.644634 -8.579020 0.000001 -1.587050 -0.000047
  8 0.023288 0.041601 0.000000 0.272787 -0.653480 1.221464
  9 -11.072353 -0.043445 -0.000003 0.000000 -0.000000 0.803014
 10 -8.108974 0.000000 0.000001 0.038595 0.697137 -0.404582
 11 -0.758957 -0.993292 -0.533610 1.150144 -0.720310 -0.319658
 12 -1.920300 0.000001 -0.000001 -0.000000 -0.000000 -0.398791
 13 -0.858253 -0.000000 -0.000001 0.000000 0.000000 0.069433
 14 -2.931404 -0.842323 0.160553 0.009761 -1.130650 0.036947
 15 -1.836088 -0.000002 -0.000001 -0.266304 -2.001009 0.228884
 16 -0.853992 0.000000 0.000000 0.002756 -0.113413 -0.024347
 17 -2.964060 -0.072900 0.178523 -0.249902 -1.090908 0.154708
 18 -1.814734 0.000000 0.000002 -0.521633 -1.936028 0.662899
 19 -0.982325 -0.000001 0.000000 -0.000000 -0.095993 -0.021736
 20 -2.910368 0.632509 0.212797 -0.125651 -0.987490 0.222888
 21 -1.751858 0.000000 0.000000 -0.052441 -1.717525 0.086237
 22 -0.853992 0.000002 0.000001 -0.112170 -0.424833 -0.044433
 23 -2.899448 1.342928 0.078012 -0.089247 -0.937081 0.400139
 24 -1.152894 0.000000 0.000002 -0.148505 -1.053336 0.063609
 25 -0.748462 0.000001 0.000006 -0.172839 -0.657551 0.233582
 26 7.282036 5.687362 -7.361735 0.000000 -1.557662 -0.000028
 27 0.023287 0.041601 0.000000 -0.006697 0.028584 1.365304
 28 -11.072357 -0.043444 -0.000001 -0.000000 -0.000000 0.542365
 29 -8.108981 0.000002 0.000001 -3.141316 -0.029357 -0.321730
 30 -0.788881 0.969696 -0.533611 2.183871 -0.617208 -0.066701
 31 -1.920301 0.000002 0.000000 0.000000 -0.000000 -0.398791
 32 -0.858249 0.000001 0.000000 0.081890 -0.160113 -0.181525
 33 -2.955717 0.752579 0.160553 -3.123752 -0.194109 -0.127606
 34 -1.836090 0.000000 -0.000002 0.431780 1.272550 0.338688
 35 -0.853993 -0.000000 0.000000 0.100992 0.754840 0.041957
 36 -2.964908 -0.017483 0.178524 3.129027 -1.061108 0.202043
 37 -1.814738 -0.000000 -0.000002 0.405653 1.885246 0.440929
 38 -0.982325 0.000000 0.000000 -0.000000 0.095993 -0.021736
 39 -2.889734 -0.720929 0.212797 3.052539 -1.118135 0.122346
 40 -1.751860 0.000001 0.000004 0.053741 1.733631 0.075567
 41 -0.853991 0.000000 0.000001 -0.000000 0.043633 0.000000
 42 -2.857167 -1.430683 0.078013 3.131547 -1.113726 -0.176716
 43 -1.152893 0.000001 0.000001 0.555740 1.186077 0.359454
 44 -0.748466 -0.000000 -0.000001 0.001111 0.817920 0.051381
 45 0.000000 0.000000 0.000000 0.000000 -0.000000 0.000000
time 1
  0 5.909814 -15.576885 -5.774339 -1.570796 -3.141593 1.570789
  1 -0.144319 2.201123 -0.433553 0.000000 -0.000000 0.000000
  2 7.426659 1.822590 0.000000 0.000000 -0.000000 0.000000
  3 -3.080630 2.936172 0.000002 0.000000 -0.000000 0.000000
  4 1.856766 0.774353 0.000002 0.000000 -0.000000 0.000000
  5 -4.289258 1.370559 -0.526310 0.000000 -0.000000 0.000000
  6 5.910387 -15.322971 -8.338428 -1.570796 -3.141593 1.570789
  7 -6.398894 -4.644634 -8.579020 0.000001 -1.587050 -0.000047
  8 0.023288 0.041601 0.000000 0.272787 -0.653480 1.221464
  9 -11.072353 -0.043445 -0.000003 0.000000 -0.000000 0.803014
 10 -8.108974 0.000000 0.000001 0.038595 0.697137 -0.404582
 11 -0.758957 -0.993292 -0.533610 1.150144 -0.720310 -0.319658
 12 -1.920300 0.000001 -0.000001 -0.000000 -0.000000 -0.398791
 13 -0.858253 -0.000000 -0.000001 0.000000 0.000000 0.069433
 14 -2.931404 -0.842323 0.160553 0.009761 -1.130650 0.036947
 15 -1.836088 -0.000002 -0.000001 -0.266304 -2.001009 0.228884
 16 -0.853992 0.000000 0.000000 0.002756 -0.113413 -0.024347
 17 -2.964060 -0.072900 0.178523 -0.249902 -1.090908 0.154708
 18 -1.814734 0.000000 0.000002 -0.521633 -1.936028 0.662899
 19 -0.982325 -0.000001 0.000000 -0.000000 -0.095993 -0.021736
 20 -2.910368 0.632509 0.212797 -0.125651 -0.987490 0.222888
 21 -1.751858 0.000000 0.000000 -0.052441 -1.717525 0.086237
 22 -0.853992 0.000002 0.000001 -0.112170 -0.424833 -0.044433
 23 -2.899448 1.342928 0.078012 -0.089247 -0.937081 0.400139
 24 -1.152894 0.000000 0.000002 -0.148505 -1.053336 0.063609
 25 -0.748462 0.000001 0.000006 -0.172839 -0.657551 0.233582
 26 7.282036 5.687362 -7.361735 0.000000 -1.557662 -0.000028
 27 0.023287 0.041601 0.000000 -0.006697 0.028584 1.365304
 28 -11.072357 -0.043444 -0.000001 -0.000000 -0.000000 0.542365
 29 -8.108981 0.000002 0.000001 -3.141316 -0.029357 -0.321730
 30 -0.788881 0.969696 -0.533611 2.183871 -0.617208 -0.066701
 31 -1.920301 0.000002 0.000000 0.000000 -0.000000 -0.398791
 32 -0.858249 0.000001 0.000000 0.081890 -0.160113 -0.181525
 33 -2.955717 0.752579 0.160553 -3.123752 -0.194109 -0.127606
 34 -1.836090 0.000000 -0.000002 0.431780 1.272550 0.338688
 35 -0.853993 -0.000000 0.000000 0.100992 0.754840 0.041957
 36 -2.964908 -0.017483 0.178524 3.129027 -1.061108 0.202043
 37 -1.814738 -0.000000 -0.000002 0.405653 1.885246 0.440929
 38 -0.982325 0.000000 0.000000 -0.000000 0.095993 -0.021736
 39 -2.889734 -0.720929 0.212797 3.052539 -1.118135 0.122346
 40 -1.751860 0.000001 0.000004 0.053741 1.733631 0.075567
 41 -0.853991 0.000000 0.000001 -0.000000 0.043633 0.000000
 42 -2.857167 -1.430683 0.078013 3.131547 -1.113726 -0.176716
 43 -1.152893 0.000001 0.000001 0.555740 1.186077 0.359454
 44 -0.748466 -0.000000 -0.000001 0.001111 0.817920 0.051381
 45 0.000000 0.000000 0.000000 0.000000 -0.000000 0.000000
time 2
  0 5.909814 -15.576885 -5.774339 -1.570796 -3.141593 1.570789
  1 -0.144319 2.201123 -0.433553 0.000000 -0.000000 0.000000
  2 7.426659 1.822590 0.000000 0.000000 -0.000000 0.000000
  3 -3.080630 2.936172 0.000002 0.000000 -0.000000 0.000000
  4 1.856766 0.774353 0.000002 0.000000 -0.000000 0.000000
  5 -4.289258 1.370559 -0.526310 0.000000 -0.000000 0.000000
  6 5.910387 -15.322971 -8.338428 -1.570796 -3.141593 1.570789
  7 -6.398894 -4.644634 -8.579020 0.000001 -1.587050 -0.000047
  8 0.023288 0.041601 0.000000 0.272787 -0.653480 1.221464
  9 -11.072353 -0.043445 -0.000003 0.000000 -0.000000 0.803014
 10 -8.108974 0.000000 0.000001 0.038595 0.697137 -0.404582
 11 -0.758957 -0.993292 -0.533610 1.150144 -0.720310 -0.319658
 12 -1.920300 0.000001 -0.000001 -0.000000 -0.000000 -0.398791
 13 -0.858253 -0.000000 -0.000001 0.000000 0.000000 0.069433
 14 -2.931404 -0.842323 0.160553 0.009761 -1.130650 0.036947
 15 -1.836088 -0.000002 -0.000001 -0.266304 -2.001009 0.228884
 16 -0.853992 0.000000 0.000000 0.002756 -0.113413 -0.024347
 17 -2.964060 -0.072900 0.178523 -0.249902 -1.090908 0.154708
 18 -1.814734 0.000000 0.000002 -0.521633 -1.936028 0.662899
 19 -0.982325 -0.000001 0.000000 -0.000000 -0.095993 -0.021736
 20 -2.910368 0.632509 0.212797 -0.125651 -0.987490 0.222888
 21 -1.751858 0.000000 0.000000 -0.052441 -1.717525 0.086237
 22 -0.853992 0.000002 0.000001 -0.112170 -0.424833 -0.044433
 23 -2.899448 1.342928 0.078012 -0.089247 -0.937081 0.400139
 24 -1.152894 0.000000 0.000002 -0.148505 -1.053336 0.063609
 25 -0.748462 0.000001 0.000006 -0.172839 -0.657551 0.233582
 26 7.282036 5.687362 -7.361735 0.000000 -1.557662 -0.000028
 27 0.023287 0.041601 0.000000 -0.006697 0.028584 1.365304
 28 -11.072357 -0.043444 -0.000001 -0.000000 -0.000000 0.542365
 29 -8.108981 0.000002 0.000001 -3.141316 -0.029357 -0.321730
 30 -0.788881 0.969696 -0.533611 2.183871 -0.617208 -0.066701
 31 -1.920301 0.000002 0.000000 0.000000 -0.000000 -0.398791
 32 -0.858249 0.000001 0.000000 0.081890 -0.160113 -0.181525
 33 -2.955717 0.752579 0.160553 -3.123752 -0.194109 -0.127606
 34 -1.836090 0.000000 -0.000002 0.234490 1.089250 0.155952
 35 -0.853994 -0.000001 0.000002 0.074434 0.636824 0.021284
 36 -2.964908 -0.017483 0.178524 3.129027 -1.061108 0.202043
 37 -1.814738 -0.000000 -0.000002 0.405653 1.885246 0.440929
 38 -0.982325 0.000000 0.000000 -0.000000 0.095993 -0.021736
 39 -2.889734 -0.720929 0.212797 3.052539 -1.118135 0.122346
 40 -1.751860 0.000001 0.000004 0.053741 1.733631 0.075567
 41 -0.853991 0.000000 0.000001 -0.000000 0.043633 0.000000
 42 -2.857167 -1.430683 0.078013 3.131547 -1.113726 -0.176716
 43 -1.152893 0.000001 0.000001 0.555740 1.186077 0.359454
 44 -0.748466 -0.000000 -0.000001 0.001111 0.817920 0.051381
 45 0.000000 0.000000 0.000000 0.000000 -0.000000 0.000000
time 3
  0 6.054349 -15.576885 -5.680586 1.562648 -0.008086 -1.555888
  1 -0.144318 2.201125 -0.433554 0.000000 -0.000000 0.000000
  2 7.426657 1.822592 0.000001 0.000000 -0.000000 0.000000
  3 -3.080629 2.936173 0.000001 0.000000 -0.000000 0.000000
  4 1.856764 0.774354 0.000000 0.000000 -0.000000 0.000000
  5 -4.289261 1.370559 -0.526311 0.000000 -0.000000 0.000000
  6 6.031484 -15.342502 -8.248581 1.562648 -0.008086 -1.555888
  7 -6.398894 -4.644634 -8.579020 0.000001 -1.587050 -0.000047
  8 0.023288 0.041601 0.000000 0.263858 -0.663383 1.247915
  9 -11.072353 -0.043446 -0.000001 -0.000000 0.000000 0.763410
 10 -8.108975 0.000000 -0.000000 0.043937 0.687365 -0.382726
 11 -0.758959 -0.993292 -0.533610 1.150144 -0.720310 -0.319658
 12 -1.920300 0.000000 0.000000 -0.000000 0.000000 -0.398791
 13 -0.858255 -0.000000 0.000001 0.000000 0.000000 0.069433
 14 -2.931402 -0.842324 0.160553 0.009761 -1.130650 0.036947
 15 -1.836086 -0.000001 0.000006 -0.266303 -2.001009 0.228884
 16 -0.853991 0.000000 0.000000 0.002756 -0.113413 -0.024347
 17 -2.964056 -0.072900 0.178523 -0.249902 -1.090908 0.154708
 18 -1.814737 0.000000 0.000000 -0.521633 -1.936028 0.662899
 19 -0.982321 -0.000001 0.000001 0.000000 -0.095993 -0.021736
 20 -2.910364 0.632508 0.212798 -0.125651 -0.987490 0.222888
 21 -1.751855 -0.000002 0.000001 -0.052440 -1.717525 0.086236
 22 -0.853993 0.000002 0.000001 -0.112170 -0.424833 -0.044433
 23 -2.899448 1.342927 0.078012 -0.089247 -0.937081 0.400139
 24 -1.152889 0.000000 0.000002 -0.148505 -1.053336 0.063609
 25 -0.748461 0.000002 0.000004 -0.172839 -0.657551 0.233582
 26 7.282036 5.687362 -7.361735 0.000000 -1.557662 -0.000028
 27 0.023287 0.041601 0.000000 -0.005558 0.023658 1.368282
 28 -11.072354 -0.043447 0.000000 0.000000 -0.000000 0.543800
 29 -8.108978 0.000000 0.000000 -3.133691 -0.039233 -0.317848
 30 -0.788882 0.969696 -0.533611 2.183871 -0.617208 -0.066701
 31 -1.920303 0.000001 -0.000000 -0.000000 -0.000000 -0.398791
 32 -0.858251 0.000000 0.000000 0.081890 -0.160113 -0.181525
 33 -2.955715 0.752578 0.160553 -3.123752 -0.194109 -0.127606
 34 -1.836088 0.000000 -0.000001 0.133693 0.875697 0.072291
 35 -0.853993 -0.000001 0.000000 0.050321 0.504446 0.004182
 36 -2.964905 -0.017483 0.178524 3.129027 -1.061108 0.202043
 37 -1.814737 -0.000001 -0.000002 0.405653 1.885246 0.440929
 38 -0.982327 0.000000 0.000001 -0.000000 0.095993 -0.021736
 39 -2.889733 -0.720928 0.212797 3.052539 -1.118135 0.122346
 40 -1.751859 0.000001 0.000000 0.053741 1.733631 0.075567
 41 -0.853994 0.000000 0.000000 0.000000 0.043633 0.000000
 42 -2.857166 -1.430682 0.078013 3.131547 -1.113726 -0.176716
 43 -1.152892 0.000001 0.000003 0.555740 1.186077 0.359454
 44 -0.748464 -0.000000 0.000000 0.001111 0.817920 0.051381
 45 0.000000 0.000000 0.000000 0.000000 -0.000000 0.000000
time 4
  0 6.152008 -15.576885 -5.618084 1.557223 -0.012636 -1.545918
  1 -0.144318 2.201125 -0.433554 0.000000 -0.000000 0.000000
  2 7.426659 1.822592 0.000000 0.000000 -0.000000 0.000000
  3 -3.080630 2.936173 0.000001 0.000000 -0.000000 0.000000
  4 1.856766 0.774354 0.000000 0.000000 -0.000000 0.000000
  5 -4.289258 1.370559 -0.526311 0.000000 -0.000000 0.000000
  6 6.113518 -15.354221 -8.186079 1.557223 -0.012636 -1.545918
  7 -6.398894 -4.644634 -8.579020 0.000001 -1.587050 -0.000047
  8 0.023288 0.041601 0.000000 0.257411 -0.670020 1.265944
  9 -11.072353 -0.043444 -0.000000 0.000000 -0.000000 0.736231
 10 -8.108976 -0.000003 -0.000000 0.046885 0.680862 -0.368537
 11 -0.758955 -0.993292 -0.533610 1.150144 -0.720310 -0.319658
 12 -1.920300 0.000000 0.000000 -0.000000 -0.000000 -0.398791
 13 -0.858257 0.000000 0.000000 0.000000 -0.000000 0.069433
 14 -2.931404 -0.842323 0.160553 0.009761 -1.130650 0.036947
 15 -1.836087 0.000000 0.000001 -0.266304 -2.001009 0.228884
 16 -0.853996 0.000000 0.000000 0.002756 -0.113413 -0.024347
 17 -2.964062 -0.072899 0.178524 -0.249902 -1.090908 0.154708
 18 -1.814734 0.000000 0.000000 -0.521632 -1.936028 0.662898
 19 -0.982325 -0.000001 0.000000 -0.000000 -0.095993 -0.021736
 20 -2.910368 0.632509 0.212796 -0.125651 -0.987490 0.222888
 21 -1.751853 0.000000 0.000001 -0.052441 -1.717525 0.086237
 22 -0.853993 0.000002 0.000000 -0.112170 -0.424833 -0.044433
 23 -2.899452 1.342928 0.078012 -0.089247 -0.937081 0.400139
 24 -1.152892 0.000000 -0.000001 -0.148505 -1.053336 0.063609
 25 -0.748462 0.000001 0.000002 -0.172839 -0.657551 0.233582
 26 7.282036 5.687362 -7.361735 0.000000 -1.557662 -0.000028
 27 0.023287 0.041601 0.000000 -0.004827 0.020363 1.370434
 28 -11.072355 -0.043445 0.000000 0.000000 0.000000 0.544708
 29 -8.108977 0.000001 -0.000000 -3.128626 -0.045830 -0.316190
 30 -0.788881 0.969697 -0.533610 2.183871 -0.617208 -0.066701
 31 -1.920300 0.000001 0.000000 -0.000000 0.000000 -0.398791
 32 -0.858253 0.000000 0.000000 0.081890 -0.160113 -0.181525
 33 -2.955714 0.752579 0.160554 3.130322 -0.124514 -0.091221
 34 -1.836092 0.000000 -0.000002 0.074516 0.659259 0.031688
 35 -0.853993 -0.000001 0.000002 0.030091 0.371806 -0.008474
 36 -2.964904 -0.017483 0.178524 3.129027 -1.061108 0.202043
 37 -1.814735 -0.000001 0.000000 0.405653 1.885247 0.440929
 38 -0.982323 0.000000 0.000000 0.000000 0.095993 -0.021736
 39 -2.889731 -0.720929 0.212798 3.052539 -1.118135 0.122346
 40 -1.751860 0.000002 0.000000 0.053741 1.733631 0.075567
 41 -0.853994 -0.000000 -0.000001 -0.000000 0.043633 -0.000000
 42 -2.857164 -1.430683 0.078013 3.131547 -1.113726 -0.176716
 43 -1.152893 -0.000001 0.000002 0.555740 1.186077 0.359454
 44 -0.748462 0.000001 -0.000002 0.001111 0.817920 0.051381
 45 0.000000 0.000000 0.000000 0.000000 -0.000000 0.000000
time 5
  0 6.202791 -15.576885 -5.586833 1.554500 -0.013670 -1.540972
  1 -0.144319 2.201124 -0.433555 -0.000000 0.000000 -0.000000
  2 7.426658 1.822591 -0.000001 -0.000000 0.000000 -0.000000
  3 -3.080633 2.936172 0.000001 -0.000000 0.000000 -0.000000
  4 1.856765 0.774352 0.000000 -0.000000 0.000000 -0.000000
  5 -4.289259 1.370559 -0.526312 -0.000000 0.000000 -0.000000
  6 6.152581 -15.358128 -8.154828 1.554500 -0.013670 -1.540972
  7 -6.398894 -4.644634 -8.579020 0.000001 -1.587050 -0.000047
  8 0.023288 0.041601 0.000000 0.254223 -0.673339 1.274662
  9 -11.072353 -0.043445 -0.000001 -0.000000 0.000000 0.722863
 10 -8.108974 0.000002 -0.000001 0.047499 0.677750 -0.362873
 11 -0.758955 -0.993293 -0.533609 1.150144 -0.720310 -0.319658
 12 -1.920301 0.000001 -0.000001 -0.000000 0.000000 -0.398791
 13 -0.858252 0.000000 0.000000 0.000000 0.000000 0.069433
 14 -2.931402 -0.842323 0.160553 0.009761 -1.130650 0.036947
 15 -1.836089 0.000000 -0.000001 -0.266303 -2.001009 0.228884
 16 -0.853992 0.000000 0.000000 0.002756 -0.113413 -0.024347
 17 -2.964056 -0.072899 0.178524 -0.249902 -1.090908 0.154708
 18 -1.814738 0.000000 -0.000002 -0.521633 -1.936028 0.662898
 19 -0.982323 0.000000 0.000001 0.000000 -0.095993 -0.021736
 20 -2.910366 0.632511 0.212797 -0.125651 -0.987490 0.222888
 21 -1.751857 -0.000001 0.000000 -0.052441 -1.717524 0.086237
 22 -0.853991 0.000002 0.000001 -0.112170 -0.424833 -0.044433
 23 -2.899450 1.342929 0.078012 -0.089247 -0.937081 0.400139
 24 -1.152891 -0.000004 0.000000 -0.148505 -1.053336 0.063609
 25 -0.748463 0.000000 0.000002 -0.172839 -0.657551 0.233582
 26 7.282036 5.687362 -7.361735 0.000000 -1.557662 -0.000028
 27 0.023287 0.041601 0.000000 -0.004432 0.018721 1.371535
 28 -11.072353 -0.043446 0.000000 -0.000000 -0.000000 0.545533
 29 -8.108977 0.000001 -0.000001 -3.126094 -0.049150 -0.317009
 30 -0.788880 0.969696 -0.533611 2.183871 -0.617208 -0.066701
 31 -1.920300 0.000000 -0.000000 0.000000 -0.000000 -0.398791
 32 -0.858251 -0.000001 -0.000000 0.081890 -0.160113 -0.181525
 33 -2.955714 0.752579 0.160554 3.101092 -0.045812 -0.053314
 34 -1.836088 -0.000000 -0.000001 0.036417 0.464630 0.011892
 35 -0.853995 -0.000001 0.000000 0.014188 0.252978 -0.016995
 36 -2.964906 -0.017483 0.178523 3.129027 -1.061108 0.202043
 37 -1.814737 0.000001 0.000000 0.405653 1.885246 0.440929
 38 -0.982327 0.000000 -0.000000 0.000000 0.095993 -0.021736
 39 -2.889734 -0.720929 0.212798 3.052539 -1.118135 0.122346
 40 -1.751859 0.000001 -0.000002 0.053741 1.733631 0.075567
 41 -0.853992 0.000000 -0.000001 -0.000000 0.043633 -0.000000
 42 -2.857165 -1.430681 0.078014 3.131547 -1.113726 -0.176716
 43 -1.152892 0.000002 0.000003 0.555740 1.186077 0.359454
 44 -0.748463 -0.000001 0.000000 0.001111 0.817920 0.051381
 45 0.000000 0.000000 0.000000 0.000000 -0.000000 0.000000
time 6
  0 6.202791 -15.576885 -5.586833 1.554500 -0.011188 -1.540972
  1 -0.144318 2.201124 -0.433554 0.000000 -0.000000 -0.000000
  2 7.426660 1.822592 0.000000 0.000000 -0.000000 -0.000000
  3 -3.080628 2.936172 0.000001 0.000000 -0.000000 -0.000000
  4 1.856769 0.774353 0.000000 0.000000 -0.000000 -0.000000
  5 -4.289258 1.370560 -0.526311 0.000000 -0.000000 -0.000000
  6 6.152581 -15.354221 -8.154828 1.554500 -0.011188 -1.540972
  7 -6.398894 -4.644634 -8.579020 0.000001 -1.587050 -0.000047
  8 0.023288 0.041601 0.000000 0.254606 -0.673374 1.273687
  9 -11.072353 -0.043446 -0.000003 -0.000000 -0.000000 0.723866
 10 -8.108976 0.000002 -0.000001 0.045841 0.677999 -0.366077
 11 -0.758955 -0.993291 -0.533610 1.150144 -0.720310 -0.319658
 12 -1.920298 0.000000 -0.000002 -0.000000 -0.000000 -0.398791
 13 -0.858255 0.000001 -0.000001 0.000000 -0.000000 0.069433
 14 -2.931398 -0.842322 0.160553 0.009761 -1.130650 0.036947
 15 -1.836087 0.000000 0.000000 -0.266303 -2.001009 0.228884
 16 -0.853992 -0.000001 0.000001 0.002756 -0.113413 -0.024347
 17 -2.964056 -0.072898 0.178523 -0.249902 -1.090908 0.154708
 18 -1.814736 0.000000 0.000004 -0.521632 -1.936028 0.662898
 19 -0.982325 -0.000002 -0.000001 -0.000000 -0.095993 -0.021736
 20 -2.910362 0.632511 0.212797 -0.125651 -0.987490 0.222888
 21 -1.751860 0.000000 -0.000001 -0.052441 -1.717524 0.086237
 22 -0.853993 0.000001 0.000001 -0.112170 -0.424833 -0.044433
 23 -2.899448 1.342929 0.078012 -0.089247 -0.937081 0.400139
 24 -1.152891 -0.000002 0.000001 -0.148505 -1.053336 0.063609
 25 -0.748461 -0.000001 0.000004 -0.172839 -0.657551 0.233582
 26 7.282036 5.687362 -7.361735 0.000000 -1.557662 -0.000028
 27 0.023287 0.041601 0.000000 -0.004444 0.018733 1.371497
 28 -11.072354 -0.043445 0.000000 -0.000000 -0.000000 0.546539
 29 -8.108979 0.000001 0.000000 -3.125979 -0.049192 -0.320481
 30 -0.788881 0.969696 -0.533611 2.183871 -0.617208 -0.066701
 31 -1.920301 0.000002 -0.000000 -0.000000 0.000000 -0.398791
 32 -0.858252 -0.000001 -0.000000 0.081890 -0.160113 -0.181525
 33 -2.955714 0.752579 0.160553 3.076152 0.029787 -0.019517
 34 -1.836087 0.000000 -0.000001 0.012110 0.315614 0.003078
 35 -0.853994 -0.000001 -0.000002 0.002994 0.162158 -0.022065
 36 -2.964905 -0.017483 0.178523 3.129027 -1.061108 0.202043
 37 -1.814737 -0.000000 -0.000002 0.405653 1.885246 0.440928
 38 -0.982323 0.000000 0.000000 0.000000 0.095993 -0.021736
 39 -2.889733 -0.720929 0.212798 3.052539 -1.118135 0.122346
 40 -1.751859 0.000001 0.000000 0.053741 1.733631 0.075567
 41 -0.853991 0.000000 0.000001 0.000000 0.043633 -0.000000
 42 -2.857165 -1.430682 0.078013 3.131547 -1.113726 -0.176716
 43 -1.152892 0.000001 0.000000 0.555740 1.186077 0.359454
 44 -0.748465 0.000000 -0.000002 0.001111 0.817920 0.051381
 45 0.000000 0.000000 0.000000 0.000000 -0.000000 0.000000
time 7
  0 6.152008 -15.576885 -5.618084 1.557223 -0.005149 -1.545918
  1 -0.144318 2.201124 -0.433553 0.000000 -0.000000 0.000000
  2 7.426658 1.822591 0.000001 0.000000 -0.000000 0.000000
  3 -3.080630 2.936172 0.000001 0.000000 -0.000000 0.000000
  4 1.856765 0.774353 0.000001 0.000000 -0.000000 0.000000
  5 -4.289258 1.370559 -0.526310 0.000000 -0.000000 0.000000
  6 6.113518 -15.338596 -8.186079 1.557223 -0.005170 -1.545918
  7 -6.398894 -4.644634 -8.579020 0.000001 -1.587050 -0.000047
  8 0.023288 0.041601 0.000000 0.258561 -0.670109 1.263018
  9 -11.072352 -0.043448 0.000000 0.000000 -0.000000 0.739182
 10 -8.108976 -0.000001 0.000000 0.041911 0.681608 -0.378149
 11 -0.758955 -0.993293 -0.533611 1.150144 -0.720310 -0.319658
 12 -1.920301 0.000000 0.000001 0.000000 0.000000 -0.398791
 13 -0.858252 -0.000001 -0.000001 -0.000000 0.000000 0.069433
 14 -2.931398 -0.842323 0.160553 0.009761 -1.130650 0.036947
 15 -1.836090 0.000001 -0.000003 -0.266304 -2.001009 0.228884
 16 -0.853992 0.000000 -0.000001 0.002756 -0.113413 -0.024347
 17 -2.964056 -0.072901 0.178524 -0.249902 -1.090908 0.154708
 18 -1.814737 0.000000 0.000000 -0.521633 -1.936028 0.662898
 19 -0.982325 0.000000 0.000001 0.000000 -0.095993 -0.021736
 20 -2.910364 0.632510 0.212797 -0.125651 -0.987490 0.222888
 21 -1.751859 0.000000 -0.000001 -0.052441 -1.717525 0.086237
 22 -0.853993 0.000001 0.000000 -0.112170 -0.424833 -0.044433
 23 -2.899448 1.342928 0.078013 -0.089247 -0.937081 0.400139
 24 -1.152893 -0.000002 0.000000 -0.148505 -1.053336 0.063609
 25 -0.748462 0.000001 0.000006 -0.172839 -0.657551 0.233582
 26 7.282036 5.687362 -7.361735 0.000000 -1.557662 -0.000028
 27 0.023287 0.041601 0.000000 -0.004839 0.020387 1.370334
 28 -11.072355 -0.043447 -0.000001 0.000000 0.000000 0.547694
 29 -8.108978 0.000000 0.000000 -3.128281 -0.045956 -0.326548
 30 -0.788881 0.969696 -0.533610 2.183871 -0.617208 -0.066701
 31 -1.920304 0.000000 0.000000 -0.000000 0.000000 -0.398791
 32 -0.858251 0.000000 -0.000001 0.081890 -0.160113 -0.181525
 33 -2.955713 0.752579 0.160554 3.058331 0.089566 0.005735
 34 -1.836088 0.000000 -0.000001 0.000030 0.235632 0.000044
 35 -0.853992 -0.000000 0.000000 -0.002747 0.113420 -0.024342
 36 -2.964906 -0.017482 0.178524 3.129027 -1.061108 0.202043
 37 -1.814736 0.000000 0.000004 0.405653 1.885246 0.440929
 38 -0.982328 0.000001 0.000000 0.000000 0.095993 -0.021736
 39 -2.889733 -0.720929 0.212798 3.052539 -1.118135 0.122346
 40 -1.751861 0.000001 -0.000002 0.053741 1.733631 0.075567
 41 -0.853992 0.000000 -0.000001 -0.000000 0.043633 -0.000000
 42 -2.857167 -1.430684 0.078014 3.131547 -1.113726 -0.176716
 43 -1.152892 0.000000 0.000000 0.555740 1.186077 0.359454
 44 -0.748465 -0.000001 -0.000001 0.001111 0.817920 0.051381
 45 0.000000 0.000000 0.000000 0.000000 -0.000000 0.000000
time 8
  0 6.054349 -15.576885 -5.680586 1.562648 0.004364 -1.555888
  1 -0.144318 2.201124 -0.433553 0.000000 0.000000 -0.000000
  2 7.426661 1.822591 0.000000 0.000000 0.000000 -0.000000
  3 -3.080630 2.936172 0.000001 0.000000 0.000000 -0.000000
  4 1.856767 0.774353 0.000001 0.000000 0.000000 -0.000000
  5 -4.289259 1.370559 -0.526310 0.000000 0.000000 -0.000000
  6 6.031484 -15.311251 -8.244675 1.562648 0.004364 -1.555888
  7 -6.398894 -4.644634 -8.579020 0.000001 -1.587050 -0.000047
  8 0.023288 0.041601 0.000000 0.265716 -0.663542 1.243098
  9 -11.072353 -0.043444 -0.000002 0.000000 -0.000000 0.768191
 10 -8.108975 0.000000 -0.000001 0.035647 0.688610 -0.398803
 11 -0.758957 -0.993292 -0.533610 1.150144 -0.720310 -0.319658
 12 -1.920301 0.000001 0.000001 -0.000000 -0.000000 -0.398791
 13 -0.858259 0.000000 0.000000 0.000000 0.000000 0.069433
 14 -2.931402 -0.842323 0.160553 0.009761 -1.130650 0.036947
 15 -1.836087 0.000001 0.000001 -0.266304 -2.001009 0.228884
 16 -0.853992 0.000000 0.000000 0.002756 -0.113413 -0.024347
 17 -2.964060 -0.072898 0.178523 -0.249902 -1.090908 0.154708
 18 -1.814735 0.000001 0.000002 -0.521633 -1.936028 0.662899
 19 -0.982321 -0.000002 0.000000 0.000000 -0.095993 -0.021736
 20 -2.910368 0.632511 0.212798 -0.125651 -0.987490 0.222888
 21 -1.751857 0.000000 -0.000002 -0.052441 -1.717524 0.086237
 22 -0.853992 0.000002 -0.000001 -0.112170 -0.424833 -0.044433
 23 -2.899450 1.342929 0.078012 -0.089247 -0.937081 0.400139
 24 -1.152890 0.000000 0.000001 -0.148505 -1.053336 0.063609
 25 -0.748462 0.000001 0.000002 -0.172839 -0.657551 0.233582
 26 7.282036 5.687362 -7.361735 0.000000 -1.557662 -0.000028
 27 0.023287 0.041601 0.000000 -0.005654 0.023682 1.368157
 28 -11.072353 -0.043447 0.000001 -0.000000 0.000000 0.548701
 29 -8.108977 0.000004 0.000000 -3.133115 -0.039441 -0.335093
 30 -0.788880 0.969695 -0.533610 2.183871 -0.617208 -0.066701
 31 -1.920302 0.000003 0.000000 0.000000 -0.000000 -0.398791
 32 -0.858252 0.000001 0.000000 0.081890 -0.160113 -0.181525
 33 -2.955714 0.752579 0.160553 3.049678 0.120606 0.018414
 34 -1.836086 0.000000 -0.000000 -0.005300 0.199269 -0.001016
 35 -0.853994 0.000000 0.000000 -0.005311 0.091258 -0.025277
 36 -2.964906 -0.017484 0.178524 3.129027 -1.061108 0.202043
 37 -1.814736 -0.000000 0.000002 0.405653 1.885246 0.440929
 38 -0.982325 0.000000 0.000000 0.000000 0.095993 -0.021736
 39 -2.889733 -0.720929 0.212798 3.052539 -1.118135 0.122346
 40 -1.751858 0.000001 0.000000 0.053741 1.733631 0.075567
 41 -0.853992 0.000000 -0.000001 0.000000 0.043633 0.000000
 42 -2.857168 -1.430682 0.078013 3.131547 -1.113726 -0.176716
 43 -1.152892 -0.000001 0.000001 0.555740 1.186077 0.359454
 44 -0.748466 0.000000 -0.000001 0.001111 0.817920 0.051381
 45 0.000000 0.000000 0.000000 0.000000 -0.000000 0.000000
time 9
  0 5.909814 -15.576885 -5.774339 -1.570796 3.124159 1.570789
  1 -0.144319 2.201124 -0.433554 0.000000 0.000000 0.000000
  2 7.426660 1.822591 -0.000001 0.000000 0.000000 0.000000
  3 -3.080628 2.936172 0.000001 0.000000 0.000000 0.000000
  4 1.856769 0.774354 0.000001 0.000000 0.000000 0.000000
  5 -4.289258 1.370560 -0.526311 0.000000 0.000000 0.000000
  6 5.910387 -15.276094 -8.334521 -1.570796 3.124159 1.570789
  7 -6.398894 -4.644634 -8.579020 0.000001 -1.587050 -0.000047
  8 0.023288 0.041601 0.000000 0.275220 -0.653745 1.214992
  9 -11.072353 -0.043446 -0.000002 0.000000 0.000000 0.809241
 10 -8.108974 0.000001 -0.000003 0.026621 0.698942 -0.426953
 11 -0.758959 -0.993292 -0.533609 1.150144 -0.720310 -0.319658
 12 -1.920301 -0.000001 0.000000 0.000000 0.000000 -0.398791
 13 -0.858252 0.000000 0.000000 0.000000 -0.000000 0.069433
 14 -2.931400 -0.842324 0.160553 0.009761 -1.130650 0.036947
 15 -1.836087 0.000000 -0.000002 -0.266304 -2.001009 0.228884
 16 -0.853992 0.000001 0.000000 0.002756 -0.113413 -0.024347
 17 -2.964058 -0.072899 0.178523 -0.249902 -1.090908 0.154708
 18 -1.814735 0.000000 0.000000 -0.521633 -1.936028 0.662898
 19 -0.982325 -0.000001 0.000000 -0.000000 -0.095993 -0.021736
 20 -2.910364 0.632509 0.212797 -0.125651 -0.987490 0.222888
 21 -1.751858 0.000000 -0.000001 -0.052441 -1.717525 0.086237
 22 -0.853992 0.000002 -0.000001 -0.112170 -0.424833 -0.044433
 23 -2.899450 1.342928 0.078012 -0.089247 -0.937081 0.400139
 24 -1.152891 0.000000 0.000001 -0.148505 -1.053336 0.063609
 25 -0.748461 0.000002 0.000002 -0.172839 -0.657551 0.233582
 26 6.391384 5.687362 -7.646900 0.000000 -1.557662 -0.000028
 27 0.023288 0.041601 -0.000001 0.004245 -0.018108 1.382408
 28 -11.072355 -0.043444 0.000001 -0.000000 0.000000 0.546721
 29 -8.108978 0.000001 -0.000001 3.140776 0.018351 -0.360609
 30 -0.788881 0.969697 -0.533612 2.183871 -0.617208 -0.066701
 31 -1.920300 0.000003 -0.000001 0.000000 0.000000 -0.398791
 32 -0.858250 0.000001 0.000000 0.081890 -0.160113 -0.181525
 33 -2.955714 0.752579 0.160553 3.046466 0.132507 0.023196
 34 -1.836088 0.000000 -0.000002 -0.010142 0.165664 -0.001786
 35 -0.853994 -0.000001 0.000000 -0.007660 0.070789 -0.026092
 36 -2.964905 -0.017483 0.178524 3.129027 -1.061108 0.202043
 37 -1.814735 0.000001 0.000002 0.405653 1.885247 0.440928
 38 -0.982327 0.000000 0.000000 -0.000000 0.095993 -0.021736
 39 -2.889733 -0.720929 0.212797 3.052539 -1.118135 0.122346
 40 -1.751860 0.000001 0.000000 0.053741 1.733631 0.075567
 41 -0.853989 0.000000 -0.000000 0.000000 0.043633 0.000000
 42 -2.857164 -1.430682 0.078013 3.131547 -1.113726 -0.176716
 43 -1.152892 -0.000001 0.000002 0.555740 1.186077 0.359454
 44 -0.748466 0.000001 0.000000 0.001111 0.817920 0.051381
 45 0.000000 0.000000 0.000000 0.000000 -0.000000 0.000000
time 10
  0 5.671525 -15.576885 -5.887624 -1.559306 3.103189 1.544547
  1 -0.144318 2.201123 -0.433554 0.000000 0.000000 0.000000
  2 7.426663 1.822590 0.000000 0.000000 0.000000 0.000000
  3 -3.080630 2.936172 0.000001 0.000000 0.000000 0.000000
  4 1.856767 0.774352 0.000001 0.000000 0.000000 0.000000
  5 -4.289258 1.370558 -0.526310 0.000000 0.000000 0.000000
  6 5.711162 -15.225311 -8.439993 -1.559306 3.103189 1.544547
  7 -6.398894 -4.644634 -8.579020 0.000001 -1.587050 -0.000047
  8 0.023288 0.041601 0.000000 0.288319 -0.637557 1.174827
  9 -11.072350 -0.043447 -0.000002 -0.000000 -0.000000 0.872099
 10 -8.108973 0.000004 -0.000001 0.011023 0.716960 -0.474039
 11 -0.758955 -0.993292 -0.533610 1.150144 -0.720310 -0.319658
 12 -1.920300 0.000000 0.000000 -0.000000 0.000000 -0.398791
 13 -0.858252 0.000000 0.000001 -0.000000 -0.000000 0.069433
 14 -2.931400 -0.842323 0.160553 0.009761 -1.130650 0.036947
 15 -1.836084 0.000000 0.000000 -0.266303 -2.001009 0.228884
 16 -0.853996 -0.000001 -0.000000 0.002756 -0.113413 -0.024347
 17 -2.964056 -0.072899 0.178524 -0.249902 -1.090908 0.154708
 18 -1.814735 0.000000 -0.000004 -0.521633 -1.936028 0.662898
 19 -0.982325 -0.000002 0.000001 0.000000 -0.095993 -0.021736
 20 -2.910364 0.632510 0.212797 -0.125651 -0.987490 0.222888
 21 -1.751856 0.000000 -0.000001 -0.052441 -1.717524 0.086237
 22 -0.853990 0.000002 0.000000 -0.112170 -0.424833 -0.044433
 23 -2.899450 1.342926 0.078012 -0.089247 -0.937081 0.400139
 24 -1.152892 -0.000002 -0.000001 -0.148505 -1.053336 0.063609
 25 -0.748464 0.000000 0.000002 -0.172839 -0.657551 0.233582
 26 5.555421 5.687362 -7.951597 0.000000 -1.557662 -0.000028
 27 0.023289 0.041601 0.000000 0.012370 -0.053978 1.403628
 28 -11.072355 -0.043446 0.000000 -0.000000 0.000000 0.529727
 29 -8.108980 0.000001 -0.000000 3.124950 0.081091 -0.386632
 30 -0.788883 0.969696 -0.533611 2.183871 -0.617208 -0.066701
 31 -1.920300 0.000003 0.000000 -0.000000 -0.000000 -0.398791
 32 -0.858250 0.000000 -0.000001 0.081890 -0.160113 -0.181525
 33 -2.955716 0.752579 0.160553 3.043578 0.143425 0.027558
 34 -1.836088 0.000000 -0.000001 -0.014544 0.134987 -0.002364
 35 -0.853996 -0.000001 -0.000000 -0.009794 0.052086 -0.026787
 36 -2.964907 -0.017483 0.178523 3.129027 -1.061108 0.202043
 37 -1.814735 -0.000001 -0.000004 0.405653 1.885246 0.440928
 38 -0.982325 0.000000 0.000000 0.000000 0.095993 -0.021736
 39 -2.889735 -0.720929 0.212798 3.052539 -1.118135 0.122346
 40 -1.751860 0.000000 0.000000 0.053741 1.733631 0.075567
 41 -0.853991 0.000000 0.000000 0.000000 0.043633 0.000000
 42 -2.857168 -1.430682 0.078013 3.131547 -1.113726 -0.176716
 43 -1.152892 0.000000 0.000002 0.555740 1.186077 0.359454
 44 -0.748465 0.000000 0.000000 0.001111 0.817920 0.051381
 45 0.000000 0.000000 0.000000 0.000000 -0.000000 0.000000
time 11
  0 5.308233 -15.576885 -6.020440 -1.543988 3.071300 1.502670
  1 -0.144316 2.201124 -0.433555 0.000000 0.000000 0.000000
  2 7.426665 1.822590 0.000000 0.000000 0.000000 0.000000
  3 -3.080630 2.936173 0.000001 0.000000 0.000000 0.000000
  4 1.856769 0.774353 0.000001 0.000000 0.000000 0.000000
  5 -4.289258 1.370559 -0.526312 0.000000 0.000000 0.000000
  6 5.406465 -15.147184 -8.561091 -1.543988 3.071300 1.502670
  7 -6.398894 -4.644634 -8.579020 0.000001 -1.587050 -0.000047
  8 0.023288 0.041601 0.000000 0.303971 -0.612932 1.122072
  9 -11.072356 -0.043445 0.000000 -0.000000 -0.000000 0.960720
 10 -8.108978 0.000003 0.000000 -0.015382 0.745559 -0.546815
 11 -0.758957 -0.993292 -0.533610 1.150144 -0.720310 -0.319658
 12 -1.920301 0.000001 0.000001 0.000000 0.000000 -0.398791
 13 -0.858253 -0.000000 0.000000 -0.000000 0.000000 0.069433
 14 -2.931400 -0.842322 0.160554 0.009761 -1.130650 0.036947
 15 -1.836088 0.000000 0.000005 -0.266303 -2.001009 0.228884
 16 -0.853994 0.000001 0.000001 0.002756 -0.113413 -0.024347
 17 -2.964062 -0.072898 0.178523 -0.249902 -1.090908 0.154708
 18 -1.814736 0.000001 0.000000 -0.521633 -1.936028 0.662899
 19 -0.982325 -0.000001 0.000000 0.000000 -0.095993 -0.021736
 20 -2.910366 0.632509 0.212797 -0.125651 -0.987490 0.222888
 21 -1.751856 0.000000 -0.000002 -0.052441 -1.717524 0.086237
 22 -0.853994 0.000001 0.000000 -0.112170 -0.424833 -0.044433
 23 -2.899450 1.342928 0.078013 -0.089247 -0.937081 0.400139
 24 -1.152891 0.000000 0.000003 -0.148505 -1.053336 0.063609
 25 -0.748461 0.000001 0.000004 -0.172839 -0.657551 0.233582
 26 4.770240 5.687362 -8.275825 0.000000 -1.557662 -0.000028
 27 0.023288 0.041601 -0.000001 0.017943 -0.082981 1.432156
 28 -11.072351 -0.043444 0.000000 -0.000000 -0.000000 0.499187
 29 -8.108977 0.000001 0.000000 3.099858 0.151661 -0.418586
 30 -0.788881 0.969696 -0.533610 2.183871 -0.617208 -0.066701
 31 -1.920299 0.000001 0.000000 -0.000000 -0.000000 -0.398791
 32 -0.858252 0.000001 -0.000001 0.081890 -0.160113 -0.181525
 33 -2.955715 0.752580 0.160554 3.040989 0.153324 0.031489
 34 -1.836090 0.000000 -0.000001 -0.018505 0.107280 -0.002750
 35 -0.853996 -0.000000 0.000000 -0.011699 0.035220 -0.027386
 36 -2.964905 -0.017483 0.178524 3.129027 -1.061108 0.202043
 37 -1.814735 0.000001 0.000000 0.405653 1.885247 0.440928
 38 -0.982325 0.000000 0.000001 0.000000 0.095993 -0.021736
 39 -2.889734 -0.720928 0.212798 3.052539 -1.118135 0.122346
 40 -1.751858 0.000000 -0.000004 0.053741 1.733631 0.075567
 41 -0.853992 0.000000 0.000000 -0.000000 0.043633 -0.000000
 42 -2.857166 -1.430682 0.078013 3.131547 -1.113726 -0.176716
 43 -1.152893 0.000002 0.000001 0.555740 1.186077 0.359454
 44 -0.748466 0.000000 -0.000001 0.001111 0.817920 0.051381
 45 0.000000 0.000000 0.000000 0.000000 -0.000000 0.000000
time 12
  0 4.839468 -15.576885 -6.176695 -1.525181 3.030518 1.447952
  1 -0.144319 2.201125 -0.433554 0.000000 0.000000 0.000000
  2 7.426657 1.822591 0.000001 0.000000 0.000000 0.000000
  3 -3.080631 2.936173 0.000002 0.000000 0.000000 0.000000
  4 1.856766 0.774354 0.000001 0.000000 0.000000 0.000000
  5 -4.289256 1.370560 -0.526310 0.000000 0.000000 0.000000
  6 5.019734 -15.057337 -8.693907 -1.525181 3.030518 1.447952
  7 -7.527835 -4.644634 -9.063409 0.000001 -1.587050 -0.000047
  8 0.023288 0.041601 0.000000 0.302629 -0.647425 1.159902
  9 -11.072353 -0.043444 -0.000002 0.000000 -0.000000 0.894114
 10 -8.108973 -0.000001 -0.000001 -0.089009 0.832258 -0.588982
 11 -0.758955 -0.993293 -0.533610 1.150144 -0.720310 -0.319658
 12 -1.920301 -0.000002 -0.000001 0.000000 0.000000 -0.398791
 13 -0.858255 0.000000 0.000000 0.000000 0.000000 0.069433
 14 -2.931402 -0.842323 0.160555 0.009761 -1.130650 0.036947
 15 -1.836088 -0.000001 -0.000002 -0.266304 -2.001009 0.228884
 16 -0.853992 0.000000 0.000001 0.002756 -0.113413 -0.024347
 17 -2.964060 -0.072900 0.178525 -0.249902 -1.090908 0.154708
 18 -1.814736 -0.000000 -0.000002 -0.521633 -1.936028 0.662899
 19 -0.982325 0.000000 0.000000 0.000000 -0.095993 -0.021736
 20 -2.910364 0.632510 0.212799 -0.125651 -0.987490 0.222888
 21 -1.751855 -0.000001 -0.000004 -0.052441 -1.717524 0.086237
 22 -0.853992 0.000001 0.000001 -0.112170 -0.424833 -0.044433
 23 -2.899446 1.342927 0.078013 -0.089247 -0.937081 0.400139
 24 -1.152889 -0.000002 -0.000001 -0.148505 -1.053336 0.063609
 25 -0.748461 0.000002 0.000006 -0.172839 -0.657551 0.233582
 26 4.039749 5.687362 -8.615679 0.000000 -1.557662 -0.000028
 27 0.023288 0.041601 -0.000001 0.020760 -0.105691 1.468378
 28 -11.072353 -0.043445 0.000000 0.000000 -0.000000 0.453353
 29 -8.108977 0.000001 0.000000 3.063286 0.227138 -0.453817
 30 -0.788881 0.969697 -0.533611 2.183871 -0.617208 -0.066701
 31 -1.920300 0.000002 0.000001 0.000000 0.000000 -0.398791
 32 -0.858252 0.000000 -0.000000 0.081890 -0.160113 -0.181525
 33 -2.955712 0.752579 0.160553 3.038712 0.162181 0.034989
 34 -1.836088 0.000000 -0.000000 -0.021978 0.082628 -0.002990
 35 -0.853992 -0.000001 0.000000 -0.013389 0.020214 -0.027889
 36 -2.964904 -0.017483 0.178523 3.129027 -1.061108 0.202043
 37 -1.814736 0.000000 0.000000 0.405653 1.885246 0.440929
 38 -0.982327 -0.000000 0.000000 -0.000000 0.095993 -0.021736
 39 -2.889731 -0.720929 0.212797 3.052539 -1.118135 0.122346
 40 -1.751860 0.000000 0.000000 0.053741 1.733631 0.075567
 41 -0.853991 0.000001 0.000000 -0.000000 0.043633 0.000000
 42 -2.857165 -1.430683 0.078012 3.131547 -1.113726 -0.176716
 43 -1.152893 -0.000002 0.000003 0.555740 1.186077 0.359454
 44 -0.748463 0.000001 -0.000001 0.001111 0.817920 0.051381
 45 0.000000 0.000000 0.000000 0.000000 -0.000000 0.000000
time 13
  0 4.288670 -15.576885 -6.352482 -1.503139 2.982849 1.383504
  1 -0.144320 2.201124 -0.433554 0.000000 0.000000 0.000000
  2 7.426656 1.822591 0.000000 0.000000 0.000000 0.000000
  3 -3.080632 2.936173 0.000002 0.000000 0.000000 0.000000
  4 1.856763 0.774354 0.000001 0.000000 0.000000 0.000000
  5 -4.289258 1.370560 -0.526310 0.000000 0.000000 0.000000
  6 4.582221 -14.963585 -8.838443 -1.503139 2.982849 1.383504
  7 -8.570835 -4.644634 -9.555612 0.000001 -1.587050 -0.000047
  8 0.023288 0.041601 0.000000 0.303983 -0.672739 1.185762
  9 -11.072355 -0.043447 -0.000002 0.000000 0.000000 0.854540
 10 -8.108974 0.000001 0.000000 -0.192910 0.917898 -0.672857
 11 -0.758953 -0.993292 -0.533610 1.150144 -0.720310 -0.319658
 12 -1.920303 0.000001 -0.000000 0.000000 -0.000000 -0.398791
 13 -0.858250 0.000000 -0.000000 -0.000000 -0.000000 0.069433
 14 -2.931398 -0.842323 0.160552 0.009761 -1.130650 0.036947
 15 -1.836088 0.000000 0.000000 -0.266304 -2.001009 0.228884
 16 -0.853994 0.000000 0.000000 0.002756 -0.113413 -0.024347
 17 -2.964056 -0.072899 0.178522 -0.249902 -1.090908 0.154708
 18 -1.814737 0.000000 0.000000 -0.521633 -1.936028 0.662898
 19 -0.982327 -0.000002 -0.000002 0.000000 -0.095993 -0.021736
 20 -2.910362 0.632509 0.212797 -0.125651 -0.987490 0.222888
 21 -1.751858 0.000001 -0.000003 -0.052441 -1.717525 0.086237
 22 -0.853993 0.000001 -0.000002 -0.112170 -0.424833 -0.044433
 23 -2.899446 1.342928 0.078011 -0.089247 -0.937081 0.400139
 24 -1.152889 0.000000 -0.000002 -0.148505 -1.053336 0.063609
 25 -0.748462 0.000001 0.000000 -0.172839 -0.657551 0.233582
 26 3.363948 5.687362 -8.975065 0.000000 -1.557662 -0.000028
 27 0.023288 0.041601 0.000000 0.020436 -0.122602 1.515348
 28 -11.072355 -0.043444 0.000000 0.000000 0.000000 0.383827
 29 -8.108977 0.000003 0.000001 3.013535 0.304222 -0.486181
 30 -0.788883 0.969696 -0.533610 2.183871 -0.617208 -0.066701
 31 -1.920301 0.000000 -0.000001 -0.000000 -0.000000 -0.398791
 32 -0.858251 0.000000 0.000000 0.081890 -0.160113 -0.181525
 33 -2.955715 0.752580 0.160554 3.036735 0.169935 0.038033
 34 -1.836088 -0.000001 -0.000001 -0.025010 0.061200 -0.003135
 35 -0.853996 -0.000000 -0.000001 -0.014851 0.007141 -0.028309
 36 -2.964906 -0.017483 0.178524 3.129027 -1.061108 0.202043
 37 -1.814736 0.000000 0.000002 0.405652 1.885247 0.440928
 38 -0.982328 0.000000 -0.000000 -0.000000 0.095993 -0.021736
 39 -2.889733 -0.720928 0.212798 3.052539 -1.118135 0.122346
 40 -1.751859 0.000000 -0.000004 0.053741 1.733631 0.075567
 41 -0.853991 0.000000 -0.000000 -0.000000 0.043633 0.000000
 42 -2.857169 -1.430682 0.078014 3.131547 -1.113726 -0.176716
 43 -1.152892 -0.000001 0.000001 0.555740 1.186077 0.359454
 44 -0.748466 0.000000 0.000000 0.001111 0.817920 0.051381
 45 0.000000 0.000000 0.000000 0.000000 -0.000000 0.000000
time 14
  0 3.675370 -15.576885 -6.559519 -1.478205 2.930300 1.312115
  1 -0.144319 2.201124 -0.433556 -0.000000 0.000000 -0.000000
  2 7.426658 1.822591 -0.000001 -0.000000 0.000000 -0.000000
  3 -3.080630 2.936172 0.000000 -0.000000 0.000000 -0.000000
  4 1.856765 0.774353 0.000000 -0.000000 0.000000 -0.000000
  5 -4.289257 1.370559 -0.526312 -0.000000 0.000000 -0.000000
  6 4.105644 -14.877644 -9.002510 -1.478205 2.930300 1.312115
  7 -9.531802 -4.644634 -10.051721 0.000001 -1.587050 -0.000047
  8 0.023290 0.041601 0.000000 0.309999 -0.690603 1.199180
  9 -11.072357 -0.043447 0.000001 0.000000 0.000000 0.840493
 10 -8.108974 0.000005 0.000001 -0.335558 0.997969 -0.804735
 11 -0.758953 -0.993291 -0.533610 1.150144 -0.720310 -0.319658
 12 -1.920300 0.000000 -0.000000 -0.000000 -0.000000 -0.398791
 13 -0.858255 -0.000001 0.000001 -0.000000 0.000000 0.069433
 14 -2.931398 -0.842322 0.160553 0.009761 -1.130650 0.036947
 15 -1.836088 0.000000 0.000000 -0.266304 -2.001009 0.228884
 16 -0.853992 0.000000 -0.000001 0.002756 -0.113413 -0.024347
 17 -2.964058 -0.072898 0.178522 -0.249902 -1.090908 0.154708
 18 -1.814738 0.000001 0.000001 -0.521633 -1.936028 0.662899
 19 -0.982323 -0.000002 0.000000 -0.000000 -0.095993 -0.021736
 20 -2.910362 0.632509 0.212796 -0.125651 -0.987490 0.222888
 21 -1.751858 0.000001 -0.000002 -0.052441 -1.717525 0.086237
 22 -0.853992 0.000002 0.000000 -0.112170 -0.424833 -0.044433
 23 -2.899448 1.342928 0.078010 -0.089247 -0.937081 0.400139
 24 -1.152891 -0.000001 0.000000 -0.148505 -1.053336 0.063609
 25 -0.748462 0.000001 0.000004 -0.172839 -0.657551 0.233582
 26 2.742835 5.687362 -9.350077 0.000000 -1.557662 -0.000028
 27 0.023286 0.041601 0.000000 0.016158 -0.134131 1.578246
 28 -11.072352 -0.043447 -0.000000 0.000000 -0.000000 0.277178
 29 -8.108976 0.000001 0.000000 2.949829 0.379448 -0.506566
 30 -0.788883 0.969697 -0.533611 2.183871 -0.617208 -0.066701
 31 -1.920302 0.000002 -0.000001 0.000000 0.000000 -0.398791
 32 -0.858251 0.000000 0.000001 0.081890 -0.160113 -0.181525
 33 -2.955714 0.752579 0.160555 3.035057 0.176586 0.040634
 34 -1.836090 0.000000 -0.000001 -0.027553 0.043083 -0.003231
 35 -0.853998 -0.000001 0.000000 -0.016073 -0.003904 -0.028644
 36 -2.964906 -0.017483 0.178523 3.129027 -1.061108 0.202043
 37 -1.814736 0.000001 0.000000 0.405653 1.885246 0.440929
 38 -0.982327 0.000000 -0.000001 -0.000000 0.095993 -0.021736
 39 -2.889734 -0.720930 0.212797 3.052539 -1.118135 0.122346
 40 -1.751858 0.000003 0.000002 0.053741 1.733631 0.075567
 41 -0.853991 -0.000001 0.000000 0.000000 0.043633 -0.000000
 42 -2.857168 -1.430682 0.078013 3.131547 -1.113726 -0.176716
 43 -1.152892 0.000001 0.000001 0.555740 1.186077 0.359454
 44 -0.748466 0.000000 -0.000001 0.001111 0.817920 0.051381
 45 0.000000 0.000000 0.000000 0.000000 -0.000000 0.000000
time 15
  0 3.019100 -15.576885 -6.801714 -1.450653 2.874917 1.236737
  1 -0.144319 2.201125 -0.433555 -0.000000 -0.000000 0.000000
  2 7.426658 1.822591 -0.000001 -0.000000 -0.000000 0.000000
  3 -3.080632 2.936173 0.000000 -0.000000 -0.000000 0.000000
  4 1.856765 0.774353 0.000000 -0.000000 -0.000000 0.000000
  5 -4.289258 1.370559 -0.526311 -0.000000 -0.000000 0.000000
  6 3.609535 -14.811236 -9.190016 -1.450653 2.874917 1.236737
  7 -10.406829 -4.644634 -10.555642 0.000001 -1.587050 -0.000047
  8 0.023288 0.041601 0.000000 0.320629 -0.702625 1.201958
  9 -11.072353 -0.043446 0.000002 0.000000 0.000000 0.846985
 10 -8.108976 0.000004 0.000001 -0.524999 1.066120 -0.989020
 11 -0.758955 -0.993292 -0.533609 1.150144 -0.720310 -0.319658
 12 -1.920300 0.000001 -0.000001 -0.000000 0.000000 -0.398791
 13 -0.858253 0.000000 0.000001 -0.000000 -0.000000 0.069433
 14 -2.931400 -0.842323 0.160552 0.009761 -1.130650 0.036947
 15 -1.836086 0.000000 0.000003 -0.266304 -2.001009 0.228884
 16 -0.853994 0.000001 -0.000002 0.002756 -0.113413 -0.024347
 17 -2.964060 -0.072900 0.178522 -0.249902 -1.090908 0.154708
 18 -1.814736 0.000000 0.000001 -0.521633 -1.936028 0.662898
 19 -0.982325 -0.000002 0.000000 0.000000 -0.095993 -0.021736
 20 -2.910362 0.632510 0.212796 -0.125651 -0.987490 0.222888
 21 -1.751854 -0.000001 0.000001 -0.052441 -1.717525 0.086237
 22 -0.853991 0.000001 0.000003 -0.112170 -0.424833 -0.044433
 23 -2.899450 1.342928 0.078011 -0.089247 -0.937081 0.400139
 24 -1.152889 -0.000001 0.000001 -0.148505 -1.053336 0.063609
 25 -0.748462 0.000001 -0.000002 -0.172839 -0.657551 0.233582
 26 2.176411 5.687362 -9.740714 0.000000 -1.557662 -0.000028
 27 0.023288 0.041601 0.000000 0.000410 -0.140579 1.712725
 28 -11.072353 -0.043445 -0.000000 0.000000 -0.000000 0.001744
 29 -8.108977 0.000001 -0.000000 2.872281 0.449308 -0.437294
 30 -0.788882 0.969696 -0.533612 2.183871 -0.617208 -0.066701
 31 -1.920301 0.000001 -0.000002 0.000000 -0.000000 -0.398791
 32 -0.858251 0.000000 -0.000000 0.081890 -0.160113 -0.181525
 33 -2.955715 0.752578 0.160553 3.033691 0.182075 0.042779
 34 -1.836092 -0.000001 -0.000000 -0.029607 0.028359 -0.003231
 35 -0.853996 -0.000001 0.000000 -0.017080 -0.012874 -0.028908
 36 -2.964905 -0.017484 0.178522 3.129027 -1.061108 0.202043
 37 -1.814736 0.000001 0.000000 0.405653 1.885246 0.440929
 38 -0.982325 0.000000 0.000000 0.000000 0.095993 -0.021736
 39 -2.889733 -0.720928 0.212796 3.052539 -1.118135 0.122346
 40 -1.751860 0.000001 0.000000 0.053741 1.733631 0.075567
 41 -0.853992 -0.000001 0.000000 -0.000000 0.043633 0.000000
 42 -2.857166 -1.430683 0.078013 3.131547 -1.113726 -0.176716
 43 -1.152892 0.000000 0.000001 0.555740 1.186077 0.359454
 44 -0.748465 0.000000 -0.000002 0.001111 0.817920 0.051381
 45 0.000000 0.000000 0.000000 0.000000 -0.000000 0.000000
time 16
  0 2.343298 -15.576885 -7.075160 -1.420781 2.818687 1.160164
  1 -0.144314 2.201124 -0.433554 0.000000 0.000000 0.000000
  2 7.426659 1.822591 0.000000 0.000000 0.000000 0.000000
  3 -3.080628 2.936172 0.000001 0.000000 0.000000 0.000000
  4 1.856768 0.774353 0.000000 0.000000 0.000000 0.000000
  5 -4.289254 1.370560 -0.526309 0.000000 0.000000 0.000000
  6 3.113426 -14.772172 -9.400960 -1.420781 2.818687 1.160164
  7 -11.199822 -4.644634 -11.071283 0.000001 -1.587050 -0.000047
  8 0.023290 0.041601 0.000002 0.334472 -0.710304 1.197081
  9 -11.072357 -0.043447 0.000001 0.000000 -0.000000 0.867407
 10 -8.108977 0.000004 0.000000 -0.762030 1.114760 -1.222223
 11 -0.758955 -0.993292 -0.533611 1.150144 -0.720310 -0.319658
 12 -1.920298 0.000000 0.000000 -0.000000 -0.000000 -0.398791
 13 -0.858257 -0.000001 0.000000 0.000000 0.000000 0.069433
 14 -2.931400 -0.842322 0.160553 0.009761 -1.130650 0.036947
 15 -1.836087 0.000000 0.000002 -0.266304 -2.001009 0.228884
 16 -0.853994 0.000000 0.000000 0.002756 -0.113413 -0.024347
 17 -2.964058 -0.072899 0.178522 -0.249902 -1.090908 0.154708
 18 -1.814734 0.000000 -0.000001 -0.521633 -1.936028 0.662898
 19 -0.982327 -0.000001 -0.000002 0.000000 -0.095993 -0.021736
 20 -2.910364 0.632511 0.212796 -0.125651 -0.987490 0.222888
 21 -1.751858 -0.000001 -0.000003 -0.052441 -1.717525 0.086237
 22 -0.853992 0.000001 -0.000003 -0.112170 -0.424833 -0.044433
 23 -2.899448 1.342927 0.078011 -0.089247 -0.937081 0.400139
 24 -1.152893 -0.000002 0.000000 -0.148505 -1.053336 0.063609
 25 -0.748462 0.000003 0.000002 -0.172839 -0.657551 0.233582
 26 1.660771 5.687362 -10.150882 0.000000 -1.557662 -0.000028
 27 0.023288 0.041601 -0.000000 0.000422 -0.141286 1.728453
 28 -11.072351 -0.043446 0.000000 0.000000 -0.000000 0.001744
 29 -8.108976 0.000002 0.000001 2.782620 0.510817 -0.532297
 30 -0.788884 0.969697 -0.533611 2.183871 -0.617208 -0.066701
 31 -1.920301 0.000001 0.000000 0.000000 -0.000000 -0.398791
 32 -0.858251 -0.000001 0.000002 0.081890 -0.160113 -0.181525
 33 -2.955716 0.752579 0.160552 3.032624 0.186390 0.044457
 34 -1.836086 0.000000 -0.000000 -0.031172 0.017115 -0.003231
 35 -0.853996 -0.000002 -0.000000 -0.017835 -0.019721 -0.029100
 36 -2.964907 -0.017483 0.178522 3.129027 -1.061108 0.202043
 37 -1.814736 0.000000 0.000000 0.405653 1.885247 0.440928
 38 -0.982325 0.000000 0.000000 0.000000 0.095993 -0.021736
 39 -2.889735 -0.720928 0.212795 3.052539 -1.118135 0.122346
 40 -1.751860 0.000001 -0.000002 0.053741 1.733631 0.075567
 41 -0.853992 -0.000001 0.000000 -0.000000 0.043633 -0.000000
 42 -2.857166 -1.430682 0.078012 3.131547 -1.113726 -0.176716
 43 -1.152892 0.000000 0.000000 0.555740 1.186077 0.359454
 44 -0.748465 -0.000002 -0.000001 0.001111 0.817920 0.051381
 45 0.000000 0.000000 0.000000 0.000000 -0.000000 0.000000
time 17
  0 1.667497 -15.576885 -7.391576 -1.388868 2.763614 1.085506
  1 -0.144319 2.201124 -0.433555 -0.000000 0.000000 -0.000000
  2 7.426656 1.822590 -0.000001 -0.000000 0.000000 -0.000000
  3 -3.080630 2.936173 0.000001 -0.000000 0.000000 -0.000000
  4 1.856767 0.774353 -0.000001 -0.000000 0.000000 -0.000000
  5 -4.289258 1.370559 -0.526312 -0.000000 0.000000 -0.000000
  6 2.621224 -14.760453 -9.643155 -1.388868 2.763614 1.085506
  7 -11.906875 -4.644634 -11.586924 0.000001 -1.587050 -0.000047
  8 0.023290 0.041601 0.000000 0.349704 -0.714858 1.187565
  9 -11.072352 -0.043446 -0.000002 -0.000000 0.000000 0.895324
 10 -8.108976 0.000002 0.000000 -1.030195 1.138068 -1.484205
 11 -0.758959 -0.993292 -0.533609 1.150144 -0.720310 -0.319658
 12 -1.920301 -0.000000 0.000000 -0.000000 -0.000000 -0.398791
 13 -0.858253 0.000000 0.000000 0.000000 -0.000000 0.069433
 14 -2.931402 -0.842324 0.160553 0.009761 -1.130650 0.036947
 15 -1.836090 0.000001 0.000000 -0.266304 -2.001009 0.228884
 16 -0.853994 -0.000001 0.000001 0.002756 -0.113413 -0.024347
 17 -2.964060 -0.072899 0.178524 -0.249902 -1.090908 0.154708
 18 -1.814737 0.000000 -0.000001 -0.521633 -1.936028 0.662898
 19 -0.982325 -0.000001 -0.000002 0.000000 -0.095993 -0.021736
 20 -2.910364 0.632509 0.212797 -0.125651 -0.987490 0.222888
 21 -1.751854 -0.000001 -0.000001 -0.052441 -1.717525 0.086237
 22 -0.853992 0.000000 -0.000001 -0.112170 -0.424833 -0.044433
 23 -2.899452 1.342928 0.078012 -0.089247 -0.937081 0.400139
 24 -1.152892 -0.000002 -0.000001 -0.148505 -1.053336 0.063609
 25 -0.748462 0.000001 0.000002 -0.172839 -0.657551 0.233582
 26 1.203725 5.687362 -10.580583 0.000000 -1.557662 -0.000028
 27 0.023290 0.041601 0.000000 0.000410 -0.137906 1.742291
 28 -11.072355 -0.043446 0.000001 -0.000000 0.000000 0.001744
 29 -8.108978 0.000000 0.000000 2.684125 0.561740 -0.628802
 30 -0.788883 0.969695 -0.533610 2.183871 -0.617208 -0.066701
 31 -1.920300 0.000002 -0.000001 -0.000000 0.000000 -0.398791
 32 -0.858252 -0.000001 0.000001 0.081890 -0.160113 -0.181525
 33 -2.955715 0.752579 0.160554 3.031869 0.189482 0.045655
 34 -1.836088 0.000001 -0.000001 -0.032248 0.009478 -0.003231
 35 -0.853998 -0.000001 0.000000 -0.018351 -0.024397 -0.029231
 36 -2.964906 -0.017484 0.178524 3.129027 -1.061108 0.202043
 37 -1.814737 -0.000000 0.000000 0.405653 1.885247 0.440928
 38 -0.982327 -0.000000 0.000000 0.000000 0.095993 -0.021736
 39 -2.889735 -0.720928 0.212798 3.052539 -1.118135 0.122346
 40 -1.751859 0.000002 0.000000 0.053741 1.733631 0.075567
 41 -0.853992 0.000000 -0.000000 -0.000000 0.043633 -0.000000
 42 -2.857166 -1.430683 0.078013 3.131547 -1.113726 -0.176716
 43 -1.152892 -0.000001 0.000000 0.555740 1.186077 0.359454
 44 -0.748465 0.000000 -0.000001 0.001111 0.817920 0.051381
 45 0.000000 0.000000 0.000000 0.000000 -0.000000 0.000000
time 18
  0 1.011227 -15.576885 -7.754868 -1.355232 2.711747 1.015553
  1 -0.144319 2.201123 -0.433555 0.000000 0.000000 -0.000000
  2 7.426661 1.822591 -0.000001 0.000000 0.000000 -0.000000
  3 -3.080633 2.936171 0.000002 0.000000 0.000000 -0.000000
  4 1.856765 0.774352 0.000002 0.000000 0.000000 -0.000000
  5 -4.289261 1.370559 -0.526310 0.000000 0.000000 -0.000000
  6 2.148553 -14.783892 -9.924413 -1.355232 2.711747 1.015553
  7 -12.535800 -4.644634 -12.114284 0.000001 -1.587050 -0.000047
  8 0.023288 0.041601 0.000000 0.364361 -0.717294 1.176186
  9 -11.072354 -0.043445 0.000000 -0.000000 -0.000000 0.924658
 10 -8.108973 -0.000001 0.000000 -1.295473 1.135859 -1.737948
 11 -0.758957 -0.993292 -0.533610 1.150144 -0.720310 -0.319658
 12 -1.920305 -0.000000 0.000000 0.000000 0.000000 -0.398791
 13 -0.858252 -0.000000 -0.000000 -0.000000 -0.000000 0.069433
 14 -2.931400 -0.842324 0.160551 0.009761 -1.130650 0.036947
 15 -1.836088 0.000000 0.000000 -0.266303 -2.001009 0.228884
 16 -0.853992 0.000000 0.000003 0.002756 -0.113413 -0.024347
 17 -2.964060 -0.072900 0.178521 -0.249902 -1.090908 0.154708
 18 -1.814736 -0.000001 0.000000 -0.521633 -1.936028 0.662898
 19 -0.982325 0.000000 -0.000002 0.000000 -0.095993 -0.021736
 20 -2.910366 0.632510 0.212797 -0.125651 -0.987490 0.222888
 21 -1.751857 0.000000 -0.000001 -0.052441 -1.717525 0.086237
 22 -0.853993 0.000001 0.000001 -0.112170 -0.424833 -0.044433
 23 -2.899450 1.342928 0.078011 -0.089247 -0.937081 0.400139
 24 -1.152892 -0.000003 0.000000 -0.148505 -1.053336 0.063609
 25 -0.748463 0.000000 0.000004 -0.172839 -0.657551 0.233582
 26 0.797463 5.687362 -11.025909 0.000000 -1.557662 -0.000028
 27 0.023290 0.041601 0.000000 0.000386 -0.131302 1.753814
 28 -11.072355 -0.043445 0.000000 -0.000000 0.000000 0.001744
 29 -8.108975 0.000001 0.000001 2.581545 0.600971 -0.722108
 30 -0.788881 0.969697 -0.533612 2.183871 -0.617208 -0.066701
 31 -1.920300 0.000004 0.000001 0.000000 -0.000000 -0.398791
 32 -0.858252 -0.000001 -0.000000 0.081890 -0.160113 -0.181525
 33 -2.955714 0.752579 0.160551 3.031413 0.191327 0.046362
 34 -1.836088 0.000001 -0.000001 -0.032835 0.005532 -0.003231
 35 -0.853994 -0.000001 0.000000 -0.018614 -0.026783 -0.029303
 36 -2.964906 -0.017483 0.178521 3.129027 -1.061108 0.202043
 37 -1.814737 0.000000 0.000000 0.405653 1.885246 0.440929
 38 -0.982324 0.000000 0.000001 -0.000000 0.095993 -0.021736
 39 -2.889732 -0.720929 0.212794 3.052539 -1.118135 0.122346
 40 -1.751859 0.000001 0.000000 0.053741 1.733631 0.075567
 41 -0.853990 0.000000 0.000000 0.000000 0.043633 -0.000000
 42 -2.857165 -1.430681 0.078011 3.131547 -1.113726 -0.176716
 43 -1.152892 0.000000 -0.000001 0.555740 1.186077 0.359454
 44 -0.748467 0.000000 -0.000001 0.001111 0.817920 0.051381
 45 0.000000 0.000000 0.000000 0.000000 -0.000000 0.000000
time 19
  0 0.397927 -15.576885 -8.165037 -1.320170 2.665071 0.953258
  1 -0.144320 2.201124 -0.433554 0.000000 0.000000 0.000000
  2 7.426657 1.822589 -0.000001 0.000000 0.000000 0.000000
  3 -3.080633 2.936172 0.000002 0.000000 0.000000 0.000000
  4 1.856762 0.774353 0.000001 0.000000 0.000000 0.000000
  5 -4.289262 1.370559 -0.526311 0.000000 0.000000 0.000000
  6 1.707133 -14.830768 -10.256455 -1.320170 2.665071 0.953258
  7 -13.074879 -4.644634 -12.645550 0.000001 -1.587050 -0.000047
  8 0.023288 0.041601 0.000000 0.377245 -0.718336 1.164364
  9 -11.072353 -0.043447 -0.000004 0.000000 0.000000 0.951896
 10 -8.108976 -0.000002 0.000001 -1.526241 1.115102 -1.950440
 11 -0.758957 -0.993292 -0.533610 1.150144 -0.720310 -0.319658
 12 -1.920303 0.000000 0.000000 -0.000000 0.000000 -0.398791
 13 -0.858255 0.000001 0.000000 -0.000000 0.000000 0.069433
 14 -2.931400 -0.842324 0.160554 0.009761 -1.130650 0.036947
 15 -1.836085 0.000000 -0.000001 -0.266304 -2.001009 0.228884
 16 -0.853992 0.000000 0.000000 0.002756 -0.113413 -0.024347
 17 -2.964058 -0.072899 0.178523 -0.249902 -1.090908 0.154708
 18 -1.814732 0.000000 0.000000 -0.521633 -1.936028 0.662898
 19 -0.982328 -0.000001 -0.000002 -0.000000 -0.095993 -0.021736
 20 -2.910366 0.632510 0.212799 -0.125651 -0.987490 0.222888
 21 -1.751858 0.000000 0.000001 -0.052441 -1.717525 0.086237
 22 -0.853992 0.000001 -0.000001 -0.112170 -0.424833 -0.044433
 23 -2.899446 1.342927 0.078015 -0.089247 -0.937081 0.400139
 24 -1.152892 -0.000001 0.000000 -0.148505 -1.053336 0.063609
 25 -0.748462 0.000000 0.000004 -0.172839 -0.657551 0.233582
 26 0.445890 5.687362 -11.486861 0.000000 -1.557662 -0.000028
 27 0.023288 0.041601 0.000000 0.000362 -0.122530 1.762723
 28 -11.072353 -0.043445 -0.000000 0.000000 -0.000000 0.001744
 29 -8.108975 0.000000 0.000000 2.480690 0.628698 -0.806810
 30 -0.788882 0.969697 -0.533610 2.183871 -0.617208 -0.066701
 31 -1.920301 0.000002 0.000000 -0.000000 -0.000000 -0.398791
 32 -0.858252 0.000001 0.000000 0.081890 -0.160113 -0.181525
 33 -2.955714 0.752578 0.160554 3.031270 0.191891 0.046590
 34 -1.836088 -0.000002 -0.000002 -0.032835 0.005404 -0.003231
 35 -0.853994 -0.000001 -0.000000 -0.018626 -0.026854 -0.029303
 36 -2.964905 -0.017484 0.178524 3.129027 -1.061108 0.202043
 37 -1.814736 0.000000 0.000000 0.405653 1.885247 0.440929
 38 -0.982327 -0.000000 0.000000 0.000000 0.095993 -0.021736
 39 -2.889732 -0.720927 0.212797 3.052539 -1.118135 0.122346
 40 -1.751860 0.000002 0.000002 0.053741 1.733631 0.075567
 41 -0.853992 0.000000 0.000000 -0.000000 0.043633 -0.000000
 42 -2.857165 -1.430682 0.078012 3.131547 -1.113726 -0.176716
 43 -1.152892 0.000001 0.000001 0.555740 1.186077 0.359454
 44 -0.748466 0.000000 -0.000001 0.001111 0.817920 0.051381
 45 0.000000 0.000000 0.000000 0.000000 -0.000000 0.000000
time 20
  0 -0.152871 -15.576885 -8.629895 -1.283959 2.625633 0.901491
  1 -0.144317 2.201124 -0.433557 0.000000 0.000000 0.000000
  2 7.426659 1.822590 -0.000003 0.000000 0.000000 0.000000
  3 -3.080630 2.936172 0.000001 0.000000 0.000000 0.000000
  4 1.856766 0.774352 0.000000 0.000000 0.000000 0.000000
  5 -4.289258 1.370559 -0.526311 0.000000 0.000000 0.000000
  6 1.304777 -14.901083 -10.643185 -1.283959 2.625633 0.901491
  7 -13.535830 -4.644634 -13.184629 0.000001 -1.587050 -0.000047
  8 0.023288 0.041601 0.000000 0.387456 -0.718530 1.153045
  9 -11.072354 -0.043444 0.000001 0.000000 0.000000 0.974324
 10 -8.108974 0.000004 -0.000001 1.432605 2.055121 1.033758
 11 -0.758957 -0.993292 -0.533608 1.150144 -0.720310 -0.319658
 12 -1.920300 0.000000 -0.000001 -0.000000 0.000000 -0.398791
 13 -0.858255 0.000000 -0.000000 0.000000 0.000000 0.069433
 14 -2.931400 -0.842323 0.160555 0.009761 -1.130650 0.036947
 15 -1.836090 0.000000 0.000001 -0.266304 -2.001009 0.228884
 16 -0.853994 0.000000 0.000000 0.002756 -0.113413 -0.024347
 17 -2.964058 -0.072899 0.178524 -0.249902 -1.090908 0.154708
 18 -1.814738 0.000001 0.000000 -0.521632 -1.936028 0.662898
 19 -0.982325 0.000000 -0.000001 -0.000000 -0.095993 -0.021736
 20 -2.910362 0.632509 0.212798 -0.125651 -0.987490 0.222888
 21 -1.751855 0.000000 -0.000001 -0.052441 -1.717524 0.086237
 22 -0.853992 0.000001 -0.000003 -0.112170 -0.424833 -0.044433
 23 -2.899446 1.342928 0.078014 -0.089247 -0.937081 0.400139
 24 -1.152889 -0.000001 0.000000 -0.148505 -1.053336 0.063609
 25 -0.748462 0.000000 0.000000 -0.172839 -0.657551 0.233582
 26 0.149006 5.687362 -11.967344 0.000000 -1.557662 -0.000028
 27 0.023288 0.041601 -0.000000 0.000338 -0.112786 1.768816
 28 -11.072355 -0.043445 -0.000000 0.000000 0.000000 0.001744
 29 -8.108976 0.000002 -0.000000 2.387720 0.646111 -0.877429
 30 -0.788882 0.969696 -0.533611 2.183871 -0.617208 -0.066701
 31 -1.920302 0.000001 -0.000002 -0.000000 0.000000 -0.398791
 32 -0.858251 0.000002 0.000000 0.081890 -0.160113 -0.181525
 33 -2.955717 0.752579 0.160552 3.031461 0.191148 0.046302
 34 -1.836092 -0.000000 -0.000000 -0.032297 0.009181 -0.003231
 35 -0.853996 -0.000001 -0.000001 -0.018374 -0.024564 -0.029243
 36 -2.964906 -0.017483 0.178521 3.129027 -1.061108 0.202043
 37 -1.814736 0.000000 0.000000 0.405653 1.885247 0.440929
 38 -0.982327 0.000001 -0.000000 0.000000 0.095993 -0.021736
 39 -2.889736 -0.720928 0.212795 3.052539 -1.118135 0.122346
 40 -1.751858 0.000001 0.000000 0.053741 1.733631 0.075567
 41 -0.853992 0.000000 0.000000 -0.000000 0.043633 -0.000000
 42 -2.857166 -1.430682 0.078011 3.131547 -1.113726 -0.176716
 43 -1.152892 0.000000 -0.000001 0.555740 1.186077 0.359454
 44 -0.748466 -0.000000 -0.000001 0.001111 0.817920 0.051381
 45 0.000000 0.000000 0.000000 0.000000 -0.000000 0.000000
time 21
  0 -0.621636 -15.576885 -9.149442 -1.246918 2.595419 0.863283
  1 -0.144318 2.201125 -0.433554 -0.000000 0.000000 -0.000000
  2 7.426657 1.822592 -0.000001 -0.000000 0.000000 -0.000000
  3 -3.080631 2.936173 0.000001 -0.000000 0.000000 -0.000000
  4 1.856764 0.774353 0.000000 -0.000000 0.000000 -0.000000
  5 -4.289258 1.370560 -0.526313 -0.000000 0.000000 -0.000000
  6 0.961017 -14.983116 -11.096324 -1.246918 2.595419 0.863283
  7 -13.875685 -4.644634 -13.747146 0.000001 -1.587050 -0.000047
  8 0.023288 0.041601 0.000000 0.394730 -0.716447 1.142524
  9 -11.072353 -0.043447 -0.000001 0.000000 0.000000 0.994274
 10 -8.108974 0.000002 0.000000 1.300150 2.082474 0.929629
 11 -0.758959 -0.993292 -0.533609 1.150144 -0.720310 -0.319658
 12 -1.920298 0.000000 0.000000 -0.000000 0.000000 -0.398791
 13 -0.858253 -0.000001 -0.000000 -0.000000 -0.000000 0.069433
 14 -2.931400 -0.842322 0.160554 0.009761 -1.130650 0.036947
 15 -1.836085 0.000000 0.000001 -0.266304 -2.001009 0.228884
 16 -0.853992 -0.000001 0.000001 0.002756 -0.113413 -0.024347
 17 -2.964060 -0.072898 0.178523 -0.249902 -1.090908 0.154708
 18 -1.814737 0.000001 0.000000 -0.521633 -1.936028 0.662899
 19 -0.982327 -0.000002 0.000000 0.000000 -0.095993 -0.021736
 20 -2.910368 0.632511 0.212797 -0.125651 -0.987490 0.222888
 21 -1.751856 0.000001 0.000000 -0.052441 -1.717525 0.086237
 22 -0.853992 0.000000 0.000002 -0.112170 -0.424833 -0.044433
 23 -2.899450 1.342928 0.078012 -0.089247 -0.937081 0.400139
 24 -1.152892 -0.000001 0.000002 -0.148505 -1.053336 0.063609
 25 -0.748462 0.000000 0.000002 -0.172839 -0.657551 0.233582
 26 -0.073657 5.687362 -12.486891 0.000000 -1.557662 -0.000028
 27 0.023290 0.041601 0.000000 0.000302 -0.102252 1.772883
 28 -11.072355 -0.043446 0.000000 0.000000 0.000000 0.001744
 29 -8.108978 0.000000 -0.000000 2.309281 0.654296 -0.929339
 30 -0.788881 0.969697 -0.533611 2.183871 -0.617208 -0.066701
 31 -1.920301 0.000000 -0.000001 0.000000 -0.000000 -0.398791
 32 -0.858251 -0.000001 -0.000000 0.081890 -0.160113 -0.181525
 33 -2.955714 0.752580 0.160553 3.031965 0.189062 0.045487
 34 -1.836088 -0.000000 -0.000002 -0.031221 0.016945 -0.003231
 35 -0.853992 -0.000001 -0.000001 -0.017847 -0.019817 -0.029112
 36 -2.964905 -0.017483 0.178523 3.129027 -1.061108 0.202043
 37 -1.814737 -0.000000 0.000002 0.405653 1.885246 0.440929
 38 -0.982327 0.000000 -0.000000 -0.000000 0.095993 -0.021736
 39 -2.889732 -0.720927 0.212798 3.052539 -1.118135 0.122346
 40 -1.751859 0.000002 -0.000002 0.053741 1.733631 0.075567
 41 -0.853992 0.000000 -0.000000 -0.000000 0.043633 0.000000
 42 -2.857166 -1.430681 0.078015 3.131547 -1.113726 -0.176716
 43 -1.152893 -0.000001 0.000004 0.555740 1.186077 0.359454
 44 -0.748466 0.000000 -0.000001 0.001111 0.817920 0.051381
 45 0.000000 0.000000 0.000000 0.000000 -0.000000 0.000000
time 22
  0 -0.984928 -15.576885 -9.731491 -1.209324 2.576434 0.841429
  1 -0.144318 2.201124 -0.433556 0.000000 0.000000 -0.000000
  2 7.426662 1.822591 -0.000002 0.000000 0.000000 -0.000000
  3 -3.080630 2.936173 0.000001 0.000000 0.000000 -0.000000
  4 1.856766 0.774353 0.000000 0.000000 0.000000 -0.000000
  5 -4.289260 1.370559 -0.526312 0.000000 0.000000 -0.000000
  6 0.691477 -15.065150 -11.623684 -1.209324 2.576434 0.841429
  7 -14.078816 -4.644634 -14.340914 0.000001 -1.587050 -0.000047
  8 0.023290 0.041601 0.000000 0.399057 -0.711469 1.132741
  9 -11.072353 -0.043446 0.000000 -0.000000 -0.000000 1.013190
 10 -8.108976 0.000002 0.000002 1.215162 2.100960 0.872758
 11 -0.758955 -0.993291 -0.533608 1.150144 -0.720310 -0.319658
 12 -1.920300 0.000001 -0.000000 0.000000 0.000000 -0.398791
 13 -0.858253 0.000000 -0.000001 -0.000000 -0.000000 0.069433
 14 -2.931400 -0.842322 0.160554 0.009761 -1.130650 0.036947
 15 -1.836084 0.000001 -0.000001 -0.266303 -2.001009 0.228884
 16 -0.853994 0.000000 0.000001 0.002756 -0.113413 -0.024347
 17 -2.964058 -0.072899 0.178524 -0.249902 -1.090908 0.154708
 18 -1.814734 0.000000 -0.000002 -0.521633 -1.936028 0.662898
 19 -0.982325 -0.000002 0.000003 -0.000000 -0.095993 -0.021736
 20 -2.910364 0.632511 0.212799 -0.125651 -0.987490 0.222888
 21 -1.751859 0.000001 -0.000002 -0.052441 -1.717524 0.086237
 22 -0.853992 0.000001 0.000000 -0.112170 -0.424833 -0.044433
 23 -2.899448 1.342930 0.078014 -0.089247 -0.937081 0.400139
 24 -1.152888 -0.000004 0.000000 -0.148505 -1.053336 0.063609
 25 -0.748462 0.000000 0.000002 -0.172839 -0.657551 0.233582
 26 -0.206474 5.687362 -13.053315 0.000000 -1.557662 -0.000028
 27 0.023286 0.041601 -0.000000 0.000266 -0.091645 1.775272
 28 -11.072354 -0.043445 0.000000 0.000000 0.000000 0.001744
 29 -8.108976 0.000000 0.000000 2.250984 0.654776 -0.958425
 30 -0.788881 0.969696 -0.533609 2.183871 -0.617208 -0.066701
 31 -1.920300 0.000000 -0.000000 -0.000000 0.000000 -0.398791
 32 -0.858251 0.000001 -0.000001 0.081890 -0.160113 -0.181525
 33 -2.955715 0.752578 0.160555 3.032816 0.185599 0.044145
 34 -1.836086 0.000000 -0.000001 -0.029558 0.028826 -0.003231
 35 -0.853994 -0.000001 0.000001 -0.017044 -0.012588 -0.028896
 36 -2.964906 -0.017484 0.178523 3.129027 -1.061108 0.202043
 37 -1.814735 0.000000 0.000000 0.405653 1.885247 0.440928
 38 -0.982325 0.000001 0.000000 0.000000 0.095993 -0.021736
 39 -2.889734 -0.720928 0.212797 3.052539 -1.118135 0.122346
 40 -1.751859 0.000001 0.000002 0.053741 1.733631 0.075567
 41 -0.853994 0.000000 -0.000000 -0.000000 0.043633 -0.000000
 42 -2.857166 -1.430682 0.078014 3.131547 -1.113726 -0.176716
 43 -1.152893 0.000000 0.000000 0.555740 1.186077 0.359454
 44 -0.748464 0.000001 -0.000001 0.001111 0.817920 0.051381
 45 0.000000 0.000000 0.000000 0.000000 -0.000000 0.000000
time 23
  0 -1.223217 -15.576885 -10.379948 -1.171475 2.570747 0.838797
  1 -0.144319 2.201125 -0.433555 0.000000 -0.000000 -0.000000
  2 7.426657 1.822591 0.000000 0.000000 -0.000000 -0.000000
  3 -3.080631 2.936173 -0.000000 0.000000 -0.000000 -0.000000
  4 1.856764 0.774354 0.000003 0.000000 -0.000000 -0.000000
  5 -4.289259 1.370560 -0.526311 0.000000 -0.000000 -0.000000
  6 0.511784 -15.135465 -12.229171 -1.171475 2.570747 0.838797
  7 -14.164756 -4.644634 -14.954214 0.000001 -1.587050 -0.000047
  8 0.023288 0.041601 0.000000 0.399476 -0.705873 1.124820
  9 -11.072352 -0.043447 0.000001 -0.000000 -0.000000 1.024788
 10 -8.108974 0.000000 -0.000001 1.173160 2.104725 0.862232
 11 -0.758959 -0.993293 -0.533608 1.150144 -0.720310 -0.319658
 12 -1.920303 0.000000 0.000000 -0.000000 -0.000000 -0.398791
 13 -0.858255 0.000001 -0.000000 0.000000 0.000000 0.069433
 14 -2.931404 -0.842323 0.160553 0.009761 -1.130650 0.036947
 15 -1.836085 0.000000 0.000000 -0.266304 -2.001009 0.228884
 16 -0.853992 -0.000001 0.000000 0.002756 -0.113413 -0.024347
 17 -2.964058 -0.072899 0.178524 -0.249902 -1.090908 0.154708
 18 -1.814736 -0.000001 -0.000002 -0.521633 -1.936028 0.662899
 19 -0.982325 -0.000001 -0.000001 -0.000000 -0.095993 -0.021736
 20 -2.910366 0.632511 0.212799 -0.125651 -0.987490 0.222888
 21 -1.751860 0.000002 -0.000002 -0.052441 -1.717525 0.086237
 22 -0.853991 0.000000 0.000001 -0.112170 -0.424833 -0.044433
 23 -2.899452 1.342928 0.078013 -0.089247 -0.937081 0.400139
 24 -1.152892 0.000000 -0.000001 -0.148505 -1.053336 0.063609
 25 -0.748462 0.000001 0.000002 -0.172839 -0.657551 0.233582
 26 -0.265069 5.687362 -13.654896 0.000000 -1.557662 -0.000028
 27 0.023288 0.041601 0.000000 0.000242 -0.082909 1.775135
 28 -11.072353 -0.043444 -0.000000 -0.000000 0.000000 0.001744
 29 -8.108976 0.000002 0.000000 2.215908 0.649055 -0.960961
 30 -0.788881 0.969696 -0.533610 2.183871 -0.617208 -0.066701
 31 -1.920300 0.000001 -0.000001 0.000000 0.000000 -0.398791
 32 -0.858251 0.000000 -0.000000 0.081890 -0.160113 -0.181525
 33 -2.955715 0.752579 0.160553 3.034026 0.180745 0.042252
 34 -1.836088 0.000000 -0.000001 -0.027260 0.044950 -0.003231
 35 -0.853994 -0.000001 0.000001 -0.015954 -0.002759 -0.028608
 36 -2.964907 -0.017484 0.178524 3.129027 -1.061108 0.202043
 37 -1.814736 0.000000 0.000000 0.405653 1.885246 0.440929
 38 -0.982325 -0.000001 0.000000 -0.000000 0.095993 -0.021736
 39 -2.889734 -0.720929 0.212797 3.052539 -1.118135 0.122346
 40 -1.751861 0.000001 -0.000002 0.053740 1.733631 0.075566
 41 -0.853992 0.000000 0.000000 0.000000 0.043633 0.000000
 42 -2.857167 -1.430683 0.078012 3.131547 -1.113726 -0.176716
 43 -1.152893 0.000000 0.000002 0.555740 1.186077 0.359454
 44 -0.748466 0.000000 -0.000001 0.001111 0.817920 0.051381
 45 0.000000 0.000000 0.000000 0.000000 -0.000000 0.000000
time 24
  0 -1.352127 -15.576885 -11.126065 -1.131455 2.578006 0.855308
  1 -0.144320 2.201124 -0.433555 0.000000 0.000000 0.000000
  2 7.426657 1.822592 0.000003 0.000000 0.000000 0.000000
  3 -3.080633 2.936171 0.000001 0.000000 0.000000 0.000000
  4 1.856762 0.774352 0.000003 0.000000 0.000000 0.000000
  5 -4.289261 1.370558 -0.526312 0.000000 0.000000 0.000000
  6 0.425844 -15.194060 -12.951850 -1.131455 2.578006 0.855308
  7 -14.160850 -4.644634 -15.575327 0.000001 -1.587050 -0.000047
  8 0.023290 0.041601 0.000000 0.396420 -0.700524 1.115008
  9 -11.072356 -0.043444 0.000001 -0.000000 -0.000000 1.028182
 10 -8.108974 0.000002 0.000000 1.168002 2.091280 0.897075
 11 -0.758959 -0.993293 -0.533611 1.150144 -0.720310 -0.319658
 12 -1.920298 0.000000 -0.000000 0.000000 -0.000000 -0.398791
 13 -0.858253 0.000000 0.000000 0.000000 -0.000000 0.069433
 14 -2.931402 -0.842324 0.160554 0.009761 -1.130650 0.036947
 15 -1.836087 0.000000 -0.000001 -0.266304 -2.001009 0.228884
 16 -0.853992 0.000000 -0.000002 0.002756 -0.113413 -0.024347
 17 -2.964058 -0.072899 0.178522 -0.249902 -1.090908 0.154708
 18 -1.814736 0.000000 0.000000 -0.521633 -1.936028 0.662898
 19 -0.982325 -0.000002 -0.000001 -0.000000 -0.095993 -0.021736
 20 -2.910366 0.632511 0.212796 -0.125651 -0.987490 0.222888
 21 -1.751856 0.000000 0.000000 -0.052440 -1.717525 0.086236
 22 -0.853991 0.000000 -0.000003 -0.112170 -0.424833 -0.044433
 23 -2.899448 1.342927 0.078010 -0.089247 -0.937081 0.400139
 24 -1.152894 0.000000 -0.000001 -0.148505 -1.053336 0.063609
 25 -0.748464 0.000002 0.000004 -0.172839 -0.657551 0.233582
 26 -0.265069 5.687362 -14.279915 0.000000 -1.557662 -0.000028
 27 0.023288 0.041601 0.000000 0.000218 -0.076317 1.770430
 28 -11.072355 -0.043445 -0.000000 -0.000000 -0.000000 0.001744
 29 -8.108977 0.000001 -0.000000 2.201175 0.637426 -0.935971
 30 -0.788880 0.969697 -0.533611 2.183871 -0.617208 -0.066701
 31 -1.920301 0.000001 0.000000 -0.000000 -0.000000 -0.398791
 32 -0.858253 0.000000 0.000002 0.081890 -0.160113 -0.181525
 33 -2.955713 0.752579 0.160551 3.035596 0.174453 0.039807
 34 -1.836090 -0.000000 0.000000 -0.024423 0.065359 -0.003135
 35 -0.853992 -0.000001 -0.000000 -0.014563 0.009670 -0.028225
 36 -2.964905 -0.017482 0.178522 3.129027 -1.061108 0.202043
 37 -1.814737 -0.000000 0.000000 0.405653 1.885247 0.440929
 38 -0.982321 0.000000 0.000000 -0.000000 0.095993 -0.021736
 39 -2.889731 -0.720927 0.212796 3.052539 -1.118135 0.122346
 40 -1.751859 0.000001 0.000002 0.053740 1.733631 0.075566
 41 -0.853991 -0.000001 0.000000 -0.000000 0.043633 -0.000000
 42 -2.857164 -1.430684 0.078012 3.131547 -1.113726 -0.176716
 43 -1.152892 -0.000001 0.000001 0.555740 1.186077 0.359454
 44 -0.748467 0.000001 -0.000001 0.001111 0.817920 0.051381
 45 0.000000 0.000000 0.000000 0.000000 -0.000000 0.000000
time 25
  0 -1.406816 -15.576885 -11.973747 -1.088117 2.594799 0.886017
  1 -0.144318 2.201125 -0.433553 0.000000 -0.000000 -0.000000
  2 7.426659 1.822590 0.000003 0.000000 -0.000000 -0.000000
  3 -3.080628 2.936172 0.000001 0.000000 -0.000000 -0.000000
  4 1.856766 0.774354 0.000002 0.000000 -0.000000 -0.000000
  5 -4.289258 1.370560 -0.526309 0.000000 -0.000000 -0.000000
  6 0.402406 -15.244843 -13.780000 -1.088117 2.594799 0.886017
  7 -14.090535 -4.644634 -16.200346 0.000001 -1.587050 -0.000047
  8 0.023288 0.041601 0.000000 0.391051 -0.695158 1.100556
  9 -11.072351 -0.043444 -0.000002 -0.000000 0.000000 1.026264
 10 -8.108975 -0.000002 -0.000001 1.193056 2.064892 0.971796
 11 -0.758959 -0.993294 -0.533611 1.150144 -0.720310 -0.319658
 12 -1.920301 0.000002 0.000001 -0.000000 0.000000 -0.398791
 13 -0.858257 0.000000 0.000000 -0.000000 -0.000000 0.069433
 14 -2.931402 -0.842323 0.160552 0.009761 -1.130650 0.036947
 15 -1.836087 -0.000002 0.000002 -0.266304 -2.001009 0.228884
 16 -0.853992 0.000001 0.000000 0.002756 -0.113413 -0.024347
 17 -2.964058 -0.072900 0.178523 -0.249902 -1.090908 0.154708
 18 -1.814738 0.000000 0.000000 -0.521633 -1.936028 0.662898
 19 -0.982325 0.000000 0.000000 0.000000 -0.095993 -0.021736
 20 -2.910368 0.632509 0.212798 -0.125651 -0.987490 0.222888
 21 -1.751856 -0.000001 -0.000001 -0.052441 -1.717524 0.086237
 22 -0.853992 0.000002 0.000000 -0.112170 -0.424833 -0.044433
 23 -2.899450 1.342927 0.078012 -0.089247 -0.937081 0.400139
 24 -1.152892 -0.000004 0.000001 -0.148505 -1.053336 0.063609
 25 -0.748463 -0.000002 0.000000 -0.172839 -0.657551 0.233582
 26 -0.222099 5.687362 -14.916653 0.000000 -1.557662 -0.000028
 27 0.023288 0.041601 0.000000 0.000206 -0.070744 1.760633
 28 -11.072353 -0.043446 -0.000000 0.000000 0.000000 0.001744
 29 -8.108977 0.000002 0.000000 2.198989 0.619846 -0.889543
 30 -0.788882 0.969698 -0.533611 2.183871 -0.617208 -0.066701
 31 -1.920301 0.000001 0.000001 0.000000 0.000000 -0.398791
 32 -0.858250 0.000000 -0.000001 0.081890 -0.160113 -0.181525
 33 -2.955715 0.752581 0.160553 3.037550 0.166711 0.036775
 34 -1.836088 0.000000 -0.000002 -0.020902 0.090180 -0.002942
 35 -0.853996 0.000000 0.000001 -0.012874 0.024794 -0.027733
 36 -2.964907 -0.017482 0.178523 3.129027 -1.061108 0.202043
 37 -1.814736 0.000000 0.000002 0.405653 1.885247 0.440929
 38 -0.982325 0.000000 0.000000 0.000000 0.095993 -0.021736
 39 -2.889734 -0.720926 0.212798 3.052539 -1.118135 0.122346
 40 -1.751860 0.000001 -0.000002 0.053741 1.733631 0.075567
 41 -0.853994 0.000001 0.000000 -0.000000 0.043633 0.000000
 42 -2.857166 -1.430681 0.078013 3.131547 -1.113726 -0.176716
 43 -1.152892 0.000000 0.000001 0.555740 1.186077 0.359454
 44 -0.748465 0.000001 -0.000001 0.001111 0.817920 0.051381
 45 0.000000 0.000000 0.000000 0.000000 -0.000000 0.000000
time 26
  0 -1.406816 -15.576885 -12.883931 -1.042949 2.618353 0.926617
  1 -0.144321 2.201125 -0.433555 -0.000000 -0.000000 -0.000000
  2 7.426657 1.822590 0.000002 -0.000000 -0.000000 -0.000000
  3 -3.080631 2.936172 0.000000 -0.000000 -0.000000 -0.000000
  4 1.856764 0.774354 0.000001 -0.000000 -0.000000 -0.000000
  5 -4.289260 1.370559 -0.526312 -0.000000 -0.000000 -0.000000
  6 0.425844 -15.291720 -14.674558 -1.042949 2.618353 0.926617
  7 -13.973344 -4.644634 -16.813646 0.000001 -1.587050 -0.000047
  8 0.023289 0.041601 0.000000 0.383680 -0.690462 1.084094
  9 -11.072357 -0.043447 -0.000002 0.000000 0.000000 1.018207
 10 -8.108974 0.000000 0.000001 1.248567 2.032684 1.085078
 11 -0.758957 -0.993293 -0.533609 1.150144 -0.720310 -0.319658
 12 -1.920301 -0.000002 0.000000 -0.000000 -0.000000 -0.398791
 13 -0.858250 0.000000 0.000000 -0.000000 0.000000 0.069433
 14 -2.931400 -0.842325 0.160553 0.009761 -1.130650 0.036947
 15 -1.836088 -0.000002 0.000000 -0.266304 -2.001009 0.228884
 16 -0.853991 0.000002 0.000000 0.002756 -0.113413 -0.024347
 17 -2.964058 -0.072900 0.178523 -0.249902 -1.090908 0.154708
 18 -1.814732 0.000000 -0.000002 -0.521633 -1.936028 0.662898
 19 -0.982327 0.000000 0.000000 0.000000 -0.095993 -0.021736
 20 -2.910364 0.632508 0.212796 -0.125651 -0.987490 0.222888
 21 -1.751857 0.000002 0.000001 -0.052441 -1.717525 0.086237
 22 -0.853991 0.000000 -0.000003 -0.112170 -0.424833 -0.044433
 23 -2.899448 1.342929 0.078011 -0.089247 -0.937081 0.400139
 24 -1.152894 -0.000002 0.000000 -0.148505 -1.053336 0.063609
 25 -0.748464 0.000000 0.000006 -0.172839 -0.657551 0.233582
 26 -0.147878 5.687362 -15.541672 0.000000 -1.557662 -0.000028
 27 0.023286 0.041601 -0.000000 0.000182 -0.065914 1.746995
 28 -11.072353 -0.043445 0.000000 0.000000 0.000000 0.001744
 29 -8.108975 0.000001 0.000000 2.204255 0.596316 -0.828991
 30 -0.788883 0.969697 -0.533611 2.183871 -0.617208 -0.066701
 31 -1.920300 0.000003 0.000001 0.000000 0.000000 -0.398791
 32 -0.858250 0.000000 -0.000001 0.081890 -0.160113 -0.181525
 33 -2.955715 0.752579 0.160553 3.039923 0.157483 0.033131
 34 -1.836086 -0.000001 -0.000001 -0.016745 0.119542 -0.002605
 35 -0.853992 -0.000001 0.000000 -0.010860 0.042687 -0.027122
 36 -2.964905 -0.017483 0.178523 3.129027 -1.061108 0.202043
 37 -1.814737 0.000001 -0.000004 0.405653 1.885247 0.440928
 38 -0.982325 0.000000 -0.000000 -0.000000 0.095993 -0.021736
 39 -2.889734 -0.720927 0.212796 3.052539 -1.118135 0.122346
 40 -1.751860 0.000001 0.000002 0.053741 1.733631 0.075567
 41 -0.853992 0.000001 0.000001 -0.000000 0.043633 0.000000
 42 -2.857166 -1.430681 0.078013 3.131547 -1.113726 -0.176716
 43 -1.152891 -0.000001 0.000002 0.555740 1.186077 0.359454
 44 -0.748466 0.000000 0.000000 0.001111 0.817920 0.051381
 45 0.000000 0.000000 0.000000 0.000000 -0.000000 0.000000
time 27
  0 -1.367752 -15.576885 -13.817553 -0.997440 2.645983 0.973199
  1 -0.144318 2.201125 -0.433553 0.000000 0.000000 -0.000000
  2 7.426659 1.822590 0.000002 0.000000 0.000000 -0.000000
  3 -3.080629 2.936172 0.000001 0.000000 0.000000 -0.000000
  4 1.856766 0.774352 0.000001 0.000000 0.000000 -0.000000
  5 -4.289258 1.370559 -0.526311 0.000000 0.000000 -0.000000
  6 0.484440 -15.326877 -15.592555 -0.997440 2.645983 0.973199
  7 -13.836621 -4.644634 -17.403507 0.000001 -1.587050 -0.000047
  8 0.023289 0.041601 0.000000 0.374668 -0.687055 1.068016
  9 -11.072351 -0.043442 0.000000 -0.000000 -0.000000 1.003599
 10 -8.108972 0.000000 0.000004 1.333186 2.001781 1.233662
 11 -0.758957 -0.993291 -0.533612 1.150144 -0.720310 -0.319658
 12 -1.920301 -0.000001 0.000001 0.000000 -0.000000 -0.398791
 13 -0.858253 -0.000001 0.000000 -0.000000 0.000000 0.069433
 14 -2.931400 -0.842321 0.160552 0.009761 -1.130650 0.036947
 15 -1.836088 -0.000001 0.000002 -0.266304 -2.001009 0.228884
 16 -0.853994 0.000000 -0.000001 0.002756 -0.113413 -0.024347
 17 -2.964056 -0.072897 0.178522 -0.249902 -1.090908 0.154708
 18 -1.814738 -0.000002 0.000000 -0.521633 -1.936028 0.662898
 19 -0.982327 -0.000002 0.000000 0.000000 -0.095993 -0.021736
 20 -2.910364 0.632511 0.212796 -0.125651 -0.987490 0.222888
 21 -1.751857 0.000000 0.000000 -0.052440 -1.717525 0.086236
 22 -0.853991 0.000002 0.000000 -0.112170 -0.424833 -0.044433
 23 -2.899448 1.342929 0.078011 -0.089247 -0.937081 0.400139
 24 -1.152891 0.000000 0.000000 -0.148505 -1.053336 0.063609
 25 -0.748461 0.000002 0.000006 -0.172839 -0.657551 0.233582
 26 -0.061938 5.687362 -16.151066 0.000000 -1.557662 -0.000028
 27 0.023293 0.041601 0.000000 0.000170 -0.061612 1.730755
 28 -11.072354 -0.043445 0.000000 -0.000000 0.000000 0.001744
 29 -8.108975 0.000001 0.000000 2.212139 0.567419 -0.761377
 30 -0.788882 0.969696 -0.533612 2.183871 -0.617208 -0.066701
 31 -1.920301 0.000002 0.000001 0.000000 0.000000 -0.398791
 32 -0.858253 0.000002 0.000000 0.081890 -0.160113 -0.181525
 33 -2.955715 0.752579 0.160551 3.042703 0.146733 0.028877
 34 -1.836088 0.000000 0.000001 -0.011903 0.153487 -0.002027
 35 -0.853996 -0.000001 -0.000002 -0.008511 0.063370 -0.026367
 36 -2.964905 -0.017484 0.178520 3.129027 -1.061108 0.202043
 37 -1.814735 0.000000 0.000000 0.405653 1.885246 0.440928
 38 -0.982321 0.000000 -0.000000 0.000000 0.095993 -0.021736
 39 -2.889732 -0.720929 0.212796 3.052539 -1.118135 0.122346
 40 -1.751860 0.000001 -0.000002 0.053741 1.733631 0.075567
 41 -0.853992 0.000001 0.000000 0.000000 0.043633 0.000000
 42 -2.857166 -1.430683 0.078011 3.131547 -1.113726 -0.176716
 43 -1.152893 0.000002 0.000001 0.555740 1.186077 0.359454
 44 -0.748466 0.000000 0.000001 0.001111 0.817920 0.051381
 45 0.000000 0.000000 0.000000 0.000000 -0.000000 0.000000
time 28
  0 -1.313063 -15.576885 -14.739457 -0.953081 2.674936 1.021376
  1 -0.144318 2.201122 -0.433553 0.000000 -0.000000 0.000000
  2 7.426662 1.822590 0.000001 0.000000 -0.000000 0.000000
  3 -3.080629 2.936172 0.000000 0.000000 -0.000000 0.000000
  4 1.856764 0.774353 0.000000 0.000000 -0.000000 0.000000
  5 -4.289257 1.370558 -0.526312 0.000000 -0.000000 0.000000
  6 0.562567 -15.358128 -16.491020 -0.953081 2.674936 1.021376
  7 -13.703804 -4.644634 -17.962118 0.000001 -1.587050 -0.000047
  8 0.023285 0.041601 0.000000 0.364625 -0.685343 1.054037
  9 -11.072357 -0.043444 0.000001 -0.000000 -0.000000 0.982912
 10 -8.108976 0.000002 -0.000001 1.439174 1.978162 1.407249
 11 -0.758961 -0.993292 -0.533611 1.150144 -0.720310 -0.319658
 12 -1.920303 -0.000003 0.000001 0.000000 0.000000 -0.398791
 13 -0.858252 -0.000001 0.000001 0.000000 -0.000000 0.069433
 14 -2.931404 -0.842324 0.160553 0.009761 -1.130650 0.036947
 15 -1.836087 -0.000001 0.000000 -0.266304 -2.001009 0.228884
 16 -0.853991 0.000000 0.000001 0.002756 -0.113413 -0.024347
 17 -2.964062 -0.072898 0.178524 -0.249902 -1.090908 0.154708
 18 -1.814737 0.000000 0.000000 -0.521633 -1.936028 0.662898
 19 -0.982327 0.000000 0.000001 -0.000000 -0.095993 -0.021736
 20 -2.910368 0.632511 0.212798 -0.125651 -0.987490 0.222888
 21 -1.751857 0.000000 0.000000 -0.052440 -1.717525 0.086237
 22 -0.853992 0.000000 0.000000 -0.112170 -0.424833 -0.044433
 23 -2.899452 1.342928 0.078012 -0.089247 -0.937081 0.400139
 24 -1.152893 0.000000 0.000001 -0.148505 -1.053336 0.063609
 25 -0.748464 0.000004 0.000004 -0.172839 -0.657551 0.233582
 26 0.027908 5.687362 -16.729208 0.000000 -1.557662 -0.000028
 27 0.023289 0.041601 0.000000 0.000158 -0.057705 1.713238
 28 -11.072354 -0.043444 0.000000 -0.000000 -0.000000 0.001744
 29 -8.108980 0.000003 0.000000 2.218699 0.534911 -0.693236
 30 -0.788881 0.969695 -0.533612 2.183871 -0.617208 -0.066701
 31 -1.920302 0.000002 -0.000001 -0.000000 0.000000 -0.398791
 32 -0.858250 -0.000001 0.000000 0.081890 -0.160113 -0.181525
 33 -2.955713 0.752579 0.160553 3.045951 0.134449 0.023975
 34 -1.836088 -0.000001 -0.000001 -0.006327 0.192141 -0.001208
 35 -0.853994 -0.000001 -0.000001 -0.005815 0.086940 -0.025456
 36 -2.964905 -0.017484 0.178524 3.129027 -1.061108 0.202043
 37 -1.814736 0.000001 -0.000004 0.405653 1.885246 0.440929
 38 -0.982325 0.000001 -0.000001 0.000000 0.095993 -0.021736
 39 -2.889732 -0.720929 0.212797 3.052539 -1.118135 0.122346
 40 -1.751857 0.000001 0.000004 0.053741 1.733631 0.075567
 41 -0.853992 0.000001 -0.000001 0.000000 0.043633 0.000000
 42 -2.857166 -1.430682 0.078014 3.131547 -1.113726 -0.176716
 43 -1.152892 0.000001 0.000001 0.555740 1.186077 0.359454
 44 -0.748466 0.000000 -0.000002 0.001111 0.817920 0.051381
 45 0.000000 0.000000 0.000000 0.000000 -0.000000 0.000000
time 29
  0 -1.258374 -15.576885 -15.606670 -0.911316 2.702482 1.067161
  1 -0.144318 2.201123 -0.433556 0.000000 -0.000000 -0.000000
  2 7.426659 1.822589 -0.000002 0.000000 -0.000000 -0.000000
  3 -3.080629 2.936172 0.000000 0.000000 -0.000000 -0.000000
  4 1.856766 0.774352 -0.000001 0.000000 -0.000000 -0.000000
  5 -4.289258 1.370558 -0.526312 0.000000 -0.000000 -0.000000
  6 0.644601 -15.377660 -17.330889 -0.911316 2.702482 1.067161
  7 -13.594426 -4.644634 -18.481665 0.000001 -1.587050 -0.000047
  8 0.023285 0.041601 0.000000 0.354054 -0.685608 1.043634
  9 -11.072353 -0.043444 -0.000002 0.000000 -0.000000 0.957031
 10 -8.108976 0.000002 -0.000002 -1.591209 1.176968 -1.554864
 11 -0.758957 -0.993292 -0.533609 1.150144 -0.720310 -0.319658
 12 -1.920300 0.000000 -0.000000 0.000000 0.000000 -0.398791
 13 -0.858255 -0.000001 0.000000 0.000000 0.000000 0.069433
 14 -2.931402 -0.842322 0.160555 0.009761 -1.130650 0.036947
 15 -1.836085 0.000000 -0.000002 -0.266304 -2.001009 0.228884
 16 -0.853996 0.000000 -0.000001 0.002756 -0.113413 -0.024347
 17 -2.964056 -0.072898 0.178525 -0.249902 -1.090908 0.154708
 18 -1.814734 0.000000 0.000000 -0.521633 -1.936028 0.662899
 19 -0.982327 -0.000002 0.000000 -0.000000 -0.095993 -0.021736
 20 -2.910368 0.632509 0.212796 -0.125651 -0.987490 0.222888
 21 -1.751856 0.000004 0.000000 -0.052441 -1.717525 0.086237
 22 -0.853992 0.000000 0.000002 -0.112170 -0.424833 -0.044433
 23 -2.899450 1.342929 0.078015 -0.089247 -0.937081 0.400139
 24 -1.152891 0.000000 -0.000002 -0.148505 -1.053336 0.063609
 25 -0.748464 0.000002 0.000002 -0.172839 -0.657551 0.233582
 26 0.102129 5.687362 -17.260473 0.000000 -1.557662 -0.000028
 27 0.023289 0.041601 0.000000 0.000146 -0.054218 1.695846
 28 -11.072355 -0.043444 0.000000 0.000000 -0.000000 0.001744
 29 -8.108980 0.000004 0.000000 2.221346 0.501610 -0.630363
 30 -0.788881 0.969696 -0.533612 2.183871 -0.617208 -0.066701
 31 -1.920300 0.000000 0.000000 -0.000000 0.000000 -0.398791
 32 -0.858253 -0.000000 -0.000001 0.081890 -0.160113 -0.181525
 33 -2.955711 0.752579 0.160552 3.049678 0.120606 0.018414
 34 -1.836090 0.000000 -0.000003 0.000030 0.235632 0.000044
 35 -0.853992 -0.000002 -0.000002 -0.002747 0.113420 -0.024342
 36 -2.964905 -0.017483 0.178522 3.129027 -1.061108 0.202043
 37 -1.814735 0.000000 0.000002 0.405653 1.885246 0.440929
 38 -0.982323 0.000000 0.000001 0.000000 0.095993 -0.021736
 39 -2.889732 -0.720927 0.212796 3.052539 -1.118135 0.122346
 40 -1.751859 0.000000 -0.000004 0.053741 1.733631 0.075567
 41 -0.853989 0.000002 -0.000001 0.000000 0.043633 0.000000
 42 -2.857168 -1.430681 0.078013 3.131547 -1.113726 -0.176716
 43 -1.152892 0.000000 0.000001 0.555740 1.186077 0.359454
 44 -0.748464 0.000002 -0.000003 0.001111 0.817920 0.051381
 45 0.000000 0.000000 0.000000 0.000000 -0.000000 0.000000
time 30
  0 -1.223217 -15.576885 -16.380133 -0.873680 2.725893 1.106404
  1 -0.144320 2.201125 -0.433553 0.000000 -0.000000 -0.000000
  2 7.426655 1.822592 0.000003 0.000000 -0.000000 -0.000000
  3 -3.080631 2.936172 0.000001 0.000000 -0.000000 -0.000000
  4 1.856762 0.774354 0.000003 0.000000 -0.000000 -0.000000
  5 -4.289260 1.370559 -0.526311 0.000000 -0.000000 -0.000000
  6 0.707103 -15.397192 -18.077005 -0.873680 2.725893 1.106404
  7 -13.535830 -4.644634 -18.950430 0.000001 -1.587050 -0.000047
  8 0.023289 0.041601 0.000000 0.343856 -0.687832 1.037191
  9 -11.072354 -0.043444 -0.000001 -0.000000 -0.000000 0.928376
 10 -8.108975 0.000000 -0.000001 -1.495660 1.181573 -1.394379
 11 -0.758957 -0.993293 -0.533610 1.150144 -0.720310 -0.319658
 12 -1.920301 0.000000 0.000001 0.000000 -0.000000 -0.398791
 13 -0.858255 0.000000 0.000000 -0.000000 -0.000000 0.069433
 14 -2.931400 -0.842324 0.160554 0.009761 -1.130650 0.036947
 15 -1.836089 0.000000 -0.000004 -0.266304 -2.001009 0.228884
 16 -0.853992 -0.000002 -0.000002 0.002756 -0.113413 -0.024347
 17 -2.964060 -0.072900 0.178524 -0.249902 -1.090908 0.154708
 18 -1.814735 0.000000 -0.000002 -0.521632 -1.936028 0.662898
 19 -0.982327 0.000000 0.000002 -0.000000 -0.095993 -0.021736
 20 -2.910368 0.632509 0.212796 -0.125651 -0.987490 0.222888
 21 -1.751860 0.000000 -0.000002 -0.052441 -1.717525 0.086237
 22 -0.853992 0.000002 -0.000002 -0.112170 -0.424833 -0.044433
 23 -2.899450 1.342929 0.078012 -0.089247 -0.937081 0.400139
 24 -1.152891 0.000000 0.000002 -0.148505 -1.053336 0.063609
 25 -0.748461 0.000002 0.000002 -0.172839 -0.657551 0.233582
 26 0.149006 5.687362 -17.733145 0.000000 -1.557662 -0.000028
 27 0.023289 0.041601 0.000000 0.000146 -0.051257 1.680094
 28 -11.072352 -0.043442 0.000000 -0.000000 0.000000 0.001744
 29 -8.108974 0.000004 0.000000 2.218584 0.471252 -0.577828
 30 -0.788885 0.969698 -0.533611 2.183871 -0.617208 -0.066701
 31 -1.920302 0.000002 -0.000002 0.000000 0.000000 -0.398791
 32 -0.858250 -0.000002 0.000003 0.081890 -0.160113 -0.181525
 33 -2.955717 0.752581 0.160552 -3.123752 -0.194109 -0.127606
 34 -1.836092 0.000000 -0.000000 0.431780 1.272550 0.338688
 35 -0.853994 -0.000001 0.000000 0.100992 0.754840 0.041957
 36 -2.964905 -0.017483 0.178523 3.129027 -1.061108 0.202043
 37 -1.814737 -0.000001 0.000000 0.405653 1.885246 0.440929
 38 -0.982327 -0.000001 0.000000 -0.000000 0.095993 -0.021736
 39 -2.889736 -0.720927 0.212796 3.052539 -1.118135 0.122346
 40 -1.751860 0.000000 0.000000 0.053741 1.733631 0.075567
 41 -0.853992 -0.000001 -0.000001 0.000000 0.043633 0.000000
 42 -2.857168 -1.430682 0.078012 3.131547 -1.113726 -0.176716
 43 -1.152891 0.000002 0.000002 0.555740 1.186077 0.359454
 44 -0.748466 0.000001 0.000000 0.001111 0.817920 0.051381
 45 0.000000 0.000000 0.000000 0.000000 -0.000000 0.000000
end
