// Created by Crowbar 0.42.0.0

$ModelName "weapons\w_sharps.mdl"

$BodyGroup "studio"
{
	studio "w_sharps_reference.smd"
}


$SurfaceProp "weapon"

$Contents "solid"

$MaxEyeDeflection 90

$CDMaterials "models\weapons\"

$Attachment "muzzle" "ValveBiped.Weapon_bone" 40 -0.5 0 rotate 0 0 0

$CBox 0 0 0 0 0 0

$BBox -36.462 -2.66 -10.872 14.214 7.041 7.035

$DefineBone "ValveBiped" "" 0 0 0 0 -2.226744 89.999983 0 0 0 0 0 0
$DefineBone "ValveBiped.Bip01_R_Hand" "ValveBiped" 1.732902 -3.330455 4.469596 82.088124 -103.363658 2.497466 0 0 0 0 0 0
$DefineBone "ValveBiped.Weapon_bone" "ValveBiped.Bip01_R_Hand" 5.011305 -1.481179 -4.862278 3.606941 0.238237 0.415624 0 0 0 0 0 0


$Sequence "idle" {
	"w_sharps_anims\idle.smd"
	fadein 0.2
	fadeout 0.2
	fps 30
}

$Sequence "attack1" {
	"w_sharps_anims\attack1.smd"
	activity "ACT_RANGE_ATTACK_SMG1" 1
	{ event AE_NPC_MUZZLEFLASH 0 "SHOTGUN MUZZLE" }
	{ event 3004 0 "" }
	fadein 0.2
	fadeout 0.2
	fps 30
}

$CollisionModel "w_sharps_physics.smd"
{
	$mass 5
	$inertia 1
	$damping 0
	$rotdamping 0
	$rootbone " "

}
