
VertexLitGeneric
{

	$baseTexture				models/jessev92/hl2/weapons/aks74u/ak74comp_d
	$bumpmap					dev/bump_normal

	$halflambert				1
	$ambientocclusion			1
	
	$detail						detail/metal_detail_01
	$detailscale				2
	$detailblendfactor			0.95
	$detailblendmode			0
	
}
