"VertexlitGeneric"
{
	"$basetexture" "models/weapons/view_models/carbine/carbine"
      "$bumpmap" "models/weapons/view_models/carbine/carbine_normal"
	"$phong" "1"
	"$phongexponent" "10"
	"$phongboost" "0.5"	
	"$phongfresnelranges"	"[1 3 6]"
//	"$halflambert" "1"
	"$phongalbedotint" "1"
}
