
VertexLitGeneric
{

	$baseTexture				models/jessev92/hl2/weapons/coltknife/coltknife_d
	$bumpmap					models/jessev92/hl2/weapons/coltknife/coltknife_b

	$halflambert				1
	$ambientocclusion			1
	$nocull						0

	$detail						detail/metal_detail_01
	$detailscale				2
	$detailblendfactor			0.95
	$detailblendmode			0
	
}
