
VertexLitGeneric
{
	
	$baseTexture models/jessev92/sin/weapons/magnum/w/magnum_d
	$bumpmap dev/bump_normal
	$lightwarptexture dev/identitylightwarp

	$halflambert 1
	$ambientocclusion 1
	$surfaceprop weapon
	$selfillum 0

	$phong 1
	$phongtint "[ 0.5 0.5 0.5 ]"

}
