VertexLitGeneric
{
	//"$baseTexture" "models/jessev92/halo/reach/common/phongwarp_sheen"
	"$blendtintbybasealpha" 0
	"$additive" 1

	$halflambert 1
	"$translucent" "1"
	"$nocull"		"1"

	"$normalmapalphaenvmapmask" 1
	"$envmap" "engine/eye-reflection-cubemap-"
	"$envmaptint" "[ 0.1 0.1 0.1 ]"
	"$envmapsaturation" "1"
	"$envmapcontrast" "1"
 	"$envmapFresnel" "1"
	
	"$phong" "1"
	"$phongexponent" "190"
	"$phongboost" "90"
	"$phongfresnelranges"	"[ .3 1.2 8]"
	"$PhongAlbedoTint" "1"
}
