VertexLitGeneric
{
	"$baseTexture" "models/jessev92/halo/reach/weapons/common/carbine_scope_ret_d"

	"$translucent" "1"
	"$nocull"		"1"
	"$selfillum" "1"
	"$selfillummaskscale" "4"
	"$additive" "1"
	"$rimlight" "1"
	"$rimlightexponent" "4"	
	"$rimlightboost" "2"
	"$glowcolor" "1"
}