VertexLitGeneric
{
	"$baseTexture" "models/jessev92/halo/reach/weapons/common/carbine_scope_body_d"
	"$bumpmap" "models/jessev92/halo/reach/weapons/common/carbine_scope_body_n"


	//"$envmap"	"env_cubemap"
	"$envmaptint"	"[0 0.05 0.1]"

	"$phong" "1"
	"$phongboost" "0.5"
	"$phongexponent" "5"
	"$phongexponenttexture" "models/jessev92/halo/reach/common/halosp"
	"$phongalbedotint" "1"
	"$phongfresnelranges"	"[1 1 1]"

	"$detail" "models/jessev92/halo/reach/common/paint"
	"$detailscale" "20"
	"$detailblendfactor" "3"
	"$detailblendmode" "0"



	"$rimlight" "1"
	"$rimlightexponent" "50"
	"$rimlightboost" "0.05"
}