// Created by Crowbar 0.29.0.0
version 1
nodes
  0 "silencer" -1
  1 "f1slide" -1
  2 "Body" -1
  3 "Triggrt" -1
  4 "Magaine" -1
  5 "bullet" -1
  6 "SlideLock01" -1
  7 "L_Armdummy" -1
  8 "L_Upperarm" 7
  9 "L_Forearm" 8
  10 "L_Wrist" 9
  11 "L_Thumb1" 10
  12 "L_Thumb2" 11
  13 "L_Thumb3" 12
  14 "L_Index1" 10
  15 "L_Index2" 14
  16 "L_Index3" 15
  17 "L_Mid1" 10
  18 "L_Mid2" 17
  19 "L_Mid3" 18
  20 "L_Ring1" 10
  21 "L_Ring2" 20
  22 "L_Ring3" 21
  23 "L_Pinky1" 10
  24 "L_Pinky2" 23
  25 "L_Pinky3" 24
  26 "R_Armdummy" -1
  27 "R_Upperarm" 26
  28 "R_Forearm" 27
  29 "R_Wrist" 28
  30 "R_Thumb1" 29
  31 "R_Thumb2" 30
  32 "R_Thumb3" 31
  33 "R_Index1" 29
  34 "R_Index2" 33
  35 "R_Index3" 34
  36 "R_Mid1" 29
  37 "R_Mid2" 36
  38 "R_Mid3" 37
  39 "R_Ring1" 29
  40 "R_Ring2" 39
  41 "R_Ring3" 40
  42 "R_Pinky1" 29
  43 "R_Pinky2" 42
  44 "R_Pinky3" 43
end
skeleton
  time 0
    0 2.287296 -17.102958 -1.579219 1.570797 0.000000 3.141421
    1 2.284861 -10.586294 -1.595172 1.570797 0.000000 3.141304
    2 2.284823 -9.621324 -2.467896 1.570797 0.000000 3.141304
    3 2.287979 -10.142655 -2.446465 0.622748 0.000000 3.141304
    4 2.280910 -8.416236 -3.612762 1.570797 0.000000 3.141304
    5 2.278011 -9.050810 -1.847671 1.570797 0.000000 3.141304
    6 2.740668 -10.425643 -2.206399 1.570797 0.000000 3.141304
    7 8.412141 3.448129 0.658960 -3.141592 1.543843 3.141384
    8 -0.023288 0.041601 -0.000002 0.332352 0.346310 -0.270017
    9 11.072354 -0.043445 0.000000 0.000000 0.000000 -1.882715
    10 8.108976 0.000000 0.000000 0.257590 -0.402715 0.557163
    11 0.758958 -0.993291 -0.533611 0.379797 0.535486 -0.120431
    12 1.920300 0.000001 0.000000 -0.037272 -0.088062 0.691716
    13 0.858253 0.000000 0.000000 0.000000 0.000000 -0.069433
    14 2.931401 -0.842323 0.160553 0.091324 0.061197 -0.117911
    15 1.836089 0.000000 0.000000 -3.141400 1.323310 3.141400
    16 0.853993 0.000000 0.000001 0.002756 0.113413 0.024347
    17 2.964058 -0.072899 0.178523 -0.240482 0.965022 0.037114
    18 1.814737 0.000000 -0.000001 -3.126544 1.134857 3.134449
    19 0.982325 0.000000 0.000000 0.000000 0.095993 0.021736
    20 2.910365 0.632510 0.212796 -0.429335 1.029775 -0.123005
    21 1.751859 0.000000 0.000000 -3.141592 1.109249 3.105024
    22 0.853992 0.000000 0.000000 0.000000 0.043633 0.000000
    23 2.899446 1.342928 0.078011 -0.753950 1.017286 -0.473141
    24 1.152892 0.000000 0.000001 0.052865 1.429404 0.108931
    25 0.748462 0.000000 0.000000 0.000000 0.314159 -0.057080
    26 -9.925375 3.371265 1.355404 -3.141592 1.373401 -3.141893
    27 -0.023288 0.041601 0.000000 -0.530939 -0.726880 -0.367346
    28 11.072358 -0.043442 0.000000 0.000000 0.000000 -1.253072
    29 8.108981 -0.000004 0.000001 2.741195 0.851196 -0.027451
    30 0.788882 0.969696 -0.533611 -3.125029 0.043111 0.419540
    31 1.920304 0.000000 0.000000 0.000000 0.000000 0.882819
    32 0.858252 0.000000 0.000001 0.000000 0.000000 -0.139246
    33 2.955714 0.752579 0.160553 3.141592 1.279169 -0.015797
    34 1.836087 0.000000 0.000000 0.000000 -0.235619 0.000000
    35 0.853994 0.000000 0.000000 -0.002756 -0.113413 0.024347
    36 2.964906 -0.017483 0.178523 3.141592 1.287895 -0.015797
    37 1.814736 0.000000 0.000000 0.006645 -0.296634 -0.022729
    38 0.982326 0.000000 -0.000001 0.000000 -0.095993 0.021736
    39 2.889733 -0.720928 0.212797 3.110577 1.374961 -0.082288
    40 1.751860 0.000000 0.000000 0.000000 -0.375246 -0.036569
    41 0.853992 0.000000 0.000001 0.000000 -0.043633 0.000000
    42 2.857167 -1.430683 0.078013 3.141590 1.488608 -0.015799
    43 1.152892 -0.000001 0.000002 -0.007510 -0.130685 0.057571
    44 0.748465 0.000000 -0.000001 0.000000 -0.314159 -0.057080
  time 1
    0 2.287296 -16.278055 -0.239334 1.734702 0.000000 3.141421
    1 2.284861 -8.824522 -1.489700 1.734634 0.000000 3.141304
    2 2.284823 -9.015837 -2.335080 1.734634 0.000000 3.141304
    3 2.287979 -9.529355 -2.235521 0.777991 0.000000 3.141304
    4 2.280910 -8.021693 -3.667451 1.734634 0.000000 3.141304
    5 2.278011 -8.359382 -1.816420 1.734634 0.000000 3.141304
    6 2.740668 -9.773279 -1.948579 1.734634 0.000000 3.141304
    7 8.412141 3.448129 0.658960 -3.141592 1.543843 3.141384
    8 -0.023288 0.041601 -0.000002 0.329991 0.344884 -0.215130
    9 11.072354 -0.043445 0.000000 0.000000 0.000000 -1.878873
    10 8.108976 0.000000 0.000000 0.336930 -0.331572 0.330676
    11 0.758958 -0.993291 -0.533611 0.379797 0.535486 -0.120431
    12 1.920300 0.000001 0.000000 -0.037272 -0.088062 0.691716
    13 0.858253 0.000000 0.000000 0.000000 0.000000 -0.069433
    14 2.931401 -0.842323 0.160553 0.091324 0.061197 -0.117911
    15 1.836089 0.000000 0.000000 -3.141400 1.315799 -3.141400
    16 0.853993 0.000000 0.000001 0.002756 0.113413 0.024347
    17 2.964058 -0.072899 0.178523 -0.240482 0.965022 0.037114
    18 1.814737 0.000000 -0.000001 -3.126544 1.134857 3.134449
    19 0.982325 0.000000 0.000000 0.000000 0.095993 0.021736
    20 2.910365 0.632510 0.212796 -0.429335 1.029775 -0.123005
    21 1.751859 0.000000 0.000000 -3.141592 1.109249 3.105024
    22 0.853992 0.000000 0.000000 0.000000 0.043633 0.000000
    23 2.899446 1.342928 0.078011 -0.753950 1.017286 -0.473141
    24 1.152892 0.000000 0.000001 0.052865 1.429404 0.108931
    25 0.748462 0.000000 0.000000 0.000000 0.314159 -0.057080
    26 -9.925375 3.371265 1.355404 -3.141592 1.373401 -3.141893
    27 -0.023288 0.041601 0.000000 -0.515075 -0.729802 -0.343377
    28 11.072358 -0.043442 0.000000 0.000000 0.000000 -1.216010
    29 8.108981 -0.000004 0.000001 2.584281 0.751798 -0.307566
    30 0.788882 0.969696 -0.533611 -3.125029 0.043111 0.419540
    31 1.920304 0.000000 0.000000 0.000000 0.000000 0.882819
    32 0.858252 0.000000 0.000001 0.000000 0.000000 -0.139246
    33 2.955714 0.752579 0.160553 3.141592 1.279169 -0.015797
    34 1.836087 0.000000 0.000000 0.000000 -0.235619 0.000000
    35 0.853994 0.000000 0.000000 -0.002756 -0.113413 0.024347
    36 2.964906 -0.017483 0.178523 3.141592 1.287895 -0.015797
    37 1.814736 0.000000 0.000000 0.006645 -0.296634 -0.022729
    38 0.982326 0.000000 -0.000001 0.000000 -0.095993 0.021736
    39 2.889733 -0.720928 0.212797 3.110577 1.374961 -0.082288
    40 1.751860 0.000000 0.000000 0.000000 -0.375246 -0.036569
    41 0.853992 0.000000 0.000001 0.000000 -0.043633 0.000000
    42 2.857167 -1.430683 0.078013 3.141590 1.488608 -0.015799
    43 1.152892 -0.000001 0.000002 -0.007510 -0.130685 0.057571
    44 0.748465 0.000000 -0.000001 0.000000 -0.314159 -0.057080
  time 2
    0 2.287296 -15.983447 -0.184645 1.734702 0.000000 3.141421
    1 2.284861 -8.527638 -1.427198 1.734634 0.000000 3.141304
    2 2.284823 -8.718953 -2.272578 1.734634 0.000000 3.141304
    3 2.287979 -9.236377 -2.169112 0.758891 0.000000 3.141304
    4 2.280910 -7.720903 -3.612762 1.734634 0.000000 3.141304
    5 2.278011 -8.058592 -1.761731 1.734634 0.000000 3.141304
    6 2.740668 -9.480302 -1.886077 1.734634 0.000000 3.141304
    7 8.412141 3.448129 0.658960 -3.141592 1.543843 3.141384
    8 -0.023288 0.041601 -0.000002 0.341988 0.349738 -0.191655
    9 11.072354 -0.043445 0.000000 0.000000 0.000000 -1.912190
    10 8.108976 0.000000 0.000000 0.349489 -0.335704 0.340625
    11 0.758958 -0.993291 -0.533611 0.379797 0.535486 -0.120431
    12 1.920300 0.000001 0.000000 -0.037272 -0.088062 0.691716
    13 0.858253 0.000000 0.000000 0.000000 0.000000 -0.069433
    14 2.931401 -0.842323 0.160553 0.091324 0.061197 -0.117911
    15 1.836089 0.000000 0.000000 -3.141400 1.299076 -3.141400
    16 0.853993 0.000000 0.000001 0.002756 0.113413 0.024347
    17 2.964058 -0.072899 0.178523 -0.240482 0.965022 0.037114
    18 1.814737 0.000000 -0.000001 -3.126544 1.134857 3.134449
    19 0.982325 0.000000 0.000000 0.000000 0.095993 0.021736
    20 2.910365 0.632510 0.212796 -0.429335 1.029775 -0.123005
    21 1.751859 0.000000 0.000000 -3.141592 1.109249 3.105024
    22 0.853992 0.000000 0.000000 0.000000 0.043633 0.000000
    23 2.899446 1.342928 0.078011 -0.753950 1.017286 -0.473141
    24 1.152892 0.000000 0.000001 0.052865 1.429404 0.108931
    25 0.748462 0.000000 0.000000 0.000000 0.314159 -0.057080
    26 -9.925375 3.371265 1.355404 -3.141592 1.373401 -3.141893
    27 -0.023288 0.041601 0.000000 -0.537590 -0.733003 -0.309520
    28 11.072358 -0.043442 0.000000 0.000000 0.000000 -1.251815
    29 8.108981 -0.000004 0.000001 2.562950 0.752108 -0.306504
    30 0.788882 0.969696 -0.533611 -3.125029 0.043111 0.419540
    31 1.920304 0.000000 0.000000 0.000000 0.000000 0.882819
    32 0.858252 0.000000 0.000001 0.000000 0.000000 -0.139246
    33 2.955714 0.752579 0.160553 3.141592 1.279169 -0.015797
    34 1.836087 0.000000 0.000000 0.000000 -0.235619 0.000000
    35 0.853994 0.000000 0.000000 -0.002756 -0.113413 0.024347
    36 2.964906 -0.017483 0.178523 3.141592 1.287895 -0.015797
    37 1.814736 0.000000 0.000000 0.006645 -0.296634 -0.022729
    38 0.982326 0.000000 -0.000001 0.000000 -0.095993 0.021736
    39 2.889733 -0.720928 0.212797 3.110577 1.374961 -0.082288
    40 1.751860 0.000000 0.000000 0.000000 -0.375246 -0.036569
    41 0.853992 0.000000 0.000001 0.000000 -0.043633 0.000000
    42 2.857167 -1.430683 0.078013 3.141590 1.488608 -0.015799
    43 1.152892 -0.000001 0.000002 -0.007510 -0.130685 0.057571
    44 0.748465 0.000000 -0.000001 0.000000 -0.314159 -0.057080
  time 3
    0 2.287296 -16.003087 -0.376057 1.708674 0.000000 3.141421
    1 2.284861 -8.461229 -1.438917 1.708671 0.000000 3.141304
    2 2.284823 -8.695514 -2.284297 1.708671 0.000000 3.141304
    3 2.287979 -9.212939 -2.188644 0.713769 0.000000 3.141304
    4 2.280910 -7.658401 -3.585417 1.708671 0.000000 3.141304
    5 2.278011 -8.050779 -1.753918 1.708671 0.000000 3.141304
    6 2.740668 -9.460770 -1.917328 1.708671 0.000000 3.141304
    7 8.412141 3.448129 0.658960 -3.141592 1.543843 3.141384
    8 -0.023288 0.041601 -0.000002 0.347453 0.352027 -0.189623
    9 11.072354 -0.043445 0.000000 0.000000 0.000000 -1.926815
    10 8.108976 0.000000 0.000000 0.343813 -0.350027 0.378878
    11 0.758958 -0.993291 -0.533611 0.379797 0.535486 -0.120431
    12 1.920300 0.000001 0.000000 -0.037272 -0.088062 0.691716
    13 0.858253 0.000000 0.000000 0.000000 0.000000 -0.069433
    14 2.931401 -0.842323 0.160553 0.091324 0.061197 -0.117911
    15 1.836089 0.000000 0.000000 3.141400 1.282426 -3.141400
    16 0.853993 0.000000 0.000001 0.002756 0.113413 0.024347
    17 2.964058 -0.072899 0.178523 -0.240482 0.965022 0.037114
    18 1.814737 0.000000 -0.000001 -3.126544 1.134857 3.134449
    19 0.982325 0.000000 0.000000 0.000000 0.095993 0.021736
    20 2.910365 0.632510 0.212796 -0.429335 1.029775 -0.123005
    21 1.751859 0.000000 0.000000 -3.141592 1.109249 3.105024
    22 0.853992 0.000000 0.000000 0.000000 0.043633 0.000000
    23 2.899446 1.342928 0.078011 -0.753950 1.017286 -0.473141
    24 1.152892 0.000000 0.000001 0.052865 1.429404 0.108931
    25 0.748462 0.000000 0.000000 0.000000 0.314159 -0.057080
    26 -9.925375 3.371265 1.355404 -3.141592 1.373401 -3.141893
    27 -0.023288 0.041601 0.000000 -0.549335 -0.734044 -0.298206
    28 11.072358 -0.043442 0.000000 0.000000 0.000000 -1.271259
    29 8.108981 -0.000004 0.000001 2.574200 0.769518 -0.267841
    30 0.788882 0.969696 -0.533611 -3.125029 0.043111 0.419540
    31 1.920304 0.000000 0.000000 0.000000 0.000000 0.882819
    32 0.858252 0.000000 0.000001 0.000000 0.000000 -0.139246
    33 2.955714 0.752579 0.160553 3.141592 1.279169 -0.015797
    34 1.836087 0.000000 0.000000 0.000000 -0.235619 0.000000
    35 0.853994 0.000000 0.000000 -0.002756 -0.113413 0.024347
    36 2.964906 -0.017483 0.178523 3.141592 1.287895 -0.015797
    37 1.814736 0.000000 0.000000 0.006645 -0.296634 -0.022729
    38 0.982326 0.000000 -0.000001 0.000000 -0.095993 0.021736
    39 2.889733 -0.720928 0.212797 3.110577 1.374961 -0.082288
    40 1.751860 0.000000 0.000000 0.000000 -0.375246 -0.036569
    41 0.853992 0.000000 0.000001 0.000000 -0.043633 0.000000
    42 2.857167 -1.430683 0.078013 3.141590 1.488608 -0.015799
    43 1.152892 -0.000001 0.000002 -0.007510 -0.130685 0.057571
    44 0.748465 0.000000 -0.000001 0.000000 -0.314159 -0.057080
  time 4
    0 2.287296 -16.179852 -0.735443 1.664092 0.000000 3.141421
    1 2.284861 -8.656548 -1.458449 1.664205 0.000000 3.141304
    2 2.284823 -8.793174 -2.315548 1.664205 0.000000 3.141304
    3 2.287979 -9.310598 -2.247240 0.660648 0.000000 3.141304
    4 2.280910 -7.701371 -3.573698 1.664205 0.000000 3.141304
    5 2.278011 -8.171877 -1.753918 1.664205 0.000000 3.141304
    6 2.740668 -9.577961 -1.983736 1.664205 0.000000 3.141304
    7 8.412141 3.448129 0.658960 -3.141592 1.543843 3.141384
    8 -0.023288 0.041601 -0.000002 0.350904 0.353597 -0.198468
    9 11.072354 -0.043445 0.000000 0.000000 0.000000 -1.935487
    10 8.108976 0.000000 0.000000 0.326263 -0.372259 0.440975
    11 0.758958 -0.993291 -0.533611 0.379797 0.535486 -0.120431
    12 1.920300 0.000001 0.000000 -0.037272 -0.088062 0.691716
    13 0.858253 0.000000 0.000000 0.000000 0.000000 -0.069433
    14 2.931401 -0.842323 0.160553 0.091324 0.061197 -0.117911
    15 1.836089 0.000000 0.000000 3.141496 1.274804 -3.141400
    16 0.853993 0.000000 0.000001 0.002756 0.113413 0.024347
    17 2.964058 -0.072899 0.178523 -0.240482 0.965022 0.037114
    18 1.814737 0.000000 -0.000001 -3.126544 1.134857 3.134449
    19 0.982325 0.000000 0.000000 0.000000 0.095993 0.021736
    20 2.910365 0.632510 0.212796 -0.429335 1.029775 -0.123005
    21 1.751859 0.000000 0.000000 -3.141592 1.109249 3.105024
    22 0.853992 0.000000 0.000000 0.000000 0.043633 0.000000
    23 2.899446 1.342928 0.078011 -0.753950 1.017286 -0.473141
    24 1.152892 0.000000 0.000001 0.052865 1.429404 0.108931
    25 0.748462 0.000000 0.000000 0.000000 0.314159 -0.057080
    26 -9.925375 3.371265 1.355404 -3.141592 1.373401 -3.141893
    27 -0.023288 0.041601 0.000000 -0.558793 -0.734044 -0.296153
    28 11.072358 -0.043442 0.000000 0.000000 0.000000 -1.288617
    29 8.108981 -0.000004 0.000001 2.606489 0.799327 -0.197779
    30 0.788882 0.969696 -0.533611 -3.125029 0.043111 0.419540
    31 1.920304 0.000000 0.000000 0.000000 0.000000 0.882819
    32 0.858252 0.000000 0.000001 0.000000 0.000000 -0.139246
    33 2.955714 0.752579 0.160553 3.141592 1.279169 -0.015797
    34 1.836087 0.000000 0.000000 0.000000 -0.235619 0.000000
    35 0.853994 0.000000 0.000000 -0.002756 -0.113413 0.024347
    36 2.964906 -0.017483 0.178523 3.141592 1.287895 -0.015797
    37 1.814736 0.000000 0.000000 0.006645 -0.296634 -0.022729
    38 0.982326 0.000000 -0.000001 0.000000 -0.095993 0.021736
    39 2.889733 -0.720928 0.212797 3.110577 1.374961 -0.082288
    40 1.751860 0.000000 0.000000 0.000000 -0.375246 -0.036569
    41 0.853992 0.000000 0.000001 0.000000 -0.043633 0.000000
    42 2.857167 -1.430683 0.078013 3.141590 1.488608 -0.015799
    43 1.152892 -0.000001 0.000002 -0.007510 -0.130685 0.057571
    44 0.748465 0.000000 -0.000001 0.000000 -0.314159 -0.057080
  time 5
    0 2.287296 -16.317336 -1.051859 1.623908 0.000000 3.141421
    1 2.284861 -9.144844 -1.446730 1.623858 0.000000 3.141304
    2 2.284823 -8.859582 -2.335080 1.623858 0.000000 3.141304
    3 2.287979 -9.380913 -2.290210 0.632477 0.000000 3.141304
    4 2.280910 -7.720903 -3.550260 1.623858 0.000000 3.141304
    5 2.278011 -8.261723 -1.753918 1.623858 0.000000 3.141304
    6 2.740668 -9.656088 -2.034519 1.623858 0.000000 3.141304
    7 8.412141 3.448129 0.658960 -3.141592 1.543843 3.141384
    8 -0.023288 0.041601 -0.000002 0.354763 0.355298 -0.206285
    9 11.072354 -0.043445 0.000000 0.000000 0.000000 -1.944990
    10 8.108976 0.000000 0.000000 0.309276 -0.392366 0.499583
    11 0.758958 -0.993291 -0.533611 0.379797 0.535486 -0.120431
    12 1.920300 0.000001 0.000000 -0.037272 -0.088062 0.691716
    13 0.858253 0.000000 0.000000 0.000000 0.000000 -0.069433
    14 2.931401 -0.842323 0.160553 0.091324 0.061197 -0.117911
    15 1.836089 0.000000 0.000000 -3.141400 1.285460 -3.141400
    16 0.853993 0.000000 0.000001 0.002756 0.113413 0.024347
    17 2.964058 -0.072899 0.178523 -0.240482 0.965022 0.037114
    18 1.814737 0.000000 -0.000001 -3.126544 1.134857 3.134449
    19 0.982325 0.000000 0.000000 0.000000 0.095993 0.021736
    20 2.910365 0.632510 0.212796 -0.429335 1.029775 -0.123005
    21 1.751859 0.000000 0.000000 -3.141592 1.109249 3.105024
    22 0.853992 0.000000 0.000000 0.000000 0.043633 0.000000
    23 2.899446 1.342928 0.078011 -0.753950 1.017286 -0.473141
    24 1.152892 0.000000 0.000001 0.052865 1.429404 0.108931
    25 0.748462 0.000000 0.000000 0.000000 0.314159 -0.057080
    26 -9.925375 3.371265 1.355404 -3.141592 1.373401 -3.141893
    27 -0.023288 0.041601 0.000000 -0.568433 -0.734284 -0.293848
    28 11.072358 -0.043442 0.000000 0.000000 0.000000 -1.305690
    29 8.108981 -0.000004 0.000001 2.638923 0.826088 -0.130595
    30 0.788882 0.969696 -0.533611 -3.125029 0.043111 0.419540
    31 1.920304 0.000000 0.000000 0.000000 0.000000 0.882819
    32 0.858252 0.000000 0.000001 0.000000 0.000000 -0.139246
    33 2.955714 0.752579 0.160553 3.141592 1.279169 -0.015797
    34 1.836087 0.000000 0.000000 0.000000 -0.235619 0.000000
    35 0.853994 0.000000 0.000000 -0.002756 -0.113413 0.024347
    36 2.964906 -0.017483 0.178523 3.141592 1.287895 -0.015797
    37 1.814736 0.000000 0.000000 0.006645 -0.296634 -0.022729
    38 0.982326 0.000000 -0.000001 0.000000 -0.095993 0.021736
    39 2.889733 -0.720928 0.212797 3.110577 1.374961 -0.082288
    40 1.751860 0.000000 0.000000 0.000000 -0.375246 -0.036569
    41 0.853992 0.000000 0.000001 0.000000 -0.043633 0.000000
    42 2.857167 -1.430683 0.078013 3.141590 1.488608 -0.015799
    43 1.152892 -0.000001 0.000002 -0.007510 -0.130685 0.057571
    44 0.748465 0.000000 -0.000001 0.000000 -0.314159 -0.057080
  time 6
    0 2.287296 -16.376258 -1.274522 1.595857 0.000000 3.141421
    1 2.284861 -9.836271 -1.458449 1.595925 0.000000 3.141304
    2 2.284823 -8.890833 -2.346799 1.595925 0.000000 3.141304
    3 2.287979 -9.419977 -2.309742 0.647935 0.000000 3.141304
    4 2.280910 -7.716996 -3.522915 1.595925 0.000000 3.141304
    5 2.278011 -8.308599 -1.742199 1.595925 0.000000 3.141304
    6 2.740668 -9.699058 -2.065770 1.595925 0.000000 3.141304
    7 8.412141 3.448129 0.658960 -3.141592 1.543843 3.141384
    8 -0.023288 0.041601 -0.000002 0.358191 0.356832 -0.211330
    9 11.072354 -0.043445 0.000000 0.000000 0.000000 -1.953302
    10 8.108976 0.000000 0.000000 0.297079 -0.406296 0.541896
    11 0.758958 -0.993291 -0.533611 0.379797 0.535486 -0.120431
    12 1.920300 0.000001 0.000000 -0.037272 -0.088062 0.691716
    13 0.858253 0.000000 0.000000 0.000000 0.000000 -0.069433
    14 2.931401 -0.842323 0.160553 0.091324 0.061197 -0.117911
    15 1.836089 0.000000 0.000000 -3.141400 1.323310 -3.141400
    16 0.853993 0.000000 0.000001 0.002756 0.113413 0.024347
    17 2.964058 -0.072899 0.178523 -0.240482 0.965022 0.037114
    18 1.814737 0.000000 -0.000001 -3.126544 1.134857 3.134449
    19 0.982325 0.000000 0.000000 0.000000 0.095993 0.021736
    20 2.910365 0.632510 0.212796 -0.429335 1.029775 -0.123005
    21 1.751859 0.000000 0.000000 -3.141592 1.109249 3.105024
    22 0.853992 0.000000 0.000000 0.000000 0.043633 0.000000
    23 2.899446 1.342928 0.078011 -0.753950 1.017286 -0.473141
    24 1.152892 0.000000 0.000001 0.052865 1.429404 0.108931
    25 0.748462 0.000000 0.000000 0.000000 0.314159 -0.057080
    26 -9.925375 3.371265 1.355404 -3.141592 1.373401 -3.141893
    27 -0.023288 0.041601 0.000000 -0.576426 -0.734564 -0.291376
    28 11.072358 -0.043442 0.000000 0.000000 0.000000 -1.319419
    29 8.108981 -0.000004 0.000001 2.662884 0.844738 -0.081393
    30 0.788882 0.969696 -0.533611 -3.125029 0.043111 0.419540
    31 1.920304 0.000000 0.000000 0.000000 0.000000 0.882819
    32 0.858252 0.000000 0.000001 0.000000 0.000000 -0.139246
    33 2.955714 0.752579 0.160553 3.141592 1.279169 -0.015797
    34 1.836087 0.000000 0.000000 0.000000 -0.235619 0.000000
    35 0.853994 0.000000 0.000000 -0.002756 -0.113413 0.024347
    36 2.964906 -0.017483 0.178523 3.141592 1.287895 -0.015797
    37 1.814736 0.000000 0.000000 0.006645 -0.296634 -0.022729
    38 0.982326 0.000000 -0.000001 0.000000 -0.095993 0.021736
    39 2.889733 -0.720928 0.212797 3.110577 1.374961 -0.082288
    40 1.751860 0.000000 0.000000 0.000000 -0.375246 -0.036569
    41 0.853992 0.000000 0.000001 0.000000 -0.043633 0.000000
    42 2.857167 -1.430683 0.078013 3.141590 1.488608 -0.015799
    43 1.152892 -0.000001 0.000002 -0.007510 -0.130685 0.057571
    44 0.748465 0.000000 -0.000001 0.000000 -0.314159 -0.057080
  time 7
    0 2.287296 -16.474461 -1.454215 1.572731 0.000000 3.141421
    1 2.284861 -9.930024 -1.489700 1.572946 0.000000 3.141304
    2 2.284823 -8.965054 -2.358518 1.572946 0.000000 3.141304
    3 2.287979 -9.494198 -2.337086 0.698012 0.000000 3.141304
    4 2.280910 -7.763873 -3.511196 1.572946 0.000000 3.141304
    5 2.278011 -8.402352 -1.742199 1.572946 0.000000 3.141304
    6 2.740668 -9.773279 -2.100927 1.572946 0.000000 3.141304
    7 8.412141 3.448129 0.658960 -3.141592 1.543843 3.141384
    8 -0.023288 0.041601 -0.000002 0.358826 0.357120 -0.219672
    9 11.072354 -0.043445 0.000000 0.000000 0.000000 -1.954493
    10 8.108976 0.000000 0.000000 0.284318 -0.416566 0.575289
    11 0.758958 -0.993291 -0.533611 0.379797 0.535486 -0.120431
    12 1.920300 0.000001 0.000000 -0.037272 -0.088062 0.691716
    13 0.858253 0.000000 0.000000 0.000000 0.000000 -0.069433
    14 2.931401 -0.842323 0.160553 0.091324 0.061197 -0.117911
    15 1.836089 0.000000 0.000000 3.141496 1.390389 -3.141400
    16 0.853993 0.000000 0.000001 0.002756 0.113413 0.024347
    17 2.964058 -0.072899 0.178523 -0.240482 0.965022 0.037114
    18 1.814737 0.000000 -0.000001 -3.126544 1.134857 3.134449
    19 0.982325 0.000000 0.000000 0.000000 0.095993 0.021736
    20 2.910365 0.632510 0.212796 -0.429335 1.029775 -0.123005
    21 1.751859 0.000000 0.000000 -3.141592 1.109249 3.105024
    22 0.853992 0.000000 0.000000 0.000000 0.043633 0.000000
    23 2.899446 1.342928 0.078011 -0.753950 1.017286 -0.473141
    24 1.152892 0.000000 0.000001 0.052865 1.429404 0.108931
    25 0.748462 0.000000 0.000000 0.000000 0.314159 -0.057080
    26 -9.925375 3.371265 1.355404 -3.141592 1.373401 -3.141893
    27 -0.023288 0.041601 0.000000 -0.579172 -0.734204 -0.295315
    28 11.072358 -0.043442 0.000000 0.000000 0.000000 -1.325253
    29 8.108981 -0.000004 0.000001 2.688306 0.858894 -0.038700
    30 0.788882 0.969696 -0.533611 -3.125029 0.043111 0.419540
    31 1.920304 0.000000 0.000000 0.000000 0.000000 0.882819
    32 0.858252 0.000000 0.000001 0.000000 0.000000 -0.139246
    33 2.955714 0.752579 0.160553 3.141592 1.279169 -0.015797
    34 1.836087 0.000000 0.000000 0.000000 -0.235619 0.000000
    35 0.853994 0.000000 0.000000 -0.002756 -0.113413 0.024347
    36 2.964906 -0.017483 0.178523 3.141592 1.287895 -0.015797
    37 1.814736 0.000000 0.000000 0.006645 -0.296634 -0.022729
    38 0.982326 0.000000 -0.000001 0.000000 -0.095993 0.021736
    39 2.889733 -0.720928 0.212797 3.110577 1.374961 -0.082288
    40 1.751860 0.000000 0.000000 0.000000 -0.375246 -0.036569
    41 0.853992 0.000000 0.000001 0.000000 -0.043633 0.000000
    42 2.857167 -1.430683 0.078013 3.141590 1.488608 -0.015799
    43 1.152892 -0.000001 0.000002 -0.007510 -0.130685 0.057571
    44 0.748465 0.000000 -0.000001 0.000000 -0.314159 -0.057080
  time 8
    0 2.287296 -16.592304 -1.610470 1.554881 0.000000 3.141421
    1 2.284861 -10.051122 -1.520951 1.554861 0.000000 3.141304
    2 2.284823 -9.074432 -2.381956 1.554861 0.000000 3.141304
    3 2.287979 -9.595763 -2.360524 0.773454 0.000000 3.141304
    4 2.280910 -7.853719 -3.511196 1.554861 0.000000 3.141304
    5 2.278011 -8.511731 -1.753918 1.554861 0.000000 3.141304
    6 2.740668 -9.886564 -2.132178 1.554861 0.000000 3.141304
    7 8.412141 3.448129 0.658960 -3.141592 1.543843 3.141384
    8 -0.023288 0.041601 -0.000002 0.357340 0.356605 -0.230071
    9 11.072354 -0.043445 0.000000 0.000000 0.000000 -1.950292
    10 8.108976 0.000000 0.000000 0.271679 -0.423334 0.601191
    11 0.758958 -0.993291 -0.533611 0.379797 0.535486 -0.120431
    12 1.920300 0.000001 0.000000 -0.037272 -0.088062 0.691716
    13 0.858253 0.000000 0.000000 0.000000 0.000000 -0.069433
    14 2.931401 -0.842323 0.160553 0.091324 0.061197 -0.117911
    15 1.836089 0.000000 0.000000 -3.141400 1.478521 -3.141400
    16 0.853993 0.000000 0.000001 0.002756 0.113413 0.024347
    17 2.964058 -0.072899 0.178523 -0.240482 0.965022 0.037114
    18 1.814737 0.000000 -0.000001 -3.126544 1.134857 3.134449
    19 0.982325 0.000000 0.000000 0.000000 0.095993 0.021736
    20 2.910365 0.632510 0.212796 -0.429335 1.029775 -0.123005
    21 1.751859 0.000000 0.000000 -3.141592 1.109249 3.105024
    22 0.853992 0.000000 0.000000 0.000000 0.043633 0.000000
    23 2.899446 1.342928 0.078011 -0.753950 1.017286 -0.473141
    24 1.152892 0.000000 0.000001 0.052865 1.429404 0.108931
    25 0.748462 0.000000 0.000000 0.000000 0.314159 -0.057080
    26 -9.925375 3.371265 1.355404 -3.141592 1.373401 -3.141893
    27 -0.023288 0.041601 0.000000 -0.577860 -0.733323 -0.303905
    28 11.072358 -0.043442 0.000000 0.000000 0.000000 -1.324992
    29 8.108981 -0.000004 0.000001 2.713289 0.869433 -0.002429
    30 0.788882 0.969696 -0.533611 -3.125029 0.043111 0.419540
    31 1.920304 0.000000 0.000000 0.000000 0.000000 0.882819
    32 0.858252 0.000000 0.000001 0.000000 0.000000 -0.139246
    33 2.955714 0.752579 0.160553 3.141592 1.279169 -0.015797
    34 1.836087 0.000000 0.000000 0.000000 -0.235619 0.000000
    35 0.853994 0.000000 0.000000 -0.002756 -0.113413 0.024347
    36 2.964906 -0.017483 0.178523 3.141592 1.287895 -0.015797
    37 1.814736 0.000000 0.000000 0.006645 -0.296634 -0.022729
    38 0.982326 0.000000 -0.000001 0.000000 -0.095993 0.021736
    39 2.889733 -0.720928 0.212797 3.110577 1.374961 -0.082288
    40 1.751860 0.000000 0.000000 0.000000 -0.375246 -0.036569
    41 0.853992 0.000000 0.000001 0.000000 -0.043633 0.000000
    42 2.857167 -1.430683 0.078013 3.141590 1.488608 -0.015799
    43 1.152892 -0.000001 0.000002 -0.007510 -0.130685 0.057571
    44 0.748465 0.000000 -0.000001 0.000000 -0.314159 -0.057080
  time 9
    0 2.287296 -16.710147 -1.739380 1.540636 0.000000 3.141421
    1 2.284861 -10.183938 -1.563921 1.540477 0.000000 3.141304
    2 2.284823 -9.195530 -2.401488 1.540477 0.000000 3.141304
    3 2.287979 -9.716861 -2.391775 0.873667 0.000000 3.141304
    4 2.280910 -7.959191 -3.511196 1.540477 0.000000 3.141304
    5 2.278011 -8.648454 -1.761731 1.540477 0.000000 3.141304
    6 2.740668 -10.015474 -2.163429 1.540477 0.000000 3.141304
    7 8.412141 3.448129 0.658960 -3.141592 1.543843 3.141384
    8 -0.023288 0.041601 -0.000002 0.354416 0.355394 -0.241641
    9 11.072354 -0.043445 0.000000 0.000000 0.000000 -1.942339
    10 8.108976 0.000000 0.000000 0.260086 -0.427387 0.620289
    11 0.758958 -0.993291 -0.533611 0.379797 0.535486 -0.120431
    12 1.920300 0.000001 0.000000 -0.037272 -0.088062 0.691716
    13 0.858253 0.000000 0.000000 0.000000 0.000000 -0.069433
    14 2.931401 -0.842323 0.160553 0.091324 0.061197 -0.117911
    15 1.836089 0.000000 0.000000 0.000000 1.559474 0.000000
    16 0.853993 0.000000 0.000001 0.002756 0.113413 0.024347
    17 2.964058 -0.072899 0.178523 -0.240482 0.965022 0.037114
    18 1.814737 0.000000 -0.000001 -3.126544 1.134857 3.134449
    19 0.982325 0.000000 0.000000 0.000000 0.095993 0.021736
    20 2.910365 0.632510 0.212796 -0.429335 1.029775 -0.123005
    21 1.751859 0.000000 0.000000 -3.141592 1.109249 3.105024
    22 0.853992 0.000000 0.000000 0.000000 0.043633 0.000000
    23 2.899446 1.342928 0.078011 -0.753950 1.017286 -0.473141
    24 1.152892 0.000000 0.000001 0.052865 1.429404 0.108931
    25 0.748462 0.000000 0.000000 0.000000 0.314159 -0.057080
    26 -9.925375 3.371265 1.355404 -3.141592 1.373401 -3.141893
    27 -0.023288 0.041601 0.000000 -0.573742 -0.732163 -0.315261
    28 11.072358 -0.043442 0.000000 0.000000 0.000000 -1.320297
    29 8.108981 -0.000004 0.000001 2.737396 0.876614 0.027598
    30 0.788882 0.969696 -0.533611 -3.125029 0.043111 0.419540
    31 1.920304 0.000000 0.000000 0.000000 0.000000 0.882819
    32 0.858252 0.000000 0.000001 0.000000 0.000000 -0.139246
    33 2.955714 0.752579 0.160553 3.141592 1.279169 -0.015797
    34 1.836087 0.000000 0.000000 0.000000 -0.235619 0.000000
    35 0.853994 0.000000 0.000000 -0.002756 -0.113413 0.024347
    36 2.964906 -0.017483 0.178523 3.141592 1.287895 -0.015797
    37 1.814736 0.000000 0.000000 0.006645 -0.296634 -0.022729
    38 0.982326 0.000000 -0.000001 0.000000 -0.095993 0.021736
    39 2.889733 -0.720928 0.212797 3.110577 1.374961 -0.082288
    40 1.751860 0.000000 0.000000 0.000000 -0.375246 -0.036569
    41 0.853992 0.000000 0.000001 0.000000 -0.043633 0.000000
    42 2.857167 -1.430683 0.078013 3.141590 1.488608 -0.015799
    43 1.152892 -0.000001 0.000002 -0.007510 -0.130685 0.057571
    44 0.748465 0.000000 -0.000001 0.000000 -0.314159 -0.057080
  time 10
    0 2.287296 -16.867272 -1.837039 1.529469 0.000000 3.141421
    1 2.284861 -10.320661 -1.587359 1.529375 0.000000 3.141304
    2 2.284823 -9.324440 -2.413207 1.529375 0.000000 3.141304
    3 2.287979 -9.845771 -2.423026 0.998052 0.000000 3.141304
    4 2.280910 -8.072476 -3.519009 1.529375 0.000000 3.141304
    5 2.278011 -8.781270 -1.785169 1.529375 0.000000 3.141304
    6 2.740668 -10.144384 -2.194680 1.529375 0.000000 3.141304
    7 8.412141 3.448129 0.658960 -3.141592 1.543843 3.141384
    8 -0.023288 0.041601 -0.000002 0.350664 0.353896 -0.253092
    9 11.072354 -0.043445 0.000000 0.000000 0.000000 -1.932297
    10 8.108976 0.000000 0.000000 0.249740 -0.429551 0.633840
    11 0.758958 -0.993291 -0.533611 0.379797 0.535486 -0.120431
    12 1.920300 0.000001 0.000000 -0.037272 -0.088062 0.691716
    13 0.858253 0.000000 0.000000 0.000000 0.000000 -0.069433
    14 2.931401 -0.842323 0.160553 0.091324 0.061197 -0.117911
    15 1.836089 0.000000 0.000000 0.000000 1.446480 0.000000
    16 0.853993 0.000000 0.000001 0.002756 0.113413 0.024347
    17 2.964058 -0.072899 0.178523 -0.240482 0.965022 0.037114
    18 1.814737 0.000000 -0.000001 -3.126544 1.134857 3.134449
    19 0.982325 0.000000 0.000000 0.000000 0.095993 0.021736
    20 2.910365 0.632510 0.212796 -0.429335 1.029775 -0.123005
    21 1.751859 0.000000 0.000000 -3.141592 1.109249 3.105024
    22 0.853992 0.000000 0.000000 0.000000 0.043633 0.000000
    23 2.899446 1.342928 0.078011 -0.753950 1.017286 -0.473141
    24 1.152892 0.000000 0.000001 0.052865 1.429404 0.108931
    25 0.748462 0.000000 0.000000 0.000000 0.314159 -0.057080
    26 -9.925375 3.371265 1.355404 -3.141592 1.373401 -3.141893
    27 -0.023288 0.041601 0.000000 -0.567976 -0.730682 -0.327873
    28 11.072358 -0.043442 0.000000 0.000000 0.000000 -1.313017
    29 8.108981 -0.000004 0.000001 2.758581 0.881212 0.051690
    30 0.788882 0.969696 -0.533611 -3.125029 0.043111 0.419540
    31 1.920304 0.000000 0.000000 0.000000 0.000000 0.882819
    32 0.858252 0.000000 0.000001 0.000000 0.000000 -0.139246
    33 2.955714 0.752579 0.160553 3.141592 1.279169 -0.015797
    34 1.836087 0.000000 0.000000 0.000000 -0.235619 0.000000
    35 0.853994 0.000000 0.000000 -0.002756 -0.113413 0.024347
    36 2.964906 -0.017483 0.178523 3.141592 1.287895 -0.015797
    37 1.814736 0.000000 0.000000 0.006645 -0.296634 -0.022729
    38 0.982326 0.000000 -0.000001 0.000000 -0.095993 0.021736
    39 2.889733 -0.720928 0.212797 3.110577 1.374961 -0.082288
    40 1.751860 0.000000 0.000000 0.000000 -0.375246 -0.036569
    41 0.853992 0.000000 0.000001 0.000000 -0.043633 0.000000
    42 2.857167 -1.430683 0.078013 3.141590 1.488608 -0.015799
    43 1.152892 -0.000001 0.000002 -0.007510 -0.130685 0.057571
    44 0.748465 0.000000 -0.000001 0.000000 -0.314159 -0.057080
  time 11
    0 2.287296 -16.985115 -1.926886 1.521116 0.000000 3.141421
    1 2.284861 -10.453478 -1.618610 1.520959 0.000000 3.141304
    2 2.284823 -9.445537 -2.436646 1.520959 0.000000 3.141304
    3 2.287979 -9.966869 -2.446465 1.145894 0.000000 3.141304
    4 2.280910 -8.185760 -3.530728 1.520959 0.000000 3.141304
    5 2.278011 -8.906274 -1.792982 1.520959 0.000000 3.141304
    6 2.740668 -10.269388 -2.214212 1.520959 0.000000 3.141304
    7 8.412141 3.448129 0.658960 -3.141592 1.543843 3.141384
    8 -0.023288 0.041601 -0.000002 0.346853 0.352374 -0.263682
    9 11.072354 -0.043445 0.000000 0.000000 0.000000 -1.921805
    10 8.108976 0.000000 0.000000 0.240965 -0.430220 0.643218
    11 0.758958 -0.993291 -0.533611 0.379797 0.535486 -0.120431
    12 1.920300 0.000001 0.000000 -0.037272 -0.088062 0.691716
    13 0.858253 0.000000 0.000000 0.000000 0.000000 -0.069433
    14 2.931401 -0.842323 0.160553 0.091324 0.061197 -0.117911
    15 1.836089 0.000000 0.000000 0.000000 1.329674 0.000000
    16 0.853993 0.000000 0.000001 0.002756 0.113413 0.024347
    17 2.964058 -0.072899 0.178523 -0.240482 0.965022 0.037114
    18 1.814737 0.000000 -0.000001 -3.126544 1.134857 3.134449
    19 0.982325 0.000000 0.000000 0.000000 0.095993 0.021736
    20 2.910365 0.632510 0.212796 -0.429335 1.029775 -0.123005
    21 1.751859 0.000000 0.000000 -3.141592 1.109249 3.105024
    22 0.853992 0.000000 0.000000 0.000000 0.043633 0.000000
    23 2.899446 1.342928 0.078011 -0.753950 1.017286 -0.473141
    24 1.152892 0.000000 0.000001 0.052865 1.429404 0.108931
    25 0.748462 0.000000 0.000000 0.000000 0.314159 -0.057080
    26 -9.925375 3.371265 1.355404 -3.141592 1.373401 -3.141893
    27 -0.023288 0.041601 0.000000 -0.561752 -0.729441 -0.340067
    28 11.072358 -0.043442 0.000000 0.000000 0.000000 -1.304694
    29 8.108981 -0.000004 0.000001 2.777063 0.883898 0.070379
    30 0.788882 0.969696 -0.533611 -3.125029 0.043111 0.419540
    31 1.920304 0.000000 0.000000 0.000000 0.000000 0.882819
    32 0.858252 0.000000 0.000001 0.000000 0.000000 -0.139246
    33 2.955714 0.752579 0.160553 3.141592 1.279169 -0.015797
    34 1.836087 0.000000 0.000000 0.000000 -0.235619 0.000000
    35 0.853994 0.000000 0.000000 -0.002756 -0.113413 0.024347
    36 2.964906 -0.017483 0.178523 3.141592 1.287895 -0.015797
    37 1.814736 0.000000 0.000000 0.006645 -0.296634 -0.022729
    38 0.982326 0.000000 -0.000001 0.000000 -0.095993 0.021736
    39 2.889733 -0.720928 0.212797 3.110577 1.374961 -0.082288
    40 1.751860 0.000000 0.000000 0.000000 -0.375246 -0.036569
    41 0.853992 0.000000 0.000001 0.000000 -0.043633 0.000000
    42 2.857167 -1.430683 0.078013 3.141590 1.488608 -0.015799
    43 1.152892 -0.000001 0.000002 -0.007510 -0.130685 0.057571
    44 0.748465 0.000000 -0.000001 0.000000 -0.314159 -0.057080
  time 12
    0 2.287296 -17.063677 -1.993294 1.514784 0.000000 3.141421
    1 2.284861 -10.558950 -1.638142 1.514633 0.000000 3.141304
    2 2.284823 -9.547103 -2.456177 1.514633 0.000000 3.141304
    3 2.287979 -10.068434 -2.454277 1.316715 0.000000 3.141382
    4 2.280910 -8.279513 -3.534634 1.514633 0.000000 3.141304
    5 2.278011 -9.019559 -1.804701 1.514633 0.000000 3.141304
    6 2.740668 -10.367047 -2.237650 1.514633 0.000000 3.141304
    7 8.412141 3.448129 0.658960 -3.141592 1.543843 3.141384
    8 -0.023288 0.041601 -0.000002 0.343594 0.351116 -0.272408
    9 11.072354 -0.043445 0.000000 0.000000 0.000000 -1.912594
    10 8.108976 0.000000 0.000000 0.234001 -0.430456 0.649679
    11 0.758958 -0.993291 -0.533611 0.379797 0.535486 -0.120431
    12 1.920300 0.000001 0.000000 -0.037272 -0.088062 0.691716
    13 0.858253 0.000000 0.000000 0.000000 0.000000 -0.069433
    14 2.931401 -0.842323 0.160553 0.091324 0.061197 -0.117911
    15 1.836089 0.000000 0.000000 0.000000 1.214903 0.000000
    16 0.853993 0.000000 0.000001 0.002756 0.113413 0.024347
    17 2.964058 -0.072899 0.178523 -0.240482 0.965022 0.037114
    18 1.814737 0.000000 -0.000001 -3.126544 1.134857 3.134449
    19 0.982325 0.000000 0.000000 0.000000 0.095993 0.021736
    20 2.910365 0.632510 0.212796 -0.429335 1.029775 -0.123005
    21 1.751859 0.000000 0.000000 -3.141592 1.109249 3.105024
    22 0.853992 0.000000 0.000000 0.000000 0.043633 0.000000
    23 2.899446 1.342928 0.078011 -0.753950 1.017286 -0.473141
    24 1.152892 0.000000 0.000001 0.052865 1.429404 0.108931
    25 0.748462 0.000000 0.000000 0.000000 0.314159 -0.057080
    26 -9.925375 3.371265 1.355404 -3.141592 1.373401 -3.141893
    27 -0.023288 0.041601 0.000000 -0.556261 -0.728401 -0.350417
    28 11.072358 -0.043442 0.000000 0.000000 0.000000 -1.297177
    29 8.108981 -0.000004 0.000001 2.792112 0.885500 0.084595
    30 0.788882 0.969696 -0.533611 -3.125029 0.043111 0.419540
    31 1.920304 0.000000 0.000000 0.000000 0.000000 0.882819
    32 0.858252 0.000000 0.000001 0.000000 0.000000 -0.139246
    33 2.955714 0.752579 0.160553 3.141592 1.279169 -0.015797
    34 1.836087 0.000000 0.000000 0.000000 -0.235619 0.000000
    35 0.853994 0.000000 0.000000 -0.002756 -0.113413 0.024347
    36 2.964906 -0.017483 0.178523 3.141592 1.287895 -0.015797
    37 1.814736 0.000000 0.000000 0.006645 -0.296634 -0.022729
    38 0.982326 0.000000 -0.000001 0.000000 -0.095993 0.021736
    39 2.889733 -0.720928 0.212797 3.110577 1.374961 -0.082288
    40 1.751860 0.000000 0.000000 0.000000 -0.375246 -0.036569
    41 0.853992 0.000000 0.000001 0.000000 -0.043633 0.000000
    42 2.857167 -1.430683 0.078013 3.141590 1.488608 -0.015799
    43 1.152892 -0.000001 0.000002 -0.007510 -0.130685 0.057571
    44 0.748465 0.000000 -0.000001 0.000000 -0.314159 -0.057080
  time 13
    0 2.287296 -17.142239 -2.032358 1.509860 0.000000 3.141421
    1 2.284861 -10.633171 -1.649861 1.509738 0.000000 3.141304
    2 2.284823 -9.621324 -2.467896 1.509738 0.000000 3.141304
    3 2.287979 -10.142655 -2.473809 1.509738 0.000000 3.141304
    4 2.280910 -8.345922 -3.542447 1.509738 0.000000 3.141304
    5 2.278011 -9.089873 -1.816420 1.509738 0.000000 3.141304
    6 2.740668 -10.445175 -2.245463 1.509738 0.000000 3.141304
    7 8.412141 3.448129 0.658960 -3.141592 1.543843 3.141384
    8 -0.023288 0.041601 -0.000002 0.341400 0.350169 -0.278217
    9 11.072354 -0.043445 0.000000 0.000000 0.000000 -1.907000
    10 8.108976 0.000000 0.000000 0.229050 -0.430771 0.655340
    11 0.758958 -0.993291 -0.533611 0.379797 0.535486 -0.120431
    12 1.920300 0.000001 0.000000 -0.037272 -0.088062 0.691716
    13 0.858253 0.000000 0.000000 0.000000 0.000000 -0.069433
    14 2.931401 -0.842323 0.160553 0.091324 0.061197 -0.117911
    15 1.836089 0.000000 0.000000 0.000000 1.107680 0.000000
    16 0.853993 0.000000 0.000001 0.002756 0.113413 0.024347
    17 2.964058 -0.072899 0.178523 -0.240482 0.965022 0.037114
    18 1.814737 0.000000 -0.000001 -3.126544 1.134857 3.134449
    19 0.982325 0.000000 0.000000 0.000000 0.095993 0.021736
    20 2.910365 0.632510 0.212796 -0.429335 1.029775 -0.123005
    21 1.751859 0.000000 0.000000 -3.141592 1.109249 3.105024
    22 0.853992 0.000000 0.000000 0.000000 0.043633 0.000000
    23 2.899446 1.342928 0.078011 -0.753950 1.017286 -0.473141
    24 1.152892 0.000000 0.000001 0.052865 1.429404 0.108931
    25 0.748462 0.000000 0.000000 0.000000 0.314159 -0.057080
    26 -9.925375 3.371265 1.355404 -3.141592 1.373401 -3.141893
    27 -0.023288 0.041601 0.000000 -0.552661 -0.727480 -0.357499
    28 11.072358 -0.043442 0.000000 0.000000 0.000000 -1.292269
    29 8.108981 -0.000004 0.000001 2.802704 0.886688 0.095401
    30 0.788882 0.969696 -0.533611 -3.125029 0.043111 0.419540
    31 1.920304 0.000000 0.000000 0.000000 0.000000 0.882819
    32 0.858252 0.000000 0.000001 0.000000 0.000000 -0.139246
    33 2.955714 0.752579 0.160553 3.141592 1.279169 -0.015797
    34 1.836087 0.000000 0.000000 0.000000 -0.235619 0.000000
    35 0.853994 0.000000 0.000000 -0.002756 -0.113413 0.024347
    36 2.964906 -0.017483 0.178523 3.141592 1.287895 -0.015797
    37 1.814736 0.000000 0.000000 0.006645 -0.296634 -0.022729
    38 0.982326 0.000000 -0.000001 0.000000 -0.095993 0.021736
    39 2.889733 -0.720928 0.212797 3.110577 1.374961 -0.082288
    40 1.751860 0.000000 0.000000 0.000000 -0.375246 -0.036569
    41 0.853992 0.000000 0.000001 0.000000 -0.043633 0.000000
    42 2.857167 -1.430683 0.078013 3.141590 1.488608 -0.015799
    43 1.152892 -0.000001 0.000002 -0.007510 -0.130685 0.057571
    44 0.748465 0.000000 -0.000001 0.000000 -0.314159 -0.057080
  time 14
    0 2.287296 -17.181520 -2.063609 1.506959 0.000000 3.141421
    1 2.284861 -10.680047 -1.661580 1.506635 0.000000 3.141304
    2 2.284823 -9.660388 -2.467896 1.506635 0.000000 3.141304
    3 2.287979 -10.185625 -2.485528 1.506635 0.000000 3.141304
    4 2.280910 -8.384985 -3.542447 1.506635 0.000000 3.141304
    5 2.278011 -9.132843 -1.816420 1.506635 0.000000 3.141304
    6 2.740668 -10.488145 -2.257182 1.506635 0.000000 3.141304
    7 8.412141 3.448129 0.658960 -3.141592 1.543843 3.141384
    8 -0.023288 0.041601 -0.000002 0.340058 0.349642 -0.281994
    9 11.072354 -0.043445 0.000000 0.000000 0.000000 -1.903114
    10 8.108976 0.000000 0.000000 0.225910 -0.430889 0.658713
    11 0.758958 -0.993291 -0.533611 0.379797 0.535486 -0.120431
    12 1.920300 0.000001 0.000000 -0.037272 -0.088062 0.691716
    13 0.858253 0.000000 0.000000 0.000000 0.000000 -0.069433
    14 2.931401 -0.842323 0.160553 0.091324 0.061197 -0.117911
    15 1.836089 0.000000 0.000000 0.000000 1.107680 0.000000
    16 0.853993 0.000000 0.000001 0.002756 0.113413 0.024347
    17 2.964058 -0.072899 0.178523 -0.240482 0.965022 0.037114
    18 1.814737 0.000000 -0.000001 -3.126544 1.134857 3.134449
    19 0.982325 0.000000 0.000000 0.000000 0.095993 0.021736
    20 2.910365 0.632510 0.212796 -0.429335 1.029775 -0.123005
    21 1.751859 0.000000 0.000000 -3.141592 1.109249 3.105024
    22 0.853992 0.000000 0.000000 0.000000 0.043633 0.000000
    23 2.899446 1.342928 0.078011 -0.753950 1.017286 -0.473141
    24 1.152892 0.000000 0.000001 0.052865 1.429404 0.108931
    25 0.748462 0.000000 0.000000 0.000000 0.314159 -0.057080
    26 -9.925375 3.371265 1.355404 -3.141592 1.373401 -3.141893
    27 -0.023288 0.041601 0.000000 -0.550373 -0.727000 -0.361940
    28 11.072358 -0.043442 0.000000 0.000000 0.000000 -1.289115
    29 8.108981 -0.000004 0.000001 2.809644 0.887463 0.102266
    30 0.788882 0.969696 -0.533611 -3.125029 0.043111 0.419540
    31 1.920304 0.000000 0.000000 0.000000 0.000000 0.882819
    32 0.858252 0.000000 0.000001 0.000000 0.000000 -0.139246
    33 2.955714 0.752579 0.160553 3.141592 1.279169 -0.015797
    34 1.836087 0.000000 0.000000 0.000000 -0.235619 0.000000
    35 0.853994 0.000000 0.000000 -0.002756 -0.113413 0.024347
    36 2.964906 -0.017483 0.178523 3.141592 1.287895 -0.015797
    37 1.814736 0.000000 0.000000 0.006645 -0.296634 -0.022729
    38 0.982326 0.000000 -0.000001 0.000000 -0.095993 0.021736
    39 2.889733 -0.720928 0.212797 3.110577 1.374961 -0.082288
    40 1.751860 0.000000 0.000000 0.000000 -0.375246 -0.036569
    41 0.853992 0.000000 0.000001 0.000000 -0.043633 0.000000
    42 2.857167 -1.430683 0.078013 3.141590 1.488608 -0.015799
    43 1.152892 -0.000001 0.000002 -0.007510 -0.130685 0.057571
    44 0.748465 0.000000 -0.000001 0.000000 -0.314159 -0.057080
  time 15
    0 2.287296 -17.220802 -2.075328 1.505991 0.000000 3.141421
    1 2.284861 -10.711298 -1.669393 1.505978 0.000000 3.141304
    2 2.284823 -9.695545 -2.475709 1.505978 0.000000 3.141304
    3 2.287979 -10.216876 -2.485528 1.505978 0.000000 3.141304
    4 2.280910 -8.424049 -3.550260 1.505978 0.000000 3.141304
    5 2.278011 -9.171907 -1.828139 1.505978 0.000000 3.141304
    6 2.740668 -10.519396 -2.268901 1.505978 0.000000 3.141304
    7 8.412141 3.448129 0.658960 -3.141592 1.543843 3.141384
    8 -0.023288 0.041601 -0.000002 0.338788 0.349078 -0.284551
    9 11.072354 -0.043445 0.000000 0.000000 0.000000 -1.899542
    10 8.108976 0.000000 0.000000 0.224421 -0.430220 0.658485
    11 0.758958 -0.993291 -0.533611 0.379797 0.535486 -0.120431
    12 1.920300 0.000001 0.000000 -0.037272 -0.088062 0.691716
    13 0.858253 0.000000 0.000000 0.000000 0.000000 -0.069433
    14 2.931401 -0.842323 0.160553 0.091324 0.061197 -0.117911
    15 1.836089 0.000000 0.000000 0.000000 1.107680 0.000000
    16 0.853993 0.000000 0.000001 0.002756 0.113413 0.024347
    17 2.964058 -0.072899 0.178523 -0.240482 0.965022 0.037114
    18 1.814737 0.000000 -0.000001 -3.126544 1.134857 3.134449
    19 0.982325 0.000000 0.000000 0.000000 0.095993 0.021736
    20 2.910365 0.632510 0.212796 -0.429335 1.029775 -0.123005
    21 1.751859 0.000000 0.000000 -3.141592 1.109249 3.105024
    22 0.853992 0.000000 0.000000 0.000000 0.043633 0.000000
    23 2.899446 1.342928 0.078011 -0.753950 1.017286 -0.473141
    24 1.152892 0.000000 0.000001 0.052865 1.429404 0.108931
    25 0.748462 0.000000 0.000000 0.000000 0.314159 -0.057080
    26 -9.925375 3.371265 1.355404 -3.141592 1.373401 -3.141893
    27 -0.023288 0.041601 0.000000 -0.548084 -0.726840 -0.365418
    28 11.072358 -0.043442 0.000000 0.000000 0.000000 -1.285724
    29 8.108981 -0.000004 0.000001 2.812566 0.886998 0.103816
    30 0.788882 0.969696 -0.533611 -3.125029 0.043111 0.419540
    31 1.920304 0.000000 0.000000 0.000000 0.000000 0.882819
    32 0.858252 0.000000 0.000001 0.000000 0.000000 -0.139246
    33 2.955714 0.752579 0.160553 3.141592 1.279169 -0.015797
    34 1.836087 0.000000 0.000000 0.000000 -0.235619 0.000000
    35 0.853994 0.000000 0.000000 -0.002756 -0.113413 0.024347
    36 2.964906 -0.017483 0.178523 3.141592 1.287895 -0.015797
    37 1.814736 0.000000 0.000000 0.006645 -0.296634 -0.022729
    38 0.982326 0.000000 -0.000001 0.000000 -0.095993 0.021736
    39 2.889733 -0.720928 0.212797 3.110577 1.374961 -0.082288
    40 1.751860 0.000000 0.000000 0.000000 -0.375246 -0.036569
    41 0.853992 0.000000 0.000001 0.000000 -0.043633 0.000000
    42 2.857167 -1.430683 0.078013 3.141590 1.488608 -0.015799
    43 1.152892 -0.000001 0.000002 -0.007510 -0.130685 0.057571
    44 0.748465 0.000000 -0.000001 0.000000 -0.314159 -0.057080
  time 16
    0 2.287296 -17.240442 -2.063609 1.508190 0.000000 3.141421
    1 2.284861 -10.738643 -1.669393 1.507828 0.000000 3.141304
    2 2.284823 -9.715077 -2.475709 1.507828 0.000000 3.141304
    3 2.287979 -10.244221 -2.485528 1.507828 0.000000 3.141304
    4 2.280910 -8.443581 -3.554166 1.507828 0.000000 3.141304
    5 2.278011 -9.187533 -1.835952 1.507828 0.000000 3.141304
    6 2.740668 -10.542834 -2.268901 1.507828 0.000000 3.141304
    7 8.412141 3.448129 0.658960 -3.141592 1.543843 3.141384
    8 -0.023288 0.041601 -0.000002 0.337565 0.348647 -0.286010
    9 11.072354 -0.043445 0.000000 0.000000 0.000000 -1.896262
    10 8.108976 0.000000 0.000000 0.224542 -0.428843 0.654482
    11 0.758958 -0.993291 -0.533611 0.379797 0.535486 -0.120431
    12 1.920300 0.000001 0.000000 -0.037272 -0.088062 0.691716
    13 0.858253 0.000000 0.000000 0.000000 0.000000 -0.069433
    14 2.931401 -0.842323 0.160553 0.091324 0.061197 -0.117911
    15 1.836089 0.000000 0.000000 0.000000 1.107680 0.000000
    16 0.853993 0.000000 0.000001 0.002756 0.113413 0.024347
    17 2.964058 -0.072899 0.178523 -0.240482 0.965022 0.037114
    18 1.814737 0.000000 -0.000001 -3.126544 1.134857 3.134449
    19 0.982325 0.000000 0.000000 0.000000 0.095993 0.021736
    20 2.910365 0.632510 0.212796 -0.429335 1.029775 -0.123005
    21 1.751859 0.000000 0.000000 -3.141592 1.109249 3.105024
    22 0.853992 0.000000 0.000000 0.000000 0.043633 0.000000
    23 2.899446 1.342928 0.078011 -0.753950 1.017286 -0.473141
    24 1.152892 0.000000 0.000001 0.052865 1.429404 0.108931
    25 0.748462 0.000000 0.000000 0.000000 0.314159 -0.057080
    26 -9.925375 3.371265 1.355404 -3.141592 1.373401 -3.141893
    27 -0.023288 0.041601 0.000000 -0.545613 -0.726720 -0.368226
    28 11.072358 -0.043442 0.000000 0.000000 0.000000 -1.281385
    29 8.108981 -0.000004 0.000001 2.812420 0.885448 0.099741
    30 0.788882 0.969696 -0.533611 -3.125029 0.043111 0.419540
    31 1.920304 0.000000 0.000000 0.000000 0.000000 0.882819
    32 0.858252 0.000000 0.000001 0.000000 0.000000 -0.139246
    33 2.955714 0.752579 0.160553 3.141592 1.279169 -0.015797
    34 1.836087 0.000000 0.000000 0.000000 -0.235619 0.000000
    35 0.853994 0.000000 0.000000 -0.002756 -0.113413 0.024347
    36 2.964906 -0.017483 0.178523 3.141592 1.287895 -0.015797
    37 1.814736 0.000000 0.000000 0.006645 -0.296634 -0.022729
    38 0.982326 0.000000 -0.000001 0.000000 -0.095993 0.021736
    39 2.889733 -0.720928 0.212797 3.110577 1.374961 -0.082288
    40 1.751860 0.000000 0.000000 0.000000 -0.375246 -0.036569
    41 0.853992 0.000000 0.000001 0.000000 -0.043633 0.000000
    42 2.857167 -1.430683 0.078013 3.141590 1.488608 -0.015799
    43 1.152892 -0.000001 0.000002 -0.007510 -0.130685 0.057571
    44 0.748465 0.000000 -0.000001 0.000000 -0.314159 -0.057080
  time 17
    0 2.287296 -17.260083 -2.036264 1.512234 0.000000 3.141421
    1 2.284861 -10.742549 -1.669393 1.512126 0.000000 3.141304
    2 2.284823 -9.730702 -2.475709 1.512126 0.000000 3.141304
    3 2.287979 -10.255940 -2.485528 1.512126 0.000000 3.141304
    4 2.280910 -8.463113 -3.561979 1.512126 0.000000 3.141304
    5 2.278011 -9.195345 -1.835952 1.512126 0.000000 3.141304
    6 2.740668 -10.550647 -2.268901 1.512126 0.000000 3.141304
    7 8.412141 3.448129 0.658960 -3.141592 1.543843 3.141384
    8 -0.023288 0.041601 -0.000002 0.336535 0.348192 -0.286057
    9 11.072354 -0.043445 0.000000 0.000000 0.000000 -1.893341
    10 8.108976 0.000000 0.000000 0.226313 -0.426718 0.647106
    11 0.758958 -0.993291 -0.533611 0.379797 0.535486 -0.120431
    12 1.920300 0.000001 0.000000 -0.037272 -0.088062 0.691716
    13 0.858253 0.000000 0.000000 0.000000 0.000000 -0.069433
    14 2.931401 -0.842323 0.160553 0.091324 0.061197 -0.117911
    15 1.836089 0.000000 0.000000 0.000000 1.107680 0.000000
    16 0.853993 0.000000 0.000001 0.002756 0.113413 0.024347
    17 2.964058 -0.072899 0.178523 -0.240482 0.965022 0.037114
    18 1.814737 0.000000 -0.000001 -3.126544 1.134857 3.134449
    19 0.982325 0.000000 0.000000 0.000000 0.095993 0.021736
    20 2.910365 0.632510 0.212796 -0.429335 1.029775 -0.123005
    21 1.751859 0.000000 0.000000 -3.141592 1.109249 3.105024
    22 0.853992 0.000000 0.000000 0.000000 0.043633 0.000000
    23 2.899446 1.342928 0.078011 -0.753950 1.017286 -0.473141
    24 1.152892 0.000000 0.000001 0.052865 1.429404 0.108931
    25 0.748462 0.000000 0.000000 0.000000 0.314159 -0.057080
    26 -9.925375 3.371265 1.355404 -3.141592 1.373401 -3.141893
    27 -0.023288 0.041601 0.000000 -0.543203 -0.726640 -0.369818
    28 11.072358 -0.043442 0.000000 0.000000 0.000000 -1.277425
    29 8.108981 -0.000004 0.000001 2.808183 0.882865 0.090751
    30 0.788882 0.969696 -0.533611 -3.125029 0.043111 0.419540
    31 1.920304 0.000000 0.000000 0.000000 0.000000 0.882819
    32 0.858252 0.000000 0.000001 0.000000 0.000000 -0.139246
    33 2.955714 0.752579 0.160553 3.141592 1.279169 -0.015797
    34 1.836087 0.000000 0.000000 0.000000 -0.235619 0.000000
    35 0.853994 0.000000 0.000000 -0.002756 -0.113413 0.024347
    36 2.964906 -0.017483 0.178523 3.141592 1.287895 -0.015797
    37 1.814736 0.000000 0.000000 0.006645 -0.296634 -0.022729
    38 0.982326 0.000000 -0.000001 0.000000 -0.095993 0.021736
    39 2.889733 -0.720928 0.212797 3.110577 1.374961 -0.082288
    40 1.751860 0.000000 0.000000 0.000000 -0.375246 -0.036569
    41 0.853992 0.000000 0.000001 0.000000 -0.043633 0.000000
    42 2.857167 -1.430683 0.078013 3.141590 1.488608 -0.015799
    43 1.152892 -0.000001 0.000002 -0.007510 -0.130685 0.057571
    44 0.748465 0.000000 -0.000001 0.000000 -0.314159 -0.057080
  time 18
    0 2.287296 -17.240442 -1.981575 1.518917 0.000000 3.141421
    1 2.284861 -10.738643 -1.657674 1.518930 0.000000 3.141304
    2 2.284823 -9.730702 -2.475709 1.518930 0.000000 3.141304
    3 2.287979 -10.255940 -2.485528 1.518930 0.000000 3.141304
    4 2.280910 -8.467019 -3.573698 1.518930 0.000000 3.141304
    5 2.278011 -9.191439 -1.835952 1.518930 0.000000 3.141304
    6 2.740668 -10.550647 -2.257182 1.518930 0.000000 3.141304
    7 8.412141 3.448129 0.658960 -3.141592 1.543843 3.141384
    8 -0.023288 0.041601 -0.000002 0.335552 0.347724 -0.285030
    9 11.072354 -0.043445 0.000000 0.000000 0.000000 -1.890690
    10 8.108976 0.000000 0.000000 0.229694 -0.423688 0.636013
    11 0.758958 -0.993291 -0.533611 0.379797 0.535486 -0.120431
    12 1.920300 0.000001 0.000000 -0.037272 -0.088062 0.691716
    13 0.858253 0.000000 0.000000 0.000000 0.000000 -0.069433
    14 2.931401 -0.842323 0.160553 0.091324 0.061197 -0.117911
    15 1.836089 0.000000 0.000000 0.000000 1.107680 0.000000
    16 0.853993 0.000000 0.000001 0.002756 0.113413 0.024347
    17 2.964058 -0.072899 0.178523 -0.240482 0.965022 0.037114
    18 1.814737 0.000000 -0.000001 -3.126544 1.134857 3.134449
    19 0.982325 0.000000 0.000000 0.000000 0.095993 0.021736
    20 2.910365 0.632510 0.212796 -0.429335 1.029775 -0.123005
    21 1.751859 0.000000 0.000000 -3.141592 1.109249 3.105024
    22 0.853992 0.000000 0.000000 0.000000 0.043633 0.000000
    23 2.899446 1.342928 0.078011 -0.753950 1.017286 -0.473141
    24 1.152892 0.000000 0.000001 0.052865 1.429404 0.108931
    25 0.748462 0.000000 0.000000 0.000000 0.314159 -0.057080
    26 -9.925375 3.371265 1.355404 -3.141592 1.373401 -3.141893
    27 -0.023288 0.041601 0.000000 -0.540885 -0.726560 -0.370866
    28 11.072358 -0.043442 0.000000 0.000000 0.000000 -1.273204
    29 8.108981 -0.000004 0.000001 2.801024 0.879042 0.076624
    30 0.788882 0.969696 -0.533611 -3.125029 0.043111 0.419540
    31 1.920304 0.000000 0.000000 0.000000 0.000000 0.882819
    32 0.858252 0.000000 0.000001 0.000000 0.000000 -0.139246
    33 2.955714 0.752579 0.160553 3.141592 1.279169 -0.015797
    34 1.836087 0.000000 0.000000 0.000000 -0.235619 0.000000
    35 0.853994 0.000000 0.000000 -0.002756 -0.113413 0.024347
    36 2.964906 -0.017483 0.178523 3.141592 1.287895 -0.015797
    37 1.814736 0.000000 0.000000 0.006645 -0.296634 -0.022729
    38 0.982326 0.000000 -0.000001 0.000000 -0.095993 0.021736
    39 2.889733 -0.720928 0.212797 3.110577 1.374961 -0.082288
    40 1.751860 0.000000 0.000000 0.000000 -0.375246 -0.036569
    41 0.853992 0.000000 0.000001 0.000000 -0.043633 0.000000
    42 2.857167 -1.430683 0.078013 3.141590 1.488608 -0.015799
    43 1.152892 -0.000001 0.000002 -0.007510 -0.130685 0.057571
    44 0.748465 0.000000 -0.000001 0.000000 -0.314159 -0.057080
  time 19
    0 2.287296 -17.240442 -1.911260 1.528150 0.000000 3.141421
    1 2.284861 -10.715204 -1.649861 1.528181 0.000000 3.141304
    2 2.284823 -9.715077 -2.475709 1.528181 0.000000 3.141304
    3 2.287979 -10.244221 -2.485528 1.528181 0.000000 3.141304
    4 2.280910 -8.467019 -3.581511 1.528181 0.000000 3.141304
    5 2.278011 -9.179720 -1.847671 1.528181 0.000000 3.141304
    6 2.740668 -10.538928 -2.257182 1.528181 0.000000 3.141304
    7 8.412141 3.448129 0.658960 -3.141592 1.543843 3.141384
    8 -0.023288 0.041601 -0.000002 0.334605 0.347389 -0.282950
    9 11.072354 -0.043445 0.000000 0.000000 0.000000 -1.888421
    10 8.108976 0.000000 0.000000 0.234565 -0.419832 0.621547
    11 0.758958 -0.993291 -0.533611 0.379797 0.535486 -0.120431
    12 1.920300 0.000001 0.000000 -0.037272 -0.088062 0.691716
    13 0.858253 0.000000 0.000000 0.000000 0.000000 -0.069433
    14 2.931401 -0.842323 0.160553 0.091324 0.061197 -0.117911
    15 1.836089 0.000000 0.000000 0.000000 1.107680 0.000000
    16 0.853993 0.000000 0.000001 0.002756 0.113413 0.024347
    17 2.964058 -0.072899 0.178523 -0.240482 0.965022 0.037114
    18 1.814737 0.000000 -0.000001 -3.126544 1.134857 3.134449
    19 0.982325 0.000000 0.000000 0.000000 0.095993 0.021736
    20 2.910365 0.632510 0.212796 -0.429335 1.029775 -0.123005
    21 1.751859 0.000000 0.000000 -3.141592 1.109249 3.105024
    22 0.853992 0.000000 0.000000 0.000000 0.043633 0.000000
    23 2.899446 1.342928 0.078011 -0.753950 1.017286 -0.473141
    24 1.152892 0.000000 0.000001 0.052865 1.429404 0.108931
    25 0.748462 0.000000 0.000000 0.000000 0.314159 -0.057080
    26 -9.925375 3.371265 1.355404 -3.141592 1.373401 -3.141893
    27 -0.023288 0.041601 0.000000 -0.538474 -0.726560 -0.371033
    28 11.072358 -0.043442 0.000000 0.000000 0.000000 -1.268675
    29 8.108981 -0.000004 0.000001 2.790358 0.874186 0.057536
    30 0.788882 0.969696 -0.533611 -3.125029 0.043111 0.419540
    31 1.920304 0.000000 0.000000 0.000000 0.000000 0.882819
    32 0.858252 0.000000 0.000001 0.000000 0.000000 -0.139246
    33 2.955714 0.752579 0.160553 3.141592 1.279169 -0.015797
    34 1.836087 0.000000 0.000000 0.000000 -0.235619 0.000000
    35 0.853994 0.000000 0.000000 -0.002756 -0.113413 0.024347
    36 2.964906 -0.017483 0.178523 3.141592 1.287895 -0.015797
    37 1.814736 0.000000 0.000000 0.006645 -0.296634 -0.022729
    38 0.982326 0.000000 -0.000001 0.000000 -0.095993 0.021736
    39 2.889733 -0.720928 0.212797 3.110577 1.374961 -0.082288
    40 1.751860 0.000000 0.000000 0.000000 -0.375246 -0.036569
    41 0.853992 0.000000 0.000001 0.000000 -0.043633 0.000000
    42 2.857167 -1.430683 0.078013 3.141590 1.488608 -0.015799
    43 1.152892 -0.000001 0.000002 -0.007510 -0.130685 0.057571
    44 0.748465 0.000000 -0.000001 0.000000 -0.314159 -0.057080
  time 20
    0 2.287296 -17.201161 -1.821414 1.540285 0.000000 3.141421
    1 2.284861 -10.683953 -1.638142 1.539939 0.000000 3.141304
    2 2.284823 -9.695545 -2.475709 1.539939 0.000000 3.141304
    3 2.287979 -10.216876 -2.473809 1.539939 0.000000 3.141304
    4 2.280910 -8.459206 -3.593230 1.539939 0.000000 3.141304
    5 2.278011 -9.148469 -1.847671 1.539939 0.000000 3.141304
    6 2.740668 -10.515489 -2.237650 1.539939 0.000000 3.141304
    7 8.412141 3.448129 0.658960 -3.141592 1.543843 3.141384
    8 -0.023288 0.041601 -0.000002 0.333790 0.346969 -0.279675
    9 11.072354 -0.043445 0.000000 0.000000 0.000000 -1.886310
    10 8.108976 0.000000 0.000000 0.240925 -0.415110 0.603421
    11 0.758958 -0.993291 -0.533611 0.379797 0.535486 -0.120431
    12 1.920300 0.000001 0.000000 -0.037272 -0.088062 0.691716
    13 0.858253 0.000000 0.000000 0.000000 0.000000 -0.069433
    14 2.931401 -0.842323 0.160553 0.091324 0.061197 -0.117911
    15 1.836089 0.000000 0.000000 0.000000 1.107680 0.000000
    16 0.853993 0.000000 0.000001 0.002756 0.113413 0.024347
    17 2.964058 -0.072899 0.178523 -0.240482 0.965022 0.037114
    18 1.814737 0.000000 -0.000001 -3.126544 1.134857 3.134449
    19 0.982325 0.000000 0.000000 0.000000 0.095993 0.021736
    20 2.910365 0.632510 0.212796 -0.429335 1.029775 -0.123005
    21 1.751859 0.000000 0.000000 -3.141592 1.109249 3.105024
    22 0.853992 0.000000 0.000000 0.000000 0.043633 0.000000
    23 2.899446 1.342928 0.078011 -0.753950 1.017286 -0.473141
    24 1.152892 0.000000 0.000001 0.052865 1.429404 0.108931
    25 0.748462 0.000000 0.000000 0.000000 0.314159 -0.057080
    26 -9.925375 3.371265 1.355404 -3.141592 1.373401 -3.141893
    27 -0.023288 0.041601 0.000000 -0.536064 -0.726640 -0.370321
    28 11.072358 -0.043442 0.000000 0.000000 0.000000 -1.263814
    29 8.108981 -0.000004 0.000001 2.776698 0.867883 0.033665
    30 0.788882 0.969696 -0.533611 -3.125029 0.043111 0.419540
    31 1.920304 0.000000 0.000000 0.000000 0.000000 0.882819
    32 0.858252 0.000000 0.000001 0.000000 0.000000 -0.139246
    33 2.955714 0.752579 0.160553 3.141592 1.279169 -0.015797
    34 1.836087 0.000000 0.000000 0.000000 -0.235619 0.000000
    35 0.853994 0.000000 0.000000 -0.002756 -0.113413 0.024347
    36 2.964906 -0.017483 0.178523 3.141592 1.287895 -0.015797
    37 1.814736 0.000000 0.000000 0.006645 -0.296634 -0.022729
    38 0.982326 0.000000 -0.000001 0.000000 -0.095993 0.021736
    39 2.889733 -0.720928 0.212797 3.110577 1.374961 -0.082288
    40 1.751860 0.000000 0.000000 0.000000 -0.375246 -0.036569
    41 0.853992 0.000000 0.000001 0.000000 -0.043633 0.000000
    42 2.857167 -1.430683 0.078013 3.141590 1.488608 -0.015799
    43 1.152892 -0.000001 0.000002 -0.007510 -0.130685 0.057571
    44 0.748465 0.000000 -0.000001 0.000000 -0.314159 -0.057080
  time 21
    0 2.287296 -17.161880 -1.708129 1.554530 0.000000 3.141421
    1 2.284861 -10.644890 -1.618610 1.554145 0.000000 3.141304
    2 2.284823 -9.660388 -2.467896 1.554145 0.000000 3.141304
    3 2.287979 -10.185625 -2.454277 1.554145 0.000000 3.141304
    4 2.280910 -8.439674 -3.604949 1.554145 0.000000 3.141304
    5 2.278011 -9.105499 -1.847671 1.554145 0.000000 3.141304
    6 2.740668 -10.476426 -2.225931 1.554145 0.000000 3.141304
    7 8.412141 3.448129 0.658960 -3.141592 1.543843 3.141384
    8 -0.023288 0.041601 -0.000002 0.333023 0.346658 -0.275348
    9 11.072354 -0.043445 0.000000 0.000000 0.000000 -1.884422
    10 8.108976 0.000000 0.000000 0.248654 -0.409444 0.581979
    11 0.758958 -0.993291 -0.533611 0.379797 0.535486 -0.120431
    12 1.920300 0.000001 0.000000 -0.037272 -0.088062 0.691716
    13 0.858253 0.000000 0.000000 0.000000 0.000000 -0.069433
    14 2.931401 -0.842323 0.160553 0.091324 0.061197 -0.117911
    15 1.836089 0.000000 0.000000 0.000000 1.107680 0.000000
    16 0.853993 0.000000 0.000001 0.002756 0.113413 0.024347
    17 2.964058 -0.072899 0.178523 -0.240482 0.965022 0.037114
    18 1.814737 0.000000 -0.000001 -3.126544 1.134857 3.134449
    19 0.982325 0.000000 0.000000 0.000000 0.095993 0.021736
    20 2.910365 0.632510 0.212796 -0.429335 1.029775 -0.123005
    21 1.751859 0.000000 0.000000 -3.141592 1.109249 3.105024
    22 0.853992 0.000000 0.000000 0.000000 0.043633 0.000000
    23 2.899446 1.342928 0.078011 -0.753950 1.017286 -0.473141
    24 1.152892 0.000000 0.000001 0.052865 1.429404 0.108931
    25 0.748462 0.000000 0.000000 0.000000 0.314159 -0.057080
    26 -9.925375 3.371265 1.355404 -3.141592 1.373401 -3.141893
    27 -0.023288 0.041601 0.000000 -0.533563 -0.726720 -0.369190
    28 11.072358 -0.043442 0.000000 0.000000 0.000000 -1.258621
    29 8.108981 -0.000004 0.000001 2.760042 0.860237 0.005233
    30 0.788882 0.969696 -0.533611 -3.125029 0.043111 0.419540
    31 1.920304 0.000000 0.000000 0.000000 0.000000 0.882819
    32 0.858252 0.000000 0.000001 0.000000 0.000000 -0.139246
    33 2.955714 0.752579 0.160553 3.141592 1.279169 -0.015797
    34 1.836087 0.000000 0.000000 0.000000 -0.235619 0.000000
    35 0.853994 0.000000 0.000000 -0.002756 -0.113413 0.024347
    36 2.964906 -0.017483 0.178523 3.141592 1.287895 -0.015797
    37 1.814736 0.000000 0.000000 0.006645 -0.296634 -0.022729
    38 0.982326 0.000000 -0.000001 0.000000 -0.095993 0.021736
    39 2.889733 -0.720928 0.212797 3.110577 1.374961 -0.082288
    40 1.751860 0.000000 0.000000 0.000000 -0.375246 -0.036569
    41 0.853992 0.000000 0.000001 0.000000 -0.043633 0.000000
    42 2.857167 -1.430683 0.078013 3.141590 1.488608 -0.015799
    43 1.152892 -0.000001 0.000002 -0.007510 -0.130685 0.057571
    44 0.748465 0.000000 -0.000001 0.000000 -0.314159 -0.057080
  time 22
    0 2.287296 -17.102958 -1.579219 1.570797 0.000000 3.141421
    1 2.284861 -10.586294 -1.595172 1.570797 0.000000 3.141304
    2 2.284823 -9.621324 -2.467896 1.570797 0.000000 3.141304
    3 2.287979 -10.142655 -2.442558 1.570797 0.000000 3.141304
    4 2.280910 -8.416236 -3.612762 1.570797 0.000000 3.141304
    5 2.278011 -9.050810 -1.847671 1.570797 0.000000 3.141304
    6 2.740668 -10.425643 -2.206399 1.570797 0.000000 3.141304
    7 8.412141 3.448129 0.658960 -3.141592 1.543843 3.141384
    8 -0.023288 0.041601 -0.000002 0.332352 0.346310 -0.270017
    9 11.072354 -0.043445 0.000000 0.000000 0.000000 -1.882715
    10 8.108976 0.000000 0.000000 0.257590 -0.402715 0.557163
    11 0.758958 -0.993291 -0.533611 0.379797 0.535486 -0.120431
    12 1.920300 0.000001 0.000000 -0.037272 -0.088062 0.691716
    13 0.858253 0.000000 0.000000 0.000000 0.000000 -0.069433
    14 2.931401 -0.842323 0.160553 0.091324 0.061197 -0.117911
    15 1.836089 0.000000 0.000000 0.000000 1.107680 0.000000
    16 0.853993 0.000000 0.000001 0.002756 0.113413 0.024347
    17 2.964058 -0.072899 0.178523 -0.240482 0.965022 0.037114
    18 1.814737 0.000000 -0.000001 -3.126544 1.134857 3.134449
    19 0.982325 0.000000 0.000000 0.000000 0.095993 0.021736
    20 2.910365 0.632510 0.212796 -0.429335 1.029775 -0.123005
    21 1.751859 0.000000 0.000000 -3.141592 1.109249 3.105024
    22 0.853992 0.000000 0.000000 0.000000 0.043633 0.000000
    23 2.899446 1.342928 0.078011 -0.753950 1.017286 -0.473141
    24 1.152892 0.000000 0.000001 0.052865 1.429404 0.108931
    25 0.748462 0.000000 0.000000 0.000000 0.314159 -0.057080
    26 -9.925375 3.371265 1.355404 -3.141592 1.373401 -3.141893
    27 -0.023288 0.041601 0.000000 -0.530939 -0.726880 -0.367346
    28 11.072358 -0.043442 0.000000 0.000000 0.000000 -1.253072
    29 8.108981 -0.000004 0.000001 2.741195 0.851196 -0.027451
    30 0.788882 0.969696 -0.533611 -3.125029 0.043111 0.419540
    31 1.920304 0.000000 0.000000 0.000000 0.000000 0.882819
    32 0.858252 0.000000 0.000001 0.000000 0.000000 -0.139246
    33 2.955714 0.752579 0.160553 3.141592 1.279169 -0.015797
    34 1.836087 0.000000 0.000000 0.000000 -0.235619 0.000000
    35 0.853994 0.000000 0.000000 -0.002756 -0.113413 0.024347
    36 2.964906 -0.017483 0.178523 3.141592 1.287895 -0.015797
    37 1.814736 0.000000 0.000000 0.006645 -0.296634 -0.022729
    38 0.982326 0.000000 -0.000001 0.000000 -0.095993 0.021736
    39 2.889733 -0.720928 0.212797 3.110577 1.374961 -0.082288
    40 1.751860 0.000000 0.000000 0.000000 -0.375246 -0.036569
    41 0.853992 0.000000 0.000001 0.000000 -0.043633 0.000000
    42 2.857167 -1.430683 0.078013 3.141590 1.488608 -0.015799
    43 1.152892 -0.000001 0.000002 -0.007510 -0.130685 0.057571
    44 0.748465 0.000000 -0.000001 0.000000 -0.314159 -0.057080
end
