
VertexLitGeneric
{

	$basetexture			models/jessev92/bf2/weapons/m15mine_d
	$bumpmap				models/jessev92/bf2/weapons/m15mine_b
	
	$halflambert			1
	$ambientocclusion		1

	$detail             	models/jessev92/detail/metal1
	$detailscale			8
	$detailblendfactor		1
	$detailblendmode		0
	
}
