
VertexLitGeneric
{

	$basetexture			models/jessev92/bf2/weapons/wrench_d
	$bumpmap				models/jessev92/bf2/weapons/wrench_b
	
	$halflambert			1
	$ambientocclusion		1

	$detail             	models/jessev92/detail/metal1
	$detailscale			8
	$detailblendfactor		1
	$detailblendmode			0
	
}
