
VertexLitGeneric
{
	$basetexture				models/jessev92/hl2/weapons/mosin/bolt_d
    $bumpmap					models/jessev92/hl2/weapons/mosin/bolt_b
	
	$halflambert				1
	$ambientocclusion			1

	$phong						1
	$phongexponent				40
	$phongexponenttexture		models/jessev92/hl2/weapons/mosin/bolt_x
	$phongboost					1
	$phongfresnelranges			"[ 0.05 0.5 1 ]"
}
