
VertexLitGeneric
{

	$baseTexture				models/jessev92/hl2/weapons/hk53/anpeq_d
	$bumpmap					models/jessev92/hl2/weapons/hk53/anpeq_b

	$halflambert				1
	$ambientocclusion			1

	$phong						1
	$phongexponent				69
	$phongboost					0.1
 	$phongfresnelranges			"[ 8 4 8 ]"
	$phongalbedotint			1
	
	$detail						detail/metal_detail_01
	$detailscale				4
	$detailblendfactor			0.95
	$detailblendmode			0
	
}
