
VertexLitGeneric
{

	$baseTexture				models/jessev92/hl2/weapons/scarl/sleeve_d
	$bumpmap					models/jessev92/hl2/weapons/scarl/sleeve_b

	$halflambert				1
	$ambientocclusion			1

	$phong						1
	$phongexponent				69
	$phongboost					0.1
 	$phongfresnelranges			"[ 0.2 0.4 1 ]"
	$phongalbedotint			1
	$normalmapalphaphongmask	1
	
	$detail						detail/metal_detail_01
	$detailscale				4
	$detailblendfactor			0.95
	$detailblendmode			0
	
}
