version 1
nodes
  0 "glock18"  -1
  1 "Trigger"   0
  2 "Slide"  -1
  3 "Mag"  -1
  4 "L_Armdummy"  -1
  5 "L_Upperarm"   4
  6 "L_Forearm"   5
  7 "L_Wrist"   6
  8 "L_Thumb1"   7
  9 "L_Thumb2"   8
 10 "L_Thumb3"   9
 11 "L_Index1"   7
 12 "L_Index2"  11
 13 "L_Index3"  12
 14 "L_Mid1"   7
 15 "L_Mid2"  14
 16 "L_Mid3"  15
 17 "L_Ring1"   7
 18 "L_Ring2"  17
 19 "L_Ring3"  18
 20 "L_Pinky1"   7
 21 "L_Pinky2"  20
 22 "L_Pinky3"  21
 23 "R_Armdummy"  -1
 24 "R_Upperarm"  23
 25 "R_Forearm"  24
 26 "R_Wrist"  25
 27 "R_Thumb1"  26
 28 "R_Thumb2"  27
 29 "R_Thumb3"  28
 30 "R_Index1"  26
 31 "R_Index2"  30
 32 "R_Index3"  31
 33 "R_Mid1"  26
 34 "R_Mid2"  33
 35 "R_Mid3"  34
 36 "R_Ring1"  26
 37 "R_Ring2"  36
 38 "R_Ring3"  37
 39 "R_Pinky1"  26
 40 "R_Pinky2"  39
 41 "R_Pinky3"  40
end
skeleton
time 0
  0 1.751348 -9.072426 -3.001957 0.000000 0.000000 -0.000083
  1 0.006323 -1.781991 0.302978 0.000000 -0.000000 0.000000
  2 1.751349 -9.072426 -3.001957 0.000000 0.000000 -0.000083
  3 1.813851 -9.066496 -3.001957 0.000000 0.000000 -0.000083
  4 6.687647 8.054365 -2.755545 -0.000000 1.570451 0.000000
  5 -0.023288 0.041601 0.000000 0.142926 0.232763 -0.923085
  6 11.072354 -0.043447 0.000000 -0.000000 0.000000 -1.314576
  7 8.108975 0.000001 0.000000 0.020844 -0.271684 0.695996
  8 0.758958 -0.993292 -0.533611 0.363171 0.568929 -0.094389
  9 1.920300 0.000000 0.000001 0.000000 0.000000 0.689234
 10 0.858253 0.000000 -0.000001 -0.000000 -0.000000 -0.069433
 11 2.931403 -0.842325 0.160553 -0.000000 0.069813 -0.014689
 12 1.836085 -0.000000 -0.000000 0.000001 1.544617 0.000007
 13 0.853993 0.000000 0.000002 0.002756 0.113413 0.024347
 14 2.964061 -0.072900 0.178523 0.160949 1.348019 0.452789
 15 1.814737 0.000000 0.000000 0.023570 1.843785 0.001912
 16 0.982327 0.000000 -0.000000 -0.000000 -0.190731 0.021736
 17 2.910369 0.632510 0.212797 -0.128122 1.421018 0.196879
 18 1.751859 0.000001 0.000001 -0.000001 1.759074 -0.036567
 19 0.853997 0.000001 0.000000 0.000000 0.043633 0.000000
 20 2.899452 1.342927 0.078012 -1.886497 1.384208 -1.531075
 21 1.152892 -0.000000 0.000002 0.015687 1.076152 0.070399
 22 0.748464 0.000000 -0.000000 0.000000 0.314159 -0.057080
 23 -5.813908 3.532208 -1.843327 -0.000000 1.570451 0.000000
 24 -0.023288 0.041601 0.000000 -0.446854 -0.468434 -0.440004
 25 11.072356 -0.043445 -0.000000 -0.000000 0.000000 -1.788339
 26 8.108978 -0.000002 0.000002 -2.116728 0.691126 1.010296
 27 0.788884 0.969697 -0.533611 2.830487 0.427591 0.309979
 28 1.920300 0.000001 0.000000 0.033452 -0.056128 0.713858
 29 0.858253 -0.000001 0.000001 0.000000 -0.000000 -0.069433
 30 2.955717 0.752579 0.160553 -3.141592 0.503403 -0.015797
 31 1.836088 0.000000 -0.000000 0.000000 -1.021018 -0.000000
 32 0.853994 0.000000 0.000003 -0.002756 -0.113413 0.024347
 33 2.964908 -0.017483 0.178523 -3.141592 0.755049 -0.015797
 34 1.814738 -0.000000 -0.000001 0.010320 -0.907479 -0.028918
 35 0.982325 -0.000000 -0.000001 -0.000000 -0.095993 0.021736
 36 2.889736 -0.720928 0.212798 3.132530 0.842186 -0.058627
 37 1.751861 0.000001 -0.000002 0.000000 -1.160644 -0.036569
 38 0.853994 0.000000 0.000005 0.000000 -0.043633 0.000000
 39 2.857168 -1.430683 0.078013 3.141592 0.955762 -0.015797
 40 1.152892 -0.000000 -0.000001 -0.012228 -0.916051 0.066292
 41 0.748465 0.000000 0.000001 -0.000000 -0.314159 -0.057080
time 1
  0 1.751348 -9.072426 -3.026857 0.001455 -0.002137 0.000221
  1 0.006323 -1.781991 0.302978 0.000000 -0.000000 0.000000
  2 1.751349 -9.072426 -3.026857 0.001455 -0.002137 0.000221
  3 1.813824 -9.066483 -3.026735 0.001455 -0.002137 0.000221
  4 6.687647 8.054365 -2.755545 -0.000000 1.570451 0.000000
  5 -0.023288 0.041601 0.000000 0.142848 0.232818 -0.922189
  6 11.072354 -0.043446 0.000000 -0.000000 0.000000 -1.313689
  7 8.108974 -0.000001 -0.000000 0.022728 -0.272828 0.695414
  8 0.758958 -0.993292 -0.533611 0.363171 0.568929 -0.094389
  9 1.920300 0.000000 0.000000 -0.000000 0.000000 0.689234
 10 0.858253 0.000000 -0.000000 -0.000000 -0.000000 -0.069433
 11 2.931402 -0.842324 0.160553 -0.000000 0.069813 -0.014689
 12 1.836087 0.000000 0.000000 0.000001 1.538691 0.000007
 13 0.853993 0.000000 0.000001 0.002756 0.113413 0.024347
 14 2.964059 -0.072899 0.178523 0.160949 1.348019 0.452789
 15 1.814737 -0.000000 0.000000 0.023570 1.843785 0.001912
 16 0.982327 0.000000 0.000000 -0.000000 -0.190731 0.021736
 17 2.910368 0.632510 0.212797 -0.128122 1.421018 0.196879
 18 1.751859 0.000001 0.000000 -0.000001 1.759074 -0.036567
 19 0.853997 0.000000 0.000000 0.000000 0.043633 0.000000
 20 2.899452 1.342927 0.078012 -1.886496 1.384208 -1.531075
 21 1.152892 0.000000 0.000001 0.015687 1.076152 0.070399
 22 0.748463 0.000000 -0.000000 0.000000 0.314159 -0.057080
 23 -5.812846 3.532208 -1.843327 -0.000000 1.570451 0.000000
 24 -0.023288 0.041601 0.000000 -0.446196 -0.467787 -0.439087
 25 11.072355 -0.043444 -0.000001 0.000000 -0.000000 -1.788496
 26 8.108979 -0.000002 0.000001 -2.123766 0.689318 1.009543
 27 0.788882 0.969697 -0.533612 2.831043 0.426409 0.310642
 28 1.920301 0.000001 -0.000000 0.033390 -0.055855 0.711858
 29 0.858253 -0.000000 0.000000 -0.000000 0.000000 -0.068174
 30 2.955715 0.752579 0.160553 -3.141592 0.503340 -0.015797
 31 1.836088 0.000000 0.000000 0.000000 -1.019422 -0.000000
 32 0.853994 0.000000 0.000002 -0.002756 -0.113413 0.024347
 33 2.964908 -0.017483 0.178523 -3.141592 0.753803 -0.015797
 34 1.814738 0.000000 0.000000 0.010311 -0.906491 -0.028906
 35 0.982325 0.000000 0.000000 0.000000 -0.095993 0.021736
 36 2.889734 -0.720928 0.212798 3.132536 0.841319 -0.058618
 37 1.751861 0.000001 -0.000002 -0.000000 -1.159048 -0.036569
 38 0.853993 0.000000 0.000005 0.000000 -0.043633 0.000000
 39 2.857167 -1.430682 0.078013 3.141592 0.955564 -0.015797
 40 1.152893 -0.000001 -0.000002 -0.012212 -0.913314 0.066262
 41 0.748465 -0.000000 0.000001 -0.000000 -0.314159 -0.057080
time 2
  0 1.751348 -9.072426 -3.099217 0.005681 -0.008346 0.001106
  1 0.006323 -1.781991 0.302978 0.000000 -0.000000 0.000000
  2 1.751349 -9.072426 -3.099217 0.005681 -0.008346 0.001106
  3 1.813745 -9.066442 -3.098738 0.005681 -0.008346 0.001106
  4 6.687647 8.054365 -2.755545 -0.000000 1.570451 0.000000
  5 -0.023288 0.041601 0.000000 0.142620 0.232978 -0.919586
  6 11.072355 -0.043447 -0.000000 0.000000 0.000000 -1.311109
  7 8.108976 0.000000 0.000000 0.028202 -0.276152 0.693723
  8 0.758958 -0.993292 -0.533611 0.363171 0.568929 -0.094389
  9 1.920300 0.000000 0.000001 -0.000000 -0.000000 0.689234
 10 0.858253 0.000000 -0.000000 0.000000 -0.000000 -0.069433
 11 2.931403 -0.842325 0.160553 0.000000 0.069813 -0.014689
 12 1.836086 -0.000000 0.000000 0.000001 1.521463 0.000007
 13 0.853993 0.000000 0.000000 0.002756 0.113413 0.024347
 14 2.964060 -0.072899 0.178523 0.160949 1.348019 0.452789
 15 1.814738 0.000000 -0.000001 0.023570 1.843785 0.001912
 16 0.982328 -0.000000 0.000000 0.000000 -0.190731 0.021736
 17 2.910368 0.632510 0.212797 -0.128122 1.421018 0.196879
 18 1.751859 0.000001 -0.000001 -0.000001 1.759074 -0.036567
 19 0.853996 0.000000 0.000000 0.000000 0.043633 -0.000000
 20 2.899453 1.342927 0.078012 -1.886497 1.384208 -1.531075
 21 1.152892 -0.000000 0.000001 0.015687 1.076152 0.070399
 22 0.748465 0.000000 0.000000 -0.000000 0.314159 -0.057080
 23 -5.809761 3.532208 -1.843327 -0.000000 1.570451 0.000000
 24 -0.023288 0.041601 0.000000 -0.444282 -0.465905 -0.436424
 25 11.072355 -0.043444 0.000001 0.000000 0.000000 -1.788951
 26 8.108978 -0.000003 0.000002 -2.144218 0.684063 1.007356
 27 0.788882 0.969696 -0.533612 2.832660 0.422973 0.312570
 28 1.920300 0.000001 0.000000 0.033209 -0.055060 0.706046
 29 0.858252 -0.000000 0.000001 -0.000000 -0.000000 -0.064513
 30 2.955715 0.752579 0.160553 -3.141592 0.503157 -0.015797
 31 1.836087 0.000000 -0.000000 0.000000 -1.014785 0.000000
 32 0.853994 0.000000 0.000002 -0.002756 -0.113413 0.024347
 33 2.964905 -0.017483 0.178523 -3.141592 0.750182 -0.015797
 34 1.814738 0.000000 0.000000 0.010286 -0.903622 -0.028870
 35 0.982325 0.000000 0.000000 0.000000 -0.095993 0.021736
 36 2.889735 -0.720929 0.212798 3.132554 0.838798 -0.058591
 37 1.751860 0.000001 -0.000004 -0.000000 -1.154412 -0.036569
 38 0.853993 -0.000000 0.000004 0.000000 -0.043633 0.000000
 39 2.857167 -1.430683 0.078013 3.141592 0.954988 -0.015797
 40 1.152893 -0.000000 -0.000002 -0.012164 -0.905360 0.066173
 41 0.748464 0.000000 0.000000 0.000000 -0.314159 -0.057080
time 3
  0 1.751348 -9.072426 -3.215517 0.012475 -0.018325 0.002528
  1 0.006323 -1.781991 0.302978 0.000000 -0.000000 0.000000
  2 1.751349 -9.072426 -3.215517 0.012475 -0.018325 0.002528
  3 1.813617 -9.066380 -3.214467 0.012475 -0.018325 0.002528
  4 6.687647 8.054365 -2.755545 -0.000000 1.570451 0.000000
  5 -0.023288 0.041601 0.000000 0.142254 0.233236 -0.915402
  6 11.072353 -0.043447 0.000000 0.000000 0.000000 -1.306963
  7 8.108976 0.000000 0.000000 0.036999 -0.281495 0.691004
  8 0.758958 -0.993292 -0.533611 0.363171 0.568929 -0.094389
  9 1.920301 -0.000000 0.000000 0.000000 0.000000 0.689234
 10 0.858253 0.000000 -0.000001 0.000000 -0.000000 -0.069433
 11 2.931404 -0.842325 0.160553 -0.000000 0.069813 -0.014689
 12 1.836086 0.000000 -0.000000 0.000001 1.493774 0.000007
 13 0.853993 0.000000 0.000001 0.002756 0.113413 0.024347
 14 2.964060 -0.072899 0.178523 0.160949 1.348019 0.452789
 15 1.814737 0.000000 0.000000 0.023570 1.843785 0.001912
 16 0.982328 0.000000 0.000000 0.000000 -0.190731 0.021736
 17 2.910369 0.632510 0.212797 -0.128122 1.421018 0.196879
 18 1.751859 0.000001 0.000000 -0.000000 1.759074 -0.036566
 19 0.853997 0.000001 0.000000 0.000000 0.043633 0.000000
 20 2.899453 1.342927 0.078012 -1.886497 1.384208 -1.531075
 21 1.152892 -0.000000 0.000000 0.015687 1.076152 0.070399
 22 0.748464 0.000000 0.000000 0.000000 0.314159 -0.057080
 23 -5.804801 3.532208 -1.843327 -0.000000 1.570451 0.000000
 24 -0.023288 0.041601 0.000000 -0.441206 -0.462882 -0.432143
 25 11.072356 -0.043445 0.000000 0.000000 0.000000 -1.789682
 26 8.108978 -0.000002 0.000001 -2.177091 0.675618 1.003841
 27 0.788883 0.969696 -0.533611 2.835259 0.417452 0.315669
 28 1.920300 0.000001 -0.000000 0.032918 -0.053783 0.696705
 29 0.858252 0.000000 0.000001 0.000000 0.000000 -0.058631
 30 2.955717 0.752579 0.160553 -3.141592 0.502864 -0.015797
 31 1.836087 0.000000 0.000000 0.000000 -1.007333 -0.000000
 32 0.853994 -0.000000 0.000002 -0.002756 -0.113413 0.024347
 33 2.964908 -0.017483 0.178523 -3.141592 0.744362 -0.015797
 34 1.814738 -0.000000 -0.000001 0.010246 -0.899011 -0.028812
 35 0.982325 0.000000 -0.000001 -0.000000 -0.095993 0.021736
 36 2.889736 -0.720928 0.212798 3.132583 0.834746 -0.058547
 37 1.751861 0.000001 -0.000002 0.000000 -1.146959 -0.036569
 38 0.853993 0.000000 0.000004 0.000000 -0.043633 0.000000
 39 2.857169 -1.430683 0.078012 3.141592 0.954061 -0.015797
 40 1.152892 0.000000 -0.000001 -0.012087 -0.892576 0.066032
 41 0.748465 0.000000 0.000001 0.000000 -0.314159 -0.057080
time 4
  0 1.751348 -9.072426 -3.372246 0.021630 -0.031774 0.004444
  1 0.006323 -1.781990 0.302978 0.000000 -0.000000 0.000000
  2 1.751349 -9.072426 -3.372246 0.021630 -0.031774 0.004444
  3 1.813446 -9.066294 -3.370424 0.021630 -0.031774 0.004444
  4 6.687647 8.054365 -2.755545 -0.000000 1.570451 0.000000
  5 -0.023288 0.041601 0.000000 0.141761 0.233583 -0.909763
  6 11.072353 -0.043447 0.000000 0.000000 0.000000 -1.301376
  7 8.108976 0.000002 0.000000 0.048856 -0.288695 0.687341
  8 0.758958 -0.993292 -0.533611 0.363171 0.568929 -0.094389
  9 1.920301 0.000000 0.000001 -0.000000 0.000000 0.689234
 10 0.858254 0.000000 -0.000001 -0.000000 0.000000 -0.069433
 11 2.931403 -0.842325 0.160553 -0.000000 0.069813 -0.014689
 12 1.836087 0.000000 -0.000000 0.000001 1.456462 0.000007
 13 0.853993 0.000000 0.000000 0.002756 0.113413 0.024347
 14 2.964060 -0.072900 0.178523 0.160949 1.348019 0.452789
 15 1.814738 -0.000000 0.000000 0.023570 1.843785 0.001912
 16 0.982328 0.000000 0.000000 0.000000 -0.190731 0.021736
 17 2.910368 0.632510 0.212797 -0.128122 1.421018 0.196879
 18 1.751859 0.000000 0.000001 -0.000001 1.759074 -0.036566
 19 0.853997 0.000000 0.000000 -0.000000 0.043633 -0.000000
 20 2.899453 1.342927 0.078012 -1.886497 1.384208 -1.531075
 21 1.152892 0.000000 0.000002 0.015687 1.076152 0.070399
 22 0.748465 -0.000000 0.000000 0.000000 0.314159 -0.057080
 23 -5.798117 3.532208 -1.843327 -0.000000 1.570451 0.000000
 24 -0.023288 0.041601 0.000000 -0.437060 -0.458808 -0.426374
 25 11.072357 -0.043444 0.000000 0.000000 0.000000 -1.790668
 26 8.108978 -0.000002 0.000002 -2.221389 0.664236 0.999104
 27 0.788882 0.969696 -0.533611 2.838761 0.410011 0.319846
 28 1.920302 0.000001 0.000000 0.032525 -0.052062 0.684117
 29 0.858252 -0.000001 0.000001 -0.000000 0.000000 -0.050703
 30 2.955716 0.752579 0.160553 -3.141592 0.502468 -0.015797
 31 1.836088 0.000000 -0.000001 0.000000 -0.997289 0.000000
 32 0.853994 0.000000 0.000002 -0.002756 -0.113413 0.024347
 33 2.964907 -0.017483 0.178523 -3.141592 0.736520 -0.015797
 34 1.814738 -0.000000 0.000000 0.010191 -0.892796 -0.028735
 35 0.982325 -0.000001 0.000000 0.000000 -0.095993 0.021736
 36 2.889735 -0.720928 0.212798 3.132622 0.829287 -0.058488
 37 1.751860 0.000001 -0.000002 -0.000000 -1.136916 -0.036569
 38 0.853993 -0.000000 0.000004 -0.000000 -0.043633 -0.000000
 39 2.857168 -1.430683 0.078012 3.141592 0.952813 -0.015797
 40 1.152891 -0.000000 0.000000 -0.011984 -0.875349 0.065840
 41 0.748465 -0.000000 0.000000 -0.000000 -0.314159 -0.057080
time 5
  0 1.751348 -9.072426 -3.565884 0.032941 -0.048390 0.006812
  1 0.006323 -1.781991 0.302978 0.000000 -0.000000 0.000000
  2 1.751349 -9.072426 -3.565884 0.032941 -0.048390 0.006812
  3 1.813234 -9.066188 -3.563110 0.032941 -0.048390 0.006812
  4 6.687647 8.054365 -2.755545 -0.000000 1.570451 0.000000
  5 -0.023288 0.041601 0.000000 0.141152 0.234012 -0.902797
  6 11.072354 -0.043446 -0.000000 -0.000000 0.000000 -1.294473
  7 8.108975 0.000000 0.000000 0.063504 -0.297590 0.682815
  8 0.758959 -0.993293 -0.533611 0.363171 0.568929 -0.094389
  9 1.920301 -0.000000 0.000000 0.000000 0.000000 0.689234
 10 0.858254 0.000000 -0.000000 0.000000 -0.000000 -0.069433
 11 2.931404 -0.842325 0.160553 0.000000 0.069813 -0.014689
 12 1.836088 0.000000 0.000000 0.000001 1.410361 0.000007
 13 0.853993 0.000000 0.000002 0.002756 0.113413 0.024347
 14 2.964062 -0.072899 0.178523 0.160949 1.348019 0.452789
 15 1.814738 -0.000000 0.000001 0.023570 1.843784 0.001912
 16 0.982327 0.000000 0.000000 0.000000 -0.190731 0.021736
 17 2.910368 0.632510 0.212797 -0.128122 1.421018 0.196879
 18 1.751859 0.000001 -0.000001 -0.000001 1.759074 -0.036567
 19 0.853996 0.000001 0.000000 0.000000 0.043633 0.000000
 20 2.899452 1.342927 0.078012 -1.886497 1.384208 -1.531075
 21 1.152892 0.000000 0.000001 0.015687 1.076152 0.070399
 22 0.748464 0.000000 -0.000000 -0.000000 0.314159 -0.057080
 23 -5.789859 3.532208 -1.843327 -0.000000 1.570451 0.000000
 24 -0.023288 0.041601 0.000000 -0.431939 -0.453774 -0.419246
 25 11.072357 -0.043444 -0.000000 0.000000 0.000000 -1.791885
 26 8.108978 -0.000003 0.000002 -2.276121 0.650175 0.993251
 27 0.788882 0.969696 -0.533611 2.843087 0.400818 0.325005
 28 1.920301 0.000001 0.000000 0.032041 -0.049935 0.668564
 29 0.858252 -0.000000 0.000001 0.000000 -0.000000 -0.040908
 30 2.955715 0.752579 0.160553 -3.141592 0.501979 -0.015797
 31 1.836088 0.000000 0.000000 0.000000 -0.984881 -0.000000
 32 0.853995 -0.000000 0.000002 -0.002756 -0.113413 0.024347
 33 2.964907 -0.017483 0.178523 -3.141592 0.726830 -0.015797
 34 1.814739 0.000000 0.000000 0.010124 -0.885118 -0.028640
 35 0.982325 -0.000000 0.000001 0.000000 -0.095993 0.021736
 36 2.889734 -0.720928 0.212797 3.132670 0.822541 -0.058415
 37 1.751861 0.000001 -0.000002 -0.000000 -1.124507 -0.036569
 38 0.853994 0.000000 0.000006 0.000000 -0.043633 -0.000000
 39 2.857168 -1.430683 0.078013 3.141592 0.951271 -0.015797
 40 1.152892 -0.000000 0.000000 -0.011856 -0.854064 0.065604
 41 0.748465 0.000000 -0.000001 0.000000 -0.314159 -0.057080
time 6
  0 1.751348 -9.072426 -3.792921 0.046203 -0.067872 0.009588
  1 0.006323 -1.781992 0.302978 0.000000 -0.000000 0.000000
  2 1.751349 -9.072426 -3.792921 0.046203 -0.067872 0.009588
  3 1.812986 -9.066064 -3.789029 0.046203 -0.067872 0.009588
  4 6.687647 8.054365 -2.755545 -0.000000 1.570451 0.000000
  5 -0.023288 0.041601 0.000000 0.140438 0.234514 -0.894628
  6 11.072354 -0.043444 0.000000 -0.000000 0.000000 -1.286380
  7 8.108975 -0.000001 -0.000001 0.080679 -0.308020 0.677508
  8 0.758958 -0.993293 -0.533611 0.363171 0.568929 -0.094389
  9 1.920300 -0.000000 0.000001 -0.000000 0.000000 0.689234
 10 0.858253 0.000000 -0.000001 0.000000 -0.000000 -0.069433
 11 2.931403 -0.842325 0.160553 0.000000 0.069813 -0.014689
 12 1.836087 0.000000 0.000000 0.000001 1.356310 0.000007
 13 0.853993 -0.000000 0.000000 0.002756 0.113413 0.024347
 14 2.964059 -0.072900 0.178523 0.160949 1.348019 0.452789
 15 1.814737 -0.000000 0.000000 0.023570 1.843785 0.001912
 16 0.982327 -0.000000 0.000000 0.000000 -0.190731 0.021736
 17 2.910367 0.632510 0.212797 -0.128122 1.421018 0.196879
 18 1.751859 0.000000 0.000000 -0.000001 1.759074 -0.036567
 19 0.853995 0.000000 0.000000 0.000000 0.043633 -0.000000
 20 2.899452 1.342927 0.078012 -1.886496 1.384208 -1.531075
 21 1.152892 0.000000 0.000003 0.015687 1.076152 0.070399
 22 0.748464 0.000000 0.000000 0.000000 0.314159 -0.057080
 23 -5.780177 3.532208 -1.843327 -0.000000 1.570451 0.000000
 24 -0.023288 0.041601 0.000000 -0.425934 -0.447872 -0.410889
 25 11.072357 -0.043443 0.000000 0.000000 -0.000000 -1.793313
 26 8.108978 -0.000004 0.000002 -2.340292 0.633688 0.986389
 27 0.788882 0.969697 -0.533611 2.848160 0.390040 0.331054
 28 1.920301 0.000002 0.000000 0.031472 -0.047442 0.650329
 29 0.858253 0.000000 0.000001 -0.000000 0.000000 -0.029424
 30 2.955716 0.752578 0.160554 -3.141592 0.501406 -0.015797
 31 1.836087 0.000001 -0.000000 0.000000 -0.970332 -0.000000
 32 0.853994 0.000000 0.000004 -0.002756 -0.113413 0.024347
 33 2.964907 -0.017484 0.178524 -3.141592 0.715469 -0.015797
 34 1.814738 0.000000 0.000000 0.010045 -0.876115 -0.028528
 35 0.982326 -0.000000 -0.000001 -0.000000 -0.095993 0.021736
 36 2.889735 -0.720928 0.212798 3.132726 0.814632 -0.058330
 37 1.751860 0.000001 -0.000001 -0.000000 -1.109959 -0.036569
 38 0.853993 0.000000 0.000005 -0.000000 -0.043633 0.000000
 39 2.857168 -1.430683 0.078012 3.141592 0.949463 -0.015797
 40 1.152892 0.000000 -0.000001 -0.011707 -0.829108 0.065328
 41 0.748465 0.000000 0.000000 -0.000000 -0.314159 -0.057080
time 7
  0 1.751348 -9.072426 -4.049838 0.061211 -0.089918 0.012729
  1 0.006323 -1.781991 0.302978 0.000000 -0.000000 0.000000
  2 1.751349 -9.072426 -4.049838 0.061211 -0.089918 0.012729
  3 1.812705 -9.065923 -4.044682 0.061211 -0.089918 0.012729
  4 6.687647 8.054365 -2.755545 -0.000000 1.570451 0.000000
  5 -0.023288 0.041601 0.000000 0.139630 0.235083 -0.885385
  6 11.072355 -0.043447 0.000000 -0.000000 0.000000 -1.277221
  7 8.108975 0.000001 -0.000000 0.100115 -0.319823 0.671503
  8 0.758958 -0.993293 -0.533611 0.363171 0.568929 -0.094389
  9 1.920301 -0.000000 0.000001 -0.000000 -0.000000 0.689234
 10 0.858253 0.000000 -0.000000 -0.000000 -0.000000 -0.069433
 11 2.931402 -0.842325 0.160553 -0.000000 0.069813 -0.014689
 12 1.836086 -0.000000 -0.000000 0.000001 1.295145 0.000007
 13 0.853993 0.000000 0.000002 0.002756 0.113413 0.024347
 14 2.964060 -0.072899 0.178523 0.160949 1.348020 0.452789
 15 1.814738 -0.000000 0.000000 0.023570 1.843784 0.001912
 16 0.982327 0.000000 0.000000 -0.000000 -0.190731 0.021736
 17 2.910367 0.632509 0.212797 -0.128122 1.421019 0.196879
 18 1.751859 0.000001 -0.000002 -0.000001 1.759074 -0.036567
 19 0.853997 0.000001 -0.000000 -0.000000 0.043633 -0.000000
 20 2.899451 1.342927 0.078012 -1.886497 1.384208 -1.531075
 21 1.152892 0.000000 0.000000 0.015687 1.076152 0.070399
 22 0.748465 0.000000 -0.000000 0.000000 0.314159 -0.057080
 23 -5.769220 3.532208 -1.843327 -0.000000 1.570451 0.000000
 24 -0.023288 0.041601 0.000000 -0.419138 -0.441193 -0.401431
 25 11.072358 -0.043444 -0.000001 -0.000000 0.000000 -1.794929
 26 8.108979 -0.000003 0.000001 -2.412909 0.615031 0.978623
 27 0.788883 0.969696 -0.533611 2.853901 0.377842 0.337900
 28 1.920302 0.000001 0.000000 0.030830 -0.044620 0.629694
 29 0.858253 -0.000001 0.000001 -0.000000 -0.000000 -0.016428
 30 2.955715 0.752579 0.160553 -3.141592 0.500758 -0.015797
 31 1.836089 0.000000 -0.000000 0.000000 -0.953868 -0.000000
 32 0.853994 -0.000000 0.000001 -0.002756 -0.113413 0.024347
 33 2.964908 -0.017483 0.178523 -3.141592 0.702613 -0.015797
 34 1.814739 -0.000000 0.000000 0.009956 -0.865928 -0.028401
 35 0.982325 -0.000000 0.000000 -0.000000 -0.095993 0.021736
 36 2.889735 -0.720929 0.212798 3.132790 0.805682 -0.058233
 37 1.751862 0.000001 -0.000001 -0.000000 -1.093496 -0.036569
 38 0.853994 -0.000000 0.000005 0.000000 -0.043633 0.000000
 39 2.857168 -1.430683 0.078013 3.141592 0.947417 -0.015797
 40 1.152892 0.000000 -0.000002 -0.011537 -0.800867 0.065014
 41 0.748465 -0.000000 0.000001 -0.000000 -0.314159 -0.057080
time 8
  0 1.751348 -9.072426 -4.333120 0.077759 -0.114226 0.016192
  1 0.006323 -1.781992 0.302978 0.000000 -0.000000 0.000000
  2 1.751349 -9.072426 -4.333120 0.077759 -0.114226 0.016192
  3 1.812395 -9.065768 -4.326571 0.077759 -0.114226 0.016192
  4 6.687647 8.054365 -2.755545 -0.000000 1.570451 0.000000
  5 -0.023288 0.041601 0.000000 0.138739 0.235710 -0.875194
  6 11.072355 -0.043444 -0.000000 -0.000000 -0.000000 -1.267123
  7 8.108976 0.000000 0.000000 0.121544 -0.332836 0.664881
  8 0.758959 -0.993293 -0.533611 0.363171 0.568929 -0.094389
  9 1.920300 -0.000000 0.000001 0.000000 -0.000000 0.689234
 10 0.858254 0.000000 0.000000 0.000000 0.000000 -0.069433
 11 2.931402 -0.842325 0.160553 0.000000 0.069813 -0.014689
 12 1.836087 0.000000 0.000000 0.000001 1.227703 0.000007
 13 0.853993 0.000000 0.000001 0.002756 0.113413 0.024347
 14 2.964061 -0.072900 0.178524 0.160949 1.348020 0.452789
 15 1.814737 0.000000 0.000000 0.023570 1.843785 0.001912
 16 0.982327 0.000000 -0.000000 0.000000 -0.190731 0.021736
 17 2.910368 0.632509 0.212797 -0.128122 1.421018 0.196879
 18 1.751859 0.000001 0.000000 -0.000001 1.759074 -0.036567
 19 0.853995 0.000001 -0.000000 0.000000 0.043633 0.000000
 20 2.899451 1.342927 0.078012 -1.886496 1.384208 -1.531075
 21 1.152892 0.000000 0.000001 0.015687 1.076152 0.070399
 22 0.748464 0.000001 0.000000 0.000000 0.314159 -0.057080
 23 -5.757139 3.532208 -1.843327 -0.000000 1.570451 0.000000
 24 -0.023288 0.041601 0.000000 -0.411646 -0.433829 -0.391004
 25 11.072356 -0.043444 -0.000000 0.000000 -0.000000 -1.796710
 26 8.108979 -0.000003 0.000002 -2.492978 0.594460 0.970060
 27 0.788882 0.969696 -0.533612 2.860231 0.364394 0.345449
 28 1.920301 0.000001 0.000000 0.030121 -0.041509 0.606941
 29 0.858253 -0.000000 0.000001 0.000000 0.000000 -0.002099
 30 2.955715 0.752579 0.160553 -3.141592 0.500043 -0.015797
 31 1.836087 0.000000 -0.000000 0.000000 -0.935715 -0.000000
 32 0.853994 0.000000 0.000003 -0.002756 -0.113413 0.024347
 33 2.964908 -0.017484 0.178524 -3.141592 0.688438 -0.015797
 34 1.814739 0.000000 0.000000 0.009858 -0.854695 -0.028261
 35 0.982325 0.000000 0.000001 -0.000000 -0.095993 0.021736
 36 2.889736 -0.720929 0.212798 3.132860 0.795814 -0.058127
 37 1.751862 0.000001 -0.000003 0.000000 -1.075343 -0.036569
 38 0.853994 -0.000000 0.000005 -0.000000 -0.043633 -0.000000
 39 2.857169 -1.430683 0.078012 3.141592 0.945161 -0.015797
 40 1.152893 0.000000 -0.000001 -0.011350 -0.769728 0.064669
 41 0.748465 0.000000 0.000000 0.000000 -0.314159 -0.057080
time 9
  0 1.751348 -9.072426 -4.639252 0.095641 -0.140495 0.019935
  1 0.006323 -1.781991 0.302978 0.000000 -0.000000 0.000000
  2 1.751349 -9.072426 -4.639252 0.095641 -0.140495 0.019935
  3 1.812061 -9.065600 -4.631196 0.095641 -0.140495 0.019935
  4 6.687647 8.054365 -2.755545 -0.000000 1.570451 0.000000
  5 -0.023288 0.041601 0.000000 0.137777 0.236388 -0.864180
  6 11.072353 -0.043444 -0.000001 -0.000000 0.000000 -1.256210
  7 8.108975 -0.000002 -0.000000 0.144703 -0.346900 0.657725
  8 0.758958 -0.993292 -0.533611 0.363171 0.568929 -0.094389
  9 1.920301 0.000000 -0.000000 -0.000000 0.000000 0.689234
 10 0.858254 0.000000 -0.000000 0.000000 -0.000000 -0.069433
 11 2.931403 -0.842325 0.160553 -0.000000 0.069813 -0.014689
 12 1.836086 -0.000000 0.000000 0.000001 1.154821 0.000007
 13 0.853993 0.000000 0.000001 0.002756 0.113413 0.024347
 14 2.964061 -0.072900 0.178523 0.160949 1.348019 0.452789
 15 1.814737 -0.000000 0.000001 0.023570 1.843785 0.001912
 16 0.982327 -0.000000 0.000000 -0.000000 -0.190731 0.021736
 17 2.910367 0.632510 0.212797 -0.128122 1.421018 0.196879
 18 1.751859 0.000000 0.000001 -0.000001 1.759074 -0.036567
 19 0.853996 0.000000 -0.000000 0.000000 0.043633 -0.000000
 20 2.899452 1.342928 0.078012 -1.886496 1.384208 -1.531075
 21 1.152892 -0.000000 0.000001 0.015687 1.076152 0.070399
 22 0.748465 0.000000 0.000000 0.000000 0.314159 -0.057080
 23 -5.744083 3.532208 -1.843327 -0.000000 1.570451 0.000000
 24 -0.023288 0.041601 0.000000 -0.403549 -0.425870 -0.379735
 25 11.072357 -0.043444 0.000000 -0.000000 0.000000 -1.798635
 26 8.108978 -0.000004 0.000002 -2.579505 0.572229 0.960807
 27 0.788882 0.969696 -0.533611 2.867071 0.349860 0.353606
 28 1.920302 0.000001 0.000000 0.029354 -0.038147 0.582353
 29 0.858251 0.000000 0.000001 0.000000 -0.000000 0.013386
 30 2.955716 0.752578 0.160554 -3.141592 0.499270 -0.015797
 31 1.836089 0.000000 0.000000 0.000000 -0.916098 0.000000
 32 0.853994 0.000000 0.000001 -0.002756 -0.113413 0.024347
 33 2.964906 -0.017483 0.178523 -3.141592 0.673119 -0.015797
 34 1.814738 0.000001 0.000000 0.009751 -0.842557 -0.028110
 35 0.982325 0.000000 0.000000 0.000000 -0.095993 0.021736
 36 2.889735 -0.720928 0.212797 3.132936 0.785149 -0.058012
 37 1.751860 0.000001 -0.000002 0.000000 -1.055727 -0.036569
 38 0.853993 0.000000 0.000006 -0.000000 -0.043633 -0.000000
 39 2.857168 -1.430683 0.078013 3.141592 0.942723 -0.015797
 40 1.152893 0.000000 -0.000001 -0.011149 -0.736078 0.064295
 41 0.748465 0.000000 -0.000001 0.000000 -0.314159 -0.057080
time 10
  0 1.751348 -9.072426 -4.964719 0.114653 -0.168423 0.023915
  1 0.006323 -1.781991 0.302978 0.000000 -0.000000 0.000000
  2 1.751349 -9.072426 -4.964719 0.114653 -0.168423 0.023915
  3 1.811705 -9.065423 -4.955061 0.114653 -0.168423 0.023915
  4 6.687647 8.054365 -2.755545 -0.000000 1.570451 0.000000
  5 -0.023288 0.041601 0.000000 0.136753 0.237109 -0.852471
  6 11.072354 -0.043446 -0.000000 0.000000 0.000000 -1.244607
  7 8.108974 -0.000001 -0.000001 0.169324 -0.361851 0.650118
  8 0.758958 -0.993292 -0.533611 0.363171 0.568929 -0.094389
  9 1.920300 -0.000000 -0.000000 0.000000 0.000000 0.689234
 10 0.858253 0.000000 -0.000000 0.000000 -0.000000 -0.069433
 11 2.931400 -0.842324 0.160553 -0.000000 0.069813 -0.014689
 12 1.836086 0.000000 0.000000 0.000001 1.077336 0.000007
 13 0.853993 0.000000 0.000001 0.002756 0.113413 0.024347
 14 2.964059 -0.072899 0.178523 0.160949 1.348019 0.452789
 15 1.814737 0.000000 0.000000 0.023570 1.843785 0.001912
 16 0.982327 0.000000 0.000000 0.000000 -0.190731 0.021736
 17 2.910367 0.632510 0.212797 -0.128122 1.421018 0.196879
 18 1.751858 0.000001 -0.000002 -0.000000 1.759074 -0.036567
 19 0.853996 0.000000 -0.000000 0.000000 0.043633 0.000000
 20 2.899452 1.342927 0.078012 -1.886496 1.384208 -1.531075
 21 1.152892 0.000001 0.000000 0.015687 1.076152 0.070399
 22 0.748464 0.000000 0.000000 0.000000 0.314159 -0.057080
 23 -5.730204 3.532208 -1.843327 -0.000000 1.570451 0.000000
 24 -0.023288 0.041601 0.000000 -0.394941 -0.417409 -0.367754
 25 11.072357 -0.043444 0.000000 -0.000000 -0.000000 -1.800682
 26 8.108978 -0.000003 0.000002 -2.671497 0.548595 0.950970
 27 0.788881 0.969696 -0.533611 2.874343 0.334408 0.362278
 28 1.920301 0.000001 0.000000 0.028540 -0.034573 0.556212
 29 0.858252 0.000000 0.000001 -0.000000 -0.000000 0.029849
 30 2.955715 0.752579 0.160554 -3.141592 0.498449 -0.015797
 31 1.836088 -0.000000 0.000000 -0.000000 -0.895241 0.000000
 32 0.853994 -0.000000 0.000002 -0.002756 -0.113413 0.024347
 33 2.964906 -0.017483 0.178524 -3.141592 0.656833 -0.015797
 34 1.814738 -0.000000 0.000001 0.009638 -0.829651 -0.027950
 35 0.982325 -0.000001 0.000000 -0.000000 -0.095993 0.021736
 36 2.889734 -0.720928 0.212798 3.133017 0.773811 -0.057889
 37 1.751860 0.000001 -0.000002 -0.000000 -1.034870 -0.036569
 38 0.853993 0.000000 0.000005 -0.000000 -0.043633 -0.000000
 39 2.857167 -1.430683 0.078013 3.141592 0.940131 -0.015797
 40 1.152893 -0.000000 -0.000001 -0.010934 -0.700303 0.063898
 41 0.748465 0.000000 0.000000 -0.000000 -0.314159 -0.057080
time 11
  0 1.751348 -9.072426 -5.306006 0.134589 -0.197709 0.028087
  1 0.006323 -1.781990 0.302978 0.000000 -0.000000 0.000000
  2 1.751349 -9.072426 -5.306006 0.134589 -0.197709 0.028087
  3 1.811332 -9.065236 -5.294669 0.134589 -0.197709 0.028087
  4 6.687647 8.054365 -2.755545 -0.000000 1.570451 0.000000
  5 -0.023288 0.041601 0.000000 0.135679 0.237865 -0.840192
  6 11.072355 -0.043447 0.000000 0.000000 -0.000000 -1.232441
  7 8.108975 0.000001 0.000000 0.195142 -0.377530 0.642140
  8 0.758957 -0.993292 -0.533612 0.363171 0.568929 -0.094389
  9 1.920300 0.000000 0.000001 -0.000000 0.000000 0.689234
 10 0.858254 0.000000 -0.000001 -0.000000 0.000000 -0.069433
 11 2.931402 -0.842325 0.160553 0.000000 0.069813 -0.014689
 12 1.836087 0.000000 0.000000 0.000001 0.996085 0.000007
 13 0.853994 0.000000 0.000001 0.002756 0.113413 0.024347
 14 2.964059 -0.072899 0.178523 0.160949 1.348019 0.452789
 15 1.814737 -0.000000 -0.000001 0.023570 1.843785 0.001912
 16 0.982327 0.000000 -0.000000 -0.000000 -0.190731 0.021736
 17 2.910367 0.632510 0.212797 -0.128122 1.421018 0.196879
 18 1.751859 0.000001 0.000000 -0.000001 1.759074 -0.036567
 19 0.853996 0.000000 -0.000000 0.000000 0.043633 0.000000
 20 2.899453 1.342927 0.078012 -1.886496 1.384208 -1.531075
 21 1.152892 0.000000 0.000001 0.015687 1.076152 0.070399
 22 0.748465 0.000000 0.000000 0.000000 0.314159 -0.057080
 23 -5.715649 3.532208 -1.843327 -0.000000 1.570451 0.000000
 24 -0.023288 0.041601 0.000000 -0.385914 -0.408537 -0.355191
 25 11.072357 -0.043445 0.000001 0.000000 -0.000000 -1.802828
 26 8.108978 -0.000003 0.000001 -2.767961 0.523811 0.940654
 27 0.788881 0.969696 -0.533611 2.881969 0.318205 0.371371
 28 1.920300 0.000001 0.000001 0.027686 -0.030825 0.528800
 29 0.858252 0.000000 0.000001 -0.000000 -0.000000 0.047113
 30 2.955713 0.752579 0.160553 -3.141592 0.497587 -0.015797
 31 1.836087 0.000001 0.000000 0.000000 -0.873371 -0.000000
 32 0.853995 -0.000000 0.000002 -0.002756 -0.113413 0.024347
 33 2.964906 -0.017483 0.178523 -3.141592 0.639755 -0.015797
 34 1.814737 0.000000 0.000001 0.009520 -0.816118 -0.027782
 35 0.982326 -0.000000 0.000000 -0.000000 -0.095993 0.021736
 36 2.889733 -0.720929 0.212797 3.133102 0.761922 -0.057761
 37 1.751860 0.000002 0.000000 0.000000 -1.013001 -0.036569
 38 0.853993 -0.000000 0.000005 0.000000 -0.043633 0.000000
 39 2.857167 -1.430683 0.078012 3.141592 0.937413 -0.015797
 40 1.152893 0.000000 0.000000 -0.010709 -0.662789 0.063482
 41 0.748465 0.000000 -0.000001 -0.000000 -0.314159 -0.057080
time 12
  0 1.751348 -9.072426 -5.659596 0.155243 -0.228050 0.032411
  1 0.006323 -1.781992 0.302978 0.000000 -0.000000 0.000000
  2 1.751349 -9.072426 -5.659596 0.155243 -0.228050 0.032411
  3 1.810945 -9.065042 -5.646519 0.155243 -0.228050 0.032411
  4 6.687647 8.054365 -2.755545 -0.000000 1.570451 0.000000
  5 -0.023288 0.041601 0.000000 0.134567 0.238648 -0.827471
  6 11.072354 -0.043447 -0.000000 0.000000 -0.000000 -1.219836
  7 8.108974 0.000003 0.000000 0.221890 -0.393773 0.633875
  8 0.758958 -0.993291 -0.533611 0.363171 0.568929 -0.094389
  9 1.920300 0.000000 -0.000000 -0.000000 0.000000 0.689234
 10 0.858253 0.000000 0.000000 0.000000 -0.000000 -0.069433
 11 2.931402 -0.842324 0.160553 -0.000000 0.069813 -0.014689
 12 1.836086 0.000000 -0.000000 0.000001 0.911905 0.000007
 13 0.853994 0.000000 0.000002 0.002756 0.113413 0.024347
 14 2.964060 -0.072898 0.178522 0.160949 1.348019 0.452789
 15 1.814737 0.000000 0.000001 0.023570 1.843785 0.001912
 16 0.982327 -0.000000 -0.000000 -0.000000 -0.190731 0.021736
 17 2.910368 0.632511 0.212797 -0.128122 1.421018 0.196879
 18 1.751858 0.000002 0.000000 -0.000000 1.759074 -0.036567
 19 0.853996 0.000000 -0.000000 0.000000 0.043633 0.000000
 20 2.899452 1.342927 0.078011 -1.886496 1.384208 -1.531075
 21 1.152892 0.000000 0.000000 0.015687 1.076152 0.070399
 22 0.748464 0.000000 0.000000 -0.000000 0.314159 -0.057080
 23 -5.700570 3.532208 -1.843327 -0.000000 1.570451 0.000000
 24 -0.023288 0.041601 0.000000 -0.376562 -0.399345 -0.342176
 25 11.072357 -0.043445 0.000000 -0.000000 0.000000 -1.805052
 26 8.108978 -0.000002 0.000001 -2.867902 0.498134 0.929967
 27 0.788881 0.969696 -0.533611 2.889869 0.301418 0.380793
 28 1.920301 0.000002 0.000000 0.026801 -0.026942 0.500401
 29 0.858252 0.000000 0.000001 0.000000 0.000000 0.064998
 30 2.955714 0.752579 0.160554 -3.141592 0.496695 -0.015797
 31 1.836088 0.000000 0.000000 0.000000 -0.850712 -0.000000
 32 0.853994 -0.000000 0.000002 -0.002756 -0.113413 0.024347
 33 2.964907 -0.017483 0.178523 -3.141592 0.622062 -0.015797
 34 1.814738 0.000000 0.000000 0.009397 -0.802098 -0.027607
 35 0.982325 -0.000000 -0.000001 0.000000 -0.095993 0.021736
 36 2.889734 -0.720928 0.212798 3.133190 0.749604 -0.057628
 37 1.751861 0.000002 -0.000001 0.000000 -0.990343 -0.036569
 38 0.853993 0.000000 0.000005 -0.000000 -0.043633 0.000000
 39 2.857167 -1.430683 0.078013 3.141592 0.934597 -0.015797
 40 1.152892 0.000000 0.000000 -0.010476 -0.623922 0.063051
 41 0.748464 0.000000 0.000000 -0.000000 -0.314159 -0.057080
time 13
  0 1.751348 -9.072426 -6.021975 0.176411 -0.259145 0.036841
  1 0.006323 -1.781992 0.302978 0.000000 -0.000000 0.000000
  2 1.751349 -9.072426 -6.021975 0.176411 -0.259145 0.036841
  3 1.810549 -9.064845 -6.007114 0.176411 -0.259145 0.036841
  4 6.687647 8.054365 -2.755545 -0.000000 1.570451 0.000000
  5 -0.023288 0.041601 0.000000 0.133428 0.239450 -0.814434
  6 11.072355 -0.043446 0.000000 0.000000 0.000000 -1.206918
  7 8.108975 0.000000 -0.000000 0.249304 -0.410420 0.625405
  8 0.758958 -0.993292 -0.533611 0.363171 0.568929 -0.094389
  9 1.920300 0.000000 0.000000 -0.000000 0.000000 0.689234
 10 0.858255 0.000000 -0.000001 -0.000000 0.000000 -0.069433
 11 2.931403 -0.842325 0.160553 -0.000000 0.069813 -0.014689
 12 1.836086 0.000000 0.000000 0.000001 0.825632 0.000007
 13 0.853993 0.000000 0.000000 0.002756 0.113413 0.024347
 14 2.964060 -0.072899 0.178523 0.160949 1.348020 0.452789
 15 1.814737 0.000000 -0.000001 0.023570 1.843784 0.001912
 16 0.982327 0.000000 0.000000 0.000000 -0.190731 0.021736
 17 2.910367 0.632510 0.212797 -0.128122 1.421018 0.196879
 18 1.751858 0.000001 0.000001 -0.000001 1.759074 -0.036567
 19 0.853996 0.000000 -0.000000 0.000000 0.043633 0.000000
 20 2.899453 1.342927 0.078011 -1.886496 1.384208 -1.531075
 21 1.152892 0.000000 0.000002 0.015687 1.076152 0.070399
 22 0.748464 0.000000 0.000000 0.000000 0.314159 -0.057080
 23 -5.685115 3.532208 -1.843327 -0.000000 1.570451 0.000000
 24 -0.023288 0.041601 0.000000 -0.366977 -0.389925 -0.328837
 25 11.072358 -0.043445 0.000000 -0.000000 0.000000 -1.807331
 26 8.108977 -0.000003 0.000001 -2.970327 0.471819 0.919014
 27 0.788881 0.969695 -0.533611 2.897967 0.284214 0.390449
 28 1.920301 0.000002 0.000000 0.025894 -0.022962 0.471295
 29 0.858253 0.000000 0.000001 0.000000 0.000000 0.083329
 30 2.955714 0.752578 0.160553 -3.141592 0.495780 -0.015797
 31 1.836087 0.000001 -0.000000 0.000000 -0.827491 0.000000
 32 0.853994 0.000000 0.000002 -0.002756 -0.113413 0.024347
 33 2.964908 -0.017485 0.178523 -3.141592 0.603928 -0.015797
 34 1.814739 0.000000 0.000000 0.009271 -0.787729 -0.027429
 35 0.982325 0.000000 0.000000 -0.000000 -0.095993 0.021736
 36 2.889734 -0.720929 0.212797 3.133280 0.736980 -0.057492
 37 1.751860 0.000002 -0.000001 -0.000000 -0.967121 -0.036569
 38 0.853993 0.000000 0.000005 0.000000 -0.043633 0.000000
 39 2.857167 -1.430683 0.078012 3.141592 0.931711 -0.015797
 40 1.152893 0.000001 -0.000001 -0.010237 -0.584089 0.062609
 41 0.748464 0.000000 0.000000 -0.000000 -0.314159 -0.057080
time 14
  0 1.751348 -9.072426 -6.389627 0.197887 -0.290693 0.041336
  1 0.006323 -1.781990 0.302978 0.000000 -0.000000 0.000000
  2 1.751349 -9.072426 -6.389627 0.197887 -0.290693 0.041336
  3 1.810146 -9.064644 -6.372957 0.197887 -0.290693 0.041336
  4 6.687647 8.054365 -2.755545 -0.000000 1.570451 0.000000
  5 -0.023288 0.041601 0.000000 0.132271 0.240264 -0.801207
  6 11.072355 -0.043446 -0.000000 -0.000000 -0.000000 -1.193812
  7 8.108977 0.000001 0.000000 0.277116 -0.427310 0.616811
  8 0.758958 -0.993292 -0.533611 0.363171 0.568929 -0.094389
  9 1.920301 0.000000 0.000000 -0.000000 0.000000 0.689234
 10 0.858253 -0.000000 -0.000000 0.000000 0.000000 -0.069433
 11 2.931402 -0.842325 0.160553 -0.000000 0.069813 -0.014689
 12 1.836087 0.000000 0.000000 0.000001 0.738104 0.000007
 13 0.853992 0.000000 0.000001 0.002756 0.113413 0.024347
 14 2.964060 -0.072900 0.178523 0.160949 1.348020 0.452789
 15 1.814737 0.000000 0.000000 0.023570 1.843784 0.001912
 16 0.982328 0.000000 0.000000 -0.000000 -0.190731 0.021736
 17 2.910366 0.632509 0.212798 -0.128122 1.421018 0.196879
 18 1.751859 0.000001 0.000000 -0.000001 1.759074 -0.036567
 19 0.853996 0.000000 -0.000000 0.000000 0.043633 0.000000
 20 2.899452 1.342927 0.078012 -1.886497 1.384208 -1.531075
 21 1.152892 0.000000 0.000002 0.015687 1.076152 0.070399
 22 0.748464 0.000000 0.000000 0.000000 0.314159 -0.057080
 23 -5.669436 3.532208 -1.843327 -0.000000 1.570451 0.000000
 24 -0.023288 0.041601 0.000000 -0.357253 -0.380367 -0.315303
 25 11.072356 -0.043445 -0.000000 -0.000000 -0.000000 -1.809643
 26 8.108979 -0.000002 0.000002 -3.074243 0.445121 0.907901
 27 0.788881 0.969696 -0.533611 2.906181 0.266760 0.400245
 28 1.920301 0.000001 0.000000 0.024974 -0.018925 0.441766
 29 0.858253 0.000000 0.000001 -0.000000 0.000000 0.101925
 30 2.955715 0.752578 0.160553 -3.141592 0.494852 -0.015797
 31 1.836088 0.000000 0.000000 -0.000000 -0.803931 -0.000000
 32 0.853995 -0.000001 0.000002 -0.002756 -0.113413 0.024347
 33 2.964906 -0.017484 0.178523 -3.141592 0.585531 -0.015797
 34 1.814738 0.000001 0.000000 0.009144 -0.773150 -0.027247
 35 0.982325 0.000000 -0.000001 -0.000000 -0.095993 0.021736
 36 2.889734 -0.720928 0.212797 3.133371 0.724173 -0.057354
 37 1.751861 0.000002 -0.000001 0.000000 -0.943563 -0.036569
 38 0.853993 -0.000000 0.000004 0.000000 -0.043633 -0.000000
 39 2.857168 -1.430683 0.078012 3.141592 0.928784 -0.015797
 40 1.152893 -0.000001 0.000000 -0.009995 -0.543676 0.062161
 41 0.748464 0.000000 -0.000002 -0.000000 -0.314159 -0.057080
time 15
  0 1.751348 -9.072426 -6.759036 0.219466 -0.322392 0.045853
  1 0.006323 -1.781992 0.302978 0.000000 -0.000000 0.000000
  2 1.751349 -9.072426 -6.759036 0.219466 -0.322392 0.045853
  3 1.809743 -9.064442 -6.740549 0.219466 -0.322392 0.045853
  4 6.687647 8.054365 -2.755545 -0.000000 1.570451 0.000000
  5 -0.023288 0.041601 0.000000 0.131110 0.241082 -0.787917
  6 11.072355 -0.043447 0.000000 0.000000 -0.000000 -1.180644
  7 8.108975 0.000000 0.000000 0.305061 -0.444280 0.608176
  8 0.758958 -0.993293 -0.533611 0.363171 0.568929 -0.094389
  9 1.920300 0.000000 0.000001 -0.000000 -0.000000 0.689234
 10 0.858253 -0.000000 -0.000000 -0.000000 -0.000000 -0.069433
 11 2.931401 -0.842325 0.160554 -0.000000 0.069813 -0.014689
 12 1.836086 -0.000001 0.000001 0.000001 0.650158 0.000007
 13 0.853993 0.000000 0.000001 0.002756 0.113413 0.024347
 14 2.964060 -0.072900 0.178524 0.160949 1.348019 0.452789
 15 1.814737 -0.000000 -0.000001 0.023570 1.843785 0.001912
 16 0.982327 0.000000 0.000000 -0.000000 -0.190731 0.021736
 17 2.910366 0.632510 0.212797 -0.128122 1.421018 0.196879
 18 1.751858 0.000001 0.000000 -0.000001 1.759074 -0.036567
 19 0.853994 0.000001 -0.000000 0.000000 0.043633 0.000000
 20 2.899451 1.342927 0.078012 -1.886497 1.384208 -1.531075
 21 1.152892 0.000000 -0.000001 0.015687 1.076152 0.070399
 22 0.748465 0.000000 0.000000 -0.000000 0.314159 -0.057080
 23 -5.653683 3.532208 -1.843327 -0.000000 1.570451 0.000000
 24 -0.023288 0.041601 0.000000 -0.347482 -0.370764 -0.301705
 25 11.072354 -0.043444 0.000000 -0.000000 -0.000000 -1.811966
 26 8.108974 -0.000002 0.000002 3.104530 0.418296 0.896735
 27 0.788881 0.969695 -0.533611 2.914436 0.249222 0.410088
 28 1.920300 0.000001 0.000000 0.024049 -0.014868 0.412095
 29 0.858252 0.000000 0.000001 -0.000000 -0.000000 0.120611
 30 2.955714 0.752578 0.160553 -3.141592 0.493919 -0.015797
 31 1.836088 0.000001 0.000000 0.000000 -0.780259 0.000000
 32 0.853994 -0.000000 0.000003 -0.002756 -0.113413 0.024347
 33 2.964905 -0.017484 0.178523 -3.141592 0.567046 -0.015797
 34 1.814738 0.000000 -0.000000 0.009015 -0.758503 -0.027065
 35 0.982325 -0.000000 0.000001 0.000000 -0.095993 0.021736
 36 2.889733 -0.720928 0.212798 3.133463 0.711304 -0.057215
 37 1.751859 0.000002 -0.000001 0.000000 -0.919891 -0.036569
 38 0.853993 -0.000000 0.000003 -0.000000 -0.043633 0.000000
 39 2.857167 -1.430682 0.078013 3.141592 0.925842 -0.015797
 40 1.152893 -0.000001 -0.000001 -0.009751 -0.503070 0.061710
 41 0.748465 0.000001 -0.000002 0.000000 -0.314159 -0.057080
time 16
  0 1.751348 -9.072426 -7.126688 0.240942 -0.353940 0.050348
  1 0.006323 -1.781992 0.302979 0.000000 -0.000000 0.000000
  2 1.751349 -9.072426 -7.126688 0.240942 -0.353940 0.050348
  3 1.809340 -9.064240 -7.106392 0.240942 -0.353940 0.050348
  4 6.687647 8.054365 -2.755545 -0.000000 1.570451 0.000000
  5 -0.023288 0.041601 0.000000 0.129953 0.241896 -0.774690
  6 11.072355 -0.043446 0.000000 0.000000 -0.000000 -1.167538
  7 8.108975 0.000001 0.000000 0.332874 -0.461170 0.599582
  8 0.758959 -0.993292 -0.533611 0.363171 0.568929 -0.094389
  9 1.920300 0.000000 0.000000 0.000000 -0.000000 0.689234
 10 0.858253 0.000000 -0.000000 -0.000000 -0.000000 -0.069433
 11 2.931402 -0.842324 0.160553 0.000000 0.069813 -0.014689
 12 1.836087 -0.000001 0.000000 0.000001 0.562630 0.000007
 13 0.853994 0.000000 0.000001 0.002756 0.113413 0.024347
 14 2.964061 -0.072899 0.178523 0.160949 1.348019 0.452789
 15 1.814737 0.000000 0.000000 0.023570 1.843785 0.001912
 16 0.982327 0.000000 0.000000 -0.000000 -0.190731 0.021736
 17 2.910367 0.632510 0.212798 -0.128122 1.421018 0.196879
 18 1.751859 0.000000 0.000000 -0.000001 1.759074 -0.036567
 19 0.853996 0.000001 -0.000000 0.000000 0.043633 -0.000000
 20 2.899453 1.342927 0.078012 -1.886497 1.384208 -1.531075
 21 1.152892 -0.000001 -0.000001 0.015687 1.076152 0.070399
 22 0.748464 0.000000 0.000000 0.000000 0.314159 -0.057080
 23 -5.638004 3.532208 -1.843327 -0.000000 1.570451 0.000000
 24 -0.023288 0.041601 0.000000 -0.337758 -0.361206 -0.288172
 25 11.072356 -0.043445 0.000000 0.000000 0.000000 -1.814278
 26 8.108978 -0.000001 0.000001 3.000614 0.391598 0.885623
 27 0.788882 0.969696 -0.533611 2.922650 0.231768 0.419884
 28 1.920301 0.000001 0.000000 0.023129 -0.010831 0.382566
 29 0.858253 -0.000000 0.000001 0.000000 -0.000000 0.139208
 30 2.955714 0.752579 0.160553 -3.141592 0.492991 -0.015797
 31 1.836088 0.000000 0.000000 0.000000 -0.756699 0.000000
 32 0.853994 -0.000000 0.000003 -0.002756 -0.113413 0.024347
 33 2.964906 -0.017483 0.178523 -3.141592 0.548649 -0.015797
 34 1.814737 0.000000 0.000000 0.008888 -0.743924 -0.026884
 35 0.982326 0.000000 -0.000001 0.000000 -0.095993 0.021736
 36 2.889735 -0.720929 0.212797 3.133554 0.698497 -0.057077
 37 1.751860 0.000001 -0.000001 0.000000 -0.896331 -0.036569
 38 0.853992 -0.000000 0.000003 -0.000000 -0.043633 -0.000000
 39 2.857168 -1.430682 0.078012 3.141592 0.922914 -0.015797
 40 1.152893 -0.000001 -0.000001 -0.009509 -0.462658 0.061262
 41 0.748464 0.000001 0.000000 -0.000000 -0.314159 -0.057080
time 17
  0 1.751348 -9.072426 -7.489066 0.262110 -0.385035 0.054778
  1 0.006323 -1.781992 0.302979 0.000000 -0.000000 0.000000
  2 1.751349 -9.072426 -7.489066 0.262110 -0.385035 0.054778
  3 1.808944 -9.064043 -7.466987 0.262110 -0.385035 0.054778
  4 6.687647 8.054365 -2.755545 -0.000000 1.570451 0.000000
  5 -0.023288 0.041601 0.000000 0.128814 0.242698 -0.761652
  6 11.072354 -0.043445 -0.000000 0.000000 0.000000 -1.154619
  7 8.108974 0.000000 0.000000 0.360287 -0.477817 0.591112
  8 0.758959 -0.993293 -0.533611 0.363171 0.568929 -0.094389
  9 1.920300 -0.000001 0.000000 -0.000000 0.000000 0.689234
 10 0.858253 0.000000 -0.000000 0.000000 -0.000000 -0.069433
 11 2.931403 -0.842326 0.160553 -0.000000 0.069813 -0.014689
 12 1.836087 0.000000 0.000000 0.000001 0.476357 0.000007
 13 0.853995 -0.000000 0.000002 0.002756 0.113413 0.024347
 14 2.964059 -0.072900 0.178523 0.160949 1.348020 0.452789
 15 1.814737 -0.000000 0.000000 0.023570 1.843784 0.001912
 16 0.982327 0.000001 0.000000 0.000000 -0.190731 0.021736
 17 2.910366 0.632509 0.212797 -0.128122 1.421018 0.196879
 18 1.751859 0.000001 -0.000001 -0.000001 1.759074 -0.036567
 19 0.853996 0.000000 -0.000000 0.000000 0.043633 0.000000
 20 2.899452 1.342925 0.078012 -1.886496 1.384208 -1.531075
 21 1.152892 0.000000 0.000000 0.015687 1.076152 0.070399
 22 0.748463 0.000001 0.000000 0.000000 0.314159 -0.057080
 23 -5.622550 3.532208 -1.843327 -0.000000 1.570451 0.000000
 24 -0.023288 0.041601 0.000000 -0.328174 -0.351786 -0.274833
 25 11.072357 -0.043445 0.000000 0.000000 0.000000 -1.816556
 26 8.108977 -0.000001 0.000002 2.898189 0.365283 0.874669
 27 0.788881 0.969696 -0.533611 2.930748 0.214564 0.429540
 28 1.920300 0.000001 0.000000 0.022222 -0.006851 0.353460
 29 0.858252 0.000000 0.000001 0.000000 -0.000000 0.157539
 30 2.955714 0.752579 0.160554 -3.141592 0.492077 -0.015797
 31 1.836088 0.000000 0.000000 0.000000 -0.733477 0.000000
 32 0.853994 0.000000 0.000002 -0.002756 -0.113413 0.024347
 33 2.964906 -0.017483 0.178524 -3.141592 0.530515 -0.015797
 34 1.814738 -0.000001 -0.000000 0.008762 -0.729555 -0.026705
 35 0.982326 -0.000000 0.000000 -0.000000 -0.095993 0.021736
 36 2.889733 -0.720928 0.212798 3.133644 0.685873 -0.056941
 37 1.751860 0.000002 -0.000000 -0.000000 -0.873110 -0.036569
 38 0.853993 0.000000 0.000005 -0.000000 -0.043633 0.000000
 39 2.857167 -1.430683 0.078013 3.141592 0.920028 -0.015797
 40 1.152894 0.000000 0.000000 -0.009270 -0.422825 0.060820
 41 0.748465 0.000001 0.000000 -0.000000 -0.314159 -0.057080
time 18
  0 1.751348 -9.072426 -7.842657 0.282764 -0.415377 0.059102
  1 0.006323 -1.781993 0.302979 0.000000 -0.000000 0.000000
  2 1.751349 -9.072426 -7.842657 0.282764 -0.415377 0.059102
  3 1.808558 -9.063849 -7.818838 0.282764 -0.415377 0.059102
  4 6.687647 8.054365 -2.755545 -0.000000 1.570451 0.000000
  5 -0.023288 0.041601 0.000000 0.127701 0.243481 -0.748931
  6 11.072354 -0.043445 -0.000001 -0.000000 -0.000000 -1.142015
  7 8.108974 -0.000001 -0.000000 0.387035 -0.494061 0.582847
  8 0.758959 -0.993292 -0.533611 0.363171 0.568929 -0.094389
  9 1.920300 0.000000 0.000000 0.000000 0.000000 0.689234
 10 0.858253 -0.000000 -0.000000 0.000000 0.000000 -0.069433
 11 2.931402 -0.842324 0.160553 -0.000000 0.069813 -0.014689
 12 1.836086 0.000000 0.000001 0.000001 0.392177 0.000007
 13 0.853993 0.000000 0.000001 0.002756 0.113413 0.024347
 14 2.964060 -0.072899 0.178523 0.160949 1.348019 0.452789
 15 1.814738 0.000000 0.000000 0.023570 1.843784 0.001912
 16 0.982327 0.000000 0.000000 0.000000 -0.190731 0.021736
 17 2.910366 0.632510 0.212797 -0.128122 1.421018 0.196879
 18 1.751858 0.000001 -0.000001 -0.000001 1.759074 -0.036567
 19 0.853994 -0.000000 -0.000000 0.000000 0.043633 0.000000
 20 2.899451 1.342927 0.078012 -1.886497 1.384208 -1.531075
 21 1.152892 -0.000000 -0.000001 0.015687 1.076152 0.070399
 22 0.748464 -0.000000 0.000000 0.000000 0.314159 -0.057080
 23 -5.607470 3.532208 -1.843327 -0.000000 1.570451 0.000000
 24 -0.023288 0.041601 0.000000 -0.318821 -0.342594 -0.261817
 25 11.072355 -0.043446 0.000000 0.000000 -0.000000 -1.818780
 26 8.108974 -0.000002 0.000002 2.798247 0.339606 0.863982
 27 0.788881 0.969696 -0.533611 2.938648 0.197777 0.438962
 28 1.920300 0.000001 0.000001 0.021337 -0.002968 0.325061
 29 0.858252 0.000000 0.000001 0.000000 -0.000000 0.175424
 30 2.955713 0.752579 0.160553 -3.141592 0.491184 -0.015797
 31 1.836087 -0.000000 0.000000 0.000000 -0.710819 -0.000000
 32 0.853994 0.000000 0.000002 -0.002756 -0.113413 0.024347
 33 2.964906 -0.017484 0.178523 -3.141592 0.512822 -0.015797
 34 1.814737 0.000000 0.000001 0.008639 -0.715535 -0.026531
 35 0.982326 -0.000001 -0.000001 0.000000 -0.095993 0.021736
 36 2.889734 -0.720929 0.212797 3.133732 0.673555 -0.056808
 37 1.751860 0.000000 -0.000000 0.000000 -0.850452 -0.036569
 38 0.853992 0.000000 0.000004 -0.000000 -0.043633 0.000000
 39 2.857166 -1.430681 0.078012 3.141592 0.917212 -0.015797
 40 1.152893 0.000001 -0.000001 -0.009037 -0.383958 0.060389
 41 0.748465 -0.000000 0.000000 0.000000 -0.314159 -0.057080
time 19
  0 1.751348 -9.072426 -8.183943 0.302700 -0.444662 0.063274
  1 0.006323 -1.781992 0.302979 0.000000 -0.000000 0.000000
  2 1.751349 -9.072426 -8.183943 0.302700 -0.444662 0.063274
  3 1.808184 -9.063663 -8.158444 0.302700 -0.444662 0.063274
  4 6.687647 8.054365 -2.755545 -0.000000 1.570451 0.000000
  5 -0.023288 0.041601 0.000000 0.126628 0.244237 -0.736653
  6 11.072354 -0.043446 0.000001 0.000000 0.000000 -1.129848
  7 8.108974 -0.000001 0.000000 0.412853 -0.509739 0.574870
  8 0.758958 -0.993293 -0.533611 0.363171 0.568929 -0.094389
  9 1.920300 -0.000000 0.000000 0.000000 -0.000000 0.689234
 10 0.858253 0.000000 0.000000 -0.000000 0.000000 -0.069433
 11 2.931401 -0.842325 0.160553 -0.000000 0.069813 -0.014689
 12 1.836086 0.000000 0.000000 0.000001 0.310926 0.000007
 13 0.853993 -0.000000 0.000002 0.002756 0.113413 0.024347
 14 2.964060 -0.072900 0.178523 0.160949 1.348019 0.452789
 15 1.814736 0.000000 -0.000002 0.023569 1.843785 0.001911
 16 0.982327 0.000000 0.000000 0.000000 -0.190731 0.021736
 17 2.910367 0.632509 0.212797 -0.128122 1.421018 0.196879
 18 1.751858 0.000002 -0.000002 -0.000000 1.759073 -0.036567
 19 0.853995 0.000001 -0.000000 0.000000 0.043633 -0.000000
 20 2.899451 1.342927 0.078012 -1.886497 1.384208 -1.531075
 21 1.152892 0.000000 0.000000 0.015687 1.076152 0.070399
 22 0.748464 0.000000 0.000000 -0.000000 0.314159 -0.057080
 23 -5.592916 3.532208 -1.843327 -0.000000 1.570451 0.000000
 24 -0.023288 0.041601 0.000000 -0.309795 -0.333722 -0.249254
 25 11.072356 -0.043445 0.000001 -0.000000 -0.000000 -1.820926
 26 8.108976 -0.000001 0.000002 2.701784 0.314822 0.853666
 27 0.788882 0.969696 -0.533611 2.946274 0.181574 0.448055
 28 1.920300 0.000000 0.000001 0.020483 0.000780 0.297649
 29 0.858252 0.000000 0.000001 -0.000000 0.000000 0.192687
 30 2.955715 0.752580 0.160553 -3.141592 0.490322 -0.015797
 31 1.836088 0.000000 0.000000 0.000000 -0.688949 0.000000
 32 0.853994 -0.000001 0.000002 -0.002756 -0.113413 0.024347
 33 2.964905 -0.017483 0.178523 -3.141592 0.495744 -0.015797
 34 1.814738 -0.000000 0.000000 0.008520 -0.702002 -0.026363
 35 0.982326 0.000000 0.000000 0.000000 -0.095993 0.021736
 36 2.889734 -0.720928 0.212797 3.133817 0.661666 -0.056680
 37 1.751862 0.000002 -0.000000 0.000000 -0.828583 -0.036569
 38 0.853993 0.000000 0.000003 -0.000000 -0.043633 -0.000000
 39 2.857168 -1.430682 0.078012 3.141592 0.914494 -0.015797
 40 1.152893 0.000000 -0.000001 -0.008812 -0.346444 0.059973
 41 0.748464 0.000000 0.000000 -0.000000 -0.314159 -0.057080
time 20
  0 1.751348 -9.072426 -8.509410 0.321712 -0.472590 0.067254
  1 0.006323 -1.781992 0.302979 0.000000 -0.000000 0.000000
  2 1.751349 -9.072426 -8.509410 0.321712 -0.472590 0.067254
  3 1.807828 -9.063485 -8.482310 0.321712 -0.472590 0.067254
  4 6.687647 8.054365 -2.755545 -0.000000 1.570451 0.000000
  5 -0.023288 0.041601 0.000000 0.125604 0.244958 -0.724944
  6 11.072355 -0.043447 0.000000 -0.000000 0.000000 -1.118246
  7 8.108973 0.000000 -0.000000 0.437474 -0.524690 0.567262
  8 0.758957 -0.993292 -0.533611 0.363171 0.568929 -0.094389
  9 1.920300 0.000000 -0.000001 -0.000000 0.000000 0.689234
 10 0.858253 0.000001 0.000000 -0.000000 -0.000000 -0.069433
 11 2.931400 -0.842325 0.160553 -0.000000 0.069813 -0.014689
 12 1.836086 0.000000 0.000001 0.000001 0.233441 0.000007
 13 0.853994 0.000000 0.000001 0.002756 0.113413 0.024347
 14 2.964059 -0.072899 0.178523 0.160949 1.348020 0.452789
 15 1.814736 0.000000 0.000000 0.023570 1.843784 0.001912
 16 0.982327 -0.000001 -0.000000 0.000000 -0.190731 0.021736
 17 2.910366 0.632509 0.212797 -0.128122 1.421018 0.196879
 18 1.751859 0.000001 -0.000001 -0.000001 1.759073 -0.036567
 19 0.853995 0.000001 0.000000 0.000000 0.043633 0.000000
 20 2.899451 1.342926 0.078012 -1.886496 1.384208 -1.531075
 21 1.152892 0.000000 0.000000 0.015687 1.076152 0.070399
 22 0.748464 0.000000 0.000000 -0.000000 0.314159 -0.057080
 23 -5.579036 3.532208 -1.843327 -0.000000 1.570451 0.000000
 24 -0.023288 0.041601 0.000000 -0.301186 -0.325261 -0.237274
 25 11.072354 -0.043445 0.000000 0.000000 -0.000000 -1.822973
 26 8.108976 -0.000001 0.000003 2.609792 0.291188 0.843829
 27 0.788881 0.969696 -0.533611 2.953546 0.166122 0.456727
 28 1.920300 0.000000 0.000001 0.019669 0.004354 0.271508
 29 0.858251 0.000001 0.000001 -0.000000 0.000000 0.209151
 30 2.955714 0.752579 0.160553 -3.141592 0.489501 -0.015797
 31 1.836088 -0.000000 0.000000 -0.000000 -0.668092 0.000000
 32 0.853994 -0.000001 0.000000 -0.002756 -0.113413 0.024347
 33 2.964906 -0.017483 0.178523 -3.141592 0.479458 -0.015797
 34 1.814737 -0.000000 0.000000 0.008408 -0.689096 -0.026202
 35 0.982326 -0.000000 0.000000 0.000000 -0.095993 0.021736
 36 2.889733 -0.720929 0.212797 3.133898 0.650328 -0.056557
 37 1.751861 0.000001 -0.000001 -0.000000 -0.807727 -0.036569
 38 0.853993 -0.000001 0.000002 -0.000000 -0.043633 -0.000000
 39 2.857167 -1.430683 0.078012 3.141592 0.911902 -0.015797
 40 1.152893 0.000000 -0.000000 -0.008597 -0.310668 0.059576
 41 0.748464 0.000000 -0.000002 0.000000 -0.314159 -0.057080
time 21
  0 1.751348 -9.072426 -8.815542 0.339594 -0.498859 0.070997
  1 0.006323 -1.781993 0.302977 0.000000 -0.000000 0.000000
  2 1.751349 -9.072426 -8.815542 0.339594 -0.498859 0.070997
  3 1.807494 -9.063317 -8.786937 0.339594 -0.498859 0.070997
  4 6.687647 8.054365 -2.755545 -0.000000 1.570451 0.000000
  5 -0.023288 0.041601 0.000000 0.124642 0.245636 -0.713930
  6 11.072352 -0.043447 -0.000001 0.000000 0.000000 -1.107333
  7 8.108974 -0.000001 -0.000001 0.460633 -0.538754 0.560106
  8 0.758957 -0.993292 -0.533612 0.363171 0.568929 -0.094389
  9 1.920300 0.000000 -0.000000 0.000000 0.000000 0.689234
 10 0.858253 0.000000 -0.000000 0.000000 -0.000000 -0.069433
 11 2.931402 -0.842325 0.160553 0.000000 0.069813 -0.014689
 12 1.836086 0.000000 0.000001 0.000001 0.160559 0.000007
 13 0.853995 0.000000 0.000001 0.002756 0.113413 0.024347
 14 2.964058 -0.072899 0.178523 0.160949 1.348019 0.452789
 15 1.814737 -0.000000 0.000000 0.023570 1.843785 0.001912
 16 0.982327 0.000000 -0.000000 -0.000000 -0.190731 0.021736
 17 2.910366 0.632509 0.212797 -0.128122 1.421018 0.196879
 18 1.751859 0.000000 -0.000002 -0.000001 1.759074 -0.036567
 19 0.853994 0.000000 0.000000 0.000000 0.043633 -0.000000
 20 2.899452 1.342926 0.078012 -1.886496 1.384208 -1.531075
 21 1.152893 -0.000000 0.000000 0.015687 1.076152 0.070399
 22 0.748464 0.000000 0.000000 -0.000000 0.314159 -0.057080
 23 -5.565980 3.532208 -1.843327 -0.000000 1.570451 0.000000
 24 -0.023288 0.041601 0.000000 -0.293089 -0.317302 -0.226005
 25 11.072353 -0.043445 0.000000 -0.000000 -0.000000 -1.824898
 26 8.108976 -0.000001 0.000002 2.523264 0.268957 0.834576
 27 0.788881 0.969696 -0.533611 2.960386 0.151589 0.464885
 28 1.920300 0.000000 0.000000 0.018902 0.007716 0.246920
 29 0.858251 0.000000 0.000001 0.000000 0.000000 0.224636
 30 2.955712 0.752579 0.160553 -3.141592 0.488728 -0.015797
 31 1.836087 0.000000 0.000000 0.000000 -0.648475 0.000000
 32 0.853994 -0.000001 0.000000 -0.002756 -0.113413 0.024347
 33 2.964906 -0.017484 0.178523 -3.141592 0.464139 -0.015797
 34 1.814737 0.000000 -0.000000 0.008301 -0.676958 -0.026051
 35 0.982326 -0.000000 0.000001 0.000000 -0.095993 0.021736
 36 2.889733 -0.720929 0.212797 3.133974 0.639664 -0.056442
 37 1.751860 0.000002 -0.000001 0.000000 -0.788110 -0.036569
 38 0.853992 0.000000 0.000005 0.000000 -0.043633 -0.000000
 39 2.857166 -1.430682 0.078012 3.141592 0.909464 -0.015797
 40 1.152893 0.000000 -0.000000 -0.008395 -0.277018 0.059202
 41 0.748465 0.000001 -0.000001 -0.000000 -0.314159 -0.057080
time 22
  0 1.751348 -9.072426 -9.098825 0.356142 -0.523168 0.074460
  1 0.006322 -1.781992 0.302978 0.000000 -0.000000 0.000000
  2 1.751349 -9.072426 -9.098825 0.356142 -0.523168 0.074460
  3 1.807184 -9.063163 -9.068825 0.356142 -0.523168 0.074460
  4 6.687647 8.054365 -2.755545 -0.000000 1.570451 0.000000
  5 -0.023288 0.041601 0.000000 0.123751 0.246263 -0.703739
  6 11.072353 -0.043446 -0.000000 0.000000 0.000000 -1.097235
  7 8.108974 0.000001 -0.000000 0.482062 -0.551767 0.553485
  8 0.758958 -0.993292 -0.533611 0.363171 0.568929 -0.094389
  9 1.920300 0.000000 -0.000000 -0.000000 0.000000 0.689234
 10 0.858253 0.000000 0.000000 0.000000 0.000000 -0.069433
 11 2.931402 -0.842325 0.160554 -0.000000 0.069813 -0.014689
 12 1.836087 0.000000 0.000000 0.000001 0.093117 0.000007
 13 0.853992 -0.000001 0.000002 0.002756 0.113413 0.024347
 14 2.964060 -0.072899 0.178524 0.160949 1.348019 0.452789
 15 1.814737 0.000000 -0.000001 0.023570 1.843785 0.001912
 16 0.982329 0.000000 0.000000 0.000000 -0.190731 0.021736
 17 2.910367 0.632509 0.212798 -0.128122 1.421019 0.196879
 18 1.751859 0.000001 -0.000002 -0.000000 1.759073 -0.036567
 19 0.853994 0.000000 -0.000000 0.000000 0.043633 0.000000
 20 2.899451 1.342926 0.078013 -1.886496 1.384208 -1.531075
 21 1.152892 -0.000000 -0.000001 0.015687 1.076152 0.070399
 22 0.748464 0.000000 0.000001 0.000000 0.314159 -0.057080
 23 -5.553899 3.532208 -1.843327 -0.000000 1.570451 0.000000
 24 -0.023288 0.041601 0.000000 -0.285597 -0.309938 -0.215577
 25 11.072355 -0.043445 0.000000 0.000000 0.000000 -1.826679
 26 8.108976 -0.000001 0.000001 2.443195 0.248386 0.826013
 27 0.788881 0.969696 -0.533611 2.966716 0.138140 0.472433
 28 1.920300 0.000001 0.000001 0.018193 0.010827 0.224167
 29 0.858252 0.000000 0.000001 0.000000 -0.000000 0.238965
 30 2.955714 0.752579 0.160553 -3.141592 0.488013 -0.015797
 31 1.836086 0.000000 0.000001 0.000000 -0.630322 -0.000000
 32 0.853994 0.000000 0.000002 -0.002756 -0.113413 0.024347
 33 2.964907 -0.017484 0.178524 -3.141592 0.449964 -0.015797
 34 1.814739 0.000000 -0.000000 0.008203 -0.665725 -0.025912
 35 0.982326 -0.000001 0.000000 -0.000000 -0.095993 0.021736
 36 2.889734 -0.720928 0.212798 3.134044 0.629795 -0.056336
 37 1.751861 0.000000 -0.000001 0.000000 -0.769957 -0.036569
 38 0.853992 0.000000 0.000003 -0.000000 -0.043633 -0.000000
 39 2.857167 -1.430682 0.078013 3.141592 0.907208 -0.015797
 40 1.152894 0.000001 -0.000000 -0.008209 -0.245879 0.058857
 41 0.748464 0.000000 -0.000002 -0.000000 -0.314159 -0.057080
time 23
  0 1.751348 -9.072426 -9.355742 0.371150 -0.545213 0.077601
  1 0.006323 -1.781991 0.302978 0.000000 -0.000000 0.000000
  2 1.751349 -9.072426 -9.355742 0.371150 -0.545213 0.077601
  3 1.806903 -9.063022 -9.324477 0.371150 -0.545213 0.077601
  4 6.687647 8.054365 -2.755545 -0.000000 1.570451 0.000000
  5 -0.023288 0.041601 0.000000 0.122943 0.246832 -0.694496
  6 11.072354 -0.043447 -0.000000 0.000000 0.000000 -1.088076
  7 8.108973 0.000000 -0.000000 0.501498 -0.563570 0.547479
  8 0.758958 -0.993293 -0.533611 0.363171 0.568929 -0.094389
  9 1.920300 -0.000000 -0.000001 0.000000 -0.000000 0.689234
 10 0.858253 0.000000 -0.000000 -0.000000 -0.000000 -0.069433
 11 2.931402 -0.842324 0.160553 -0.000000 0.069813 -0.014689
 12 1.836085 0.000000 0.000001 0.000001 0.031952 0.000007
 13 0.853995 0.000000 0.000001 0.002756 0.113413 0.024347
 14 2.964059 -0.072899 0.178523 0.160949 1.348019 0.452789
 15 1.814737 0.000000 0.000000 0.023570 1.843785 0.001912
 16 0.982328 0.000000 -0.000000 -0.000000 -0.190731 0.021736
 17 2.910366 0.632510 0.212796 -0.128122 1.421018 0.196879
 18 1.751859 0.000001 -0.000001 -0.000001 1.759073 -0.036567
 19 0.853995 0.000000 -0.000001 0.000000 0.043633 0.000000
 20 2.899451 1.342926 0.078011 -1.886496 1.384208 -1.531075
 21 1.152892 0.000000 0.000000 0.015687 1.076152 0.070399
 22 0.748465 0.000000 0.000000 0.000000 0.314159 -0.057080
 23 -5.542943 3.532208 -1.843327 -0.000000 1.570451 0.000000
 24 -0.023288 0.041601 0.000000 -0.278801 -0.303259 -0.206120
 25 11.072356 -0.043445 0.000000 -0.000000 -0.000000 -1.828295
 26 8.108976 -0.000002 0.000002 2.370578 0.229729 0.818248
 27 0.788880 0.969696 -0.533611 2.972456 0.125942 0.479278
 28 1.920300 0.000000 0.000001 0.017551 0.013649 0.203532
 29 0.858252 0.000000 0.000001 -0.000000 0.000000 0.251961
 30 2.955712 0.752578 0.160553 -3.141592 0.487365 -0.015797
 31 1.836088 0.000000 0.000000 0.000000 -0.613858 -0.000000
 32 0.853995 -0.000000 0.000001 -0.002756 -0.113413 0.024347
 33 2.964906 -0.017484 0.178523 -3.141592 0.437108 -0.015797
 34 1.814738 0.000000 -0.000000 0.008113 -0.655537 -0.025785
 35 0.982326 -0.000001 0.000000 0.000000 -0.095993 0.021736
 36 2.889732 -0.720929 0.212797 3.134108 0.620845 -0.056239
 37 1.751861 0.000002 -0.000001 0.000000 -0.753494 -0.036569
 38 0.853992 -0.000000 0.000004 0.000000 -0.043633 0.000000
 39 2.857166 -1.430683 0.078012 3.141592 0.905162 -0.015797
 40 1.152893 0.000000 -0.000001 -0.008039 -0.217639 0.058544
 41 0.748463 -0.000000 -0.000001 -0.000000 -0.314159 -0.057080
time 24
  0 1.751348 -9.072426 -9.582778 0.384412 -0.564695 0.080377
  1 0.006323 -1.781992 0.302978 0.000000 -0.000000 0.000000
  2 1.751349 -9.072426 -9.582778 0.384412 -0.564695 0.080377
  3 1.806655 -9.062898 -9.550396 0.384412 -0.564695 0.080377
  4 6.687647 8.054365 -2.755545 -0.000000 1.570451 0.000000
  5 -0.023288 0.041601 0.000000 0.122229 0.247334 -0.686327
  6 11.072354 -0.043445 0.000000 0.000000 -0.000000 -1.079983
  7 8.108974 0.000000 0.000000 0.518673 -0.574000 0.542173
  8 0.758959 -0.993292 -0.533611 0.363171 0.568929 -0.094389
  9 1.920299 -0.000000 0.000000 -0.000000 -0.000000 0.689234
 10 0.858254 0.000000 -0.000000 0.000000 0.000000 -0.069433
 11 2.931402 -0.842326 0.160553 -0.000000 0.069813 -0.014689
 12 1.836086 -0.000000 0.000001 0.000001 -0.022099 0.000007
 13 0.853995 -0.000000 0.000001 0.002756 0.113413 0.024347
 14 2.964060 -0.072900 0.178524 0.160949 1.348019 0.452789
 15 1.814737 0.000000 0.000001 0.023570 1.843784 0.001912
 16 0.982328 0.000000 0.000000 0.000000 -0.190731 0.021736
 17 2.910366 0.632509 0.212798 -0.128122 1.421018 0.196879
 18 1.751859 0.000002 -0.000001 -0.000000 1.759073 -0.036567
 19 0.853995 -0.000000 -0.000000 0.000000 0.043633 0.000000
 20 2.899451 1.342926 0.078012 -1.886496 1.384208 -1.531075
 21 1.152892 0.000000 -0.000001 0.015687 1.076152 0.070399
 22 0.748463 0.000000 0.000000 -0.000000 0.314159 -0.057080
 23 -5.533260 3.532208 -1.843327 -0.000000 1.570451 0.000000
 24 -0.023288 0.041601 0.000000 -0.272797 -0.297357 -0.197763
 25 11.072355 -0.043444 0.000001 -0.000000 -0.000000 -1.829723
 26 8.108976 -0.000002 0.000002 2.306407 0.213242 0.811385
 27 0.788881 0.969696 -0.533611 2.977530 0.115164 0.485328
 28 1.920300 0.000000 0.000001 0.016982 0.016142 0.185297
 29 0.858251 0.000000 0.000001 0.000000 -0.000000 0.263445
 30 2.955713 0.752580 0.160553 -3.141592 0.486791 -0.015797
 31 1.836088 -0.000000 0.000000 -0.000000 -0.599309 0.000000
 32 0.853994 0.000000 0.000001 -0.002756 -0.113413 0.024347
 33 2.964905 -0.017484 0.178523 -3.141592 0.425747 -0.015797
 34 1.814736 0.000000 0.000000 0.008035 -0.646535 -0.025673
 35 0.982326 -0.000000 -0.000001 -0.000000 -0.095993 0.021736
 36 2.889733 -0.720929 0.212798 3.134164 0.612936 -0.056154
 37 1.751860 0.000001 0.000000 0.000000 -0.738945 -0.036569
 38 0.853992 -0.000000 0.000003 0.000000 -0.043633 -0.000000
 39 2.857167 -1.430682 0.078013 3.141592 0.903354 -0.015797
 40 1.152893 0.000000 0.000000 -0.007890 -0.192683 0.058267
 41 0.748464 0.000000 -0.000002 0.000000 -0.314159 -0.057080
time 25
  0 1.751348 -9.072426 -9.776418 0.395723 -0.581311 0.082745
  1 0.006323 -1.781992 0.302978 0.000000 -0.000000 0.000000
  2 1.751349 -9.072426 -9.776418 0.395723 -0.581311 0.082745
  3 1.806443 -9.062792 -9.743083 0.395723 -0.581311 0.082745
  4 6.687647 8.054365 -2.755545 -0.000000 1.570451 0.000000
  5 -0.023288 0.041601 0.000000 0.121620 0.247763 -0.679361
  6 11.072355 -0.043445 0.000000 0.000000 0.000000 -1.073080
  7 8.108974 0.000000 0.000000 0.533321 -0.582895 0.537646
  8 0.758959 -0.993292 -0.533611 0.363171 0.568929 -0.094389
  9 1.920299 0.000000 -0.000001 0.000000 -0.000000 0.689234
 10 0.858253 0.000000 0.000000 -0.000000 -0.000000 -0.069433
 11 2.931401 -0.842324 0.160553 0.000000 0.069813 -0.014689
 12 1.836087 0.000000 0.000001 0.000001 -0.068199 0.000007
 13 0.853994 0.000000 0.000001 0.002756 0.113413 0.024347
 14 2.964059 -0.072899 0.178523 0.160949 1.348019 0.452789
 15 1.814736 -0.000000 0.000000 0.023570 1.843784 0.001912
 16 0.982327 -0.000000 0.000000 0.000000 -0.190731 0.021736
 17 2.910367 0.632509 0.212797 -0.128123 1.421018 0.196878
 18 1.751858 0.000002 -0.000001 -0.000001 1.759074 -0.036567
 19 0.853995 0.000001 -0.000001 -0.000000 0.043633 -0.000000
 20 2.899451 1.342926 0.078012 -1.886496 1.384208 -1.531075
 21 1.152892 0.000000 0.000000 0.015687 1.076152 0.070399
 22 0.748464 0.000000 0.000000 -0.000000 0.314159 -0.057080
 23 -5.525002 3.532208 -1.843327 -0.000000 1.570451 0.000000
 24 -0.023288 0.041601 0.000000 -0.267675 -0.292323 -0.190635
 25 11.072354 -0.043445 0.000000 -0.000000 0.000000 -1.830941
 26 8.108976 -0.000001 0.000002 2.251676 0.199180 0.805532
 27 0.788881 0.969696 -0.533611 2.981856 0.105971 0.490487
 28 1.920300 0.000000 0.000000 0.016498 0.018269 0.169744
 29 0.858251 0.000000 0.000002 0.000000 0.000000 0.273240
 30 2.955713 0.752580 0.160553 -3.141592 0.486303 -0.015797
 31 1.836088 -0.000000 0.000000 0.000000 -0.586901 0.000000
 32 0.853994 0.000000 0.000001 -0.002756 -0.113413 0.024347
 33 2.964906 -0.017483 0.178524 -3.141592 0.416057 -0.015797
 34 1.814737 0.000000 -0.000000 0.007967 -0.638857 -0.025577
 35 0.982326 -0.000001 -0.000002 0.000000 -0.095993 0.021736
 36 2.889732 -0.720928 0.212798 3.134212 0.606191 -0.056081
 37 1.751860 0.000001 -0.000001 0.000000 -0.726537 -0.036569
 38 0.853992 0.000000 0.000003 0.000000 -0.043633 0.000000
 39 2.857167 -1.430682 0.078013 3.141592 0.901812 -0.015797
 40 1.152893 0.000000 -0.000001 -0.007762 -0.171398 0.058031
 41 0.748465 0.000000 0.000000 -0.000000 -0.314159 -0.057080
time 26
  0 1.751348 -9.072426 -9.933146 0.404878 -0.594760 0.084661
  1 0.006323 -1.781991 0.302979 0.000000 -0.000000 0.000000
  2 1.751349 -9.072426 -9.933146 0.404878 -0.594760 0.084661
  3 1.806272 -9.062706 -9.899040 0.404878 -0.594760 0.084661
  4 6.687647 8.054365 -2.755545 -0.000000 1.570451 0.000000
  5 -0.023288 0.041601 0.000000 0.121127 0.248110 -0.673722
  6 11.072352 -0.043445 0.000000 -0.000000 0.000000 -1.067493
  7 8.108974 -0.000002 0.000000 0.545178 -0.590095 0.533983
  8 0.758958 -0.993292 -0.533611 0.363171 0.568929 -0.094389
  9 1.920300 0.000000 -0.000001 0.000000 0.000000 0.689234
 10 0.858253 0.000000 -0.000000 0.000000 -0.000000 -0.069433
 11 2.931401 -0.842325 0.160553 -0.000000 0.069813 -0.014689
 12 1.836086 0.000001 0.000000 0.000001 -0.105512 0.000007
 13 0.853995 0.000000 0.000001 0.002756 0.113413 0.024347
 14 2.964059 -0.072899 0.178522 0.160949 1.348019 0.452789
 15 1.814736 0.000001 0.000000 0.023570 1.843785 0.001911
 16 0.982328 0.000000 0.000000 0.000000 -0.190731 0.021736
 17 2.910366 0.632509 0.212797 -0.128122 1.421019 0.196879
 18 1.751858 0.000002 -0.000002 -0.000000 1.759074 -0.036567
 19 0.853996 0.000000 -0.000000 0.000000 0.043633 0.000000
 20 2.899450 1.342927 0.078011 -1.886497 1.384208 -1.531075
 21 1.152892 0.000000 0.000000 0.015687 1.076152 0.070399
 22 0.748464 0.000001 0.000000 0.000000 0.314159 -0.057080
 23 -5.518319 3.532208 -1.843327 -0.000000 1.570451 0.000000
 24 -0.023288 0.041601 0.000000 -0.263530 -0.288249 -0.184866
 25 11.072355 -0.043444 0.000000 -0.000000 -0.000000 -1.831926
 26 8.108974 -0.000003 0.000003 2.207377 0.187799 0.800795
 27 0.788881 0.969696 -0.533611 2.985358 0.098530 0.494664
 28 1.920300 -0.000000 0.000000 0.016105 0.019990 0.157156
 29 0.858252 0.000000 0.000001 0.000000 -0.000000 0.281167
 30 2.955712 0.752580 0.160553 -3.141592 0.485907 -0.015797
 31 1.836088 -0.000001 0.000000 -0.000000 -0.576857 0.000000
 32 0.853994 -0.000000 0.000002 -0.002756 -0.113413 0.024347
 33 2.964904 -0.017483 0.178523 -3.141592 0.408215 -0.015797
 34 1.814736 -0.000000 -0.000000 0.007913 -0.632642 -0.025500
 35 0.982326 -0.000000 0.000001 -0.000000 -0.095993 0.021736
 36 2.889732 -0.720928 0.212797 3.134251 0.600731 -0.056022
 37 1.751860 0.000001 -0.000001 0.000000 -0.716494 -0.036569
 38 0.853992 -0.000001 0.000003 -0.000000 -0.043633 0.000000
 39 2.857166 -1.430682 0.078013 3.141592 0.900564 -0.015797
 40 1.152893 0.000000 -0.000001 -0.007659 -0.154171 0.057840
 41 0.748464 0.000000 -0.000000 0.000000 -0.314159 -0.057080
time 27
  0 1.751348 -9.072426 -10.049446 0.411672 -0.604740 0.086083
  1 0.006323 -1.781992 0.302979 0.000000 -0.000000 0.000000
  2 1.751349 -9.072426 -10.049446 0.411672 -0.604740 0.086083
  3 1.806144 -9.062643 -10.014769 0.411672 -0.604740 0.086083
  4 6.687647 8.054365 -2.755545 -0.000000 1.570451 0.000000
  5 -0.023288 0.041601 0.000000 0.120761 0.248368 -0.669538
  6 11.072355 -0.043444 0.000000 -0.000000 0.000000 -1.063347
  7 8.108973 0.000001 -0.000000 0.553976 -0.595438 0.531264
  8 0.758958 -0.993292 -0.533612 0.363171 0.568929 -0.094389
  9 1.920300 0.000000 -0.000001 0.000000 -0.000000 0.689234
 10 0.858252 -0.000000 0.000000 -0.000000 -0.000000 -0.069433
 11 2.931401 -0.842324 0.160553 -0.000000 0.069813 -0.014689
 12 1.836085 0.000001 0.000001 0.000001 -0.133200 0.000007
 13 0.853994 0.000000 0.000001 0.002756 0.113413 0.024347
 14 2.964059 -0.072898 0.178523 0.160949 1.348020 0.452789
 15 1.814737 0.000001 -0.000001 0.023570 1.843785 0.001912
 16 0.982328 -0.000000 -0.000000 -0.000000 -0.190731 0.021736
 17 2.910367 0.632510 0.212797 -0.128123 1.421019 0.196879
 18 1.751859 0.000001 -0.000002 -0.000001 1.759074 -0.036567
 19 0.853995 0.000000 0.000000 -0.000000 0.043633 0.000000
 20 2.899452 1.342927 0.078012 -1.886496 1.384208 -1.531075
 21 1.152893 -0.000001 0.000001 0.015687 1.076152 0.070399
 22 0.748464 0.000000 0.000000 0.000000 0.314159 -0.057080
 23 -5.513359 3.532208 -1.843327 -0.000000 1.570451 0.000000
 24 -0.023288 0.041601 0.000000 -0.260454 -0.285226 -0.180585
 25 11.072356 -0.043445 0.000000 0.000000 -0.000000 -1.832657
 26 8.108976 -0.000001 0.000002 2.174505 0.179354 0.797280
 27 0.788881 0.969695 -0.533610 2.987957 0.093008 0.497762
 28 1.920300 0.000001 0.000001 0.015814 0.021267 0.147815
 29 0.858251 0.000000 0.000002 -0.000000 0.000000 0.287050
 30 2.955712 0.752579 0.160553 -3.141592 0.485614 -0.015797
 31 1.836088 0.000000 0.000000 0.000000 -0.569404 0.000000
 32 0.853994 -0.000000 0.000000 -0.002756 -0.113413 0.024347
 33 2.964905 -0.017483 0.178523 -3.141592 0.402395 -0.015797
 34 1.814736 -0.000000 0.000000 0.007873 -0.628031 -0.025443
 35 0.982326 0.000001 0.000000 0.000000 -0.095993 0.021736
 36 2.889733 -0.720928 0.212798 3.134280 0.596679 -0.055979
 37 1.751862 0.000002 -0.000000 0.000000 -0.709041 -0.036569
 38 0.853992 0.000000 0.000002 0.000000 -0.043633 0.000000
 39 2.857167 -1.430682 0.078012 3.141592 0.899638 -0.015797
 40 1.152892 0.000000 -0.000000 -0.007582 -0.141387 0.057698
 41 0.748464 0.000000 -0.000000 -0.000000 -0.314159 -0.057080
time 28
  0 1.751348 -9.072426 -10.121805 0.415898 -0.610949 0.086968
  1 0.006323 -1.781992 0.302978 0.000000 -0.000000 0.000000
  2 1.751349 -9.072426 -10.121805 0.415898 -0.610949 0.086968
  3 1.806065 -9.062603 -10.086771 0.415898 -0.610949 0.086968
  4 6.687647 8.054365 -2.755545 -0.000000 1.570451 0.000000
  5 -0.023288 0.041601 0.000000 0.120533 0.248528 -0.666935
  6 11.072355 -0.043446 0.000000 -0.000000 -0.000000 -1.060768
  7 8.108974 0.000001 0.000000 0.559449 -0.598762 0.529573
  8 0.758958 -0.993291 -0.533612 0.363171 0.568929 -0.094389
  9 1.920300 0.000000 0.000000 -0.000000 0.000000 0.689234
 10 0.858253 0.000000 -0.000000 0.000000 0.000000 -0.069433
 11 2.931401 -0.842324 0.160553 0.000000 0.069813 -0.014689
 12 1.836087 0.000000 0.000000 0.000001 -0.150427 0.000007
 13 0.853994 0.000000 0.000001 0.002756 0.113413 0.024347
 14 2.964059 -0.072899 0.178522 0.160949 1.348019 0.452789
 15 1.814737 -0.000000 0.000001 0.023570 1.843785 0.001912
 16 0.982327 -0.000000 0.000000 -0.000000 -0.190731 0.021736
 17 2.910366 0.632510 0.212796 -0.128122 1.421018 0.196879
 18 1.751858 0.000001 0.000000 -0.000000 1.759073 -0.036567
 19 0.853995 0.000000 0.000000 0.000000 0.043633 0.000000
 20 2.899452 1.342927 0.078011 -1.886496 1.384208 -1.531075
 21 1.152892 0.000000 0.000000 0.015687 1.076152 0.070399
 22 0.748463 0.000000 0.000000 -0.000000 0.314159 -0.057080
 23 -5.510273 3.532208 -1.843327 -0.000000 1.570451 0.000000
 24 -0.023288 0.041601 0.000000 -0.258540 -0.283344 -0.177921
 25 11.072357 -0.043445 -0.000000 0.000000 0.000000 -1.833113
 26 8.108978 -0.000003 0.000002 2.154053 0.174099 0.795093
 27 0.788881 0.969696 -0.533611 2.989573 0.089573 0.499690
 28 1.920300 0.000000 0.000000 0.015633 0.022062 0.142003
 29 0.858252 0.000000 0.000001 -0.000000 0.000000 0.290710
 30 2.955712 0.752579 0.160553 -3.141592 0.485431 -0.015797
 31 1.836086 -0.000000 0.000001 0.000000 -0.564768 0.000000
 32 0.853995 0.000000 0.000003 -0.002756 -0.113413 0.024347
 33 2.964905 -0.017483 0.178522 -3.141592 0.398774 -0.015797
 34 1.814737 0.000000 0.000000 0.007848 -0.625161 -0.025407
 35 0.982326 -0.000000 0.000001 -0.000000 -0.095993 0.021736
 36 2.889732 -0.720928 0.212796 3.134298 0.594159 -0.055951
 37 1.751861 0.000002 0.000000 0.000000 -0.704404 -0.036569
 38 0.853992 0.000000 0.000002 -0.000000 -0.043633 -0.000000
 39 2.857166 -1.430683 0.078012 3.141592 0.899061 -0.015797
 40 1.152894 0.000000 -0.000001 -0.007534 -0.133433 0.057609
 41 0.748464 0.000000 0.000000 -0.000000 -0.314159 -0.057080
time 29
  0 1.751348 -9.072426 -10.146706 0.417353 -0.613085 0.087272
  1 0.006323 -1.781992 0.302978 0.000000 -0.000000 0.000000
  2 1.751349 -9.072426 -10.146706 0.417353 -0.613085 0.087272
  3 1.806038 -9.062590 -10.111549 0.417353 -0.613085 0.087272
  4 6.687647 8.054365 -2.755545 -0.000000 1.570451 0.000000
  5 -0.023288 0.041601 0.000000 0.120455 0.248583 -0.666039
  6 11.072355 -0.043444 0.000000 0.000000 -0.000000 -1.059880
  7 8.108973 -0.000002 -0.000000 0.561333 -0.599906 0.528991
  8 0.758959 -0.993293 -0.533611 0.363171 0.568929 -0.094389
  9 1.920300 0.000000 -0.000000 0.000000 -0.000000 0.689234
 10 0.858253 0.000000 -0.000000 -0.000000 -0.000000 -0.069433
 11 2.931401 -0.842325 0.160553 -0.000000 0.069813 -0.014689
 12 1.836085 0.000000 0.000000 0.000001 -0.156355 0.000007
 13 0.853994 0.000000 0.000002 0.002756 0.113413 0.024347
 14 2.964060 -0.072900 0.178523 0.160949 1.348020 0.452789
 15 1.814737 0.000000 0.000000 0.023570 1.843785 0.001912
 16 0.982328 0.000000 0.000000 0.000000 -0.190731 0.021736
 17 2.910365 0.632510 0.212796 -0.128122 1.421019 0.196879
 18 1.751858 0.000002 -0.000002 -0.000000 1.759074 -0.036567
 19 0.853994 -0.000001 -0.000000 0.000000 0.043633 0.000000
 20 2.899451 1.342926 0.078011 -1.886496 1.384208 -1.531075
 21 1.152892 -0.000000 0.000000 0.015687 1.076152 0.070399
 22 0.748464 0.000000 0.000001 -0.000000 0.314159 -0.057080
 23 -5.509211 3.532208 -1.843327 -0.000000 1.570451 0.000000
 24 -0.023288 0.041601 0.000000 -0.257881 -0.282697 -0.177005
 25 11.072355 -0.043445 -0.000001 0.000000 -0.000000 -1.833269
 26 8.108976 -0.000003 0.000002 2.147015 0.172291 0.794340
 27 0.788882 0.969696 -0.533611 2.990130 0.088391 0.500354
 28 1.920300 0.000000 0.000000 0.015571 0.022335 0.140003
 29 0.858251 0.000000 0.000002 -0.000000 0.000000 0.291970
 30 2.955714 0.752579 0.160552 -3.141592 0.485368 -0.015797
 31 1.836088 -0.000000 0.000000 -0.000000 -0.563172 0.000000
 32 0.853994 -0.000001 0.000001 -0.002756 -0.113413 0.024347
 33 2.964905 -0.017484 0.178523 -3.141592 0.397528 -0.015797
 34 1.814736 0.000000 0.000001 0.007839 -0.624174 -0.025395
 35 0.982327 -0.000000 -0.000001 -0.000000 -0.095993 0.021736
 36 2.889733 -0.720928 0.212797 3.134304 0.593291 -0.055942
 37 1.751862 0.000002 -0.000000 0.000000 -0.702809 -0.036569
 38 0.853992 -0.000000 0.000003 -0.000000 -0.043633 0.000000
 39 2.857167 -1.430683 0.078012 3.141592 0.898863 -0.015797
 40 1.152893 0.000000 -0.000001 -0.007518 -0.130696 0.057579
 41 0.748464 0.000000 -0.000002 -0.000000 -0.314159 -0.057080
end
