// Created by Crowbar 0.29.0.0
version 1
nodes
  0 "ValveBiped" -1
  1 "ValveBiped.weapon_bone" 0
  2 "ValveBiped.weapon_bone_Clip" 1
  3 "ValveBiped.flash" 1
end
skeleton
  time 0
    0 0.000000 0.000000 0.000000 1.570796 0.000000 0.000000
    1 1.227019 4.371634 5.825668 0.000000 0.000000 0.000000
    2 -0.365569 -4.566531 -2.077255 0.000000 0.000000 0.000000
    3 -0.794978 -0.604460 4.564488 0.000000 0.000000 0.000000
end
triangles
  phy
    0 0.616104 -2.623510 4.438951 0.522993 0.850735 0.052242 0 0
    0 0.226529 -3.205074 4.715565 0.051017 0.987798 -0.147146 0 0
    0 0.671310 -3.299206 4.697743 -0.000715 0.999993 0.003605 0 0
  phy
    0 0.588703 -1.296429 3.621439 0.490391 0.869643 -0.056908 0 0
    0 0.226529 -3.205074 4.715565 0.051017 0.987798 -0.147146 0 0
    0 0.616104 -2.623510 4.438951 0.522993 0.850735 0.052242 0 0
  phy
    0 0.616104 -2.623510 4.438951 0.522993 0.850735 0.052242 0 0
    0 0.671310 -3.299206 4.697743 -0.000715 0.999993 0.003605 0 0
    0 1.015655 -2.355485 3.991251 -0.002353 -0.996797 0.079943 0 0
  phy
    0 1.015655 -2.355485 3.991251 -0.002353 -0.996797 0.079943 0 0
    0 0.588703 -1.296429 3.621439 0.490391 0.869643 -0.056908 0 0
    0 0.616104 -2.623510 4.438951 0.522993 0.850735 0.052242 0 0
  phy
    0 -0.198593 -2.098687 2.906033 0.649608 0.741432 -0.168189 0 0
    0 -0.303809 -3.051547 2.767650 -0.150973 0.331445 -0.931317 0 0
    0 -0.303783 -3.322923 3.464609 -0.606774 0.782890 -0.137507 0 0
  phy
    0 -0.198593 -2.098687 2.906033 0.649608 0.741432 -0.168189 0 0
    0 -0.303783 -3.322923 3.464609 -0.606774 0.782890 -0.137507 0 0
    0 -0.287305 -3.399610 4.065965 0.649608 0.741432 -0.168189 0 0
  phy
    0 -0.304002 -2.197651 -1.272433 -0.936340 0.013326 -0.350843 0 0
    0 -0.304045 -2.434471 -1.731418 0.099808 0.626197 -0.773250 0 0
    0 -0.303809 -3.051547 2.767650 -0.150973 0.331445 -0.931317 0 0
  phy
    0 -0.303809 -3.051547 2.767650 -0.150973 0.331445 -0.931317 0 0
    0 -0.304045 -2.434471 -1.731418 0.099808 0.626197 -0.773250 0 0
    0 -0.303851 -3.945884 2.981798 0.350150 0.545073 -0.761768 0 0
  phy
    0 -0.303809 -3.051547 2.767650 -0.150973 0.331445 -0.931317 0 0
    0 -0.303851 -3.945884 2.981798 0.350150 0.545073 -0.761768 0 0
    0 -0.303783 -3.322923 3.464609 -0.606774 0.782890 -0.137507 0 0
  phy
    0 -0.304002 -2.197651 -1.272433 -0.936340 0.013326 -0.350843 0 0
    0 -0.303809 -3.051547 2.767650 -0.150973 0.331445 -0.931317 0 0
    0 -0.198593 -2.098687 2.906033 0.649608 0.741432 -0.168189 0 0
  phy
    0 0.671310 -3.299206 4.697743 -0.000715 0.999993 0.003605 0 0
    0 1.135664 -3.306790 4.063917 -0.705415 0.657588 0.264514 0 0
    0 1.015655 -2.355485 3.991251 -0.002353 -0.996797 0.079943 0 0
  phy
    0 1.015655 -2.355485 3.991251 -0.002353 -0.996797 0.079943 0 0
    0 1.135664 -3.306790 4.063917 -0.705415 0.657588 0.264514 0 0
    0 1.015643 -2.159349 3.589235 -0.957564 -0.194126 0.213041 0 0
  phy
    0 1.015655 -2.355485 3.991251 -0.002353 -0.996797 0.079943 0 0
    0 1.015643 -2.159349 3.589235 -0.957564 -0.194126 0.213041 0 0
    0 0.588703 -1.296429 3.621439 0.490391 0.869643 -0.056908 0 0
  phy
    0 1.015140 -10.700274 3.992269 -0.006917 0.986723 0.162264 0 0
    0 0.734467 -11.851589 4.233242 -0.940551 -0.337633 0.036988 0 0
    0 0.861429 -11.503810 3.531011 0.240345 0.947451 0.211116 0 0
  phy
    0 0.861429 -11.503810 3.531011 0.240345 0.947451 0.211116 0 0
    0 1.015105 -10.700350 3.361436 -0.358590 -0.603622 0.712077 0 0
    0 1.015140 -10.700274 3.992269 -0.006917 0.986723 0.162264 0 0
  phy
    0 0.734467 -11.851589 4.233242 -0.940551 -0.337633 0.036988 0 0
    0 0.641491 -11.503894 2.730632 0.574920 0.777688 0.254300 0 0
    0 0.861429 -11.503810 3.531011 0.240345 0.947451 0.211116 0 0
  phy
    0 0.641491 -11.503894 2.730632 0.574920 0.777688 0.254300 0 0
    0 1.015105 -10.700350 3.361436 -0.358590 -0.603622 0.712077 0 0
    0 0.861429 -11.503810 3.531011 0.240345 0.947451 0.211116 0 0
  phy
    0 -0.198822 -1.573934 -1.364071 -0.302050 0.294659 -0.906610 0 0
    0 0.432662 -1.248861 -1.121287 -0.990258 0.030267 0.135914 0 0
    0 0.073230 -1.536819 -1.876072 -0.025383 0.999673 0.002945 0 0
  phy
    0 0.432662 -1.248861 -1.121287 -0.990258 0.030267 0.135914 0 0
    0 -0.198822 -1.573934 -1.364071 -0.302050 0.294659 -0.906610 0 0
    0 0.278767 -1.094067 3.252105 -0.543535 -0.817537 -0.190269 0 0
  phy
    0 -0.304045 -2.434471 -1.731418 0.099808 0.626197 -0.773250 0 0
    0 -0.198822 -1.573934 -1.364071 -0.302050 0.294659 -0.906610 0 0
    0 0.073230 -1.536819 -1.876072 -0.025383 0.999673 0.002945 0 0
  phy
    0 -0.304002 -2.197651 -1.272433 -0.936340 0.013326 -0.350843 0 0
    0 -0.198822 -1.573934 -1.364071 -0.302050 0.294659 -0.906610 0 0
    0 -0.304045 -2.434471 -1.731418 0.099808 0.626197 -0.773250 0 0
  phy
    0 -0.198822 -1.573934 -1.364071 -0.302050 0.294659 -0.906610 0 0
    0 -0.067224 -1.698872 2.911681 -0.543535 -0.817537 -0.190269 0 0
    0 0.278767 -1.094067 3.252105 -0.543535 -0.817537 -0.190269 0 0
  phy
    0 -0.198822 -1.573934 -1.364071 -0.302050 0.294659 -0.906610 0 0
    0 -0.304002 -2.197651 -1.272433 -0.936340 0.013326 -0.350843 0 0
    0 -0.198593 -2.098687 2.906033 0.649608 0.741432 -0.168189 0 0
  phy
    0 -0.198822 -1.573934 -1.364071 -0.302050 0.294659 -0.906610 0 0
    0 -0.198593 -2.098687 2.906033 0.649608 0.741432 -0.168189 0 0
    0 -0.067224 -1.698872 2.911681 -0.543535 -0.817537 -0.190269 0 0
  phy
    0 -0.287305 -3.399610 4.065965 0.649608 0.741432 -0.168189 0 0
    0 -0.303783 -3.322923 3.464609 -0.606774 0.782890 -0.137507 0 0
    0 -0.303851 -3.945884 2.981798 0.350150 0.545073 -0.761768 0 0
  phy
    0 -0.287305 -3.399610 4.065965 0.649608 0.741432 -0.168189 0 0
    0 -0.303851 -3.945884 2.981798 0.350150 0.545073 -0.761768 0 0
    0 -0.148769 -10.700202 3.992340 -0.068835 -0.985479 -0.155219 0 0
  phy
    0 0.588703 -1.296429 3.621439 0.490391 0.869643 -0.056908 0 0
    0 1.015643 -2.159349 3.589235 -0.957564 -0.194126 0.213041 0 0
    0 0.932988 -1.698933 2.911620 -0.781280 -0.054016 0.621839 0 0
  phy
    0 0.932988 -1.698933 2.911620 -0.781280 -0.054016 0.621839 0 0
    0 0.932740 -1.397580 -1.444288 -0.829834 0.550835 0.089199 0 0
    0 0.588703 -1.296429 3.621439 0.490391 0.869643 -0.056908 0 0
  phy
    0 0.932988 -1.698933 2.911620 -0.781280 -0.054016 0.621839 0 0
    0 1.015643 -2.159349 3.589235 -0.957564 -0.194126 0.213041 0 0
    0 1.121769 -1.897831 -1.572383 0.057321 0.899960 0.432187 0 0
  phy
    0 1.121769 -1.897831 -1.572383 0.057321 0.899960 0.432187 0 0
    0 0.932740 -1.397580 -1.444288 -0.829834 0.550835 0.089199 0 0
    0 0.932988 -1.698933 2.911620 -0.781280 -0.054016 0.621839 0 0
  phy
    0 0.671310 -3.299206 4.697743 -0.000715 0.999993 0.003605 0 0
    0 0.433210 -11.005732 4.710734 -0.476535 -0.453191 -0.753348 0 0
    0 1.015140 -10.700274 3.992269 -0.006917 0.986723 0.162264 0 0
  phy
    0 1.015140 -10.700274 3.992269 -0.006917 0.986723 0.162264 0 0
    0 1.135664 -3.306790 4.063917 -0.705415 0.657588 0.264514 0 0
    0 0.671310 -3.299206 4.697743 -0.000715 0.999993 0.003605 0 0
  phy
    0 1.015140 -10.700274 3.992269 -0.006917 0.986723 0.162264 0 0
    0 0.433210 -11.005732 4.710734 -0.476535 -0.453191 -0.753348 0 0
    0 0.734467 -11.851589 4.233242 -0.940551 -0.337633 0.036988 0 0
  phy
    0 1.015140 -10.700274 3.992269 -0.006917 0.986723 0.162264 0 0
    0 1.015105 -10.700350 3.361436 -0.358590 -0.603622 0.712077 0 0
    0 1.160855 -4.004670 3.325413 0.552184 0.169995 0.816207 0 0
  phy
    0 1.160855 -4.004670 3.325413 0.552184 0.169995 0.816207 0 0
    0 1.135664 -3.306790 4.063917 -0.705415 0.657588 0.264514 0 0
    0 1.015140 -10.700274 3.992269 -0.006917 0.986723 0.162264 0 0
  phy
    0 1.121769 -1.897831 -1.572383 0.057321 0.899960 0.432187 0 0
    0 1.015643 -2.159349 3.589235 -0.957564 -0.194126 0.213041 0 0
    0 1.170082 -3.051637 2.767560 0.972741 0.133428 0.189661 0 0
  phy
    0 1.015643 -2.159349 3.589235 -0.957564 -0.194126 0.213041 0 0
    0 1.135664 -3.306790 4.063917 -0.705415 0.657588 0.264514 0 0
    0 1.170082 -3.051637 2.767560 0.972741 0.133428 0.189661 0 0
  phy
    0 1.170082 -3.051637 2.767560 0.972741 0.133428 0.189661 0 0
    0 1.169843 -2.434561 -1.731508 -0.358590 -0.603622 0.712077 0 0
    0 1.121769 -1.897831 -1.572383 0.057321 0.899960 0.432187 0 0
  phy
    0 1.170082 -3.051637 2.767560 0.972741 0.133428 0.189661 0 0
    0 1.135664 -3.306790 4.063917 -0.705415 0.657588 0.264514 0 0
    0 1.160855 -4.004670 3.325413 0.552184 0.169995 0.816207 0 0
  phy
    0 1.160855 -4.004670 3.325413 0.552184 0.169995 0.816207 0 0
    0 1.169843 -2.434561 -1.731508 -0.358590 -0.603622 0.712077 0 0
    0 1.170082 -3.051637 2.767560 0.972741 0.133428 0.189661 0 0
  phy
    0 0.734467 -11.851589 4.233242 -0.940551 -0.337633 0.036988 0 0
    0 0.433210 -11.005732 4.710734 -0.476535 -0.453191 -0.753348 0 0
    0 0.231200 -11.897644 4.311630 -0.832808 -0.516184 -0.199965 0 0
  phy
    0 0.231200 -11.897644 4.311630 -0.832808 -0.516184 -0.199965 0 0
    0 0.331589 -11.897705 3.861630 -0.496746 -0.832964 -0.243750 0 0
    0 0.734467 -11.851589 4.233242 -0.940551 -0.337633 0.036988 0 0
  phy
    0 0.004789 -11.503756 3.531064 -0.496746 -0.832964 -0.243750 0 0
    0 0.231200 -11.897644 4.311630 -0.832808 -0.516184 -0.199965 0 0
    0 -0.148769 -10.700202 3.992340 -0.068835 -0.985479 -0.155219 0 0
  phy
    0 0.004789 -11.503756 3.531064 -0.496746 -0.832964 -0.243750 0 0
    0 0.331589 -11.897705 3.861630 -0.496746 -0.832964 -0.243750 0 0
    0 0.231200 -11.897644 4.311630 -0.832808 -0.516184 -0.199965 0 0
  phy
    0 0.231200 -11.897644 4.311630 -0.832808 -0.516184 -0.199965 0 0
    0 0.433210 -11.005732 4.710734 -0.476535 -0.453191 -0.753348 0 0
    0 -0.148769 -10.700202 3.992340 -0.068835 -0.985479 -0.155219 0 0
  phy
    0 0.671310 -3.299206 4.697743 -0.000715 0.999993 0.003605 0 0
    0 0.226529 -3.205074 4.715565 0.051017 0.987798 -0.147146 0 0
    0 0.433210 -11.005732 4.710734 -0.476535 -0.453191 -0.753348 0 0
  phy
    0 0.734467 -11.851589 4.233242 -0.940551 -0.337633 0.036988 0 0
    0 0.331589 -11.897705 3.861630 -0.496746 -0.832964 -0.243750 0 0
    0 0.641491 -11.503894 2.730632 0.574920 0.777688 0.254300 0 0
  phy
    0 -0.148769 -10.700202 3.992340 -0.068835 -0.985479 -0.155219 0 0
    0 -0.303851 -3.945884 2.981798 0.350150 0.545073 -0.761768 0 0
    0 -0.148807 -10.700279 3.361507 -0.563854 -0.744528 -0.357415 0 0
  phy
    0 -0.303851 -3.945884 2.981798 0.350150 0.545073 -0.761768 0 0
    0 -0.304045 -2.434471 -1.731418 0.099808 0.626197 -0.773250 0 0
    0 -0.148807 -10.700279 3.361507 -0.563854 -0.744528 -0.357415 0 0
  phy
    0 0.641491 -11.503894 2.730632 0.574920 0.777688 0.254300 0 0
    0 0.331589 -11.897705 3.861630 -0.496746 -0.832964 -0.243750 0 0
    0 0.224619 -11.503868 2.730657 -0.563854 -0.744528 -0.357415 0 0
  phy
    0 0.641491 -11.503894 2.730632 0.574920 0.777688 0.254300 0 0
    0 0.224619 -11.503868 2.730657 -0.563854 -0.744528 -0.357415 0 0
    0 0.011353 -3.606281 -1.934111 -0.025383 0.999673 0.002945 0 0
  phy
    0 0.856604 -3.610456 -1.931728 -0.025383 0.999673 0.002945 0 0
    0 0.641491 -11.503894 2.730632 0.574920 0.777688 0.254300 0 0
    0 0.011353 -3.606281 -1.934111 -0.025383 0.999673 0.002945 0 0
  phy
    0 0.641491 -11.503894 2.730632 0.574920 0.777688 0.254300 0 0
    0 0.856604 -3.610456 -1.931728 -0.025383 0.999673 0.002945 0 0
    0 1.015105 -10.700350 3.361436 -0.358590 -0.603622 0.712077 0 0
  phy
    0 0.004789 -11.503756 3.531064 -0.496746 -0.832964 -0.243750 0 0
    0 -0.148769 -10.700202 3.992340 -0.068835 -0.985479 -0.155219 0 0
    0 -0.148807 -10.700279 3.361507 -0.563854 -0.744528 -0.357415 0 0
  phy
    0 0.224619 -11.503868 2.730657 -0.563854 -0.744528 -0.357415 0 0
    0 0.004789 -11.503756 3.531064 -0.496746 -0.832964 -0.243750 0 0
    0 -0.148807 -10.700279 3.361507 -0.563854 -0.744528 -0.357415 0 0
  phy
    0 0.224619 -11.503868 2.730657 -0.563854 -0.744528 -0.357415 0 0
    0 0.331589 -11.897705 3.861630 -0.496746 -0.832964 -0.243750 0 0
    0 0.004789 -11.503756 3.531064 -0.496746 -0.832964 -0.243750 0 0
  phy
    0 0.974930 -1.633772 -1.876115 -0.283737 -0.724395 0.628288 0 0
    0 0.932740 -1.397580 -1.444288 -0.829834 0.550835 0.089199 0 0
    0 1.121769 -1.897831 -1.572383 0.057321 0.899960 0.432187 0 0
  phy
    0 1.121769 -1.897831 -1.572383 0.057321 0.899960 0.432187 0 0
    0 1.169843 -2.434561 -1.731508 -0.358590 -0.603622 0.712077 0 0
    0 0.974930 -1.633772 -1.876115 -0.283737 -0.724395 0.628288 0 0
  phy
    0 0.588703 -1.296429 3.621439 0.490391 0.869643 -0.056908 0 0
    0 0.932740 -1.397580 -1.444288 -0.829834 0.550835 0.089199 0 0
    0 0.278767 -1.094067 3.252105 -0.543535 -0.817537 -0.190269 0 0
  phy
    0 0.588703 -1.296429 3.621439 0.490391 0.869643 -0.056908 0 0
    0 -0.148257 -2.355414 3.991321 -0.543535 -0.817537 -0.190269 0 0
    0 0.226529 -3.205074 4.715565 0.051017 0.987798 -0.147146 0 0
  phy
    0 0.588703 -1.296429 3.621439 0.490391 0.869643 -0.056908 0 0
    0 0.278767 -1.094067 3.252105 -0.543535 -0.817537 -0.190269 0 0
    0 -0.148257 -2.355414 3.991321 -0.543535 -0.817537 -0.190269 0 0
  phy
    0 1.015105 -10.700350 3.361436 -0.358590 -0.603622 0.712077 0 0
    0 1.169843 -2.434561 -1.731508 -0.358590 -0.603622 0.712077 0 0
    0 1.160855 -4.004670 3.325413 0.552184 0.169995 0.816207 0 0
  phy
    0 -0.148769 -10.700202 3.992340 -0.068835 -0.985479 -0.155219 0 0
    0 0.433210 -11.005732 4.710734 -0.476535 -0.453191 -0.753348 0 0
    0 -0.287305 -3.399610 4.065965 0.649608 0.741432 -0.168189 0 0
  phy
    0 0.433210 -11.005732 4.710734 -0.476535 -0.453191 -0.753348 0 0
    0 0.226529 -3.205074 4.715565 0.051017 0.987798 -0.147146 0 0
    0 -0.287305 -3.399610 4.065965 0.649608 0.741432 -0.168189 0 0
  phy
    0 -0.304045 -2.434471 -1.731418 0.099808 0.626197 -0.773250 0 0
    0 0.073230 -1.536819 -1.876072 -0.025383 0.999673 0.002945 0 0
    0 0.011353 -3.606281 -1.934111 -0.025383 0.999673 0.002945 0 0
  phy
    0 -0.148807 -10.700279 3.361507 -0.563854 -0.744528 -0.357415 0 0
    0 -0.304045 -2.434471 -1.731418 0.099808 0.626197 -0.773250 0 0
    0 0.011353 -3.606281 -1.934111 -0.025383 0.999673 0.002945 0 0
  phy
    0 0.224619 -11.503868 2.730657 -0.563854 -0.744528 -0.357415 0 0
    0 -0.148807 -10.700279 3.361507 -0.563854 -0.744528 -0.357415 0 0
    0 0.011353 -3.606281 -1.934111 -0.025383 0.999673 0.002945 0 0
  phy
    0 0.432662 -1.248861 -1.121287 -0.990258 0.030267 0.135914 0 0
    0 0.932740 -1.397580 -1.444288 -0.829834 0.550835 0.089199 0 0
    0 0.073230 -1.536819 -1.876072 -0.025383 0.999673 0.002945 0 0
  phy
    0 0.932740 -1.397580 -1.444288 -0.829834 0.550835 0.089199 0 0
    0 0.432662 -1.248861 -1.121287 -0.990258 0.030267 0.135914 0 0
    0 0.278767 -1.094067 3.252105 -0.543535 -0.817537 -0.190269 0 0
  phy
    0 0.932740 -1.397580 -1.444288 -0.829834 0.550835 0.089199 0 0
    0 0.974930 -1.633772 -1.876115 -0.283737 -0.724395 0.628288 0 0
    0 0.073230 -1.536819 -1.876072 -0.025383 0.999673 0.002945 0 0
  phy
    0 0.974930 -1.633772 -1.876115 -0.283737 -0.724395 0.628288 0 0
    0 0.856604 -3.610456 -1.931728 -0.025383 0.999673 0.002945 0 0
    0 0.073230 -1.536819 -1.876072 -0.025383 0.999673 0.002945 0 0
  phy
    0 0.856604 -3.610456 -1.931728 -0.025383 0.999673 0.002945 0 0
    0 0.974930 -1.633772 -1.876115 -0.283737 -0.724395 0.628288 0 0
    0 1.169843 -2.434561 -1.731508 -0.358590 -0.603622 0.712077 0 0
  phy
    0 0.226529 -3.205074 4.715565 0.051017 0.987798 -0.147146 0 0
    0 -0.148257 -2.355414 3.991321 -0.543535 -0.817537 -0.190269 0 0
    0 -0.287305 -3.399610 4.065965 0.649608 0.741432 -0.168189 0 0
  phy
    0 -0.198593 -2.098687 2.906033 0.649608 0.741432 -0.168189 0 0
    0 -0.148257 -2.355414 3.991321 -0.543535 -0.817537 -0.190269 0 0
    0 -0.067224 -1.698872 2.911681 -0.543535 -0.817537 -0.190269 0 0
  phy
    0 -0.148257 -2.355414 3.991321 -0.543535 -0.817537 -0.190269 0 0
    0 -0.198593 -2.098687 2.906033 0.649608 0.741432 -0.168189 0 0
    0 -0.287305 -3.399610 4.065965 0.649608 0.741432 -0.168189 0 0
  phy
    0 -0.067224 -1.698872 2.911681 -0.543535 -0.817537 -0.190269 0 0
    0 -0.148257 -2.355414 3.991321 -0.543535 -0.817537 -0.190269 0 0
    0 0.278767 -1.094067 3.252105 -0.543535 -0.817537 -0.190269 0 0
  phy
    0 0.856604 -3.610456 -1.931728 -0.025383 0.999673 0.002945 0 0
    0 1.169843 -2.434561 -1.731508 -0.358590 -0.603622 0.712077 0 0
    0 1.015105 -10.700350 3.361436 -0.358590 -0.603622 0.712077 0 0
  phy
    0 0.073230 -1.536819 -1.876072 -0.025383 0.999673 0.002945 0 0
    0 0.856604 -3.610456 -1.931728 -0.025383 0.999673 0.002945 0 0
    0 0.011353 -3.606281 -1.934111 -0.025383 0.999673 0.002945 0 0
end
