
//	Action Half-Life 2, Weapons, Colt 1911, World Model Gold
//	Texture @ AHL2 Team
//	Shaders @ Reverend V92
//	Update: 2017/04/07

VertexLitGeneric
{

	$basetexture models/jessev92/ahl2/weapons/1911/peewee_coltgold_d
	$bumpmap models/jessev92/ahl2/weapons/1911/peewee_coltgold_b
	$lightwarptexture dev/identitylightwarp

	$nocull 0
	$halflambert 1
	$ambientocclusion 1
	$alphatest 0
	$selfillum 0

	$phong 1
	$phongexponent 10
	$phongboost 2
	$phongfresnelranges "[ 0.5 0.5 1 ]"
	$phongwarptexture models/jessev92/ahl2/weapons/1911/gold_chrome_d
	
	$rimlight 1
	$rimlightexponent 5
	$rimlightboost 0.1

	$detail detail/metal_detail_01
	$detailscale 8
	$detailblendfactor 1
	$detailblendmode 0

}
