
$cd whiskey_w
$mostlyopaque
$ambientboost

$ModelName fofpons/whiskey_green_w

$model Whiskey whiskey_green_w

$SurfaceProp glass

$Contents solid

$cdmaterials models/jessev92/fof/weapons/whiskey
$cdmaterials models/jessev92/fof/weapons
$cdmaterials models/fofpons/whiskey
$cdmaterials models/fofpons

$CBox 0 0 0 0 0 0

$BBox -5.563 -3.574 -13.622 5.777 5.994 1.867

$DefineBone "ValveBiped.Bip01_R_Hand" "" 1.783728 -5.776746 -3.330455 4.618727 90.659287 -171.248321 0 0 0 0 0 0
$DefineBone "ValveBiped.Weapon_bone" "ValveBiped.Bip01_R_Hand" 5 -1.5 -5 0 0 0.000001 0 0 0 0 0 0


$Sequence "idle" {
	whiskey_green_w
	fadein 0.2
	fadeout 0.2
	fps 30
}

$CollisionModel whiskey_green_w
{
	$mass 1
	$inertia 1
	$damping 0
	$rotdamping 0
	$rootbone " "

}
