
VertexLitGeneric
{

	$baseTexture				models/jessev92/hl2/weapons/M40A3/scope_d
	$bumpmap					models/jessev92/hl2/weapons/M40A3/scope_b

	$halflambert				1
	$ambientocclusion			1

	$phong						1
	$phongboost					1
	$phongexponent				32
	$phongalbedotint			1
	$phongfresnelranges			"[ 1 6 12 ]"
	$phongexponenttexture		models/jessev92/hl2/weapons/M40A3/scope_x
	
	$detail						detail/metal_detail_01
	$detailscale				8
	$detailblendfactor			0.3
	$detailblendmode			0
	
}

