// Created by Crowbar 0.42.0.0

$ModelName "weapons\w_peacemaker.mdl"

$BodyGroup "studio"
{
	studio "w_peacemaker_reference.smd"
}


$SurfaceProp "weapon"

$Contents "solid"

$MaxEyeDeflection 90

$CDMaterials "models\weapons\"

$Attachment "muzzle" "ValveBiped.Weapon_bone" 9 -0.2 0 rotate 0 0 0

$CBox 0 0 0 0 0 0

$BBox -7.948 -1.185 -5.952 5.777 2.596 2.298

$DefineBone "ValveBiped" "" 0 0 0 0 0 89.999983 0 0 0 0 0 0
$DefineBone "ValveBiped.Bip01_R_Hand" "ValveBiped" 1.783728 -3.330455 5.776746 85.334444 -98.103326 0.62206 0 0 0 0 0 0
$DefineBone "ValveBiped.Weapon_bone" "ValveBiped.Bip01_R_Hand" 4.999981 -1.500033 -5.000008 0 -0.001318 -0.000001 0 0 0 0 0 0


$Sequence "idle" {
	"w_peacemaker_anims\idle.smd"
	fadein 0.2
	fadeout 0.2
	fps 30
}

$Sequence "attack1" {
	"w_peacemaker_anims\attack1.smd"
	activity "ACT_RANGE_ATTACK_PISTOL" 1
	{ event AE_NPC_MUZZLEFLASH 0 "PISTOL muzzle" }
	{ event 3014 0 "" }
	fadein 0.2
	fadeout 0.2
	fps 30
}

$Sequence "attack2" {
	"w_peacemaker_anims\attack2.smd"
	activity "ACT_RANGE_ATTACK_PISTOL2" 1
	{ event AE_NPC_MUZZLEFLASH 0 "PISTOL muzzle" }
	fadein 0.2
	fadeout 0.2
	fps 30
}

$CollisionModel "w_peacemaker_physics.smd"
{
	$mass 2
	$inertia 1
	$damping 0
	$rotdamping 0
	$rootbone " "

}
