// Created by Crowbar 0.42.0.0
version 1
nodes
  0 "ValveBiped" -1
  1 "ValveBiped.Bip01_R_Hand" 0
  2 "ValveBiped.Weapon_bone" 1
end
skeleton
  time 0
    0 0.000000 0.000000 0.000000 1.570796 0.000000 0.000000
    1 1.783728 -3.330455 5.776746 0.010857 1.489367 -1.712226
    2 4.999981 -1.500033 -5.000008 0.000000 0.000000 -0.000023
end
triangles
  phy
    0 1.418560 -4.146178 -4.772216 0.591137 -0.738335 0.324681 0 0
    0 1.155788 -2.372170 -4.855852 -0.142211 0.985500 0.092552 0 0
    0 1.610938 1.935051 -0.410414 -0.361981 0.000006 0.932186 0 0
  phy
    0 1.610938 1.935051 -0.410414 -0.361981 0.000006 0.932186 0 0
    0 1.155788 -2.372170 -4.855852 -0.142211 0.985500 0.092552 0 0
    0 1.065124 7.698287 0.627001 0.563033 0.826434 0.000016 0 0
  phy
    0 1.610938 1.935051 -0.410414 -0.361981 0.000006 0.932186 0 0
    0 1.610882 -0.041009 0.106741 -0.337115 -0.010660 0.941403 0 0
    0 1.418560 -4.146178 -4.772216 0.591137 -0.738335 0.324681 0 0
  phy
    0 1.610938 1.935051 -0.410414 -0.361981 0.000006 0.932186 0 0
    0 1.610938 1.935057 0.106719 0.404053 0.787833 0.464823 0 0
    0 1.610882 -0.041009 0.106741 -0.337115 -0.010660 0.941403 0 0
  phy
    0 1.065124 7.698287 0.627001 0.563033 0.826434 0.000016 0 0
    0 1.610938 1.935057 0.106719 0.404053 0.787833 0.464823 0 0
    0 1.610938 1.935051 -0.410414 -0.361981 0.000006 0.932186 0 0
  phy
    0 0.472558 7.698298 0.034435 0.367616 -0.818663 0.441191 0 0
    0 0.467172 -2.411991 -4.926269 -0.068915 -0.997591 -0.007938 0 0
    0 -0.127014 -4.146135 -4.772214 -0.905889 0.416572 -0.076371 0 0
  phy
    0 0.472558 7.698298 0.034435 0.367616 -0.818663 0.441191 0 0
    0 -0.127014 -4.146135 -4.772214 -0.905889 0.416572 -0.076371 0 0
    0 0.227110 7.698309 0.627002 0.563033 0.826434 0.000016 0 0
  phy
    0 1.065124 7.698287 0.627001 0.563033 0.826434 0.000016 0 0
    0 0.472558 7.698298 0.034435 0.367616 -0.818663 0.441191 0 0
    0 0.227110 7.698309 0.627002 0.563033 0.826434 0.000016 0 0
  phy
    0 0.467172 -2.411991 -4.926269 -0.068915 -0.997591 -0.007938 0 0
    0 0.472558 7.698298 0.034435 0.367616 -0.818663 0.441191 0 0
    0 1.155788 -2.372170 -4.855852 -0.142211 0.985500 0.092552 0 0
  phy
    0 1.065124 7.698287 0.627001 0.563033 0.826434 0.000016 0 0
    0 1.155788 -2.372170 -4.855852 -0.142211 0.985500 0.092552 0 0
    0 0.472558 7.698298 0.034435 0.367616 -0.818663 0.441191 0 0
  phy
    0 -0.319035 1.935112 0.106722 -0.006928 -0.484533 -0.874746 0 0
    0 -0.319036 1.935106 -0.410412 -0.199203 0.848994 -0.489416 0 0
    0 -0.319091 -0.040954 0.106745 0.232202 -0.199331 -0.952024 0 0
  phy
    0 -0.319036 1.935106 -0.410412 -0.199203 0.848994 -0.489416 0 0
    0 -0.319035 1.935112 0.106722 -0.006928 -0.484533 -0.874746 0 0
    0 0.227110 7.698309 0.627002 0.563033 0.826434 0.000016 0 0
  phy
    0 -0.319035 1.935112 0.106722 -0.006928 -0.484533 -0.874746 0 0
    0 -0.319091 -0.040954 0.106745 0.232202 -0.199331 -0.952024 0 0
    0 0.585219 6.729015 1.287369 0.199795 -0.419403 -0.885541 0 0
  phy
    0 -0.319035 1.935112 0.106722 -0.006928 -0.484533 -0.874746 0 0
    0 0.585219 6.729015 1.287369 0.199795 -0.419403 -0.885541 0 0
    0 0.227110 7.698309 0.627002 0.563033 0.826434 0.000016 0 0
  phy
    0 -0.319091 -0.040954 0.106745 0.232202 -0.199331 -0.952024 0 0
    0 -0.319036 1.935106 -0.410412 -0.199203 0.848994 -0.489416 0 0
    0 -0.127014 -4.146135 -4.772214 -0.905889 0.416572 -0.076371 0 0
  phy
    0 -0.127014 -4.146135 -4.772214 -0.905889 0.416572 -0.076371 0 0
    0 -0.319036 1.935106 -0.410412 -0.199203 0.848994 -0.489416 0 0
    0 0.227110 7.698309 0.627002 0.563033 0.826434 0.000016 0 0
  phy
    0 1.095005 -0.371638 0.985343 0.404053 0.787833 0.464823 0 0
    0 0.524831 -1.834025 1.034445 -0.905889 0.416572 -0.076371 0 0
    0 1.610882 -0.041009 0.106741 -0.337115 -0.010660 0.941403 0 0
  phy
    0 0.585219 6.729015 1.287369 0.199795 -0.419403 -0.885541 0 0
    0 0.524831 -1.834025 1.034445 -0.905889 0.416572 -0.076371 0 0
    0 1.095005 -0.371638 0.985343 0.404053 0.787833 0.464823 0 0
  phy
    0 1.065124 7.698287 0.627001 0.563033 0.826434 0.000016 0 0
    0 0.585219 6.729015 1.287369 0.199795 -0.419403 -0.885541 0 0
    0 1.095005 -0.371638 0.985343 0.404053 0.787833 0.464823 0 0
  phy
    0 1.095005 -0.371638 0.985343 0.404053 0.787833 0.464823 0 0
    0 1.610938 1.935057 0.106719 0.404053 0.787833 0.464823 0 0
    0 1.065124 7.698287 0.627001 0.563033 0.826434 0.000016 0 0
  phy
    0 1.610882 -0.041009 0.106741 -0.337115 -0.010660 0.941403 0 0
    0 1.610938 1.935057 0.106719 0.404053 0.787833 0.464823 0 0
    0 1.095005 -0.371638 0.985343 0.404053 0.787833 0.464823 0 0
  phy
    0 1.610882 -0.041009 0.106741 -0.337115 -0.010660 0.941403 0 0
    0 0.524831 -1.834025 1.034445 -0.905889 0.416572 -0.076371 0 0
    0 1.418560 -4.146178 -4.772216 0.591137 -0.738335 0.324681 0 0
  phy
    0 0.524831 -1.834025 1.034445 -0.905889 0.416572 -0.076371 0 0
    0 0.824411 -4.482708 -4.780378 -0.905889 0.416572 -0.076371 0 0
    0 1.418560 -4.146178 -4.772216 0.591137 -0.738335 0.324681 0 0
  phy
    0 1.418560 -4.146178 -4.772216 0.591137 -0.738335 0.324681 0 0
    0 0.467172 -2.411991 -4.926269 -0.068915 -0.997591 -0.007938 0 0
    0 1.155788 -2.372170 -4.855852 -0.142211 0.985500 0.092552 0 0
  phy
    0 0.467172 -2.411991 -4.926269 -0.068915 -0.997591 -0.007938 0 0
    0 1.418560 -4.146178 -4.772216 0.591137 -0.738335 0.324681 0 0
    0 0.824411 -4.482708 -4.780378 -0.905889 0.416572 -0.076371 0 0
  phy
    0 -0.127014 -4.146135 -4.772214 -0.905889 0.416572 -0.076371 0 0
    0 0.467172 -2.411991 -4.926269 -0.068915 -0.997591 -0.007938 0 0
    0 0.824411 -4.482708 -4.780378 -0.905889 0.416572 -0.076371 0 0
  phy
    0 1.065124 7.698287 0.627001 0.563033 0.826434 0.000016 0 0
    0 0.227110 7.698309 0.627002 0.563033 0.826434 0.000016 0 0
    0 0.585219 6.729015 1.287369 0.199795 -0.419403 -0.885541 0 0
  phy
    0 0.585219 6.729015 1.287369 0.199795 -0.419403 -0.885541 0 0
    0 -0.319091 -0.040954 0.106745 0.232202 -0.199331 -0.952024 0 0
    0 0.524831 -1.834025 1.034445 -0.905889 0.416572 -0.076371 0 0
  phy
    0 -0.319091 -0.040954 0.106745 0.232202 -0.199331 -0.952024 0 0
    0 -0.127014 -4.146135 -4.772214 -0.905889 0.416572 -0.076371 0 0
    0 0.524831 -1.834025 1.034445 -0.905889 0.416572 -0.076371 0 0
  phy
    0 -0.127014 -4.146135 -4.772214 -0.905889 0.416572 -0.076371 0 0
    0 0.824411 -4.482708 -4.780378 -0.905889 0.416572 -0.076371 0 0
    0 0.524831 -1.834025 1.034445 -0.905889 0.416572 -0.076371 0 0
end
