"VertexLitGeneric"
{
	"$basetexture" "models\ins1ons/scartn\Sights"
	"$bumpmap" "models\ins1ons/scartn\sights_norm"
	"$normalmapalphaenvmapmask" "1"
	"$phong" 		"1"
	"$phongexponent" 	"40"
	"$phongboost" "0.75"
	"$phongfresnelranges" "[1 3 6]"
     //	"$phongalbedotint" "1"
}