VertexLitGeneric
{
	"$baseTexture" "models/jessev92/halo/reach/weapons/dmr/DMR_diffuse"
	"$bumpmap" "models/jessev92/halo/reach/weapons/dmr/DMR_normal"


	"$phong" "1"
	"$phongboost" "0.05"
	"$phongexponent" "10"
	"$phongexponenttexture" "models/jessev92/halo/reach/common/halosp"
	"$phongalbedotint" "1"
	"$phongfresnelranges"	"[1 1 1]"

	"$detail" "models/jessev92/halo/reach/common/rubber"
	"$detailscale" "25"
	"$detailblendfactor" "3"
	"$detailblendmode" "0"

	"$rimlight" "1"
	"$rimlightexponent" "50"
	"$rimlightboost" "0.05"
}