// Created by Crowbar 0.42.0.0
version 1
nodes
  0 "ValveBiped.Bip01_R_Hand" -1
  1 "ValveBiped.Weapon_bone" 0
  2 "ValveBiped.Weapon_bone_extra1" 1
end
skeleton
  time 0
    0 -0.216187 -5.773438 -3.328125 -2.988848 0.080711 -4.700878
    1 4.999996 -1.500016 -5.000002 0.000000 0.000000 0.000011
    2 14.813090 0.355152 0.701040 -1.488422 0.151807 1.582396
  time 1
    0 -0.216187 -5.773438 -3.328125 -2.988848 0.080711 -4.700878
    1 4.999996 -1.500016 -5.000002 0.000000 0.000000 0.000011
    2 14.813090 0.355152 0.701040 -1.488422 0.151807 1.582396
end
