// Created by Crowbar 0.42.0.0
version 1
nodes
  0 "polymsh1" -1
  1 "polymsh_detached" 0
  2 "polymsh_detached1" 0
  3 "polymsh_detached2" 0
  4 "l arm base" -1
  5 "l upperarm" 4
  6 "l forearm" 5
  7 "l hand" 6
  8 "l finger0" 7
  9 "l finger01" 8
  10 "l finger02" 9
  11 "l finger1" 7
  12 "l finger11" 11
  13 "l finger12" 12
  14 "l finger3" 7
  15 "l finger31" 14
  16 "l finger32" 15
  17 "l finger4" 7
  18 "l finger41" 17
  19 "l finger42" 18
  20 "l finger2" 7
  21 "l finger21" 20
  22 "l finger22" 21
  23 "l sleeve help" 6
  24 "l cuff" 23
  25 "r arm base" -1
  26 "r upperarm" 25
  27 "r forearm" 26
  28 "r hand" 27
  29 "r finger0" 28
  30 "r finger01" 29
  31 "r finger02" 30
  32 "r finger1" 28
  33 "r finger11" 32
  34 "r finger12" 33
  35 "r finger3" 28
  36 "r finger31" 35
  37 "r finger32" 36
  38 "r finger4" 28
  39 "r finger41" 38
  40 "r finger42" 39
  41 "r finger2" 28
  42 "r finger21" 41
  43 "r finger22" 42
  44 "r sleeve help" 27
  45 "r cuff" 44
  46 "weapon" -1
end
skeleton
  time 0
    0 14.414100 -4.265925 -6.499187 1.570796 0.000000 1.570787
    1 -0.006659 0.337219 4.384488 0.000000 0.000000 0.000000
    2 -0.006659 0.293999 2.752372 0.246631 0.000000 0.000000
    3 -0.006659 1.042511 2.142974 0.000000 0.000000 0.000000
    4 15.132813 -15.000000 -12.078125 -1.919860 0.000000 -1.570796
    5 0.000000 0.000000 0.000000 0.739790 0.929949 0.957192
    6 11.703225 0.000001 0.000000 0.000000 0.000000 -0.940648
    7 11.501110 -0.000001 -0.000002 -2.242367 -0.351033 0.512734
    8 0.949223 0.526691 -0.818564 1.218653 0.700714 -0.024965
    9 1.978557 0.000000 0.000000 -0.000001 0.000000 0.259000
    10 1.087181 0.000001 -0.000001 0.000000 -0.000002 -0.318570
    11 3.863441 -0.167452 -1.277058 0.201233 -0.155209 1.099052
    12 1.666013 0.000000 0.000000 0.000000 -0.000001 1.555327
    13 1.292519 0.000000 -0.000001 0.000000 0.000001 0.270574
    14 3.927892 -0.566322 0.452259 0.056622 -0.078695 1.416164
    15 1.705974 -0.000003 0.000000 0.000000 -0.000001 1.471815
    16 1.292521 0.000000 0.000000 0.000000 0.000001 0.873163
    17 3.772599 -0.311787 1.300302 -0.090727 -0.047630 1.187230
    18 1.408095 -0.000002 0.000002 -0.000001 0.000000 2.038976
    19 0.986795 0.000001 0.000001 0.000000 0.000000 0.219433
    20 3.851021 -0.476093 -0.459795 0.124881 -0.135857 1.384537
    21 2.007647 0.000000 0.000000 -0.000001 0.000000 1.517032
    22 1.270734 0.000000 0.000000 -0.000001 0.000000 0.034546
    23 5.679938 -0.078274 -0.132372 0.000000 -1.570796 1.619889
    24 0.236208 -3.846334 -0.007084 0.040101 0.000000 0.000000
    25 -13.281250 2.226563 2.113281 1.570795 -0.001727 -4.710659
    26 0.000000 0.000000 0.000000 0.353894 0.359366 1.361329
    27 -11.703224 -0.000001 0.000000 0.000000 0.000000 -1.506544
    28 -11.501109 0.000001 0.000002 -1.527213 -0.497209 0.671948
    29 -0.949224 -0.526692 0.818564 2.039112 0.416550 0.555242
    30 -1.978556 0.000000 -0.000001 -0.000001 0.000000 0.608066
    31 -1.087186 0.000000 -0.000001 0.000000 -0.000002 0.510662
    32 -3.863441 0.167450 1.277058 0.211418 0.203748 0.054707
    33 -1.666015 0.000001 0.000000 0.000000 -0.000001 0.792160
    34 -1.292520 0.000003 0.000001 0.000000 0.000001 1.169423
    35 -3.927893 0.566322 -0.452260 -0.108298 -0.034865 1.000384
    36 -1.705971 0.000003 0.000000 0.000000 -0.000001 1.560063
    37 -1.292521 0.000000 0.000000 0.000000 0.000001 0.259170
    38 -3.772597 0.311787 -1.300303 -0.160117 0.070998 1.138460
    39 -1.408095 0.000002 -0.000002 -0.000001 0.000000 1.377599
    40 -0.986795 0.000000 0.000001 0.000000 0.000000 0.512607
    41 -3.851022 0.476093 0.459796 0.014946 -0.075269 0.645161
    42 -2.007646 0.000000 0.000000 -0.000001 0.000000 1.777937
    43 -1.270733 0.000001 0.000000 -0.000001 0.000000 0.494879
    44 -5.679937 0.078274 0.132374 0.000000 -1.570796 1.619889
    45 0.000001 3.838816 0.000000 0.000000 0.000000 0.000000
    46 14.410445 -4.265446 -6.499466 1.570796 0.000000 -0.000026
  time 1
    0 11.101499 -4.105764 -7.268742 1.509424 -0.097153 1.538983
    1 -0.006659 0.337219 4.384488 0.000000 0.000000 0.000000
    2 -0.006659 0.293999 2.752372 0.246631 0.000000 0.000000
    3 -0.006659 1.042511 2.142974 0.000000 0.000000 0.000000
    4 15.132813 -15.000000 -12.078125 -1.919860 0.000000 -1.570796
    5 0.000000 0.000000 0.000000 1.032278 0.944772 1.301161
    6 11.703225 0.000001 0.000000 0.000000 0.000000 -1.121939
    7 11.501110 -0.000001 -0.000002 -2.081783 -0.468014 0.590882
    8 0.949223 0.526691 -0.818564 1.218653 0.700714 -0.024965
    9 1.978557 0.000000 0.000000 -0.000001 0.000000 0.259000
    10 1.087181 0.000001 -0.000001 0.000000 -0.000002 -0.318570
    11 3.863441 -0.167452 -1.277058 0.201233 -0.155209 1.099052
    12 1.666013 0.000000 0.000000 0.000000 -0.000001 1.555327
    13 1.292519 0.000000 -0.000001 0.000000 0.000001 0.270574
    14 3.927892 -0.566322 0.452259 0.056622 -0.078695 1.416164
    15 1.705974 -0.000003 0.000000 0.000000 -0.000001 1.471815
    16 1.292521 0.000000 0.000000 0.000000 0.000001 0.873163
    17 3.772599 -0.311787 1.300302 -0.090727 -0.047630 1.187230
    18 1.408095 -0.000002 0.000002 -0.000001 0.000000 2.038976
    19 0.986795 0.000001 0.000001 0.000000 0.000000 0.219433
    20 3.851021 -0.476093 -0.459795 0.124881 -0.135857 1.384537
    21 2.007647 0.000000 0.000000 -0.000001 0.000000 1.517032
    22 1.270734 0.000000 0.000000 -0.000001 0.000000 0.034546
    23 5.679938 -0.078274 -0.132372 0.000000 -1.570796 1.619889
    24 0.236208 -3.846334 -0.007084 0.040101 0.000000 0.000000
    25 -13.281250 2.226563 2.113281 1.570795 -0.001727 -4.710659
    26 0.000000 0.000000 0.000000 0.449764 0.371625 1.690088
    27 -11.703224 -0.000001 0.000000 0.000000 0.000000 -1.699736
    28 -11.501109 0.000001 0.000002 -1.451427 -0.525858 0.446331
    29 -0.949224 -0.526692 0.818564 2.039112 0.416550 0.555242
    30 -1.978556 0.000000 -0.000001 -0.000001 0.000000 0.608066
    31 -1.087186 0.000000 -0.000001 0.000000 -0.000002 0.510662
    32 -3.863441 0.167450 1.277058 0.211418 0.203748 0.054707
    33 -1.666015 0.000001 0.000000 0.000000 -0.000001 0.792160
    34 -1.292520 0.000003 0.000001 0.000000 0.000001 1.169423
    35 -3.927893 0.566322 -0.452260 -0.108298 -0.034865 1.000384
    36 -1.705971 0.000003 0.000000 0.000000 -0.000001 1.560063
    37 -1.292521 0.000000 0.000000 0.000000 0.000001 0.259170
    38 -3.772597 0.311787 -1.300303 -0.160117 0.070998 1.138460
    39 -1.408095 0.000002 -0.000002 -0.000001 0.000000 1.377599
    40 -0.986795 0.000000 0.000001 0.000000 0.000000 0.512607
    41 -3.851022 0.476093 0.459796 0.014946 -0.075269 0.645161
    42 -2.007646 0.000000 0.000000 -0.000001 0.000000 1.777937
    43 -1.270733 0.000001 0.000000 -0.000001 0.000000 0.494879
    44 -5.679937 0.078274 0.132374 0.000000 -1.570796 1.619889
    45 0.000001 3.838816 0.000000 0.000000 0.000000 0.000000
    46 11.101750 -4.105285 -7.269021 1.668131 -0.061061 -0.037749
  time 2
    0 9.679581 -4.054981 -7.323431 1.505246 -0.108434 1.527848
    1 -0.006659 0.337219 4.384488 0.000000 0.000000 0.000000
    2 -0.006659 0.293999 2.752372 0.246631 0.000000 0.000000
    3 -0.006659 1.042511 2.142974 0.000000 0.000000 0.000000
    4 15.132813 -15.000000 -12.078125 -1.919860 0.000000 -1.570796
    5 0.000000 0.000000 0.000000 1.156598 0.949975 1.469530
    6 11.703225 0.000001 0.000000 0.000000 0.000000 -1.170847
    7 11.501110 -0.000001 -0.000002 -2.010825 -0.527466 0.578294
    8 0.949223 0.526691 -0.818564 1.218653 0.700714 -0.024965
    9 1.978557 0.000000 0.000000 -0.000001 0.000000 0.259000
    10 1.087181 0.000001 -0.000001 0.000000 -0.000002 -0.318570
    11 3.863441 -0.167452 -1.277058 0.201233 -0.155209 1.099052
    12 1.666013 0.000000 0.000000 0.000000 -0.000001 1.555327
    13 1.292519 0.000000 -0.000001 0.000000 0.000001 0.270574
    14 3.927892 -0.566322 0.452259 0.056622 -0.078695 1.416164
    15 1.705974 -0.000003 0.000000 0.000000 -0.000001 1.471815
    16 1.292521 0.000000 0.000000 0.000000 0.000001 0.873163
    17 3.772599 -0.311787 1.300302 -0.090727 -0.047630 1.187230
    18 1.408095 -0.000002 0.000002 -0.000001 0.000000 2.038976
    19 0.986795 0.000001 0.000001 0.000000 0.000000 0.219433
    20 3.851021 -0.476093 -0.459795 0.124881 -0.135857 1.384537
    21 2.007647 0.000000 0.000000 -0.000001 0.000000 1.517032
    22 1.270734 0.000000 0.000000 -0.000001 0.000000 0.034546
    23 5.679938 -0.078274 -0.132372 0.000000 -1.570796 1.619889
    24 0.236208 -3.846334 -0.007084 0.040101 0.000000 0.000000
    25 -13.281250 2.226563 2.113281 1.570795 -0.001727 -4.710659
    26 0.000000 0.000000 0.000000 0.498695 0.376811 1.829305
    27 -11.703224 -0.000001 0.000000 0.000000 0.000000 -1.780660
    28 -11.501109 0.000001 0.000002 -1.389941 -0.543816 0.370185
    29 -0.949224 -0.526692 0.818564 2.039112 0.416550 0.555242
    30 -1.978556 0.000000 -0.000001 -0.000001 0.000000 0.608066
    31 -1.087186 0.000000 -0.000001 0.000000 -0.000002 0.510662
    32 -3.863441 0.167450 1.277058 0.211418 0.203748 0.054707
    33 -1.666015 0.000001 0.000000 0.000000 -0.000001 0.792160
    34 -1.292520 0.000003 0.000001 0.000000 0.000001 1.169423
    35 -3.927893 0.566322 -0.452260 -0.108298 -0.034865 1.000384
    36 -1.705971 0.000003 0.000000 0.000000 -0.000001 1.560063
    37 -1.292521 0.000000 0.000000 0.000000 0.000001 0.259170
    38 -3.772597 0.311787 -1.300303 -0.160117 0.070998 1.138460
    39 -1.408095 0.000002 -0.000002 -0.000001 0.000000 1.377599
    40 -0.986795 0.000000 0.000001 0.000000 0.000000 0.512607
    41 -3.851022 0.476093 0.459796 0.014946 -0.075269 0.645161
    42 -2.007646 0.000000 0.000000 -0.000001 0.000000 1.777937
    43 -1.270733 0.000001 0.000000 -0.000001 0.000000 0.494879
    44 -5.679937 0.078274 0.132374 0.000000 -1.570796 1.619889
    45 0.000001 3.838816 0.000000 0.000000 0.000000 0.000000
    46 9.679832 -4.054502 -7.323710 1.679463 -0.065182 -0.050031
  time 3
    0 9.706925 -4.078419 -6.858573 1.543253 -0.056646 1.529170
    1 -0.006659 0.337219 4.384488 0.000000 0.000000 0.000000
    2 -0.006659 0.293999 2.752372 0.246631 0.000000 0.000000
    3 -0.006659 1.042511 2.142974 0.000000 0.000000 0.000000
    4 15.132813 -15.000000 -12.078125 -1.919860 0.000000 -1.570796
    5 0.000000 0.000000 0.000000 1.154296 0.947734 1.459830
    6 11.703225 0.000001 0.000000 0.000000 0.000000 -1.174293
    7 11.501110 -0.000001 -0.000002 -2.075082 -0.531942 0.571486
    8 0.949223 0.526691 -0.818564 1.218653 0.700714 -0.024965
    9 1.978557 0.000000 0.000000 -0.000001 0.000000 0.259000
    10 1.087181 0.000001 -0.000001 0.000000 -0.000002 -0.318570
    11 3.863441 -0.167452 -1.277058 0.201233 -0.155209 1.099052
    12 1.666013 0.000000 0.000000 0.000000 -0.000001 1.555327
    13 1.292519 0.000000 -0.000001 0.000000 0.000001 0.270574
    14 3.927892 -0.566322 0.452259 0.056622 -0.078695 1.416164
    15 1.705974 -0.000003 0.000000 0.000000 -0.000001 1.471815
    16 1.292521 0.000000 0.000000 0.000000 0.000001 0.873163
    17 3.772599 -0.311787 1.300302 -0.090727 -0.047630 1.187230
    18 1.408095 -0.000002 0.000002 -0.000001 0.000000 2.038976
    19 0.986795 0.000001 0.000001 0.000000 0.000000 0.219433
    20 3.851021 -0.476093 -0.459795 0.124881 -0.135857 1.384537
    21 2.007647 0.000000 0.000000 -0.000001 0.000000 1.517032
    22 1.270734 0.000000 0.000000 -0.000001 0.000000 0.034546
    23 5.679938 -0.078274 -0.132372 0.000000 -1.570796 1.619889
    24 0.236208 -3.846334 -0.007084 0.040101 0.000000 0.000000
    25 -13.281250 2.226563 2.113281 1.570795 -0.001727 -4.710659
    26 0.000000 0.000000 0.000000 0.521572 0.376507 1.812336
    27 -11.703224 -0.000001 0.000000 0.000000 0.000000 -1.822461
    28 -11.501109 0.000001 0.000002 -1.379792 -0.597748 0.474258
    29 -0.949224 -0.526692 0.818564 2.039112 0.416550 0.555242
    30 -1.978556 0.000000 -0.000001 -0.000001 0.000000 0.608066
    31 -1.087186 0.000000 -0.000001 0.000000 -0.000002 0.510662
    32 -3.863441 0.167450 1.277058 0.211418 0.203748 0.054707
    33 -1.666015 0.000001 0.000000 0.000000 -0.000001 0.792160
    34 -1.292520 0.000003 0.000001 0.000000 0.000001 1.169423
    35 -3.927893 0.566322 -0.452260 -0.108298 -0.034865 1.000384
    36 -1.705971 0.000003 0.000000 0.000000 -0.000001 1.560063
    37 -1.292521 0.000000 0.000000 0.000000 0.000001 0.259170
    38 -3.772597 0.311787 -1.300303 -0.160117 0.070998 1.138460
    39 -1.408095 0.000002 -0.000002 -0.000001 0.000000 1.377599
    40 -0.986795 0.000000 0.000001 0.000000 0.000000 0.512607
    41 -3.851022 0.476093 0.459796 0.014946 -0.075269 0.645161
    42 -2.007646 0.000000 0.000000 -0.000001 0.000000 1.777937
    43 -1.270733 0.000001 0.000000 -0.000001 0.000000 0.494879
    44 -5.679937 0.078274 0.132374 0.000000 -1.570796 1.619889
    45 0.000001 3.838816 0.000000 0.000000 0.000000 0.000000
    46 9.707176 -4.077940 -6.858852 1.627453 -0.027476 -0.043201
  time 4
    0 9.878806 -4.105764 -6.448404 1.577191 -0.009547 1.534807
    1 -0.006659 0.337219 4.384488 0.000000 0.000000 0.000000
    2 -0.006659 0.293999 2.752372 0.246631 0.000000 0.000000
    3 -0.006659 1.042511 2.142974 0.000000 0.000000 0.000000
    4 15.132813 -15.000000 -12.078125 -1.919860 0.000000 -1.570796
    5 0.000000 0.000000 0.000000 1.140964 0.945184 1.436431
    6 11.703225 0.000001 0.000000 0.000000 0.000000 -1.173709
    7 11.501110 -0.000001 -0.000002 -2.138022 -0.532827 0.566327
    8 0.949223 0.526691 -0.818564 1.218653 0.700714 -0.024965
    9 1.978557 0.000000 0.000000 -0.000001 0.000000 0.259000
    10 1.087181 0.000001 -0.000001 0.000000 -0.000002 -0.318570
    11 3.863441 -0.167452 -1.277058 0.201233 -0.155209 1.099052
    12 1.666013 0.000000 0.000000 0.000000 -0.000001 1.555327
    13 1.292519 0.000000 -0.000001 0.000000 0.000001 0.270574
    14 3.927892 -0.566322 0.452259 0.056622 -0.078695 1.416164
    15 1.705974 -0.000003 0.000000 0.000000 -0.000001 1.471815
    16 1.292521 0.000000 0.000000 0.000000 0.000001 0.873163
    17 3.772599 -0.311787 1.300302 -0.090727 -0.047630 1.187230
    18 1.408095 -0.000002 0.000002 -0.000001 0.000000 2.038976
    19 0.986795 0.000001 0.000001 0.000000 0.000000 0.219433
    20 3.851021 -0.476093 -0.459795 0.124881 -0.135857 1.384537
    21 2.007647 0.000000 0.000000 -0.000001 0.000000 1.517032
    22 1.270734 0.000000 0.000000 -0.000001 0.000000 0.034546
    23 5.679938 -0.078274 -0.132372 0.000000 -1.570796 1.619889
    24 0.236208 -3.846334 -0.007084 0.040101 0.000000 0.000000
    25 -13.281250 2.226563 2.113281 1.570795 -0.001727 -4.710659
    26 0.000000 0.000000 0.000000 0.535345 0.375959 1.777471
    27 -11.703224 -0.000001 0.000000 0.000000 0.000000 -1.847547
    28 -11.501109 0.000001 0.000002 -1.385393 -0.641109 0.581151
    29 -0.949224 -0.526692 0.818564 2.039112 0.416550 0.555242
    30 -1.978556 0.000000 -0.000001 -0.000001 0.000000 0.608066
    31 -1.087186 0.000000 -0.000001 0.000000 -0.000002 0.510662
    32 -3.863441 0.167450 1.277058 0.211418 0.203748 0.054707
    33 -1.666015 0.000001 0.000000 0.000000 -0.000001 0.792160
    34 -1.292520 0.000003 0.000001 0.000000 0.000001 1.169423
    35 -3.927893 0.566322 -0.452260 -0.108298 -0.034865 1.000384
    36 -1.705971 0.000003 0.000000 0.000000 -0.000001 1.560063
    37 -1.292521 0.000000 0.000000 0.000000 0.000001 0.259170
    38 -3.772597 0.311787 -1.300303 -0.160117 0.070998 1.138460
    39 -1.408095 0.000002 -0.000002 -0.000001 0.000000 1.377599
    40 -0.986795 0.000000 0.000001 0.000000 0.000000 0.512607
    41 -3.851022 0.476093 0.459796 0.014946 -0.075269 0.645161
    42 -2.007646 0.000000 0.000000 -0.000001 0.000000 1.777937
    43 -1.270733 0.000001 0.000000 -0.000001 0.000000 0.494879
    44 -5.679937 0.078274 0.132374 0.000000 -1.570796 1.619889
    45 0.000001 3.838816 0.000000 0.000000 0.000000 0.000000
    46 9.879056 -4.105285 -6.448683 1.580340 0.006399 -0.035932
  time 5
    0 9.839742 -4.105764 -6.303869 1.590417 0.007691 1.536616
    1 -0.006659 0.337219 4.384488 0.000000 0.000000 0.000000
    2 -0.006659 0.293999 2.752372 0.246631 0.000000 0.000000
    3 -0.006659 1.042511 2.142974 0.000000 0.000000 0.000000
    4 15.132813 -15.000000 -12.078125 -1.919860 0.000000 -1.570796
    5 0.000000 0.000000 0.000000 1.145328 0.943986 1.443841
    6 11.703225 0.000001 0.000000 0.000000 0.000000 -1.177905
    7 11.501110 -0.000001 -0.000002 -2.153050 -0.537808 0.561033
    8 0.949223 0.526691 -0.818564 1.218653 0.700714 -0.024965
    9 1.978557 0.000000 0.000000 -0.000001 0.000000 0.259000
    10 1.087181 0.000001 -0.000001 0.000000 -0.000002 -0.318570
    11 3.863441 -0.167452 -1.277058 0.201233 -0.155209 1.099052
    12 1.666013 0.000000 0.000000 0.000000 -0.000001 1.555327
    13 1.292519 0.000000 -0.000001 0.000000 0.000001 0.270574
    14 3.927892 -0.566322 0.452259 0.056622 -0.078695 1.416164
    15 1.705974 -0.000003 0.000000 0.000000 -0.000001 1.471815
    16 1.292521 0.000000 0.000000 0.000000 0.000001 0.873163
    17 3.772599 -0.311787 1.300302 -0.090727 -0.047630 1.187230
    18 1.408095 -0.000002 0.000002 -0.000001 0.000000 2.038976
    19 0.986795 0.000001 0.000001 0.000000 0.000000 0.219433
    20 3.851021 -0.476093 -0.459795 0.124881 -0.135857 1.384537
    21 2.007647 0.000000 0.000000 -0.000001 0.000000 1.517032
    22 1.270734 0.000000 0.000000 -0.000001 0.000000 0.034546
    23 5.679938 -0.078274 -0.132372 0.000000 -1.570796 1.619889
    24 0.236208 -3.846334 -0.007084 0.040101 0.000000 0.000000
    25 -13.281250 2.226563 2.113281 1.570795 -0.001727 -4.710659
    26 0.000000 0.000000 0.000000 0.544628 0.376476 1.773911
    27 -11.703224 -0.000001 0.000000 0.000000 0.000000 -1.861359
    28 -11.501109 0.000001 0.000002 -1.383878 -0.659543 0.616369
    29 -0.949224 -0.526692 0.818564 2.039112 0.416550 0.555242
    30 -1.978556 0.000000 -0.000001 -0.000001 0.000000 0.608066
    31 -1.087186 0.000000 -0.000001 0.000000 -0.000002 0.510662
    32 -3.863441 0.167450 1.277058 0.211418 0.203748 0.054707
    33 -1.666015 0.000001 0.000000 0.000000 -0.000001 0.792160
    34 -1.292520 0.000003 0.000001 0.000000 0.000001 1.169423
    35 -3.927893 0.566322 -0.452260 -0.108298 -0.034865 1.000384
    36 -1.705971 0.000003 0.000000 0.000000 -0.000001 1.560063
    37 -1.292521 0.000000 0.000000 0.000000 0.000001 0.259170
    38 -3.772597 0.311787 -1.300303 -0.160117 0.070998 1.138460
    39 -1.408095 0.000002 -0.000002 -0.000001 0.000000 1.377599
    40 -0.986795 0.000000 0.000001 0.000000 0.000000 0.512607
    41 -3.851022 0.476093 0.459796 0.014946 -0.075269 0.645161
    42 -2.007646 0.000000 0.000000 -0.000001 0.000000 1.777937
    43 -1.270733 0.000001 0.000000 -0.000001 0.000000 0.494879
    44 -5.679937 0.078274 0.132374 0.000000 -1.570796 1.619889
    45 0.000001 3.838816 0.000000 0.000000 0.000000 0.000000
    46 9.839993 -4.105285 -6.304147 1.563111 0.019631 -0.034303
  time 6
    0 10.062405 -4.105764 -6.249179 1.597358 0.016725 1.539331
    1 -0.006659 0.337219 4.384488 0.000000 0.000000 0.000000
    2 -0.006659 0.293999 2.752372 0.246631 0.000000 0.000000
    3 -0.006659 1.042511 2.142974 0.000000 0.000000 0.000000
    4 15.132813 -15.000000 -12.078125 -1.919860 0.000000 -1.570796
    5 0.000000 0.000000 0.000000 1.126297 0.941668 1.421476
    6 11.703225 0.000001 0.000000 0.000000 0.000000 -1.174209
    7 11.501110 -0.000001 -0.000002 -2.170131 -0.529843 0.561573
    8 0.949223 0.526691 -0.818564 1.218653 0.700714 -0.024965
    9 1.978557 0.000000 0.000000 -0.000001 0.000000 0.259000
    10 1.087181 0.000001 -0.000001 0.000000 -0.000002 -0.318570
    11 3.863441 -0.167452 -1.277058 0.201233 -0.155209 1.099052
    12 1.666013 0.000000 0.000000 0.000000 -0.000001 1.555327
    13 1.292519 0.000000 -0.000001 0.000000 0.000001 0.270574
    14 3.927892 -0.566322 0.452259 0.056622 -0.078695 1.416164
    15 1.705974 -0.000003 0.000000 0.000000 -0.000001 1.471815
    16 1.292521 0.000000 0.000000 0.000000 0.000001 0.873163
    17 3.772599 -0.311787 1.300302 -0.090727 -0.047630 1.187230
    18 1.408095 -0.000002 0.000002 -0.000001 0.000000 2.038976
    19 0.986795 0.000001 0.000001 0.000000 0.000000 0.219433
    20 3.851021 -0.476093 -0.459795 0.124881 -0.135857 1.384537
    21 2.007647 0.000000 0.000000 -0.000001 0.000000 1.517032
    22 1.270734 0.000000 0.000000 -0.000001 0.000000 0.034546
    23 5.679938 -0.078274 -0.132372 0.000000 -1.570796 1.619889
    24 0.236208 -3.846334 -0.007084 0.040101 0.000000 0.000000
    25 -13.281250 2.226563 2.113281 1.570795 -0.001727 -4.710659
    26 0.000000 0.000000 0.000000 0.538541 0.376340 1.747725
    27 -11.703224 -0.000001 0.000000 0.000000 0.000000 -1.851747
    28 -11.501109 0.000001 0.000002 -1.396333 -0.661747 0.645947
    29 -0.949224 -0.526692 0.818564 2.039112 0.416550 0.555242
    30 -1.978556 0.000000 -0.000001 -0.000001 0.000000 0.608066
    31 -1.087186 0.000000 -0.000001 0.000000 -0.000002 0.510662
    32 -3.863441 0.167450 1.277058 0.211418 0.203748 0.054707
    33 -1.666015 0.000001 0.000000 0.000000 -0.000001 0.792160
    34 -1.292520 0.000003 0.000001 0.000000 0.000001 1.169423
    35 -3.927893 0.566322 -0.452260 -0.108298 -0.034865 1.000384
    36 -1.705971 0.000003 0.000000 0.000000 -0.000001 1.560063
    37 -1.292521 0.000000 0.000000 0.000000 0.000001 0.259170
    38 -3.772597 0.311787 -1.300303 -0.160117 0.070998 1.138460
    39 -1.408095 0.000002 -0.000002 -0.000001 0.000000 1.377599
    40 -0.986795 0.000000 0.000001 0.000000 0.000000 0.512607
    41 -3.851022 0.476093 0.459796 0.014946 -0.075269 0.645161
    42 -2.007646 0.000000 0.000000 -0.000001 0.000000 1.777937
    43 -1.270733 0.000001 0.000000 -0.000001 0.000000 0.494879
    44 -5.679937 0.078274 0.132374 0.000000 -1.570796 1.619889
    45 0.000001 3.838816 0.000000 0.000000 0.000000 0.000000
    46 10.062656 -4.105285 -6.249458 1.554067 0.026572 -0.031921
  time 7
    0 10.492106 -4.101857 -6.264805 1.599247 0.019216 1.542393
    1 -0.006659 0.337219 4.384488 0.000000 0.000000 0.000000
    2 -0.006659 0.293999 2.752372 0.246631 0.000000 0.000000
    3 -0.006659 1.042511 2.142974 0.000000 0.000000 0.000000
    4 15.132813 -15.000000 -12.078125 -1.919860 0.000000 -1.570796
    5 0.000000 0.000000 0.000000 1.089191 0.938487 1.377464
    6 11.703225 0.000001 0.000000 0.000000 0.000000 -1.163205
    7 11.501110 -0.000001 -0.000002 -2.186515 -0.511636 0.564679
    8 0.949223 0.526691 -0.818564 1.218653 0.700714 -0.024965
    9 1.978557 0.000000 0.000000 -0.000001 0.000000 0.259000
    10 1.087181 0.000001 -0.000001 0.000000 -0.000002 -0.318570
    11 3.863441 -0.167452 -1.277058 0.201233 -0.155209 1.099052
    12 1.666013 0.000000 0.000000 0.000000 -0.000001 1.555327
    13 1.292519 0.000000 -0.000001 0.000000 0.000001 0.270574
    14 3.927892 -0.566322 0.452259 0.056622 -0.078695 1.416164
    15 1.705974 -0.000003 0.000000 0.000000 -0.000001 1.471815
    16 1.292521 0.000000 0.000000 0.000000 0.000001 0.873163
    17 3.772599 -0.311787 1.300302 -0.090727 -0.047630 1.187230
    18 1.408095 -0.000002 0.000002 -0.000001 0.000000 2.038976
    19 0.986795 0.000001 0.000001 0.000000 0.000000 0.219433
    20 3.851021 -0.476093 -0.459795 0.124881 -0.135857 1.384537
    21 2.007647 0.000000 0.000000 -0.000001 0.000000 1.517032
    22 1.270734 0.000000 0.000000 -0.000001 0.000000 0.034546
    23 5.679938 -0.078274 -0.132372 0.000000 -1.570796 1.619889
    24 0.236208 -3.846334 -0.007084 0.040101 0.000000 0.000000
    25 -13.281250 2.226563 2.113281 1.570795 -0.001727 -4.710659
    26 0.000000 0.000000 0.000000 0.520692 0.375610 1.705399
    27 -11.703224 -0.000001 0.000000 0.000000 0.000000 -1.823617
    28 -11.501109 0.000001 0.000002 -1.417092 -0.650638 0.667890
    29 -0.949224 -0.526692 0.818564 2.039112 0.416550 0.555242
    30 -1.978556 0.000000 -0.000001 -0.000001 0.000000 0.608066
    31 -1.087186 0.000000 -0.000001 0.000000 -0.000002 0.510662
    32 -3.863441 0.167450 1.277058 0.211418 0.203748 0.054707
    33 -1.666015 0.000001 0.000000 0.000000 -0.000001 0.792160
    34 -1.292520 0.000003 0.000001 0.000000 0.000001 1.169423
    35 -3.927893 0.566322 -0.452260 -0.108298 -0.034865 1.000384
    36 -1.705971 0.000003 0.000000 0.000000 -0.000001 1.560063
    37 -1.292521 0.000000 0.000000 0.000000 0.000001 0.259170
    38 -3.772597 0.311787 -1.300303 -0.160117 0.070998 1.138460
    39 -1.408095 0.000002 -0.000002 -0.000001 0.000000 1.377599
    40 -0.986795 0.000000 0.000001 0.000000 0.000000 0.512607
    41 -3.851022 0.476093 0.459796 0.014946 -0.075269 0.645161
    42 -2.007646 0.000000 0.000000 -0.000001 0.000000 1.777937
    43 -1.270733 0.000001 0.000000 -0.000001 0.000000 0.494879
    44 -5.679937 0.078274 0.132374 0.000000 -1.570796 1.619889
    45 0.000001 3.838816 0.000000 0.000000 0.000000 0.000000
    46 10.492356 -4.101378 -6.265084 1.551565 0.028452 -0.028976
  time 8
    0 11.066342 -4.101857 -6.335119 1.597321 0.016823 1.545594
    1 -0.006659 0.337219 4.384488 0.000000 0.000000 0.000000
    2 -0.006659 0.293999 2.752372 0.246631 0.000000 0.000000
    3 -0.006659 1.042511 2.142974 0.000000 0.000000 0.000000
    4 15.132813 -15.000000 -12.078125 -1.919860 0.000000 -1.570796
    5 0.000000 0.000000 0.000000 1.039453 0.934701 1.320203
    6 11.703225 0.000001 0.000000 0.000000 0.000000 -1.145115
    7 11.501110 -0.000001 -0.000002 -2.199142 -0.486196 0.566651
    8 0.949223 0.526691 -0.818564 1.218653 0.700714 -0.024965
    9 1.978557 0.000000 0.000000 -0.000001 0.000000 0.259000
    10 1.087181 0.000001 -0.000001 0.000000 -0.000002 -0.318570
    11 3.863441 -0.167452 -1.277058 0.201233 -0.155209 1.099052
    12 1.666013 0.000000 0.000000 0.000000 -0.000001 1.555327
    13 1.292519 0.000000 -0.000001 0.000000 0.000001 0.270574
    14 3.927892 -0.566322 0.452259 0.056622 -0.078695 1.416164
    15 1.705974 -0.000003 0.000000 0.000000 -0.000001 1.471815
    16 1.292521 0.000000 0.000000 0.000000 0.000001 0.873163
    17 3.772599 -0.311787 1.300302 -0.090727 -0.047630 1.187230
    18 1.408095 -0.000002 0.000002 -0.000001 0.000000 2.038976
    19 0.986795 0.000001 0.000001 0.000000 0.000000 0.219433
    20 3.851021 -0.476093 -0.459795 0.124881 -0.135857 1.384537
    21 2.007647 0.000000 0.000000 -0.000001 0.000000 1.517032
    22 1.270734 0.000000 0.000000 -0.000001 0.000000 0.034546
    23 5.679938 -0.078274 -0.132372 0.000000 -1.570796 1.619889
    24 0.236208 -3.846334 -0.007084 0.040101 0.000000 0.000000
    25 -13.281250 2.226563 2.113281 1.570795 -0.001727 -4.710659
    26 0.000000 0.000000 0.000000 0.494978 0.374514 1.652833
    27 -11.703224 -0.000001 0.000000 0.000000 0.000000 -1.780576
    28 -11.501109 0.000001 0.000002 -1.441014 -0.630000 0.679858
    29 -0.949224 -0.526692 0.818564 2.039112 0.416550 0.555242
    30 -1.978556 0.000000 -0.000001 -0.000001 0.000000 0.608066
    31 -1.087186 0.000000 -0.000001 0.000000 -0.000002 0.510662
    32 -3.863441 0.167450 1.277058 0.211418 0.203748 0.054707
    33 -1.666015 0.000001 0.000000 0.000000 -0.000001 0.792160
    34 -1.292520 0.000003 0.000001 0.000000 0.000001 1.169423
    35 -3.927893 0.566322 -0.452260 -0.108298 -0.034865 1.000384
    36 -1.705971 0.000003 0.000000 0.000000 -0.000001 1.560063
    37 -1.292521 0.000000 0.000000 0.000000 0.000001 0.259170
    38 -3.772597 0.311787 -1.300303 -0.160117 0.070998 1.138460
    39 -1.408095 0.000002 -0.000002 -0.000001 0.000000 1.377599
    40 -0.986795 0.000000 0.000001 0.000000 0.000000 0.512607
    41 -3.851022 0.476093 0.459796 0.014946 -0.075269 0.645161
    42 -2.007646 0.000000 0.000000 -0.000001 0.000000 1.777937
    43 -1.270733 0.000001 0.000000 -0.000001 0.000000 0.494879
    44 -5.679937 0.078274 0.132374 0.000000 -1.570796 1.619889
    45 0.000001 3.838816 0.000000 0.000000 0.000000 0.000000
    46 11.062686 -4.101378 -6.335398 1.553996 0.026536 -0.025655
  time 9
    0 11.718706 -4.097951 -6.432779 1.592888 0.011183 1.548934
    1 -0.006659 0.337219 4.384488 0.000000 0.000000 0.000000
    2 -0.006659 0.293999 2.752372 0.246631 0.000000 0.000000
    3 -0.006659 1.042511 2.142974 0.000000 0.000000 0.000000
    4 15.132813 -15.000000 -12.078125 -1.919860 0.000000 -1.570796
    5 0.000000 0.000000 0.000000 0.982248 0.930889 1.256251
    6 11.703225 0.000001 0.000000 0.000000 0.000000 -1.119689
    7 11.501110 -0.000001 -0.000002 -2.206656 -0.456685 0.564787
    8 0.949223 0.526691 -0.818564 1.218653 0.700714 -0.024965
    9 1.978557 0.000000 0.000000 -0.000001 0.000000 0.259000
    10 1.087181 0.000001 -0.000001 0.000000 -0.000002 -0.318570
    11 3.863441 -0.167452 -1.277058 0.201233 -0.155209 1.099052
    12 1.666013 0.000000 0.000000 0.000000 -0.000001 1.555327
    13 1.292519 0.000000 -0.000001 0.000000 0.000001 0.270574
    14 3.927892 -0.566322 0.452259 0.056622 -0.078695 1.416164
    15 1.705974 -0.000003 0.000000 0.000000 -0.000001 1.471815
    16 1.292521 0.000000 0.000000 0.000000 0.000001 0.873163
    17 3.772599 -0.311787 1.300302 -0.090727 -0.047630 1.187230
    18 1.408095 -0.000002 0.000002 -0.000001 0.000000 2.038976
    19 0.986795 0.000001 0.000001 0.000000 0.000000 0.219433
    20 3.851021 -0.476093 -0.459795 0.124881 -0.135857 1.384537
    21 2.007647 0.000000 0.000000 -0.000001 0.000000 1.517032
    22 1.270734 0.000000 0.000000 -0.000001 0.000000 0.034546
    23 5.679938 -0.078274 -0.132372 0.000000 -1.570796 1.619889
    24 0.236208 -3.846334 -0.007084 0.040101 0.000000 0.000000
    25 -13.281250 2.226563 2.113281 1.570795 -0.001727 -4.710659
    26 0.000000 0.000000 0.000000 0.465314 0.373176 1.595390
    27 -11.703224 -0.000001 0.000000 0.000000 0.000000 -1.727077
    28 -11.501109 0.000001 0.000002 -1.464475 -0.603913 0.681716
    29 -0.949224 -0.526692 0.818564 2.039112 0.416550 0.555242
    30 -1.978556 0.000000 -0.000001 -0.000001 0.000000 0.608066
    31 -1.087186 0.000000 -0.000001 0.000000 -0.000002 0.510662
    32 -3.863441 0.167450 1.277058 0.211418 0.203748 0.054707
    33 -1.666015 0.000001 0.000000 0.000000 -0.000001 0.792160
    34 -1.292520 0.000003 0.000001 0.000000 0.000001 1.169423
    35 -3.927893 0.566322 -0.452260 -0.108298 -0.034865 1.000384
    36 -1.705971 0.000003 0.000000 0.000000 -0.000001 1.560063
    37 -1.292521 0.000000 0.000000 0.000000 0.000001 0.259170
    38 -3.772597 0.311787 -1.300303 -0.160117 0.070998 1.138460
    39 -1.408095 0.000002 -0.000002 -0.000001 0.000000 1.377599
    40 -0.986795 0.000000 0.000001 0.000000 0.000000 0.512607
    41 -3.851022 0.476093 0.459796 0.014946 -0.075269 0.645161
    42 -2.007646 0.000000 0.000000 -0.000001 0.000000 1.777937
    43 -1.270733 0.000001 0.000000 -0.000001 0.000000 0.494879
    44 -5.679937 0.078274 0.132374 0.000000 -1.570796 1.619889
    45 0.000001 3.838816 0.000000 0.000000 0.000000 0.000000
    46 11.718956 -4.097472 -6.433058 1.559608 0.022089 -0.022146
  time 10
    0 12.394507 -4.097951 -6.542157 1.587184 0.003980 1.552205
    1 -0.006659 0.337219 4.384488 0.000000 0.000000 0.000000
    2 -0.006659 0.293999 2.752372 0.246631 0.000000 0.000000
    3 -0.006659 1.042511 2.142974 0.000000 0.000000 0.000000
    4 15.132813 -15.000000 -12.078125 -1.919860 0.000000 -1.570796
    5 0.000000 0.000000 0.000000 0.923223 0.927013 1.191624
    6 11.703225 0.000001 0.000000 0.000000 0.000000 -1.089205
    7 11.501110 -0.000001 -0.000002 -2.209599 -0.426391 0.558872
    8 0.949223 0.526691 -0.818564 1.218653 0.700714 -0.024965
    9 1.978557 0.000000 0.000000 -0.000001 0.000000 0.259000
    10 1.087181 0.000001 -0.000001 0.000000 -0.000002 -0.318570
    11 3.863441 -0.167452 -1.277058 0.201233 -0.155209 1.099052
    12 1.666013 0.000000 0.000000 0.000000 -0.000001 1.555327
    13 1.292519 0.000000 -0.000001 0.000000 0.000001 0.270574
    14 3.927892 -0.566322 0.452259 0.056622 -0.078695 1.416164
    15 1.705974 -0.000003 0.000000 0.000000 -0.000001 1.471815
    16 1.292521 0.000000 0.000000 0.000000 0.000001 0.873163
    17 3.772599 -0.311787 1.300302 -0.090727 -0.047630 1.187230
    18 1.408095 -0.000002 0.000002 -0.000001 0.000000 2.038976
    19 0.986795 0.000001 0.000001 0.000000 0.000000 0.219433
    20 3.851021 -0.476093 -0.459795 0.124881 -0.135857 1.384537
    21 2.007647 0.000000 0.000000 -0.000001 0.000000 1.517032
    22 1.270734 0.000000 0.000000 -0.000001 0.000000 0.034546
    23 5.679938 -0.078274 -0.132372 0.000000 -1.570796 1.619889
    24 0.236208 -3.846334 -0.007084 0.040101 0.000000 0.000000
    25 -13.281250 2.226563 2.113281 1.570795 -0.001727 -4.710659
    26 0.000000 0.000000 0.000000 0.435165 0.371777 1.537704
    27 -11.703224 -0.000001 0.000000 0.000000 0.000000 -1.667970
    28 -11.501109 0.000001 0.000002 -1.485366 -0.576366 0.675112
    29 -0.949224 -0.526692 0.818564 2.039112 0.416550 0.555242
    30 -1.978556 0.000000 -0.000001 -0.000001 0.000000 0.608066
    31 -1.087186 0.000000 -0.000001 0.000000 -0.000002 0.510662
    32 -3.863441 0.167450 1.277058 0.211418 0.203748 0.054707
    33 -1.666015 0.000001 0.000000 0.000000 -0.000001 0.792160
    34 -1.292520 0.000003 0.000001 0.000000 0.000001 1.169423
    35 -3.927893 0.566322 -0.452260 -0.108298 -0.034865 1.000384
    36 -1.705971 0.000003 0.000000 0.000000 -0.000001 1.560063
    37 -1.292521 0.000000 0.000000 0.000000 0.000001 0.259170
    38 -3.772597 0.311787 -1.300303 -0.160117 0.070998 1.138460
    39 -1.408095 0.000002 -0.000002 -0.000001 0.000000 1.377599
    40 -0.986795 0.000000 0.000001 0.000000 0.000000 0.512607
    41 -3.851022 0.476093 0.459796 0.014946 -0.075269 0.645161
    42 -2.007646 0.000000 0.000000 -0.000001 0.000000 1.777937
    43 -1.270733 0.000001 0.000000 -0.000001 0.000000 0.494879
    44 -5.679937 0.078274 0.132374 0.000000 -1.570796 1.619889
    45 0.000001 3.838816 0.000000 0.000000 0.000000 0.000000
    46 12.394758 -4.097472 -6.542436 1.566828 0.016377 -0.018637
  time 11
    0 13.031246 -4.097951 -6.651535 1.581442 -0.003101 1.555476
    1 -0.006659 0.337219 4.384488 0.000000 0.000000 0.000000
    2 -0.006659 0.293999 2.752372 0.246631 0.000000 0.000000
    3 -0.006659 1.042511 2.142974 0.000000 0.000000 0.000000
    4 15.132813 -15.000000 -12.078125 -1.919860 0.000000 -1.570796
    5 0.000000 0.000000 0.000000 0.867710 0.923342 1.131400
    6 11.703225 0.000001 0.000000 0.000000 0.000000 -1.056637
    7 11.501110 -0.000001 -0.000002 -2.209677 -0.398422 0.549903
    8 0.949223 0.526691 -0.818564 1.218653 0.700714 -0.024965
    9 1.978557 0.000000 0.000000 -0.000001 0.000000 0.259000
    10 1.087181 0.000001 -0.000001 0.000000 -0.000002 -0.318570
    11 3.863441 -0.167452 -1.277058 0.201233 -0.155209 1.099052
    12 1.666013 0.000000 0.000000 0.000000 -0.000001 1.555327
    13 1.292519 0.000000 -0.000001 0.000000 0.000001 0.270574
    14 3.927892 -0.566322 0.452259 0.056622 -0.078695 1.416164
    15 1.705974 -0.000003 0.000000 0.000000 -0.000001 1.471815
    16 1.292521 0.000000 0.000000 0.000000 0.000001 0.873163
    17 3.772599 -0.311787 1.300302 -0.090727 -0.047630 1.187230
    18 1.408095 -0.000002 0.000002 -0.000001 0.000000 2.038976
    19 0.986795 0.000001 0.000001 0.000000 0.000000 0.219433
    20 3.851021 -0.476093 -0.459795 0.124881 -0.135857 1.384537
    21 2.007647 0.000000 0.000000 -0.000001 0.000000 1.517032
    22 1.270734 0.000000 0.000000 -0.000001 0.000000 0.034546
    23 5.679938 -0.078274 -0.132372 0.000000 -1.570796 1.619889
    24 0.236208 -3.846334 -0.007084 0.040101 0.000000 0.000000
    25 -13.281250 2.226563 2.113281 1.570795 -0.001727 -4.710659
    26 0.000000 0.000000 0.000000 0.407584 0.370393 1.484211
    27 -11.703224 -0.000001 0.000000 0.000000 0.000000 -1.609510
    28 -11.501109 0.000001 0.000002 -1.502434 -0.550784 0.663763
    29 -0.949224 -0.526692 0.818564 2.039112 0.416550 0.555242
    30 -1.978556 0.000000 -0.000001 -0.000001 0.000000 0.608066
    31 -1.087186 0.000000 -0.000001 0.000000 -0.000002 0.510662
    32 -3.863441 0.167450 1.277058 0.211898 0.203208 0.057210
    33 -1.666015 0.000001 0.000000 0.000000 -0.000001 0.777268
    34 -1.292520 0.000003 0.000001 0.000000 0.000001 1.147884
    35 -3.927893 0.566322 -0.452260 -0.108298 -0.034865 1.000384
    36 -1.705971 0.000003 0.000000 0.000000 -0.000001 1.560063
    37 -1.292521 0.000000 0.000000 0.000000 0.000001 0.259170
    38 -3.772597 0.311787 -1.300303 -0.160117 0.070998 1.138460
    39 -1.408095 0.000002 -0.000002 -0.000001 0.000000 1.377599
    40 -0.986795 0.000000 0.000001 0.000000 0.000000 0.512607
    41 -3.851022 0.476093 0.459796 0.014946 -0.075269 0.645161
    42 -2.007646 0.000000 0.000000 -0.000001 0.000000 1.777937
    43 -1.270733 0.000001 0.000000 -0.000001 0.000000 0.494879
    44 -5.679937 0.078274 0.132374 0.000000 -1.570796 1.619889
    45 0.000001 3.838816 0.000000 0.000000 0.000000 0.000000
    46 13.031496 -4.097472 -6.651814 1.573870 0.010665 -0.015316
  time 12
    0 13.570325 -4.101857 -6.733569 1.576973 -0.008448 1.558399
    1 -0.006659 0.337219 4.384488 0.000000 0.000000 0.000000
    2 -0.006659 0.293999 2.752372 0.208100 0.000000 0.000000
    3 -0.006659 1.042511 2.142974 0.000000 0.000000 0.000000
    4 15.132813 -15.000000 -12.078125 -1.919860 0.000000 -1.570796
    5 0.000000 0.000000 0.000000 0.820452 0.920664 1.080022
    6 11.703225 0.000001 0.000000 0.000000 0.000000 -1.025014
    7 11.501110 -0.000001 -0.000002 -2.209212 -0.375537 0.539260
    8 0.949223 0.526691 -0.818564 1.218653 0.700714 -0.024965
    9 1.978557 0.000000 0.000000 -0.000001 0.000000 0.259000
    10 1.087181 0.000001 -0.000001 0.000000 -0.000002 -0.318570
    11 3.863441 -0.167452 -1.277058 0.201233 -0.155209 1.099052
    12 1.666013 0.000000 0.000000 0.000000 -0.000001 1.555327
    13 1.292519 0.000000 -0.000001 0.000000 0.000001 0.270574
    14 3.927892 -0.566322 0.452259 0.056622 -0.078695 1.416164
    15 1.705974 -0.000003 0.000000 0.000000 -0.000001 1.471815
    16 1.292521 0.000000 0.000000 0.000000 0.000001 0.873163
    17 3.772599 -0.311787 1.300302 -0.090727 -0.047630 1.187230
    18 1.408095 -0.000002 0.000002 -0.000001 0.000000 2.038976
    19 0.986795 0.000001 0.000001 0.000000 0.000000 0.219433
    20 3.851021 -0.476093 -0.459795 0.124881 -0.135857 1.384537
    21 2.007647 0.000000 0.000000 -0.000001 0.000000 1.517032
    22 1.270734 0.000000 0.000000 -0.000001 0.000000 0.034546
    23 5.679938 -0.078274 -0.132372 0.000000 -1.570796 1.619889
    24 0.236208 -3.846334 -0.007084 0.040101 0.000000 0.000000
    25 -13.281250 2.226563 2.113281 1.570795 -0.001727 -4.710659
    26 0.000000 0.000000 0.000000 0.385084 0.369191 1.439057
    27 -11.703224 -0.000001 0.000000 0.000000 0.000000 -1.558408
    28 -11.501109 0.000001 0.000002 -1.515219 -0.530087 0.652344
    29 -0.949224 -0.526692 0.818564 2.039112 0.416550 0.555242
    30 -1.978556 0.000000 -0.000001 -0.000001 0.000000 0.608066
    31 -1.087186 0.000000 -0.000001 0.000000 -0.000002 0.510662
    32 -3.863441 0.167450 1.277058 0.212869 0.202130 0.062181
    33 -1.666015 0.000001 0.000000 0.000000 -0.000001 0.747484
    34 -1.292520 0.000003 0.000001 0.000000 0.000001 1.104806
    35 -3.927893 0.566322 -0.452260 -0.108298 -0.034865 1.000384
    36 -1.705971 0.000003 0.000000 0.000000 -0.000001 1.560063
    37 -1.292521 0.000000 0.000000 0.000000 0.000001 0.259170
    38 -3.772597 0.311787 -1.300303 -0.160117 0.070998 1.138460
    39 -1.408095 0.000002 -0.000002 -0.000001 0.000000 1.377599
    40 -0.986795 0.000000 0.000001 0.000000 0.000000 0.512607
    41 -3.851022 0.476093 0.459796 0.014946 -0.075269 0.645161
    42 -2.007646 0.000000 0.000000 -0.000001 0.000000 1.777937
    43 -1.270733 0.000001 0.000000 -0.000001 0.000000 0.494879
    44 -5.679937 0.078274 0.132374 0.000000 -1.570796 1.619889
    45 0.000001 3.838816 0.000000 0.000000 0.000000 0.000000
    46 13.566669 -4.101378 -6.733848 1.579232 0.006182 -0.012371
  time 13
    0 13.945336 -4.105764 -6.772633 1.575011 -0.010377 1.560765
    1 -0.006659 0.337219 4.384488 0.000000 0.000000 0.000000
    2 -0.006659 0.293999 2.752372 0.123309 0.000000 0.000000
    3 -0.006659 1.042511 2.142974 0.000000 0.000000 0.000000
    4 15.132813 -15.000000 -12.078125 -1.919860 0.000000 -1.570796
    5 0.000000 0.000000 0.000000 0.787391 0.918783 1.043555
    6 11.703225 0.000001 0.000000 0.000000 0.000000 -1.001143
    7 11.501110 -0.000001 -0.000002 -2.210490 -0.360263 0.530211
    8 0.949223 0.526691 -0.818564 1.218653 0.700714 -0.024965
    9 1.978557 0.000000 0.000000 -0.000001 0.000000 0.259000
    10 1.087181 0.000001 -0.000001 0.000000 -0.000002 -0.318570
    11 3.863441 -0.167452 -1.277058 0.201233 -0.155209 1.099052
    12 1.666013 0.000000 0.000000 0.000000 -0.000001 1.555327
    13 1.292519 0.000000 -0.000001 0.000000 0.000001 0.270574
    14 3.927892 -0.566322 0.452259 0.056622 -0.078695 1.416164
    15 1.705974 -0.000003 0.000000 0.000000 -0.000001 1.471815
    16 1.292521 0.000000 0.000000 0.000000 0.000001 0.873163
    17 3.772599 -0.311787 1.300302 -0.090727 -0.047630 1.187230
    18 1.408095 -0.000002 0.000002 -0.000001 0.000000 2.038976
    19 0.986795 0.000001 0.000001 0.000000 0.000000 0.219433
    20 3.851021 -0.476093 -0.459795 0.124881 -0.135857 1.384537
    21 2.007647 0.000000 0.000000 -0.000001 0.000000 1.517032
    22 1.270734 0.000000 0.000000 -0.000001 0.000000 0.034546
    23 5.679938 -0.078274 -0.132372 0.000000 -1.570796 1.619889
    24 0.236208 -3.846334 -0.007084 0.040101 0.000000 0.000000
    25 -13.281250 2.226563 2.113281 1.570795 -0.001727 -4.710659
    26 0.000000 0.000000 0.000000 0.370109 0.368233 1.406825
    27 -11.703224 -0.000001 0.000000 0.000000 0.000000 -1.522892
    28 -11.501109 0.000001 0.000002 -1.523127 -0.516834 0.646497
    29 -0.949224 -0.526692 0.818564 2.039112 0.416550 0.555242
    30 -1.978556 0.000000 -0.000001 -0.000001 0.000000 0.608066
    31 -1.087186 0.000000 -0.000001 0.000000 -0.000002 0.510662
    32 -3.863441 0.167450 1.277058 0.214319 0.200512 0.069619
    33 -1.666015 0.000001 0.000000 0.000000 -0.000001 0.702808
    34 -1.292520 0.000003 0.000001 0.000000 0.000001 1.040190
    35 -3.927893 0.566322 -0.452260 -0.108298 -0.034865 1.000384
    36 -1.705971 0.000003 0.000000 0.000000 -0.000001 1.560063
    37 -1.292521 0.000000 0.000000 0.000000 0.000001 0.259170
    38 -3.772597 0.311787 -1.300303 -0.160117 0.070998 1.138460
    39 -1.408095 0.000002 -0.000002 -0.000001 0.000000 1.377599
    40 -0.986795 0.000000 0.000001 0.000000 0.000000 0.512607
    41 -3.851022 0.476093 0.459796 0.014946 -0.075269 0.645161
    42 -2.007646 0.000000 0.000000 -0.000001 0.000000 1.777937
    43 -1.270733 0.000001 0.000000 -0.000001 0.000000 0.494879
    44 -5.679937 0.078274 0.132374 0.000000 -1.570796 1.619889
    45 0.000001 3.838816 0.000000 0.000000 0.000000 0.000000
    46 13.945587 -4.105285 -6.772912 1.581162 0.004230 -0.009989
  time 14
    0 14.195344 -4.113576 -6.780446 1.574720 -0.009962 1.562714
    1 -0.006659 0.337219 4.384488 0.000000 0.000000 0.000000
    2 -0.006659 0.293999 2.752372 0.038530 0.000000 0.000000
    3 -0.006659 1.042511 2.142974 0.000000 0.000000 0.000000
    4 15.132813 -15.000000 -12.078125 -1.919860 0.000000 -1.570796
    5 0.000000 0.000000 0.000000 0.765473 0.917727 1.018585
    6 11.703225 0.000001 0.000000 0.000000 0.000000 -0.984192
    7 11.501110 -0.000001 -0.000002 -2.213395 -0.350831 0.523350
    8 0.949223 0.526691 -0.818564 1.218653 0.700714 -0.024965
    9 1.978557 0.000000 0.000000 -0.000001 0.000000 0.259000
    10 1.087181 0.000001 -0.000001 0.000000 -0.000002 -0.318570
    11 3.863441 -0.167452 -1.277058 0.201233 -0.155209 1.099052
    12 1.666013 0.000000 0.000000 0.000000 -0.000001 1.555327
    13 1.292519 0.000000 -0.000001 0.000000 0.000001 0.270574
    14 3.927892 -0.566322 0.452259 0.056622 -0.078695 1.416164
    15 1.705974 -0.000003 0.000000 0.000000 -0.000001 1.471815
    16 1.292521 0.000000 0.000000 0.000000 0.000001 0.873163
    17 3.772599 -0.311787 1.300302 -0.090727 -0.047630 1.187230
    18 1.408095 -0.000002 0.000002 -0.000001 0.000000 2.038976
    19 0.986795 0.000001 0.000001 0.000000 0.000000 0.219433
    20 3.851021 -0.476093 -0.459795 0.124881 -0.135857 1.384537
    21 2.007647 0.000000 0.000000 -0.000001 0.000000 1.517032
    22 1.270734 0.000000 0.000000 -0.000001 0.000000 0.034546
    23 5.679938 -0.078274 -0.132372 0.000000 -1.570796 1.619889
    24 0.236208 -3.846334 -0.007084 0.040101 0.000000 0.000000
    25 -13.281250 2.226563 2.113281 1.570795 -0.001727 -4.710659
    26 0.000000 0.000000 0.000000 0.360700 0.367412 1.384930
    27 -11.703224 -0.000001 0.000000 0.000000 0.000000 -1.500484
    28 -11.501109 0.000001 0.000002 -1.527608 -0.508913 0.645466
    29 -0.949224 -0.526692 0.818564 2.039112 0.416550 0.555242
    30 -1.978556 0.000000 -0.000001 -0.000001 0.000000 0.608066
    31 -1.087186 0.000000 -0.000001 0.000000 -0.000002 0.510662
    32 -3.863441 0.167450 1.277058 0.216260 0.198342 0.079560
    33 -1.666015 0.000001 0.000000 0.000000 -0.000001 0.643201
    34 -1.292520 0.000003 0.000001 0.000000 0.000001 0.954034
    35 -3.927893 0.566322 -0.452260 -0.108298 -0.034865 1.000384
    36 -1.705971 0.000003 0.000000 0.000000 -0.000001 1.560063
    37 -1.292521 0.000000 0.000000 0.000000 0.000001 0.259170
    38 -3.772597 0.311787 -1.300303 -0.160117 0.070998 1.138460
    39 -1.408095 0.000002 -0.000002 -0.000001 0.000000 1.377599
    40 -0.986795 0.000000 0.000001 0.000000 0.000000 0.512607
    41 -3.851022 0.476093 0.459796 0.014946 -0.075269 0.645161
    42 -2.007646 0.000000 0.000000 -0.000001 0.000000 1.777937
    43 -1.270733 0.000001 0.000000 -0.000001 0.000000 0.494879
    44 -5.679937 0.078274 0.132374 0.000000 -1.570796 1.619889
    45 0.000001 3.838816 0.000000 0.000000 0.000000 0.000000
    46 14.191688 -4.113098 -6.780725 1.580733 0.003904 -0.008047
  time 15
    0 14.390662 -4.125295 -6.776539 1.574357 -0.009352 1.564454
    1 -0.006659 0.337219 4.384488 0.000000 0.000000 0.000000
    2 -0.006659 0.293999 2.752372 0.000000 0.000000 0.000000
    3 -0.006659 1.042511 2.142974 0.000000 0.000000 0.000000
    4 15.132813 -15.000000 -12.078125 -1.919860 0.000000 -1.570796
    5 0.000000 0.000000 0.000000 0.747626 0.917328 0.997387
    6 11.703225 0.000001 0.000000 0.000000 0.000000 -0.969159
    7 11.501110 -0.000001 -0.000002 -2.216261 -0.343624 0.517218
    8 0.949223 0.526691 -0.818564 1.218653 0.700714 -0.024965
    9 1.978557 0.000000 0.000000 -0.000001 0.000000 0.259000
    10 1.087181 0.000001 -0.000001 0.000000 -0.000002 -0.318570
    11 3.863441 -0.167452 -1.277058 0.201233 -0.155209 1.099052
    12 1.666013 0.000000 0.000000 0.000000 -0.000001 1.555327
    13 1.292519 0.000000 -0.000001 0.000000 0.000001 0.270574
    14 3.927892 -0.566322 0.452259 0.056622 -0.078695 1.416164
    15 1.705974 -0.000003 0.000000 0.000000 -0.000001 1.471815
    16 1.292521 0.000000 0.000000 0.000000 0.000001 0.873163
    17 3.772599 -0.311787 1.300302 -0.090727 -0.047630 1.187230
    18 1.408095 -0.000002 0.000002 -0.000001 0.000000 2.038976
    19 0.986795 0.000001 0.000001 0.000000 0.000000 0.219433
    20 3.851021 -0.476093 -0.459795 0.124881 -0.135857 1.384537
    21 2.007647 0.000000 0.000000 -0.000001 0.000000 1.517032
    22 1.270734 0.000000 0.000000 -0.000001 0.000000 0.034546
    23 5.679938 -0.078274 -0.132372 0.000000 -1.570796 1.619889
    24 0.236208 -3.846334 -0.007084 0.040101 0.000000 0.000000
    25 -13.281250 2.226563 2.113281 1.570795 -0.001727 -4.710659
    26 0.000000 0.000000 0.000000 0.353301 0.366560 1.367376
    27 -11.703224 -0.000001 0.000000 0.000000 0.000000 -1.482980
    28 -11.501109 0.000001 0.000002 -1.530838 -0.502450 0.644984
    29 -0.949224 -0.526692 0.818564 2.039112 0.416550 0.555242
    30 -1.978556 0.000000 -0.000001 -0.000001 0.000000 0.608066
    31 -1.087186 0.000000 -0.000001 0.000000 -0.000002 0.510662
    32 -3.863441 0.167450 1.277058 0.218681 0.195646 0.091969
    33 -1.666015 0.000001 0.000000 0.000000 -0.000001 0.568702
    34 -1.292520 0.000003 0.000001 0.000000 0.000001 0.846339
    35 -3.927893 0.566322 -0.452260 -0.108298 -0.034865 1.000384
    36 -1.705971 0.000003 0.000000 0.000000 -0.000001 1.560063
    37 -1.292521 0.000000 0.000000 0.000000 0.000001 0.259170
    38 -3.772597 0.311787 -1.300303 -0.160117 0.070998 1.138460
    39 -1.408095 0.000002 -0.000002 -0.000001 0.000000 1.377599
    40 -0.986795 0.000000 0.000001 0.000000 0.000000 0.512607
    41 -3.851022 0.476093 0.459796 0.014946 -0.075269 0.645161
    42 -2.007646 0.000000 0.000000 -0.000001 0.000000 1.777937
    43 -1.270733 0.000001 0.000000 -0.000001 0.000000 0.494879
    44 -5.679937 0.078274 0.132374 0.000000 -1.570796 1.619889
    45 0.000001 3.838816 0.000000 0.000000 0.000000 0.000000
    46 14.390913 -4.124817 -6.776818 1.580126 0.003543 -0.006292
  time 16
    0 14.543010 -4.137015 -6.768726 1.573957 -0.008595 1.566054
    1 -0.006659 0.337219 4.384488 0.000000 0.000000 0.000000
    2 -0.006659 0.293999 2.752372 0.000000 0.000000 0.000000
    3 -0.006659 1.042511 2.142974 0.000000 0.000000 0.000000
    4 15.132813 -15.000000 -12.078125 -1.919860 0.000000 -1.570796
    5 0.000000 0.000000 0.000000 0.733786 0.917328 0.980007
    6 11.703225 0.000001 0.000000 0.000000 0.000000 -0.956654
    7 11.501110 -0.000001 -0.000002 -2.219089 -0.338440 0.512248
    8 0.949223 0.526691 -0.818564 1.218653 0.700714 -0.024965
    9 1.978557 0.000000 0.000000 -0.000001 0.000000 0.259000
    10 1.087181 0.000001 -0.000001 0.000000 -0.000002 -0.318570
    11 3.863441 -0.167452 -1.277058 0.201233 -0.155209 1.099052
    12 1.666013 0.000000 0.000000 0.000000 -0.000001 1.555327
    13 1.292519 0.000000 -0.000001 0.000000 0.000001 0.270574
    14 3.927892 -0.566322 0.452259 0.056622 -0.078695 1.416164
    15 1.705974 -0.000003 0.000000 0.000000 -0.000001 1.471815
    16 1.292521 0.000000 0.000000 0.000000 0.000001 0.873163
    17 3.772599 -0.311787 1.300302 -0.090727 -0.047630 1.187230
    18 1.408095 -0.000002 0.000002 -0.000001 0.000000 2.038976
    19 0.986795 0.000001 0.000001 0.000000 0.000000 0.219433
    20 3.851021 -0.476093 -0.459795 0.124881 -0.135857 1.384537
    21 2.007647 0.000000 0.000000 -0.000001 0.000000 1.517032
    22 1.270734 0.000000 0.000000 -0.000001 0.000000 0.034546
    23 5.679938 -0.078274 -0.132372 0.000000 -1.570796 1.619889
    24 0.236208 -3.846334 -0.007084 0.040101 0.000000 0.000000
    25 -13.281250 2.226563 2.113281 1.570795 -0.001727 -4.710659
    26 0.000000 0.000000 0.000000 0.347663 0.365663 1.353819
    27 -11.703224 -0.000001 0.000000 0.000000 0.000000 -1.470099
    28 -11.501109 0.000001 0.000002 -1.533012 -0.497298 0.645122
    29 -0.949224 -0.526692 0.818564 2.039112 0.416550 0.555242
    30 -1.978556 0.000000 -0.000001 -0.000001 0.000000 0.608066
    31 -1.087186 0.000000 -0.000001 0.000000 -0.000002 0.510662
    32 -3.863441 0.167450 1.277058 0.221593 0.192398 0.106881
    33 -1.666015 0.000001 0.000000 0.000000 -0.000001 0.479311
    34 -1.292520 0.000003 0.000001 0.000000 0.000001 0.717106
    35 -3.927893 0.566322 -0.452260 -0.108298 -0.034865 1.000384
    36 -1.705971 0.000003 0.000000 0.000000 -0.000001 1.560063
    37 -1.292521 0.000000 0.000000 0.000000 0.000001 0.259170
    38 -3.772597 0.311787 -1.300303 -0.160117 0.070998 1.138460
    39 -1.408095 0.000002 -0.000002 -0.000001 0.000000 1.377599
    40 -0.986795 0.000000 0.000001 0.000000 0.000000 0.512607
    41 -3.851022 0.476093 0.459796 0.014946 -0.075269 0.645161
    42 -2.007646 0.000000 0.000000 -0.000001 0.000000 1.777937
    43 -1.270733 0.000001 0.000000 -0.000001 0.000000 0.494879
    44 -5.679937 0.078274 0.132374 0.000000 -1.570796 1.619889
    45 0.000001 3.838816 0.000000 0.000000 0.000000 0.000000
    46 14.543261 -4.136536 -6.769005 1.579375 0.003145 -0.004726
  time 17
    0 14.656295 -4.148734 -6.749195 1.573558 -0.007716 1.567446
    1 -0.006659 0.337219 4.384488 0.000000 0.000000 0.000000
    2 -0.006659 0.293999 2.752372 0.000000 0.000000 0.000000
    3 -0.006659 1.042511 2.142974 0.000000 0.000000 0.000000
    4 15.132813 -15.000000 -12.078125 -1.919860 0.000000 -1.570796
    5 0.000000 0.000000 0.000000 0.723507 0.917740 0.966174
    6 11.703225 0.000001 0.000000 0.000000 0.000000 -0.946539
    7 11.501110 -0.000001 -0.000002 -2.221916 -0.335026 0.508331
    8 0.949223 0.526691 -0.818564 1.218653 0.700714 -0.024965
    9 1.978557 0.000000 0.000000 -0.000001 0.000000 0.259000
    10 1.087181 0.000001 -0.000001 0.000000 -0.000002 -0.318570
    11 3.863441 -0.167452 -1.277058 0.201233 -0.155209 1.099052
    12 1.666013 0.000000 0.000000 0.000000 -0.000001 1.555327
    13 1.292519 0.000000 -0.000001 0.000000 0.000001 0.270574
    14 3.927892 -0.566322 0.452259 0.056622 -0.078695 1.416164
    15 1.705974 -0.000003 0.000000 0.000000 -0.000001 1.471815
    16 1.292521 0.000000 0.000000 0.000000 0.000001 0.873163
    17 3.772599 -0.311787 1.300302 -0.090727 -0.047630 1.187230
    18 1.408095 -0.000002 0.000002 -0.000001 0.000000 2.038976
    19 0.986795 0.000001 0.000001 0.000000 0.000000 0.219433
    20 3.851021 -0.476093 -0.459795 0.124881 -0.135857 1.384537
    21 2.007647 0.000000 0.000000 -0.000001 0.000000 1.517032
    22 1.270734 0.000000 0.000000 -0.000001 0.000000 0.034546
    23 5.679938 -0.078274 -0.132372 0.000000 -1.570796 1.619889
    24 0.236208 -3.846334 -0.007084 0.040101 0.000000 0.000000
    25 -13.281250 2.226563 2.113281 1.570795 -0.001727 -4.710659
    26 0.000000 0.000000 0.000000 0.343623 0.364750 1.343872
    27 -11.703224 -0.000001 0.000000 0.000000 0.000000 -1.461530
    28 -11.501109 0.000001 0.000002 -1.534330 -0.493397 0.646016
    29 -0.949224 -0.526692 0.818564 2.039112 0.416550 0.555242
    30 -1.978556 0.000000 -0.000001 -0.000001 0.000000 0.608066
    31 -1.087186 0.000000 -0.000001 0.000000 -0.000002 0.510662
    32 -3.863441 0.167450 1.277058 0.224973 0.188623 0.124260
    33 -1.666015 0.000001 0.000000 0.000000 -0.000001 0.375067
    34 -1.292520 0.000003 0.000001 0.000000 0.000001 0.566334
    35 -3.927893 0.566322 -0.452260 -0.108298 -0.034865 1.000384
    36 -1.705971 0.000003 0.000000 0.000000 -0.000001 1.560063
    37 -1.292521 0.000000 0.000000 0.000000 0.000001 0.259170
    38 -3.772597 0.311787 -1.300303 -0.160117 0.070998 1.138460
    39 -1.408095 0.000002 -0.000002 -0.000001 0.000000 1.377599
    40 -0.986795 0.000000 0.000001 0.000000 0.000000 0.512607
    41 -3.851022 0.476093 0.459796 0.014946 -0.075269 0.645161
    42 -2.007646 0.000000 0.000000 -0.000001 0.000000 1.777937
    43 -1.270733 0.000001 0.000000 -0.000001 0.000000 0.494879
    44 -5.679937 0.078274 0.132374 0.000000 -1.570796 1.619889
    45 0.000001 3.838816 0.000000 0.000000 0.000000 0.000000
    46 14.652640 -4.148255 -6.749474 1.578517 0.002748 -0.003284
  time 18
    0 14.726610 -4.164359 -6.729663 1.573122 -0.006763 1.568699
    1 -0.006659 0.337219 4.384488 0.000000 0.000000 0.000000
    2 -0.006659 0.293999 2.752372 0.000000 0.000000 0.000000
    3 -0.006659 1.042511 2.142974 0.000000 0.000000 0.000000
    4 15.132813 -15.000000 -12.078125 -1.919860 0.000000 -1.570796
    5 0.000000 0.000000 0.000000 0.716486 0.918500 0.955620
    6 11.703225 0.000001 0.000000 0.000000 0.000000 -0.938786
    7 11.501110 -0.000001 -0.000002 -2.224705 -0.333129 0.505468
    8 0.949223 0.526691 -0.818564 1.218653 0.700714 -0.024965
    9 1.978557 0.000000 0.000000 -0.000001 0.000000 0.259000
    10 1.087181 0.000001 -0.000001 0.000000 -0.000002 -0.318570
    11 3.863441 -0.167452 -1.277058 0.201233 -0.155209 1.099052
    12 1.666013 0.000000 0.000000 0.000000 -0.000001 1.555327
    13 1.292519 0.000000 -0.000001 0.000000 0.000001 0.270574
    14 3.927892 -0.566322 0.452259 0.056622 -0.078695 1.416164
    15 1.705974 -0.000003 0.000000 0.000000 -0.000001 1.471815
    16 1.292521 0.000000 0.000000 0.000000 0.000001 0.873163
    17 3.772599 -0.311787 1.300302 -0.090727 -0.047630 1.187230
    18 1.408095 -0.000002 0.000002 -0.000001 0.000000 2.038976
    19 0.986795 0.000001 0.000001 0.000000 0.000000 0.219433
    20 3.851021 -0.476093 -0.459795 0.124881 -0.135857 1.384537
    21 2.007647 0.000000 0.000000 -0.000001 0.000000 1.517032
    22 1.270734 0.000000 0.000000 -0.000001 0.000000 0.034546
    23 5.679938 -0.078274 -0.132372 0.000000 -1.570796 1.619889
    24 0.236208 -3.846334 -0.007084 0.040101 0.000000 0.000000
    25 -13.281250 2.226563 2.113281 1.570795 -0.001727 -4.710659
    26 0.000000 0.000000 0.000000 0.341019 0.363853 1.337191
    27 -11.703224 -0.000001 0.000000 0.000000 0.000000 -1.456879
    28 -11.501109 0.000001 0.000002 -1.534989 -0.490568 0.647529
    29 -0.949224 -0.526692 0.818564 2.039112 0.416550 0.555242
    30 -1.978556 0.000000 -0.000001 -0.000001 0.000000 0.608066
    31 -1.087186 0.000000 -0.000001 0.000000 -0.000002 0.510662
    32 -3.863441 0.167450 1.277058 0.224973 0.188623 0.124260
    33 -1.666015 0.000001 0.000000 0.000000 -0.000001 0.375067
    34 -1.292520 0.000003 0.000001 0.000000 0.000001 0.566334
    35 -3.927893 0.566322 -0.452260 -0.108298 -0.034865 1.000384
    36 -1.705971 0.000003 0.000000 0.000000 -0.000001 1.560063
    37 -1.292521 0.000000 0.000000 0.000000 0.000001 0.259170
    38 -3.772597 0.311787 -1.300303 -0.160117 0.070998 1.138460
    39 -1.408095 0.000002 -0.000002 -0.000001 0.000000 1.377599
    40 -0.986795 0.000000 0.000001 0.000000 0.000000 0.512607
    41 -3.851022 0.476093 0.459796 0.014946 -0.075269 0.645161
    42 -2.007646 0.000000 0.000000 -0.000001 0.000000 1.777937
    43 -1.270733 0.000001 0.000000 -0.000001 0.000000 0.494879
    44 -5.679937 0.078274 0.132374 0.000000 -1.570796 1.619889
    45 0.000001 3.838816 0.000000 0.000000 0.000000 0.000000
    46 14.726861 -4.163880 -6.729942 1.577552 0.002350 -0.002094
  time 19
    0 14.765674 -4.179985 -6.702318 1.572722 -0.005762 1.569673
    1 -0.006659 0.337219 4.384488 0.000000 0.000000 0.000000
    2 -0.006659 0.293999 2.752372 0.000000 0.000000 0.000000
    3 -0.006659 1.042511 2.142974 0.000000 0.000000 0.000000
    4 15.132813 -15.000000 -12.078125 -1.919860 0.000000 -1.570796
    5 0.000000 0.000000 0.000000 0.712377 0.919530 0.947985
    6 11.703225 0.000001 0.000000 0.000000 0.000000 -0.933229
    7 11.501110 -0.000001 -0.000002 -2.227416 -0.332598 0.503658
    8 0.949223 0.526691 -0.818564 1.218653 0.700714 -0.024965
    9 1.978557 0.000000 0.000000 -0.000001 0.000000 0.259000
    10 1.087181 0.000001 -0.000001 0.000000 -0.000002 -0.318570
    11 3.863441 -0.167452 -1.277058 0.201233 -0.155209 1.099052
    12 1.666013 0.000000 0.000000 0.000000 -0.000001 1.555327
    13 1.292519 0.000000 -0.000001 0.000000 0.000001 0.270574
    14 3.927892 -0.566322 0.452259 0.056622 -0.078695 1.416164
    15 1.705974 -0.000003 0.000000 0.000000 -0.000001 1.471815
    16 1.292521 0.000000 0.000000 0.000000 0.000001 0.873163
    17 3.772599 -0.311787 1.300302 -0.090727 -0.047630 1.187230
    18 1.408095 -0.000002 0.000002 -0.000001 0.000000 2.038976
    19 0.986795 0.000001 0.000001 0.000000 0.000000 0.219433
    20 3.851021 -0.476093 -0.459795 0.124881 -0.135857 1.384537
    21 2.007647 0.000000 0.000000 -0.000001 0.000000 1.517032
    22 1.270734 0.000000 0.000000 -0.000001 0.000000 0.034546
    23 5.679938 -0.078274 -0.132372 0.000000 -1.570796 1.619889
    24 0.236208 -3.846334 -0.007084 0.040101 0.000000 0.000000
    25 -13.281250 2.226563 2.113281 1.570795 -0.001727 -4.710659
    26 0.000000 0.000000 0.000000 0.339690 0.363001 1.333437
    27 -11.703224 -0.000001 0.000000 0.000000 0.000000 -1.455695
    28 -11.501109 0.000001 0.000002 -1.535055 -0.488722 0.649730
    29 -0.949224 -0.526692 0.818564 2.039112 0.416550 0.555242
    30 -1.978556 0.000000 -0.000001 -0.000001 0.000000 0.608066
    31 -1.087186 0.000000 -0.000001 0.000000 -0.000002 0.510662
    32 -3.863441 0.167450 1.277058 0.224973 0.188623 0.124260
    33 -1.666015 0.000001 0.000000 0.000000 -0.000001 0.375067
    34 -1.292520 0.000003 0.000001 0.000000 0.000001 0.566334
    35 -3.927893 0.566322 -0.452260 -0.108298 -0.034865 1.000384
    36 -1.705971 0.000003 0.000000 0.000000 -0.000001 1.560063
    37 -1.292521 0.000000 0.000000 0.000000 0.000001 0.259170
    38 -3.772597 0.311787 -1.300303 -0.160117 0.070998 1.138460
    39 -1.408095 0.000002 -0.000002 -0.000001 0.000000 1.377599
    40 -0.986795 0.000000 0.000001 0.000000 0.000000 0.512607
    41 -3.851022 0.476093 0.459796 0.014946 -0.075269 0.645161
    42 -2.007646 0.000000 0.000000 -0.000001 0.000000 1.777937
    43 -1.270733 0.000001 0.000000 -0.000001 0.000000 0.494879
    44 -5.679937 0.078274 0.132374 0.000000 -1.570796 1.619889
    45 0.000001 3.838816 0.000000 0.000000 0.000000 0.000000
    46 14.765924 -4.179506 -6.702597 1.576551 0.001916 -0.001091
  time 20
    0 14.777393 -4.195610 -6.671067 1.572322 -0.004737 1.570508
    1 -0.006659 0.337219 4.384488 0.000000 0.000000 0.000000
    2 -0.006659 0.293999 2.752372 0.000000 0.000000 0.000000
    3 -0.006659 1.042511 2.142974 0.000000 0.000000 0.000000
    4 15.132813 -15.000000 -12.078125 -1.919860 0.000000 -1.570796
    5 0.000000 0.000000 0.000000 0.710863 0.920780 0.943090
    6 11.703225 0.000001 0.000000 0.000000 0.000000 -0.929699
    7 11.501110 -0.000001 -0.000002 -2.230089 -0.333180 0.502820
    8 0.949223 0.526691 -0.818564 1.218653 0.700714 -0.024965
    9 1.978557 0.000000 0.000000 -0.000001 0.000000 0.259000
    10 1.087181 0.000001 -0.000001 0.000000 -0.000002 -0.318570
    11 3.863441 -0.167452 -1.277058 0.201233 -0.155209 1.099052
    12 1.666013 0.000000 0.000000 0.000000 -0.000001 1.555327
    13 1.292519 0.000000 -0.000001 0.000000 0.000001 0.270574
    14 3.927892 -0.566322 0.452259 0.056622 -0.078695 1.416164
    15 1.705974 -0.000003 0.000000 0.000000 -0.000001 1.471815
    16 1.292521 0.000000 0.000000 0.000000 0.000001 0.873163
    17 3.772599 -0.311787 1.300302 -0.090727 -0.047630 1.187230
    18 1.408095 -0.000002 0.000002 -0.000001 0.000000 2.038976
    19 0.986795 0.000001 0.000001 0.000000 0.000000 0.219433
    20 3.851021 -0.476093 -0.459795 0.124881 -0.135857 1.384537
    21 2.007647 0.000000 0.000000 -0.000001 0.000000 1.517032
    22 1.270734 0.000000 0.000000 -0.000001 0.000000 0.034546
    23 5.679938 -0.078274 -0.132372 0.000000 -1.570796 1.619889
    24 0.236208 -3.846334 -0.007084 0.040101 0.000000 0.000000
    25 -13.281250 2.226563 2.113281 1.570795 -0.001727 -4.710659
    26 0.000000 0.000000 0.000000 0.339457 0.362180 1.332169
    27 -11.703224 -0.000001 0.000000 0.000000 0.000000 -1.457471
    28 -11.501109 0.000001 0.000002 -1.534660 -0.487828 0.652413
    29 -0.949224 -0.526692 0.818564 2.039112 0.416550 0.555242
    30 -1.978556 0.000000 -0.000001 -0.000001 0.000000 0.608066
    31 -1.087186 0.000000 -0.000001 0.000000 -0.000002 0.510662
    32 -3.863441 0.167450 1.277058 0.224973 0.188623 0.124260
    33 -1.666015 0.000001 0.000000 0.000000 -0.000001 0.375067
    34 -1.292520 0.000003 0.000001 0.000000 0.000001 0.566334
    35 -3.927893 0.566322 -0.452260 -0.108298 -0.034865 1.000384
    36 -1.705971 0.000003 0.000000 0.000000 -0.000001 1.560063
    37 -1.292521 0.000000 0.000000 0.000000 0.000001 0.259170
    38 -3.772597 0.311787 -1.300303 -0.160117 0.070998 1.138460
    39 -1.408095 0.000002 -0.000002 -0.000001 0.000000 1.377599
    40 -0.986795 0.000000 0.000001 0.000000 0.000000 0.512607
    41 -3.851022 0.476093 0.459796 0.014946 -0.075269 0.645161
    42 -2.007646 0.000000 0.000000 -0.000001 0.000000 1.777937
    43 -1.270733 0.000001 0.000000 -0.000001 0.000000 0.494879
    44 -5.679937 0.078274 0.132374 0.000000 -1.570796 1.619889
    45 0.000001 3.838816 0.000000 0.000000 0.000000 0.000000
    46 14.777643 -4.195131 -6.671346 1.575550 0.001518 -0.000277
  time 21
    0 14.761767 -4.207329 -6.643723 1.571959 -0.003736 1.571065
    1 -0.006659 0.337219 4.384488 0.000000 0.000000 0.000000
    2 -0.006659 0.293999 2.752372 0.000000 0.000000 0.000000
    3 -0.006659 1.042511 2.142974 0.000000 0.000000 0.000000
    4 15.132813 -15.000000 -12.078125 -1.919860 0.000000 -1.570796
    5 0.000000 0.000000 0.000000 0.711588 0.922196 0.940620
    6 11.703225 0.000001 0.000000 0.000000 0.000000 -0.928032
    7 11.501110 -0.000001 -0.000002 -2.232645 -0.334697 0.502847
    8 0.949223 0.526691 -0.818564 1.218653 0.700714 -0.024965
    9 1.978557 0.000000 0.000000 -0.000001 0.000000 0.259000
    10 1.087181 0.000001 -0.000001 0.000000 -0.000002 -0.318570
    11 3.863441 -0.167452 -1.277058 0.201233 -0.155209 1.099052
    12 1.666013 0.000000 0.000000 0.000000 -0.000001 1.555327
    13 1.292519 0.000000 -0.000001 0.000000 0.000001 0.270574
    14 3.927892 -0.566322 0.452259 0.056622 -0.078695 1.416164
    15 1.705974 -0.000003 0.000000 0.000000 -0.000001 1.471815
    16 1.292521 0.000000 0.000000 0.000000 0.000001 0.873163
    17 3.772599 -0.311787 1.300302 -0.090727 -0.047630 1.187230
    18 1.408095 -0.000002 0.000002 -0.000001 0.000000 2.038976
    19 0.986795 0.000001 0.000001 0.000000 0.000000 0.219433
    20 3.851021 -0.476093 -0.459795 0.124881 -0.135857 1.384537
    21 2.007647 0.000000 0.000000 -0.000001 0.000000 1.517032
    22 1.270734 0.000000 0.000000 -0.000001 0.000000 0.034546
    23 5.679938 -0.078274 -0.132372 0.000000 -1.570796 1.619889
    24 0.236208 -3.846334 -0.007084 0.040101 0.000000 0.000000
    25 -13.281250 2.226563 2.113281 1.570795 -0.001727 -4.710659
    26 0.000000 0.000000 0.000000 0.340157 0.361450 1.333144
    27 -11.703224 -0.000001 0.000000 0.000000 0.000000 -1.461727
    28 -11.501109 0.000001 0.000002 -1.533935 -0.487709 0.655508
    29 -0.949224 -0.526692 0.818564 2.039112 0.416550 0.555242
    30 -1.978556 0.000000 -0.000001 -0.000001 0.000000 0.608066
    31 -1.087186 0.000000 -0.000001 0.000000 -0.000002 0.510662
    32 -3.863441 0.167450 1.277058 0.224973 0.188623 0.124260
    33 -1.666015 0.000001 0.000000 0.000000 -0.000001 0.375067
    34 -1.292520 0.000003 0.000001 0.000000 0.000001 0.566334
    35 -3.927893 0.566322 -0.452260 -0.108298 -0.034865 1.000384
    36 -1.705971 0.000003 0.000000 0.000000 -0.000001 1.560063
    37 -1.292521 0.000000 0.000000 0.000000 0.000001 0.259170
    38 -3.772597 0.311787 -1.300303 -0.160117 0.070998 1.138460
    39 -1.408095 0.000002 -0.000002 -0.000001 0.000000 1.377599
    40 -0.986795 0.000000 0.000001 0.000000 0.000000 0.512607
    41 -3.851022 0.476093 0.459796 0.014946 -0.075269 0.645161
    42 -2.007646 0.000000 0.000000 -0.000001 0.000000 1.777937
    43 -1.270733 0.000001 0.000000 -0.000001 0.000000 0.494879
    44 -5.679937 0.078274 0.132374 0.000000 -1.570796 1.619889
    45 0.000001 3.838816 0.000000 0.000000 0.000000 0.000000
    46 14.762018 -4.206850 -6.644002 1.574549 0.001157 0.000287
  time 22
    0 14.722703 -4.222955 -6.612472 1.571595 -0.002808 1.571483
    1 -0.006659 0.337219 4.384488 0.000000 0.000000 0.000000
    2 -0.006659 0.293999 2.752372 0.000000 0.000000 0.000000
    3 -0.006659 1.042511 2.142974 0.000000 0.000000 0.000000
    4 15.132813 -15.000000 -12.078125 -1.919860 0.000000 -1.570796
    5 0.000000 0.000000 0.000000 0.714221 0.923703 0.940306
    6 11.703225 0.000001 0.000000 0.000000 0.000000 -0.927949
    7 11.501110 -0.000001 -0.000002 -2.235008 -0.336948 0.503631
    8 0.949223 0.526691 -0.818564 1.218653 0.700714 -0.024965
    9 1.978557 0.000000 0.000000 -0.000001 0.000000 0.259000
    10 1.087181 0.000001 -0.000001 0.000000 -0.000002 -0.318570
    11 3.863441 -0.167452 -1.277058 0.201233 -0.155209 1.099052
    12 1.666013 0.000000 0.000000 0.000000 -0.000001 1.555327
    13 1.292519 0.000000 -0.000001 0.000000 0.000001 0.270574
    14 3.927892 -0.566322 0.452259 0.056622 -0.078695 1.416164
    15 1.705974 -0.000003 0.000000 0.000000 -0.000001 1.471815
    16 1.292521 0.000000 0.000000 0.000000 0.000001 0.873163
    17 3.772599 -0.311787 1.300302 -0.090727 -0.047630 1.187230
    18 1.408095 -0.000002 0.000002 -0.000001 0.000000 2.038976
    19 0.986795 0.000001 0.000001 0.000000 0.000000 0.219433
    20 3.851021 -0.476093 -0.459795 0.124881 -0.135857 1.384537
    21 2.007647 0.000000 0.000000 -0.000001 0.000000 1.517032
    22 1.270734 0.000000 0.000000 -0.000001 0.000000 0.034546
    23 5.679938 -0.078274 -0.132372 0.000000 -1.570796 1.619889
    24 0.236208 -3.846334 -0.007084 0.040101 0.000000 0.000000
    25 -13.281250 2.226563 2.113281 1.570795 -0.001727 -4.710659
    26 0.000000 0.000000 0.000000 0.341666 0.360796 1.335924
    27 -11.703224 -0.000001 0.000000 0.000000 0.000000 -1.467956
    28 -11.501109 0.000001 0.000002 -1.532946 -0.488364 0.658741
    29 -0.949224 -0.526692 0.818564 2.039112 0.416550 0.555242
    30 -1.978556 0.000000 -0.000001 -0.000001 0.000000 0.608066
    31 -1.087186 0.000000 -0.000001 0.000000 -0.000002 0.510662
    32 -3.863441 0.167450 1.277058 0.224973 0.188623 0.124260
    33 -1.666015 0.000001 0.000000 0.000000 -0.000001 0.375067
    34 -1.292520 0.000003 0.000001 0.000000 0.000001 0.566334
    35 -3.927893 0.566322 -0.452260 -0.108298 -0.034865 1.000384
    36 -1.705971 0.000003 0.000000 0.000000 -0.000001 1.560063
    37 -1.292521 0.000000 0.000000 0.000000 0.000001 0.259170
    38 -3.772597 0.311787 -1.300303 -0.160117 0.070998 1.138460
    39 -1.408095 0.000002 -0.000002 -0.000001 0.000000 1.377599
    40 -0.986795 0.000000 0.000001 0.000000 0.000000 0.512607
    41 -3.851022 0.476093 0.459796 0.014946 -0.075269 0.645161
    42 -2.007646 0.000000 0.000000 -0.000001 0.000000 1.777937
    43 -1.270733 0.000001 0.000000 -0.000001 0.000000 0.494879
    44 -5.679937 0.078274 0.132374 0.000000 -1.570796 1.619889
    45 0.000001 3.838816 0.000000 0.000000 0.000000 0.000000
    46 14.722954 -4.222476 -6.612751 1.573584 0.000832 0.000663
  time 23
    0 14.671921 -4.234674 -6.581221 1.571341 -0.001953 1.571622
    1 -0.006659 0.337219 4.384488 0.000000 0.000000 0.000000
    2 -0.006659 0.293999 2.752372 0.000000 0.000000 0.000000
    3 -0.006659 1.042511 2.142974 0.000000 0.000000 0.000000
    4 15.132813 -15.000000 -12.078125 -1.919860 0.000000 -1.570796
    5 0.000000 0.000000 0.000000 0.718406 0.925235 0.941878
    6 11.703225 0.000001 0.000000 0.000000 0.000000 -0.929255
    7 11.501110 -0.000001 -0.000002 -2.237177 -0.339704 0.505062
    8 0.949223 0.526691 -0.818564 1.218653 0.700714 -0.024965
    9 1.978557 0.000000 0.000000 -0.000001 0.000000 0.259000
    10 1.087181 0.000001 -0.000001 0.000000 -0.000002 -0.318570
    11 3.863441 -0.167452 -1.277058 0.201233 -0.155209 1.099052
    12 1.666013 0.000000 0.000000 0.000000 -0.000001 1.555327
    13 1.292519 0.000000 -0.000001 0.000000 0.000001 0.270574
    14 3.927892 -0.566322 0.452259 0.056622 -0.078695 1.416164
    15 1.705974 -0.000003 0.000000 0.000000 -0.000001 1.471815
    16 1.292521 0.000000 0.000000 0.000000 0.000001 0.873163
    17 3.772599 -0.311787 1.300302 -0.090727 -0.047630 1.187230
    18 1.408095 -0.000002 0.000002 -0.000001 0.000000 2.038976
    19 0.986795 0.000001 0.000001 0.000000 0.000000 0.219433
    20 3.851021 -0.476093 -0.459795 0.124881 -0.135857 1.384537
    21 2.007647 0.000000 0.000000 -0.000001 0.000000 1.517032
    22 1.270734 0.000000 0.000000 -0.000001 0.000000 0.034546
    23 5.679938 -0.078274 -0.132372 0.000000 -1.570796 1.619889
    24 0.236208 -3.846334 -0.007084 0.040101 0.000000 0.000000
    25 -13.281250 2.226563 2.113281 1.570795 -0.001727 -4.710659
    26 0.000000 0.000000 0.000000 0.343802 0.360263 1.340166
    27 -11.703224 -0.000001 0.000000 0.000000 0.000000 -1.475651
    28 -11.501109 0.000001 0.000002 -1.531760 -0.489615 0.662112
    29 -0.949224 -0.526692 0.818564 2.039112 0.416550 0.555242
    30 -1.978556 0.000000 -0.000001 -0.000001 0.000000 0.608066
    31 -1.087186 0.000000 -0.000001 0.000000 -0.000002 0.510662
    32 -3.863441 0.167450 1.277058 0.224973 0.188623 0.124260
    33 -1.666015 0.000001 0.000000 0.000000 -0.000001 0.375067
    34 -1.292520 0.000003 0.000001 0.000000 0.000001 0.566334
    35 -3.927893 0.566322 -0.452260 -0.108298 -0.034865 1.000384
    36 -1.705971 0.000003 0.000000 0.000000 -0.000001 1.560063
    37 -1.292521 0.000000 0.000000 0.000000 0.000001 0.259170
    38 -3.772597 0.311787 -1.300303 -0.160117 0.070998 1.138460
    39 -1.408095 0.000002 -0.000002 -0.000001 0.000000 1.377599
    40 -0.986795 0.000000 0.000001 0.000000 0.000000 0.512607
    41 -3.851022 0.476093 0.459796 0.014946 -0.075269 0.645161
    42 -2.007646 0.000000 0.000000 -0.000001 0.000000 1.777937
    43 -1.270733 0.000001 0.000000 -0.000001 0.000000 0.494879
    44 -5.679937 0.078274 0.132374 0.000000 -1.570796 1.619889
    45 0.000001 3.838816 0.000000 0.000000 0.000000 0.000000
    46 14.668265 -4.234195 -6.581500 1.572762 0.000542 0.000851
  time 24
    0 14.605512 -4.246393 -6.553876 1.571087 -0.001221 1.571552
    1 -0.006659 0.337219 4.384488 0.000000 0.000000 0.000000
    2 -0.006659 0.293999 2.752372 0.000000 0.000000 0.000000
    3 -0.006659 1.042511 2.142974 0.000000 0.000000 0.000000
    4 15.132813 -15.000000 -12.078125 -1.919860 0.000000 -1.570796
    5 0.000000 0.000000 0.000000 0.723775 0.926742 0.944976
    6 11.703225 0.000001 0.000000 0.000000 0.000000 -0.931645
    7 11.501110 -0.000001 -0.000002 -2.239075 -0.342840 0.506953
    8 0.949223 0.526691 -0.818564 1.218653 0.700714 -0.024965
    9 1.978557 0.000000 0.000000 -0.000001 0.000000 0.259000
    10 1.087181 0.000001 -0.000001 0.000000 -0.000002 -0.318570
    11 3.863441 -0.167452 -1.277058 0.201233 -0.155209 1.099052
    12 1.666013 0.000000 0.000000 0.000000 -0.000001 1.555327
    13 1.292519 0.000000 -0.000001 0.000000 0.000001 0.270574
    14 3.927892 -0.566322 0.452259 0.056622 -0.078695 1.416164
    15 1.705974 -0.000003 0.000000 0.000000 -0.000001 1.471815
    16 1.292521 0.000000 0.000000 0.000000 0.000001 0.873163
    17 3.772599 -0.311787 1.300302 -0.090727 -0.047630 1.187230
    18 1.408095 -0.000002 0.000002 -0.000001 0.000000 2.038976
    19 0.986795 0.000001 0.000001 0.000000 0.000000 0.219433
    20 3.851021 -0.476093 -0.459795 0.124881 -0.135857 1.384537
    21 2.007647 0.000000 0.000000 -0.000001 0.000000 1.517032
    22 1.270734 0.000000 0.000000 -0.000001 0.000000 0.034546
    23 5.679938 -0.078274 -0.132372 0.000000 -1.570796 1.619889
    24 0.236208 -3.846334 -0.007084 0.040101 0.000000 0.000000
    25 -13.281250 2.226563 2.113281 1.570795 -0.001727 -4.710659
    26 0.000000 0.000000 0.000000 0.346424 0.359868 1.345530
    27 -11.703224 -0.000001 0.000000 0.000000 0.000000 -1.484276
    28 -11.501109 0.000001 0.000002 -1.530508 -0.491461 0.665345
    29 -0.949224 -0.526692 0.818564 2.039112 0.416550 0.555242
    30 -1.978556 0.000000 -0.000001 -0.000001 0.000000 0.608066
    31 -1.087186 0.000000 -0.000001 0.000000 -0.000002 0.510662
    32 -3.863441 0.167450 1.277058 0.224973 0.188623 0.124260
    33 -1.666015 0.000001 0.000000 0.000000 -0.000001 0.375067
    34 -1.292520 0.000003 0.000001 0.000000 0.000001 0.566334
    35 -3.927893 0.566322 -0.452260 -0.108298 -0.034865 1.000384
    36 -1.705971 0.000003 0.000000 0.000000 -0.000001 1.560063
    37 -1.292521 0.000000 0.000000 0.000000 0.000001 0.259170
    38 -3.772597 0.311787 -1.300303 -0.160117 0.070998 1.138460
    39 -1.408095 0.000002 -0.000002 -0.000001 0.000000 1.377599
    40 -0.986795 0.000000 0.000001 0.000000 0.000000 0.512607
    41 -3.851022 0.476093 0.459796 0.014946 -0.075269 0.645161
    42 -2.007646 0.000000 0.000000 -0.000001 0.000000 1.777937
    43 -1.270733 0.000001 0.000000 -0.000001 0.000000 0.494879
    44 -5.679937 0.078274 0.132374 0.000000 -1.570796 1.619889
    45 0.000001 3.838816 0.000000 0.000000 0.000000 0.000000
    46 14.601857 -4.245914 -6.554155 1.572011 0.000289 0.000726
  time 25
    0 14.519572 -4.254206 -6.526532 1.570941 -0.000586 1.571274
    1 -0.006659 0.337219 4.384488 0.000000 0.000000 0.000000
    2 -0.006659 0.293999 2.752372 0.000000 0.000000 0.000000
    3 -0.006659 1.042511 2.142974 0.000000 0.000000 0.000000
    4 15.132813 -15.000000 -12.078125 -1.919860 0.000000 -1.570796
    5 0.000000 0.000000 0.000000 0.730707 0.928288 0.949961
    6 11.703225 0.000001 0.000000 0.000000 0.000000 -0.935340
    7 11.501110 -0.000001 -0.000002 -2.240779 -0.346507 0.509465
    8 0.949223 0.526691 -0.818564 1.218653 0.700714 -0.024965
    9 1.978557 0.000000 0.000000 -0.000001 0.000000 0.259000
    10 1.087181 0.000001 -0.000001 0.000000 -0.000002 -0.318570
    11 3.863441 -0.167452 -1.277058 0.201233 -0.155209 1.099052
    12 1.666013 0.000000 0.000000 0.000000 -0.000001 1.555327
    13 1.292519 0.000000 -0.000001 0.000000 0.000001 0.270574
    14 3.927892 -0.566322 0.452259 0.056622 -0.078695 1.416164
    15 1.705974 -0.000003 0.000000 0.000000 -0.000001 1.471815
    16 1.292521 0.000000 0.000000 0.000000 0.000001 0.873163
    17 3.772599 -0.311787 1.300302 -0.090727 -0.047630 1.187230
    18 1.408095 -0.000002 0.000002 -0.000001 0.000000 2.038976
    19 0.986795 0.000001 0.000001 0.000000 0.000000 0.219433
    20 3.851021 -0.476093 -0.459795 0.124881 -0.135857 1.384537
    21 2.007647 0.000000 0.000000 -0.000001 0.000000 1.517032
    22 1.270734 0.000000 0.000000 -0.000001 0.000000 0.034546
    23 5.679938 -0.078274 -0.132372 0.000000 -1.570796 1.619889
    24 0.236208 -3.846334 -0.007084 0.040101 0.000000 0.000000
    25 -13.281250 2.226563 2.113281 1.570795 -0.001727 -4.710659
    26 0.000000 0.000000 0.000000 0.349710 0.359579 1.352405
    27 -11.703224 -0.000001 0.000000 0.000000 0.000000 -1.494311
    28 -11.501109 0.000001 0.000002 -1.528992 -0.493933 0.668578
    29 -0.949224 -0.526692 0.818564 2.039112 0.416550 0.555242
    30 -1.978556 0.000000 -0.000001 -0.000001 0.000000 0.608066
    31 -1.087186 0.000000 -0.000001 0.000000 -0.000002 0.510662
    32 -3.863441 0.167450 1.277058 0.224973 0.188623 0.124260
    33 -1.666015 0.000001 0.000000 0.000000 -0.000001 0.375067
    34 -1.292520 0.000003 0.000001 0.000000 0.000001 0.566334
    35 -3.927893 0.566322 -0.452260 -0.108298 -0.034865 1.000384
    36 -1.705971 0.000003 0.000000 0.000000 -0.000001 1.560063
    37 -1.292521 0.000000 0.000000 0.000000 0.000001 0.259170
    38 -3.772597 0.311787 -1.300303 -0.160117 0.070998 1.138460
    39 -1.408095 0.000002 -0.000002 -0.000001 0.000000 1.377599
    40 -0.986795 0.000000 0.000001 0.000000 0.000000 0.512607
    41 -3.851022 0.476093 0.459796 0.014946 -0.075269 0.645161
    42 -2.007646 0.000000 0.000000 -0.000001 0.000000 1.777937
    43 -1.270733 0.000001 0.000000 -0.000001 0.000000 0.494879
    44 -5.679937 0.078274 0.132374 0.000000 -1.570796 1.619889
    45 0.000001 3.838816 0.000000 0.000000 0.000000 0.000000
    46 14.519823 -4.253727 -6.526811 1.571368 0.000145 0.000475
  time 26
    0 14.414100 -4.265925 -6.499187 1.570796 0.000000 1.570787
    1 -0.006659 0.337219 4.384488 0.000000 0.000000 0.000000
    2 -0.006659 0.293999 2.752372 0.000000 0.000000 0.000000
    3 -0.006659 1.042511 2.142974 0.000000 0.000000 0.000000
    4 15.132813 -15.000000 -12.078125 -1.919860 0.000000 -1.570796
    5 0.000000 0.000000 0.000000 0.739790 0.929949 0.957192
    6 11.703225 0.000001 0.000000 0.000000 0.000000 -0.940648
    7 11.501110 -0.000001 -0.000002 -2.242367 -0.351033 0.512734
    8 0.949223 0.526691 -0.818564 1.218653 0.700714 -0.024965
    9 1.978557 0.000000 0.000000 -0.000001 0.000000 0.259000
    10 1.087181 0.000001 -0.000001 0.000000 -0.000002 -0.318570
    11 3.863441 -0.167452 -1.277058 0.201233 -0.155209 1.099052
    12 1.666013 0.000000 0.000000 0.000000 -0.000001 1.555327
    13 1.292519 0.000000 -0.000001 0.000000 0.000001 0.270574
    14 3.927892 -0.566322 0.452259 0.056622 -0.078695 1.416164
    15 1.705974 -0.000003 0.000000 0.000000 -0.000001 1.471815
    16 1.292521 0.000000 0.000000 0.000000 0.000001 0.873163
    17 3.772599 -0.311787 1.300302 -0.090727 -0.047630 1.187230
    18 1.408095 -0.000002 0.000002 -0.000001 0.000000 2.038976
    19 0.986795 0.000001 0.000001 0.000000 0.000000 0.219433
    20 3.851021 -0.476093 -0.459795 0.124881 -0.135857 1.384537
    21 2.007647 0.000000 0.000000 -0.000001 0.000000 1.517032
    22 1.270734 0.000000 0.000000 -0.000001 0.000000 0.034546
    23 5.679938 -0.078274 -0.132372 0.000000 -1.570796 1.619889
    24 0.236208 -3.846334 -0.007084 0.040101 0.000000 0.000000
    25 -13.281250 2.226563 2.113281 1.570795 -0.001727 -4.710659
    26 0.000000 0.000000 0.000000 0.353894 0.359366 1.361329
    27 -11.703224 -0.000001 0.000000 0.000000 0.000000 -1.506544
    28 -11.501109 0.000001 0.000002 -1.527213 -0.497209 0.671948
    29 -0.949224 -0.526692 0.818564 2.039112 0.416550 0.555242
    30 -1.978556 0.000000 -0.000001 -0.000001 0.000000 0.608066
    31 -1.087186 0.000000 -0.000001 0.000000 -0.000002 0.510662
    32 -3.863441 0.167450 1.277058 0.224973 0.188623 0.124260
    33 -1.666015 0.000001 0.000000 0.000000 -0.000001 0.375067
    34 -1.292520 0.000003 0.000001 0.000000 0.000001 0.566334
    35 -3.927893 0.566322 -0.452260 -0.108298 -0.034865 1.000384
    36 -1.705971 0.000003 0.000000 0.000000 -0.000001 1.560063
    37 -1.292521 0.000000 0.000000 0.000000 0.000001 0.259170
    38 -3.772597 0.311787 -1.300303 -0.160117 0.070998 1.138460
    39 -1.408095 0.000002 -0.000002 -0.000001 0.000000 1.377599
    40 -0.986795 0.000000 0.000001 0.000000 0.000000 0.512607
    41 -3.851022 0.476093 0.459796 0.014946 -0.075269 0.645161
    42 -2.007646 0.000000 0.000000 -0.000001 0.000000 1.777937
    43 -1.270733 0.000001 0.000000 -0.000001 0.000000 0.494879
    44 -5.679937 0.078274 0.132374 0.000000 -1.570796 1.619889
    45 0.000001 3.838816 0.000000 0.000000 0.000000 0.000000
    46 14.410445 -4.265446 -6.499466 1.570796 0.000000 -0.000026
end
