// Created by Crowbar 0.42.0.0
version 1
nodes
  0 "polymsh1" -1
  1 "polymsh_detached" 0
  2 "polymsh_detached1" 0
  3 "polymsh_detached2" 0
  4 "l arm base" -1
  5 "l upperarm" 4
  6 "l forearm" 5
  7 "l hand" 6
  8 "l finger0" 7
  9 "l finger01" 8
  10 "l finger02" 9
  11 "l finger1" 7
  12 "l finger11" 11
  13 "l finger12" 12
  14 "l finger3" 7
  15 "l finger31" 14
  16 "l finger32" 15
  17 "l finger4" 7
  18 "l finger41" 17
  19 "l finger42" 18
  20 "l finger2" 7
  21 "l finger21" 20
  22 "l finger22" 21
  23 "l sleeve help" 6
  24 "l cuff" 23
  25 "r arm base" -1
  26 "r upperarm" 25
  27 "r forearm" 26
  28 "r hand" 27
  29 "r finger0" 28
  30 "r finger01" 29
  31 "r finger02" 30
  32 "r finger1" 28
  33 "r finger11" 32
  34 "r finger12" 33
  35 "r finger3" 28
  36 "r finger31" 35
  37 "r finger32" 36
  38 "r finger4" 28
  39 "r finger41" 38
  40 "r finger42" 39
  41 "r finger2" 28
  42 "r finger21" 41
  43 "r finger22" 42
  44 "r sleeve help" 27
  45 "r cuff" 44
  46 "weapon" -1
end
skeleton
  time 0
    0 14.414100 -4.265925 -6.499187 1.570796 0.000000 1.570787
    1 -0.006659 0.337219 4.384488 0.000000 0.000000 0.000000
    2 -0.006659 0.293999 2.752372 0.000000 0.000000 0.000000
    3 -0.006659 1.042511 2.142974 -0.000027 0.000000 0.000000
    4 15.132813 -15.000000 -12.078125 -1.919860 0.000000 -1.570796
    5 0.000000 0.000000 0.000000 0.739790 0.929949 0.957192
    6 11.703225 0.000001 0.000000 0.000000 0.000000 -0.940648
    7 11.501110 -0.000001 -0.000002 -2.242367 -0.351033 0.512734
    8 0.949223 0.526691 -0.818564 1.218653 0.700714 -0.024965
    9 1.978557 0.000000 0.000000 -0.000001 0.000000 0.259000
    10 1.087181 0.000001 -0.000001 0.000000 -0.000002 -0.318570
    11 3.863441 -0.167452 -1.277058 0.201233 -0.155209 1.099052
    12 1.666013 0.000000 0.000000 0.000000 -0.000001 1.555327
    13 1.292519 0.000000 -0.000001 0.000000 0.000001 0.270574
    14 3.927892 -0.566322 0.452259 0.056622 -0.078695 1.416164
    15 1.705974 -0.000003 0.000000 0.000000 -0.000001 1.471815
    16 1.292521 0.000000 0.000000 0.000000 0.000001 0.873163
    17 3.772599 -0.311787 1.300302 -0.090727 -0.047630 1.187230
    18 1.408095 -0.000002 0.000002 -0.000001 0.000000 2.038976
    19 0.986795 0.000001 0.000001 0.000000 0.000000 0.219433
    20 3.851021 -0.476093 -0.459795 0.124881 -0.135857 1.384537
    21 2.007647 0.000000 0.000000 -0.000001 0.000000 1.517032
    22 1.270734 0.000000 0.000000 -0.000001 0.000000 0.034546
    23 5.679938 -0.078274 -0.132372 0.000000 -1.570796 1.619889
    24 0.236208 -3.846334 -0.007084 0.040101 0.000000 0.000000
    25 -2.228744 -13.281197 2.113580 1.570796 0.000000 3.141548
    26 0.000000 0.000000 0.000000 0.353894 0.359366 1.361329
    27 -11.703224 -0.000001 0.000000 0.000000 0.000000 -1.506544
    28 -11.501109 0.000001 0.000002 -1.527213 -0.497209 0.671948
    29 -0.949224 -0.526692 0.818564 2.039112 0.416550 0.555242
    30 -1.978556 0.000000 -0.000001 -0.000001 0.000000 0.608066
    31 -1.087186 0.000000 -0.000001 0.000000 -0.000002 0.510662
    32 -3.863441 0.167450 1.277058 0.224973 0.188623 0.124260
    33 -1.666015 0.000001 0.000000 0.000000 -0.000001 0.375067
    34 -1.292520 0.000003 0.000001 0.000000 0.000001 0.566334
    35 -3.927893 0.566322 -0.452260 -0.108298 -0.034865 1.000384
    36 -1.705971 0.000003 0.000000 0.000000 -0.000001 1.560063
    37 -1.292521 0.000000 0.000000 0.000000 0.000001 0.259170
    38 -3.772597 0.311787 -1.300303 -0.160117 0.070998 1.138460
    39 -1.408095 0.000002 -0.000002 -0.000001 0.000000 1.377599
    40 -0.986795 0.000000 0.000001 0.000000 0.000000 0.512607
    41 -3.851022 0.476093 0.459796 0.014946 -0.075269 0.645161
    42 -2.007646 0.000000 0.000000 -0.000001 0.000000 1.777937
    43 -1.270733 0.000001 0.000000 -0.000001 0.000000 0.494879
    44 -5.679937 0.078274 0.132374 0.000000 -1.570796 1.619889
    45 0.000001 3.838816 0.000000 0.000000 0.000000 0.000000
    46 14.410445 -4.265446 -6.499466 1.570796 0.000000 -0.000026
  time 1
    0 14.414100 -4.304988 -6.471842 1.589691 0.054034 1.581434
    1 -0.006659 0.337219 4.384488 0.000000 0.000000 0.000000
    2 -0.006659 0.293999 2.752372 0.000000 0.000000 0.000000
    3 -0.006659 1.042511 2.142974 -0.000027 0.000000 0.000000
    4 15.132813 -15.000000 -12.078125 -1.919860 0.000000 -1.570796
    5 0.000000 0.000000 0.000000 0.746049 0.921527 0.989797
    6 11.703225 0.000001 0.000000 0.000000 0.000000 -0.960545
    7 11.501110 -0.000001 -0.000002 -2.259874 -0.357481 0.474916
    8 0.949223 0.526691 -0.818564 1.210942 0.724324 -0.036669
    9 1.978557 0.000000 0.000000 -0.000001 0.000000 0.334719
    10 1.087181 0.000001 -0.000001 0.000000 -0.000002 -0.338469
    11 3.863441 -0.167452 -1.277058 0.201233 -0.155209 1.099052
    12 1.666013 0.000000 0.000000 0.000000 -0.000001 1.555327
    13 1.292519 0.000000 -0.000001 0.000000 0.000001 0.270574
    14 3.927892 -0.566322 0.452259 0.056622 -0.078695 1.416164
    15 1.705974 -0.000003 0.000000 0.000000 -0.000001 1.471815
    16 1.292521 0.000000 0.000000 0.000000 0.000001 0.873163
    17 3.772599 -0.311787 1.300302 -0.090727 -0.047630 1.187230
    18 1.408095 -0.000002 0.000002 -0.000001 0.000000 2.038976
    19 0.986795 0.000001 0.000001 0.000000 0.000000 0.219433
    20 3.851021 -0.476093 -0.459795 0.124881 -0.135857 1.384537
    21 2.007647 0.000000 0.000000 -0.000001 0.000000 1.517032
    22 1.270734 0.000000 0.000000 -0.000001 0.000000 0.034546
    23 5.679938 -0.078274 -0.132372 0.000000 -1.570796 1.619889
    24 0.236208 -3.846334 -0.007084 0.040101 0.000000 0.000000
    25 -1.666227 -13.281197 0.441654 1.570796 0.000000 3.141548
    26 0.000000 0.000000 0.000000 0.410242 0.358742 1.348261
    27 -11.703224 -0.000001 0.000000 0.000000 0.000000 -1.651368
    28 -11.501109 0.000001 0.000002 -1.537889 -0.553881 0.875348
    29 -0.949224 -0.526692 0.818564 1.879081 0.710795 0.381019
    30 -1.978556 0.000000 -0.000001 -0.000001 0.000000 0.112828
    31 -1.087186 0.000000 -0.000001 0.000000 -0.000002 -0.106806
    32 -3.863441 0.167450 1.277058 0.224973 0.188623 0.124260
    33 -1.666015 0.000001 0.000000 0.000000 -0.000001 0.375067
    34 -1.292520 0.000003 0.000001 0.000000 0.000001 0.566334
    35 -3.927893 0.566322 -0.452260 -0.108298 -0.034865 1.000384
    36 -1.705971 0.000003 0.000000 0.000000 -0.000001 1.560063
    37 -1.292521 0.000000 0.000000 0.000000 0.000001 0.259170
    38 -3.772597 0.311787 -1.300303 -0.160117 0.070998 1.138460
    39 -1.408095 0.000002 -0.000002 -0.000001 0.000000 1.377599
    40 -0.986795 0.000000 0.000001 0.000000 0.000000 0.512607
    41 -3.851022 0.476093 0.459796 0.014946 -0.075269 0.645161
    42 -2.007646 0.000000 0.000000 -0.000001 0.000000 1.777937
    43 -1.270733 0.000001 0.000000 -0.000001 0.000000 0.494879
    44 -5.679937 0.078274 0.132374 0.000000 -1.570796 1.619889
    45 0.000001 3.838816 0.000000 0.000000 0.000000 0.000000
    46 14.410445 -4.308416 -6.472121 1.516749 0.018871 0.009624
  time 2
    0 14.414100 -4.379209 -6.405434 1.604552 0.097520 1.591665
    1 -0.006659 0.337219 4.384488 -0.225850 0.000000 0.000000
    2 -0.006659 0.293999 2.752372 0.000000 0.000000 0.000000
    3 -0.006659 1.042511 2.142974 -0.113135 0.000000 0.000000
    4 15.132813 -15.000000 -12.078125 -1.919860 0.000000 -1.570796
    5 0.000000 0.000000 0.000000 0.748758 0.918358 1.009333
    6 11.703225 0.000001 0.000000 0.000000 0.000000 -0.968409
    7 11.501110 -0.000001 -0.000002 -2.275832 -0.364360 0.441610
    8 0.949223 0.526691 -0.818564 1.203019 0.748616 -0.048756
    9 1.978557 0.000000 0.000000 -0.000001 0.000000 0.412726
    10 1.087181 0.000001 -0.000001 0.000000 -0.000002 -0.359109
    11 3.863441 -0.167452 -1.277058 0.201233 -0.155209 1.099052
    12 1.666013 0.000000 0.000000 0.000000 -0.000001 1.555327
    13 1.292519 0.000000 -0.000001 0.000000 0.000001 0.270574
    14 3.927892 -0.566322 0.452259 0.056622 -0.078695 1.416164
    15 1.705974 -0.000003 0.000000 0.000000 -0.000001 1.471815
    16 1.292521 0.000000 0.000000 0.000000 0.000001 0.873163
    17 3.772599 -0.311787 1.300302 -0.090727 -0.047630 1.187230
    18 1.408095 -0.000002 0.000002 -0.000001 0.000000 2.038976
    19 0.986795 0.000001 0.000001 0.000000 0.000000 0.219433
    20 3.851021 -0.476093 -0.459795 0.124881 -0.135857 1.384537
    21 2.007647 0.000000 0.000000 -0.000001 0.000000 1.517032
    22 1.270734 0.000000 0.000000 -0.000001 0.000000 0.034546
    23 5.679938 -0.078274 -0.132372 0.000000 -1.570796 1.619889
    24 0.236208 -3.846334 -0.007084 0.040101 0.000000 0.000000
    25 -0.990425 -13.281197 -1.566220 1.570796 0.000000 3.141548
    26 0.000000 0.000000 0.000000 0.399144 0.327959 1.375421
    27 -11.703224 -0.000001 0.000000 0.000000 0.000000 -1.723723
    28 -11.501109 0.000001 0.000002 -1.552124 -0.440805 0.670366
    29 -0.949224 -0.526692 0.818564 1.747407 0.806955 0.280087
    30 -1.978556 0.000000 -0.000001 -0.000001 0.000000 -0.074808
    31 -1.087186 0.000000 -0.000001 0.000000 -0.000002 -0.343589
    32 -3.863441 0.167450 1.277058 0.224973 0.188623 0.124260
    33 -1.666015 0.000001 0.000000 0.000000 -0.000001 0.301789
    34 -1.292520 0.000003 0.000001 0.000000 0.000001 0.443141
    35 -3.927893 0.566322 -0.452260 -0.117850 -0.034062 1.003027
    36 -1.705971 0.000003 0.000000 0.000000 -0.000001 1.372739
    37 -1.292521 0.000000 0.000000 0.000000 0.000001 0.229490
    38 -3.772597 0.311787 -1.300303 -0.160117 0.070998 1.138460
    39 -1.408095 0.000002 -0.000002 -0.000001 0.000000 1.220738
    40 -0.986795 0.000000 0.000001 0.000000 0.000000 0.398877
    41 -3.851022 0.476093 0.459796 0.012657 -0.075653 0.675582
    42 -2.007646 0.000000 0.000000 -0.000001 0.000000 1.565310
    43 -1.270733 0.000001 0.000000 -0.000001 0.000000 0.386296
    44 -5.679937 0.078274 0.132374 0.000000 -1.570796 1.619889
    45 0.000001 3.838816 0.000000 0.000000 0.000000 0.000000
    46 14.410445 -4.378731 -6.405713 1.473210 0.033585 0.017582
  time 3
    0 14.386756 -4.562809 -6.178865 1.612364 0.114367 1.596954
    1 -0.006659 0.337219 4.384488 -0.660198 0.000000 0.000000
    2 -0.006659 0.293999 2.752372 0.000000 0.000000 0.000000
    3 -0.006659 1.042511 2.142974 -0.420180 0.000000 0.000000
    4 15.132813 -15.000000 -12.078125 -1.919860 0.000000 -1.570796
    5 0.000000 0.000000 0.000000 0.742996 0.931662 0.992132
    6 11.703225 0.000001 0.000000 0.000000 0.000000 -0.940592
    7 11.501110 -0.000001 -0.000002 -2.295198 -0.375537 0.423835
    8 0.949223 0.526691 -0.818564 1.201507 0.751876 -0.050759
    9 1.978557 0.000000 0.000000 -0.000001 0.000000 0.431207
    10 1.087181 0.000001 -0.000001 0.000000 -0.000002 -0.373622
    11 3.863441 -0.167452 -1.277058 0.201233 -0.155209 1.099052
    12 1.666013 0.000000 0.000000 0.000000 -0.000001 1.555327
    13 1.292519 0.000000 -0.000001 0.000000 0.000001 0.270574
    14 3.927892 -0.566322 0.452259 0.056622 -0.078695 1.416164
    15 1.705974 -0.000003 0.000000 0.000000 -0.000001 1.471815
    16 1.292521 0.000000 0.000000 0.000000 0.000001 0.873163
    17 3.772599 -0.311787 1.300302 -0.090727 -0.047630 1.187230
    18 1.408095 -0.000002 0.000002 -0.000001 0.000000 2.038976
    19 0.986795 0.000001 0.000001 0.000000 0.000000 0.219433
    20 3.851021 -0.476093 -0.459795 0.124881 -0.135857 1.384537
    21 2.007647 0.000000 0.000000 -0.000001 0.000000 1.517032
    22 1.270734 0.000000 0.000000 -0.000001 0.000000 0.034546
    23 5.679938 -0.078274 -0.132372 0.000000 -1.570796 1.619889
    24 0.236208 -3.846334 -0.007084 0.040101 0.000000 0.000000
    25 -0.345874 -13.281197 -3.495966 1.570796 0.000000 3.141548
    26 0.000000 0.000000 0.000000 0.331430 0.299578 1.365474
    27 -11.703224 -0.000001 0.000000 0.000000 0.000000 -1.641587
    28 -11.501109 0.000001 0.000002 -1.385921 -0.230882 0.161145
    29 -0.949224 -0.526692 0.818564 1.542910 0.689792 0.103837
    30 -1.978556 0.000000 -0.000001 -0.000001 0.000000 0.014935
    31 -1.087186 0.000000 -0.000001 0.000000 -0.000002 -0.236938
    32 -3.863441 0.167450 1.277058 0.224973 0.188623 0.124260
    33 -1.666015 0.000001 0.000000 0.000000 -0.000001 0.180329
    34 -1.292520 0.000003 0.000001 0.000000 0.000001 0.239091
    35 -3.927893 0.566322 -0.452260 -0.136438 -0.032336 1.005837
    36 -1.705971 0.000003 0.000000 0.000000 -0.000001 1.066559
    37 -1.292521 0.000000 0.000000 0.000000 0.000001 0.179015
    38 -3.772597 0.311787 -1.300303 -0.160117 0.070998 1.138460
    39 -1.408095 0.000002 -0.000002 -0.000001 0.000000 0.965355
    40 -0.986795 0.000000 0.000001 0.000000 0.000000 0.211183
    41 -3.851022 0.476093 0.459796 0.009157 -0.076216 0.721766
    42 -2.007646 0.000000 0.000000 -0.000001 0.000000 1.220851
    43 -1.270733 0.000001 0.000000 -0.000001 0.000000 0.208138
    44 -5.679937 0.078274 0.132374 0.000000 -1.570796 1.619889
    45 0.000001 3.838816 0.000000 0.000000 0.000000 0.000000
    46 14.387007 -4.562330 -6.179144 1.456338 0.041286 0.021405
  time 4
    0 14.414100 -4.707344 -6.049955 1.602118 0.103038 1.594727
    1 -0.006659 0.337219 4.384488 -0.938186 0.000000 0.000000
    2 -0.006659 0.293999 2.752372 0.000000 0.000000 0.000000
    3 -0.006659 1.042511 2.142974 -0.872665 0.000000 0.000000
    4 15.132813 -15.000000 -12.078125 -1.919860 0.000000 -1.570796
    5 0.000000 0.000000 0.000000 0.728634 0.947515 0.951982
    6 11.703225 0.000001 0.000000 0.000000 0.000000 -0.901300
    7 11.501110 -0.000001 -0.000002 -2.300272 -0.377079 0.421593
    8 0.949223 0.526691 -0.818564 1.213119 0.712195 -0.032325
    9 1.978557 0.000000 0.000000 -0.000001 0.000000 0.329458
    10 1.087181 0.000001 -0.000001 0.000000 -0.000002 -0.377718
    11 3.863441 -0.167452 -1.277058 0.201233 -0.155209 1.099052
    12 1.666013 0.000000 0.000000 0.000000 -0.000001 1.555327
    13 1.292519 0.000000 -0.000001 0.000000 0.000001 0.270574
    14 3.927892 -0.566322 0.452259 0.056622 -0.078695 1.416164
    15 1.705974 -0.000003 0.000000 0.000000 -0.000001 1.471815
    16 1.292521 0.000000 0.000000 0.000000 0.000001 0.873163
    17 3.772599 -0.311787 1.300302 -0.090727 -0.047630 1.187230
    18 1.408095 -0.000002 0.000002 -0.000001 0.000000 2.038976
    19 0.986795 0.000001 0.000001 0.000000 0.000000 0.219433
    20 3.851021 -0.476093 -0.459795 0.124881 -0.135857 1.384537
    21 2.007647 0.000000 0.000000 -0.000001 0.000000 1.517032
    22 1.270734 0.000000 0.000000 -0.000001 0.000000 0.034546
    23 5.679938 -0.078274 -0.132372 0.000000 -1.570796 1.619889
    24 0.236208 -3.846334 -0.007084 0.040101 0.000000 0.000000
    25 0.138516 -13.281197 -4.937416 1.570796 0.000000 3.141548
    26 0.000000 0.000000 0.000000 0.289610 0.292780 1.280334
    27 -11.703224 -0.000001 0.000000 0.000000 0.000000 -1.533547
    28 -11.501109 0.000001 0.000002 -1.314484 -0.120306 -0.139174
    29 -0.949224 -0.526692 0.818564 1.538656 0.636254 0.123358
    30 -1.978556 0.000000 -0.000001 -0.000001 0.000000 0.200676
    31 -1.087186 0.000000 -0.000001 0.000000 -0.000002 -0.010523
    32 -3.863441 0.167450 1.277058 0.224973 0.188623 0.124260
    33 -1.666015 0.000001 0.000000 0.000000 -0.000001 0.086407
    34 -1.292520 0.000003 0.000001 0.000000 0.000001 0.081238
    35 -3.927893 0.566322 -0.452260 -0.162528 -0.029340 1.001336
    36 -1.705971 0.000003 0.000000 0.000000 -0.000001 0.846857
    37 -1.292521 0.000000 0.000000 0.000000 0.000001 0.134582
    38 -3.772597 0.311787 -1.300303 -0.160117 0.070998 1.138460
    39 -1.408095 0.000002 -0.000002 -0.000001 0.000000 0.786616
    40 -0.986795 0.000000 0.000001 0.000000 0.000000 0.069269
    41 -3.851022 0.476093 0.459796 0.007779 -0.076288 0.739769
    42 -2.007646 0.000000 0.000000 -0.000001 0.000000 0.987299
    43 -1.270733 0.000001 0.000000 -0.000001 0.000000 0.077705
    44 -5.679937 0.078274 0.132374 0.000000 -1.570796 1.619889
    45 0.000001 3.838816 0.000000 0.000000 0.000000 0.000000
    46 14.410445 -4.706866 -6.050233 1.467706 0.031127 0.020715
  time 5
    0 14.628951 -4.594060 -6.424966 1.542054 0.034378 1.580739
    1 -0.006659 0.337219 4.384488 -0.938186 0.000000 0.000000
    2 -0.006659 0.293999 2.752372 0.000000 0.000000 0.000000
    3 -0.006659 1.042511 2.142974 -0.872665 0.000000 0.000000
    4 15.132813 -15.000000 -12.078125 -1.919860 0.000000 -1.570796
    5 0.000000 0.000000 0.000000 0.702022 0.952692 0.887222
    6 11.703225 0.000001 0.000000 0.000000 0.000000 -0.869010
    7 11.501110 -0.000001 -0.000002 -2.251624 -0.346582 0.446040
    8 0.949223 0.526691 -0.818564 1.231142 0.651505 -0.003853
    9 1.978557 0.000000 0.000000 -0.000001 0.000000 0.168181
    10 1.087181 0.000001 -0.000001 0.000000 -0.000002 -0.375654
    11 3.863441 -0.167452 -1.277058 0.201233 -0.155209 1.099052
    12 1.666013 0.000000 0.000000 0.000000 -0.000001 1.555327
    13 1.292519 0.000000 -0.000001 0.000000 0.000001 0.270574
    14 3.927892 -0.566322 0.452259 0.056622 -0.078695 1.416164
    15 1.705974 -0.000003 0.000000 0.000000 -0.000001 1.471815
    16 1.292521 0.000000 0.000000 0.000000 0.000001 0.873163
    17 3.772599 -0.311787 1.300302 -0.090727 -0.047630 1.187230
    18 1.408095 -0.000002 0.000002 -0.000001 0.000000 2.038976
    19 0.986795 0.000001 0.000001 0.000000 0.000000 0.219433
    20 3.851021 -0.476093 -0.459795 0.124881 -0.135857 1.384537
    21 2.007647 0.000000 0.000000 -0.000001 0.000000 1.517032
    22 1.270734 0.000000 0.000000 -0.000001 0.000000 0.034546
    23 5.679938 -0.078274 -0.132372 0.000000 -1.570796 1.619889
    24 0.236208 -3.846334 -0.007084 0.040101 0.000000 0.000000
    25 0.318209 -13.281197 -5.476495 1.570796 0.000000 3.141548
    26 0.000000 0.000000 0.000000 0.295571 0.317023 1.240105
    27 -11.703224 -0.000001 0.000000 0.000000 0.000000 -1.467815
    28 -11.501109 0.000001 0.000002 -1.340317 -0.153631 -0.235474
    29 -0.949224 -0.526692 0.818564 1.600951 0.626095 0.202744
    30 -1.978556 0.000000 -0.000001 -0.000001 0.000000 0.300944
    31 -1.087186 0.000000 -0.000001 0.000000 -0.000002 0.112023
    32 -3.863441 0.167450 1.277058 0.224973 0.188623 0.124260
    33 -1.666015 0.000001 0.000000 0.000000 -0.000001 0.060169
    34 -1.292520 0.000003 0.000001 0.000000 0.000001 0.037121
    35 -3.927893 0.566322 -0.452260 -0.202413 -0.022964 0.989810
    36 -1.705971 0.000003 0.000000 0.000000 -0.000001 0.798829
    37 -1.292521 0.000000 0.000000 0.000000 0.000001 0.100662
    38 -3.772597 0.311787 -1.300303 -0.160117 0.070998 1.138460
    39 -1.408095 0.000002 -0.000002 -0.000001 0.000000 0.763635
    40 -0.986795 0.000000 0.000001 0.000000 0.000000 0.022048
    41 -3.851022 0.476093 0.459796 0.009912 -0.075593 0.711001
    42 -2.007646 0.000000 0.000000 -0.000001 0.000000 0.973715
    43 -1.270733 0.000001 0.000000 -0.000001 0.000000 0.040821
    44 -5.679937 0.078274 0.132374 0.000000 -1.570796 1.619889
    45 0.000001 3.838816 0.000000 0.000000 0.000000 0.000000
    46 14.629201 -4.593581 -6.425245 1.536409 -0.028741 0.010940
  time 6
    0 14.945367 -4.340146 -7.057798 1.455247 -0.067341 1.574475
    1 -0.006659 0.337219 4.384488 -0.938215 0.000000 0.000000
    2 -0.006659 0.293999 2.752372 0.000000 0.000000 0.000000
    3 -0.006659 1.042511 2.142974 -0.872665 0.000000 0.000000
    4 15.132813 -15.000000 -12.078125 -1.919860 0.000000 -1.570796
    5 0.000000 0.000000 0.000000 0.675130 0.953452 0.817251
    6 11.703225 0.000001 0.000000 0.000000 0.000000 -0.843000
    7 11.501110 -0.000001 -0.000002 -2.166955 -0.308347 0.482912
    8 0.949223 0.526691 -0.818564 1.242392 0.613802 0.013883
    9 1.978557 0.000000 0.000000 -0.000001 0.000000 0.067510
    10 1.087181 0.000001 -0.000001 0.000000 -0.000002 -0.373622
    11 3.863441 -0.167452 -1.277058 0.201233 -0.155209 1.099052
    12 1.666013 0.000000 0.000000 0.000000 -0.000001 1.555327
    13 1.292519 0.000000 -0.000001 0.000000 0.000001 0.270574
    14 3.927892 -0.566322 0.452259 0.056622 -0.078695 1.416164
    15 1.705974 -0.000003 0.000000 0.000000 -0.000001 1.471815
    16 1.292521 0.000000 0.000000 0.000000 0.000001 0.873163
    17 3.772599 -0.311787 1.300302 -0.090727 -0.047630 1.187230
    18 1.408095 -0.000002 0.000002 -0.000001 0.000000 2.038976
    19 0.986795 0.000001 0.000001 0.000000 0.000000 0.219433
    20 3.851021 -0.476093 -0.459795 0.124881 -0.135857 1.384537
    21 2.007647 0.000000 0.000000 -0.000001 0.000000 1.517032
    22 1.270734 0.000000 0.000000 -0.000001 0.000000 0.034546
    23 5.679938 -0.078274 -0.132372 0.000000 -1.570796 1.619889
    24 0.236208 -3.846334 -0.007084 0.040101 0.000000 0.000000
    25 0.103359 -13.281197 -4.824132 1.570796 0.000000 3.141548
    26 0.000000 0.000000 0.000000 0.258671 0.356628 1.161450
    27 -11.703224 -0.000001 0.000000 0.000000 0.000000 -1.215516
    28 -11.501109 0.000001 0.000002 -1.385328 -0.162208 -0.519009
    29 -0.949224 -0.526692 0.818564 1.553398 0.657664 0.163446
    30 -1.978556 0.000000 -0.000001 -0.000001 0.000000 0.270724
    31 -1.087186 0.000000 -0.000001 0.000000 -0.000002 0.075458
    32 -3.863441 0.167450 1.277058 0.224973 0.188623 0.124260
    33 -1.666015 0.000001 0.000000 0.000000 -0.000001 0.081404
    34 -1.292520 0.000003 0.000001 0.000000 0.000001 0.072821
    35 -3.927893 0.566322 -0.452260 -0.236210 -0.019333 0.965430
    36 -1.705971 0.000003 0.000000 0.000000 -0.000001 0.803826
    37 -1.292521 0.000000 0.000000 0.000000 0.000001 0.081552
    38 -3.772597 0.311787 -1.300303 -0.160117 0.070998 1.138460
    39 -1.408095 0.000002 -0.000002 -0.000001 0.000000 0.775953
    40 -0.986795 0.000000 0.000001 0.000000 0.000000 0.002463
    41 -3.851022 0.476093 0.459796 0.013544 -0.074550 0.661896
    42 -2.007646 0.000000 0.000000 -0.000001 0.000000 1.014505
    43 -1.270733 0.000001 0.000000 -0.000001 0.000000 0.038251
    44 -5.679937 0.078274 0.132374 0.000000 -1.570796 1.619889
    45 0.000001 3.838816 0.000000 0.000000 0.000000 0.000000
    46 14.941711 -4.339667 -7.058077 1.638606 -0.115289 -0.004162
  time 7
    0 15.168030 -4.164359 -7.475779 1.396746 -0.138100 1.580808
    1 -0.006659 0.337219 4.384488 -0.781827 0.000000 0.000000
    2 -0.006659 0.293999 2.752372 0.000000 0.000000 0.000000
    3 -0.006659 1.042511 2.142974 -0.872665 0.000000 0.000000
    4 15.132813 -15.000000 -12.078125 -1.919860 0.000000 -1.570796
    5 0.000000 0.000000 0.000000 0.660514 0.954083 0.775035
    6 11.703225 0.000001 0.000000 0.000000 0.000000 -0.828216
    7 11.501110 -0.000001 -0.000002 -2.105797 -0.289736 0.508790
    8 0.949223 0.526691 -0.818564 1.242392 0.613802 0.013883
    9 1.978557 0.000000 0.000000 -0.000001 0.000000 0.067510
    10 1.087181 0.000001 -0.000001 0.000000 -0.000002 -0.373622
    11 3.863441 -0.167452 -1.277058 0.201233 -0.155209 1.099052
    12 1.666013 0.000000 0.000000 0.000000 -0.000001 1.555327
    13 1.292519 0.000000 -0.000001 0.000000 0.000001 0.270574
    14 3.927892 -0.566322 0.452259 0.056622 -0.078695 1.416164
    15 1.705974 -0.000003 0.000000 0.000000 -0.000001 1.471815
    16 1.292521 0.000000 0.000000 0.000000 0.000001 0.873163
    17 3.772599 -0.311787 1.300302 -0.090727 -0.047630 1.187230
    18 1.408095 -0.000002 0.000002 -0.000001 0.000000 2.038976
    19 0.986795 0.000001 0.000001 0.000000 0.000000 0.219433
    20 3.851021 -0.476093 -0.459795 0.124881 -0.135857 1.384537
    21 2.007647 0.000000 0.000000 -0.000001 0.000000 1.517032
    22 1.270734 0.000000 0.000000 -0.000001 0.000000 0.034546
    23 5.679938 -0.078274 -0.132372 0.000000 -1.570796 1.619889
    24 0.236208 -3.846334 -0.007084 0.040101 0.000000 0.000000
    25 -0.392750 -13.281197 -3.355337 1.570796 0.000000 3.141548
    26 0.000000 0.000000 0.000000 0.239098 0.381419 1.162182
    27 -11.703224 -0.000001 0.000000 0.000000 0.000000 -1.077231
    28 -11.501109 0.000001 0.000002 -1.438576 -0.193954 -0.607468
    29 -0.949224 -0.526692 0.818564 1.454811 0.731491 0.064986
    30 -1.978556 0.000000 -0.000001 -0.000001 0.000000 0.205636
    31 -1.087186 0.000000 -0.000001 0.000000 -0.000002 -0.002412
    32 -3.863441 0.167450 1.277058 0.224973 0.188623 0.124260
    33 -1.666015 0.000001 0.000000 0.000000 -0.000001 0.135141
    34 -1.292520 0.000003 0.000001 0.000000 0.000001 0.163136
    35 -3.927893 0.566322 -0.452260 -0.235023 -0.029017 0.901534
    36 -1.705971 0.000003 0.000000 0.000000 -0.000001 0.811877
    37 -1.292521 0.000000 0.000000 0.000000 0.000001 0.103043
    38 -3.772597 0.311787 -1.300303 -0.160117 0.070998 1.138460
    39 -1.408095 0.000002 -0.000002 -0.000001 0.000000 0.745767
    40 -0.986795 0.000000 0.000001 0.000000 0.000000 -0.022341
    41 -3.851022 0.476093 0.459796 0.018901 -0.072920 0.588360
    42 -2.007646 0.000000 0.000000 -0.000001 0.000000 1.012425
    43 -1.270733 0.000001 0.000000 -0.000001 0.000000 0.056357
    44 -5.679937 0.078274 0.132374 0.000000 -1.570796 1.619889
    45 0.000001 3.838816 0.000000 0.000000 0.000000 0.000000
    46 15.164374 -4.163880 -7.476058 1.710991 -0.172374 -0.014250
  time 8
    0 15.238344 -4.168265 -7.452341 1.395002 -0.156632 1.584775
    1 -0.006659 0.337219 4.384488 -0.609834 0.000000 0.000000
    2 -0.006659 0.293999 2.752372 0.000000 0.000000 0.000000
    3 -0.006659 1.042511 2.142974 -0.872665 0.000000 0.000000
    4 15.132813 -15.000000 -12.078125 -1.919860 0.000000 -1.570796
    5 0.000000 0.000000 0.000000 0.652182 0.955783 0.759092
    6 11.703225 0.000001 0.000000 0.000000 0.000000 -0.817601
    7 11.501110 -0.000001 -0.000002 -2.100878 -0.291303 0.520325
    8 0.949223 0.526691 -0.818564 1.242392 0.613802 0.013883
    9 1.978557 0.000000 0.000000 -0.000001 0.000000 0.067510
    10 1.087181 0.000001 -0.000001 0.000000 -0.000002 -0.373622
    11 3.863441 -0.167452 -1.277058 0.201233 -0.155209 1.099052
    12 1.666013 0.000000 0.000000 0.000000 -0.000001 1.555327
    13 1.292519 0.000000 -0.000001 0.000000 0.000001 0.270574
    14 3.927892 -0.566322 0.452259 0.056622 -0.078695 1.416164
    15 1.705974 -0.000003 0.000000 0.000000 -0.000001 1.471815
    16 1.292521 0.000000 0.000000 0.000000 0.000001 0.873163
    17 3.772599 -0.311787 1.300302 -0.090727 -0.047630 1.187230
    18 1.408095 -0.000002 0.000002 -0.000001 0.000000 2.038976
    19 0.986795 0.000001 0.000001 0.000000 0.000000 0.219433
    20 3.851021 -0.476093 -0.459795 0.124881 -0.135857 1.384537
    21 2.007647 0.000000 0.000000 -0.000001 0.000000 1.517032
    22 1.270734 0.000000 0.000000 -0.000001 0.000000 0.034546
    23 5.679938 -0.078274 -0.132372 0.000000 -1.570796 1.619889
    24 0.236208 -3.846334 -0.007084 0.040101 0.000000 0.000000
    25 -0.966987 -13.281197 -1.644347 1.570796 0.000000 3.141548
    26 0.000000 0.000000 0.000000 0.231933 0.380872 1.211774
    27 -11.703224 -0.000001 0.000000 0.000000 0.000000 -1.052343
    28 -11.501109 0.000001 0.000002 -1.474887 -0.210929 -0.568810
    29 -0.949224 -0.526692 0.818564 1.390696 0.810313 -0.007327
    30 -1.978556 0.000000 -0.000001 -0.000001 0.000000 0.135358
    31 -1.087186 0.000000 -0.000001 0.000000 -0.000002 -0.085678
    32 -3.863441 0.167450 1.277058 0.224973 0.188623 0.124260
    33 -1.666015 0.000001 0.000000 0.000000 -0.000001 0.206370
    34 -1.292520 0.000003 0.000001 0.000000 0.000001 0.282862
    35 -3.927893 0.566322 -0.452260 -0.208489 -0.048479 0.807004
    36 -1.705971 0.000003 0.000000 0.000000 -0.000001 0.839674
    37 -1.292521 0.000000 0.000000 0.000000 0.000001 0.156595
    38 -3.772597 0.311787 -1.300303 -0.160117 0.070998 1.138460
    39 -1.408095 0.000002 -0.000002 -0.000001 0.000000 0.698990
    40 -0.986795 0.000000 0.000001 0.000000 0.000000 -0.041428
    41 -3.851022 0.476093 0.459796 0.025912 -0.070799 0.491750
    42 -2.007646 0.000000 0.000000 -0.000001 0.000000 0.999901
    43 -1.270733 0.000001 0.000000 -0.000001 0.000000 0.099667
    44 -5.679937 0.078274 0.132374 0.000000 -1.570796 1.619889
    45 0.000001 3.838816 0.000000 0.000000 0.000000 0.000000
    46 15.238595 -4.167787 -7.452620 1.729828 -0.173603 -0.013749
  time 9
    0 15.214906 -4.250299 -7.206240 1.423853 -0.146499 1.584149
    1 -0.006659 0.337219 4.384488 -0.422180 0.000000 0.000000
    2 -0.006659 0.293999 2.752372 0.000000 0.000000 0.000000
    3 -0.006659 1.042511 2.142974 -0.872665 0.000000 0.000000
    4 15.132813 -15.000000 -12.078125 -1.919860 0.000000 -1.570796
    5 0.000000 0.000000 0.000000 0.649295 0.956568 0.760709
    6 11.703225 0.000001 0.000000 0.000000 0.000000 -0.813599
    7 11.501110 -0.000001 -0.000002 -2.126325 -0.301216 0.525673
    8 0.949223 0.526691 -0.818564 1.242392 0.613802 0.013883
    9 1.978557 0.000000 0.000000 -0.000001 0.000000 0.067510
    10 1.087181 0.000001 -0.000001 0.000000 -0.000002 -0.373622
    11 3.863441 -0.167452 -1.277058 0.201233 -0.155209 1.099052
    12 1.666013 0.000000 0.000000 0.000000 -0.000001 1.555327
    13 1.292519 0.000000 -0.000001 0.000000 0.000001 0.270574
    14 3.927892 -0.566322 0.452259 0.056622 -0.078695 1.416164
    15 1.705974 -0.000003 0.000000 0.000000 -0.000001 1.471815
    16 1.292521 0.000000 0.000000 0.000000 0.000001 0.873163
    17 3.772599 -0.311787 1.300302 -0.090727 -0.047630 1.187230
    18 1.408095 -0.000002 0.000002 -0.000001 0.000000 2.038976
    19 0.986795 0.000001 0.000001 0.000000 0.000000 0.219433
    20 3.851021 -0.476093 -0.459795 0.124881 -0.135857 1.384537
    21 2.007647 0.000000 0.000000 -0.000001 0.000000 1.517032
    22 1.270734 0.000000 0.000000 -0.000001 0.000000 0.034546
    23 5.679938 -0.078274 -0.132372 0.000000 -1.570796 1.619889
    24 0.236208 -3.846334 -0.007084 0.040101 0.000000 0.000000
    25 -1.427938 -13.281197 -0.269305 1.570796 0.000000 3.141548
    26 0.000000 0.000000 0.000000 0.255025 0.368051 1.301399
    27 -11.703224 -0.000001 0.000000 0.000000 0.000000 -1.170191
    28 -11.501109 0.000001 0.000002 -1.492219 -0.247618 -0.364516
    29 -0.949224 -0.526692 0.818564 1.446579 0.856868 0.031851
    30 -1.978556 0.000000 -0.000001 -0.000001 0.000000 0.089569
    31 -1.087186 0.000000 -0.000001 0.000000 -0.000002 -0.138464
    32 -3.863441 0.167450 1.277058 0.224973 0.188623 0.124260
    33 -1.666015 0.000001 0.000000 0.000000 -0.000001 0.280121
    34 -1.292520 0.000003 0.000001 0.000000 0.000001 0.406748
    35 -3.927893 0.566322 -0.452260 -0.173698 -0.068626 0.718698
    36 -1.705971 0.000003 0.000000 0.000000 -0.000001 0.886557
    37 -1.292521 0.000000 0.000000 0.000000 0.000001 0.217002
    38 -3.772597 0.311787 -1.300303 -0.160117 0.070998 1.138460
    39 -1.408095 0.000002 -0.000002 -0.000001 0.000000 0.667234
    40 -0.986795 0.000000 0.000001 0.000000 0.000000 -0.043466
    41 -3.851022 0.476093 0.459796 0.032288 -0.068893 0.403811
    42 -2.007646 0.000000 0.000000 -0.000001 0.000000 1.001825
    43 -1.270733 0.000001 0.000000 -0.000001 0.000000 0.154937
    44 -5.679937 0.078274 0.132374 0.000000 -1.570796 1.619889
    45 0.000001 3.838816 0.000000 0.000000 0.000000 0.000000
    46 15.215157 -4.249820 -7.206519 1.718855 -0.145368 -0.008297
  time 10
    0 15.082089 -4.316707 -6.944513 1.459644 -0.114221 1.579416
    1 -0.006659 0.337219 4.384488 -0.218892 0.000000 0.000000
    2 -0.006659 0.293999 2.752372 0.000000 0.000000 0.000000
    3 -0.006659 1.042511 2.142974 -0.872665 0.000000 0.000000
    4 15.132813 -15.000000 -12.078125 -1.919860 0.000000 -1.570796
    5 0.000000 0.000000 0.000000 0.659687 0.955190 0.785230
    6 11.703225 0.000001 0.000000 0.000000 0.000000 -0.825687
    7 11.501110 -0.000001 -0.000002 -2.161959 -0.311989 0.522323
    8 0.949223 0.526691 -0.818564 1.241726 0.616223 0.012803
    9 1.978557 0.000000 0.000000 -0.000001 0.000000 0.072819
    10 1.087181 0.000001 -0.000001 0.000000 -0.000002 -0.372106
    11 3.863441 -0.167452 -1.277058 0.201233 -0.155209 1.099052
    12 1.666013 0.000000 0.000000 0.000000 -0.000001 1.555327
    13 1.292519 0.000000 -0.000001 0.000000 0.000001 0.270574
    14 3.927892 -0.566322 0.452259 0.056622 -0.078695 1.416164
    15 1.705974 -0.000003 0.000000 0.000000 -0.000001 1.471815
    16 1.292521 0.000000 0.000000 0.000000 0.000001 0.873163
    17 3.772599 -0.311787 1.300302 -0.090727 -0.047630 1.187230
    18 1.408095 -0.000002 0.000002 -0.000001 0.000000 2.038976
    19 0.986795 0.000001 0.000001 0.000000 0.000000 0.219433
    20 3.851021 -0.476093 -0.459795 0.124881 -0.135857 1.384537
    21 2.007647 0.000000 0.000000 -0.000001 0.000000 1.517032
    22 1.270734 0.000000 0.000000 -0.000001 0.000000 0.034546
    23 5.679938 -0.078274 -0.132372 0.000000 -1.570796 1.619889
    24 0.236208 -3.846334 -0.007084 0.040101 0.000000 0.000000
    25 -1.744354 -13.281197 0.668223 1.570796 0.000000 3.141548
    26 0.000000 0.000000 0.000000 0.299055 0.353952 1.378152
    27 -11.703224 -0.000001 0.000000 0.000000 0.000000 -1.360339
    28 -11.501109 0.000001 0.000002 -1.503291 -0.321295 -0.003528
    29 -0.949224 -0.526692 0.818564 1.675297 0.867965 0.230951
    30 -1.978556 0.000000 -0.000001 -0.000001 0.000000 0.063434
    31 -1.087186 0.000000 -0.000001 0.000000 -0.000002 -0.168095
    32 -3.863441 0.167450 1.277058 0.224973 0.188623 0.124260
    33 -1.666015 0.000001 0.000000 0.000000 -0.000001 0.341343
    34 -1.292520 0.000003 0.000001 0.000000 0.000001 0.509640
    35 -3.927893 0.566322 -0.452260 -0.147775 -0.080323 0.673397
    36 -1.705971 0.000003 0.000000 0.000000 -0.000001 0.952075
    37 -1.292521 0.000000 0.000000 0.000000 0.000001 0.259170
    38 -3.772597 0.311787 -1.300303 -0.160117 0.070998 1.138460
    39 -1.408095 0.000002 -0.000002 -0.000001 0.000000 0.682168
    40 -0.986795 0.000000 0.000001 0.000000 0.000000 -0.017072
    41 -3.851022 0.476093 0.459796 0.035751 -0.067922 0.356268
    42 -2.007646 0.000000 0.000000 -0.000001 0.000000 1.043125
    43 -1.270733 0.000001 0.000000 -0.000001 0.000000 0.209088
    44 -5.679937 0.078274 0.132374 0.000000 -1.570796 1.619889
    45 0.000001 3.838816 0.000000 0.000000 0.000000 0.000000
    46 15.082340 -4.316229 -6.944792 1.685718 -0.110409 -0.004099
  time 11
    0 14.902396 -4.332333 -6.776539 1.488277 -0.077889 1.574475
    1 -0.006659 0.337219 4.384488 0.000000 0.000000 0.000000
    2 -0.006659 0.293999 2.752372 0.000000 0.000000 0.000000
    3 -0.006659 1.042511 2.142974 -0.872665 0.000000 0.000000
    4 15.132813 -15.000000 -12.078125 -1.919860 0.000000 -1.570796
    5 0.000000 0.000000 0.000000 0.678603 0.951494 0.822730
    6 11.703225 0.000001 0.000000 0.000000 0.000000 -0.849363
    7 11.501110 -0.000001 -0.000002 -2.190466 -0.320738 0.515219
    8 0.949223 0.526691 -0.818564 1.240426 0.621052 0.010642
    9 1.978557 0.000000 0.000000 -0.000001 0.000000 0.083462
    10 1.087181 0.000001 -0.000001 0.000000 -0.000002 -0.369043
    11 3.863441 -0.167452 -1.277058 0.201233 -0.155209 1.099052
    12 1.666013 0.000000 0.000000 0.000000 -0.000001 1.555327
    13 1.292519 0.000000 -0.000001 0.000000 0.000001 0.270574
    14 3.927892 -0.566322 0.452259 0.056622 -0.078695 1.416164
    15 1.705974 -0.000003 0.000000 0.000000 -0.000001 1.471815
    16 1.292521 0.000000 0.000000 0.000000 0.000001 0.873163
    17 3.772599 -0.311787 1.300302 -0.090727 -0.047630 1.187230
    18 1.408095 -0.000002 0.000002 -0.000001 0.000000 2.038976
    19 0.986795 0.000001 0.000001 0.000000 0.000000 0.219433
    20 3.851021 -0.476093 -0.459795 0.124881 -0.135857 1.384537
    21 2.007647 0.000000 0.000000 -0.000001 0.000000 1.517032
    22 1.270734 0.000000 0.000000 -0.000001 0.000000 0.034546
    23 5.679938 -0.078274 -0.132372 0.000000 -1.570796 1.619889
    24 0.236208 -3.846334 -0.007084 0.040101 0.000000 0.000000
    25 -2.009987 -13.281197 1.465123 1.570796 0.000000 3.141548
    26 0.000000 0.000000 0.000000 0.339206 0.348218 1.375958
    27 -11.703224 -0.000001 0.000000 0.000000 0.000000 -1.500089
    28 -11.501109 0.000001 0.000002 -1.565568 -0.415164 0.461188
    29 -0.949224 -0.526692 0.818564 1.918401 0.853202 0.444627
    30 -1.978556 0.000000 -0.000001 -0.000001 0.000000 0.071416
    31 -1.087186 0.000000 -0.000001 0.000000 -0.000002 -0.152560
    32 -3.863441 0.167450 1.277058 0.224973 0.188623 0.124260
    33 -1.666015 0.000001 0.000000 0.000000 -0.000001 0.375067
    34 -1.292520 0.000003 0.000001 0.000000 0.000001 0.566334
    35 -3.927893 0.566322 -0.452260 -0.133562 -0.082048 0.677294
    36 -1.705971 0.000003 0.000000 0.000000 -0.000001 1.036125
    37 -1.292521 0.000000 0.000000 0.000000 0.000001 0.278860
    38 -3.772597 0.311787 -1.300303 -0.160117 0.070998 1.138460
    39 -1.408095 0.000002 -0.000002 -0.000001 0.000000 0.749021
    40 -0.986795 0.000000 0.000001 0.000000 0.000000 0.039594
    41 -3.851022 0.476093 0.459796 0.035907 -0.067994 0.354413
    42 -2.007646 0.000000 0.000000 -0.000001 0.000000 1.127925
    43 -1.270733 0.000001 0.000000 -0.000001 0.000000 0.259831
    44 -5.679937 0.078274 0.132374 0.000000 -1.570796 1.619889
    45 0.000001 3.838816 0.000000 0.000000 0.000000 0.000000
    46 14.902647 -4.331854 -6.776818 1.648936 -0.082246 -0.002783
  time 12
    0 14.750048 -4.328427 -6.671067 1.511859 -0.050225 1.571970
    1 -0.006659 0.337219 4.384488 0.000000 0.000000 0.000000
    2 -0.006659 0.293999 2.752372 0.000000 0.000000 0.000000
    3 -0.006659 1.042511 2.142974 -0.872665 0.000000 0.000000
    4 15.132813 -15.000000 -12.078125 -1.919860 0.000000 -1.570796
    5 0.000000 0.000000 0.000000 0.696501 0.946678 0.859377
    6 11.703225 0.000001 0.000000 0.000000 0.000000 -0.873706
    7 11.501110 -0.000001 -0.000002 -2.209909 -0.329058 0.511302
    8 0.949223 0.526691 -0.818564 1.238430 0.628291 0.007401
    9 1.978557 0.000000 0.000000 -0.000001 0.000000 0.099425
    10 1.087181 0.000001 -0.000001 0.000000 -0.000002 -0.364431
    11 3.863441 -0.167452 -1.277058 0.201233 -0.155209 1.099052
    12 1.666013 0.000000 0.000000 0.000000 -0.000001 1.555327
    13 1.292519 0.000000 -0.000001 0.000000 0.000001 0.270574
    14 3.927892 -0.566322 0.452259 0.056622 -0.078695 1.416164
    15 1.705974 -0.000003 0.000000 0.000000 -0.000001 1.471815
    16 1.292521 0.000000 0.000000 0.000000 0.000001 0.873163
    17 3.772599 -0.311787 1.300302 -0.090727 -0.047630 1.187230
    18 1.408095 -0.000002 0.000002 -0.000001 0.000000 2.038976
    19 0.986795 0.000001 0.000001 0.000000 0.000000 0.219433
    20 3.851021 -0.476093 -0.459795 0.124881 -0.135857 1.384537
    21 2.007647 0.000000 0.000000 -0.000001 0.000000 1.517032
    22 1.270734 0.000000 0.000000 -0.000001 0.000000 0.034546
    23 5.679938 -0.078274 -0.132372 0.000000 -1.570796 1.619889
    24 0.236208 -3.846334 -0.007084 0.040101 0.000000 0.000000
    25 -2.228744 -13.281197 2.113580 1.570796 0.000000 3.141548
    26 0.000000 0.000000 0.000000 0.331125 0.354469 1.347188
    27 -11.703224 -0.000001 0.000000 0.000000 0.000000 -1.457076
    28 -11.501109 0.000001 0.000002 -1.536966 -0.452866 0.565743
    29 -0.949224 -0.526692 0.818564 2.057615 0.794865 0.568702
    30 -1.978556 0.000000 -0.000001 -0.000001 0.000000 0.166495
    31 -1.087186 0.000000 -0.000001 0.000000 -0.000002 -0.014545
    32 -3.863441 0.167450 1.277058 0.224973 0.188623 0.124260
    33 -1.666015 0.000001 0.000000 0.000000 -0.000001 0.386295
    34 -1.292520 0.000003 0.000001 0.000000 0.000001 0.585199
    35 -3.927893 0.566322 -0.452260 -0.122512 -0.078369 0.711931
    36 -1.705971 0.000003 0.000000 0.000000 -0.000001 1.138914
    37 -1.292521 0.000000 0.000000 0.000000 0.000001 0.288734
    38 -3.772597 0.311787 -1.300303 -0.160117 0.070998 1.138460
    39 -1.408095 0.000002 -0.000002 -0.000001 0.000000 0.851987
    40 -0.986795 0.000000 0.000001 0.000000 0.000000 0.120915
    41 -3.851022 0.476093 0.459796 0.033906 -0.068773 0.382372
    42 -2.007646 0.000000 0.000000 -0.000001 0.000000 1.243857
    43 -1.270733 0.000001 0.000000 -0.000001 0.000000 0.313759
    44 -5.679937 0.078274 0.132374 0.000000 -1.570796 1.619889
    45 0.000001 3.838816 0.000000 0.000000 0.000000 0.000000
    46 14.750299 -4.327948 -6.671346 1.621126 -0.058856 -0.001781
  time 13
    0 14.625044 -4.312801 -6.608565 1.530935 -0.030008 1.570926
    1 -0.006659 0.337219 4.384488 0.000000 0.000000 0.000000
    2 -0.006659 0.293999 2.752372 0.000000 0.000000 0.000000
    3 -0.006659 1.042511 2.142974 -0.872665 0.000000 0.000000
    4 15.132813 -15.000000 -12.078125 -1.919860 0.000000 -1.570796
    5 0.000000 0.000000 0.000000 0.712339 0.941372 0.892925
    6 11.703225 0.000001 0.000000 0.000000 0.000000 -0.896881
    7 11.501110 -0.000001 -0.000002 -2.222381 -0.336290 0.509709
    8 0.949223 0.526691 -0.818564 1.235799 0.637951 0.003080
    9 1.978557 0.000000 0.000000 -0.000001 0.000000 0.120698
    10 1.087181 0.000001 -0.000001 0.000000 -0.000002 -0.358335
    11 3.863441 -0.167452 -1.277058 0.201233 -0.155209 1.099052
    12 1.666013 0.000000 0.000000 0.000000 -0.000001 1.555327
    13 1.292519 0.000000 -0.000001 0.000000 0.000001 0.270574
    14 3.927892 -0.566322 0.452259 0.056622 -0.078695 1.416164
    15 1.705974 -0.000003 0.000000 0.000000 -0.000001 1.471815
    16 1.292521 0.000000 0.000000 0.000000 0.000001 0.873163
    17 3.772599 -0.311787 1.300302 -0.090727 -0.047630 1.187230
    18 1.408095 -0.000002 0.000002 -0.000001 0.000000 2.038976
    19 0.986795 0.000001 0.000001 0.000000 0.000000 0.219433
    20 3.851021 -0.476093 -0.459795 0.124881 -0.135857 1.384537
    21 2.007647 0.000000 0.000000 -0.000001 0.000000 1.517032
    22 1.270734 0.000000 0.000000 -0.000001 0.000000 0.034546
    23 5.679938 -0.078274 -0.132372 0.000000 -1.570796 1.619889
    24 0.236208 -3.846334 -0.007084 0.040101 0.000000 0.000000
    25 -2.228744 -13.281197 2.113580 1.570796 0.000000 3.141548
    26 0.000000 0.000000 0.000000 0.339170 0.355929 1.353527
    27 -11.703224 -0.000001 0.000000 0.000000 0.000000 -1.475877
    28 -11.501109 0.000001 0.000002 -1.529454 -0.469454 0.600824
    29 -0.949224 -0.526692 0.818564 2.134137 0.704652 0.638886
    30 -1.978556 0.000000 -0.000001 -0.000001 0.000000 0.315200
    31 -1.087186 0.000000 -0.000001 0.000000 -0.000002 0.195322
    32 -3.863441 0.167450 1.277058 0.224973 0.188623 0.124260
    33 -1.666015 0.000001 0.000000 0.000000 -0.000001 0.390038
    34 -1.292520 0.000003 0.000001 0.000000 0.000001 0.591487
    35 -3.927893 0.566322 -0.452260 -0.114614 -0.069273 0.777322
    36 -1.705971 0.000003 0.000000 0.000000 -0.000001 1.260511
    37 -1.292521 0.000000 0.000000 0.000000 0.000001 0.288734
    38 -3.772597 0.311787 -1.300303 -0.160117 0.070998 1.138460
    39 -1.408095 0.000002 -0.000002 -0.000001 0.000000 0.991068
    40 -0.986795 0.000000 0.000001 0.000000 0.000000 0.226841
    41 -3.851022 0.476093 0.459796 0.029735 -0.070247 0.440147
    42 -2.007646 0.000000 0.000000 -0.000001 0.000000 1.390804
    43 -1.270733 0.000001 0.000000 -0.000001 0.000000 0.370928
    44 -5.679937 0.078274 0.132374 0.000000 -1.570796 1.619889
    45 0.000001 3.838816 0.000000 0.000000 0.000000 0.000000
    46 14.621389 -4.312322 -6.608844 1.600822 -0.039840 -0.001029
  time 14
    0 14.523479 -4.293269 -6.577314 1.545906 -0.015871 1.570648
    1 -0.006659 0.337219 4.384488 0.000000 0.000000 0.000000
    2 -0.006659 0.293999 2.752372 0.000000 0.000000 0.000000
    3 -0.006659 1.042511 2.142974 -0.872665 0.000000 0.000000
    4 15.132813 -15.000000 -12.078125 -1.919860 0.000000 -1.570796
    5 0.000000 0.000000 0.000000 0.724983 0.936504 0.920994
    6 11.703225 0.000001 0.000000 0.000000 0.000000 -0.916389
    7 11.501110 -0.000001 -0.000002 -2.230011 -0.342132 0.509303
    8 0.949223 0.526691 -0.818564 1.232503 0.650019 -0.002322
    9 1.978557 0.000000 0.000000 -0.000001 0.000000 0.147292
    10 1.087181 0.000001 -0.000001 0.000000 -0.000002 -0.350692
    11 3.863441 -0.167452 -1.277058 0.201233 -0.155209 1.099052
    12 1.666013 0.000000 0.000000 0.000000 -0.000001 1.555327
    13 1.292519 0.000000 -0.000001 0.000000 0.000001 0.270574
    14 3.927892 -0.566322 0.452259 0.056622 -0.078695 1.416164
    15 1.705974 -0.000003 0.000000 0.000000 -0.000001 1.471815
    16 1.292521 0.000000 0.000000 0.000000 0.000001 0.873163
    17 3.772599 -0.311787 1.300302 -0.090727 -0.047630 1.187230
    18 1.408095 -0.000002 0.000002 -0.000001 0.000000 2.038976
    19 0.986795 0.000001 0.000001 0.000000 0.000000 0.219433
    20 3.851021 -0.476093 -0.459795 0.124881 -0.135857 1.384537
    21 2.007647 0.000000 0.000000 -0.000001 0.000000 1.517032
    22 1.270734 0.000000 0.000000 -0.000001 0.000000 0.034546
    23 5.679938 -0.078274 -0.132372 0.000000 -1.570796 1.619889
    24 0.236208 -3.846334 -0.007084 0.040101 0.000000 0.000000
    25 -2.228744 -13.281197 2.113580 1.570796 0.000000 3.141548
    26 0.000000 0.000000 0.000000 0.345329 0.357419 1.358403
    27 -11.703224 -0.000001 0.000000 0.000000 0.000000 -1.488758
    28 -11.501109 0.000001 0.000002 -1.525104 -0.481664 0.626687
    29 -0.949224 -0.526692 0.818564 2.155687 0.608632 0.659556
    30 -1.978556 0.000000 -0.000001 -0.000001 0.000000 0.446273
    31 -1.087186 0.000000 -0.000001 0.000000 -0.000002 0.365256
    32 -3.863441 0.167450 1.277058 0.224973 0.188623 0.124260
    33 -1.666015 0.000001 0.000000 0.000000 -0.000001 0.386295
    34 -1.292520 0.000003 0.000001 0.000000 0.000001 0.585199
    35 -3.927893 0.566322 -0.452260 -0.109868 -0.054771 0.873483
    36 -1.705971 0.000003 0.000000 0.000000 -0.000001 1.400917
    37 -1.292521 0.000000 0.000000 0.000000 0.000001 0.278860
    38 -3.772597 0.311787 -1.300303 -0.160117 0.070998 1.138460
    39 -1.408095 0.000002 -0.000002 -0.000001 0.000000 1.166291
    40 -0.986795 0.000000 0.000001 0.000000 0.000000 0.357421
    41 -3.851022 0.476093 0.459796 0.023419 -0.072417 0.527756
    42 -2.007646 0.000000 0.000000 -0.000001 0.000000 1.568843
    43 -1.270733 0.000001 0.000000 -0.000001 0.000000 0.431339
    44 -5.679937 0.078274 0.132374 0.000000 -1.570796 1.619889
    45 0.000001 3.838816 0.000000 0.000000 0.000000 0.000000
    46 14.523729 -4.292791 -6.577593 1.586667 -0.024873 -0.000527
  time 15
    0 14.453164 -4.273737 -6.557783 1.557206 -0.006446 1.570717
    1 -0.006659 0.337219 4.384488 0.000000 0.000000 0.000000
    2 -0.006659 0.293999 2.752372 0.000000 0.000000 0.000000
    3 -0.006659 1.042511 2.142974 -0.872665 0.000000 0.000000
    4 15.132813 -15.000000 -12.078125 -1.919860 0.000000 -1.570796
    5 0.000000 0.000000 0.000000 0.734231 0.932576 0.942237
    6 11.703225 0.000001 0.000000 0.000000 0.000000 -0.931256
    7 11.501110 -0.000001 -0.000002 -2.234853 -0.346507 0.509736
    8 0.949223 0.526691 -0.818564 1.228542 0.664508 -0.008782
    9 1.978557 0.000000 0.000000 -0.000001 0.000000 0.179219
    10 1.087181 0.000001 -0.000001 0.000000 -0.000002 -0.341500
    11 3.863441 -0.167452 -1.277058 0.201233 -0.155209 1.099052
    12 1.666013 0.000000 0.000000 0.000000 -0.000001 1.555327
    13 1.292519 0.000000 -0.000001 0.000000 0.000001 0.270574
    14 3.927892 -0.566322 0.452259 0.056622 -0.078695 1.416164
    15 1.705974 -0.000003 0.000000 0.000000 -0.000001 1.471815
    16 1.292521 0.000000 0.000000 0.000000 0.000001 0.873163
    17 3.772599 -0.311787 1.300302 -0.090727 -0.047630 1.187230
    18 1.408095 -0.000002 0.000002 -0.000001 0.000000 2.038976
    19 0.986795 0.000001 0.000001 0.000000 0.000000 0.219433
    20 3.851021 -0.476093 -0.459795 0.124881 -0.135857 1.384537
    21 2.007647 0.000000 0.000000 -0.000001 0.000000 1.517032
    22 1.270734 0.000000 0.000000 -0.000001 0.000000 0.034546
    23 5.679938 -0.078274 -0.132372 0.000000 -1.570796 1.619889
    24 0.236208 -3.846334 -0.007084 0.040101 0.000000 0.000000
    25 -2.228744 -13.281197 2.113580 1.570796 0.000000 3.141548
    26 0.000000 0.000000 0.000000 0.349800 0.358651 1.361719
    27 -11.703224 -0.000001 0.000000 0.000000 0.000000 -1.497440
    28 -11.501109 0.000001 0.000002 -1.523061 -0.490240 0.645672
    29 -0.949224 -0.526692 0.818564 2.124876 0.515495 0.632156
    30 -1.978556 0.000000 -0.000001 -0.000001 0.000000 0.535996
    31 -1.087186 0.000000 -0.000001 0.000000 -0.000002 0.457942
    32 -3.863441 0.167450 1.277058 0.224973 0.188623 0.124260
    33 -1.666015 0.000001 0.000000 0.000000 -0.000001 0.375067
    34 -1.292520 0.000003 0.000001 0.000000 0.000001 0.566334
    35 -3.927893 0.566322 -0.452260 -0.108298 -0.034865 1.000384
    36 -1.705971 0.000003 0.000000 0.000000 -0.000001 1.560063
    37 -1.292521 0.000000 0.000000 0.000000 0.000001 0.259170
    38 -3.772597 0.311787 -1.300303 -0.160117 0.070998 1.138460
    39 -1.408095 0.000002 -0.000002 -0.000001 0.000000 1.377599
    40 -0.986795 0.000000 0.000001 0.000000 0.000000 0.512607
    41 -3.851022 0.476093 0.459796 0.014946 -0.075269 0.645161
    42 -2.007646 0.000000 0.000000 -0.000001 0.000000 1.777937
    43 -1.270733 0.000001 0.000000 -0.000001 0.000000 0.494879
    44 -5.679937 0.078274 0.132374 0.000000 -1.570796 1.619889
    45 0.000001 3.838816 0.000000 0.000000 0.000000 0.000000
    46 14.453415 -4.273259 -6.558061 1.577230 -0.013593 -0.000151
  time 16
    0 14.414100 -4.265925 -6.534344 1.565200 -0.000342 1.570856
    1 -0.006659 0.337219 4.384488 0.000000 0.000000 0.000000
    2 -0.006659 0.293999 2.752372 0.000000 0.000000 0.000000
    3 -0.006659 1.042511 2.142974 -0.872665 0.000000 0.000000
    4 15.132813 -15.000000 -12.078125 -1.919860 0.000000 -1.570796
    5 0.000000 0.000000 0.000000 0.739599 0.930335 0.954991
    6 11.703225 0.000001 0.000000 0.000000 0.000000 -0.939814
    7 11.501110 -0.000001 -0.000002 -2.238804 -0.349541 0.510087
    8 0.949223 0.526691 -0.818564 1.223915 0.681407 -0.016345
    9 1.978557 0.000000 0.000000 -0.000001 0.000000 0.216455
    10 1.087181 0.000001 -0.000001 0.000000 -0.000002 -0.330793
    11 3.863441 -0.167452 -1.277058 0.201233 -0.155209 1.099052
    12 1.666013 0.000000 0.000000 0.000000 -0.000001 1.555327
    13 1.292519 0.000000 -0.000001 0.000000 0.000001 0.270574
    14 3.927892 -0.566322 0.452259 0.056622 -0.078695 1.416164
    15 1.705974 -0.000003 0.000000 0.000000 -0.000001 1.471815
    16 1.292521 0.000000 0.000000 0.000000 0.000001 0.873163
    17 3.772599 -0.311787 1.300302 -0.090727 -0.047630 1.187230
    18 1.408095 -0.000002 0.000002 -0.000001 0.000000 2.038976
    19 0.986795 0.000001 0.000001 0.000000 0.000000 0.219433
    20 3.851021 -0.476093 -0.459795 0.124881 -0.135857 1.384537
    21 2.007647 0.000000 0.000000 -0.000001 0.000000 1.517032
    22 1.270734 0.000000 0.000000 -0.000001 0.000000 0.034546
    23 5.679938 -0.078274 -0.132372 0.000000 -1.570796 1.619889
    24 0.236208 -3.846334 -0.007084 0.040101 0.000000 0.000000
    25 -2.228744 -13.281197 2.113580 1.570796 0.000000 3.141548
    26 0.000000 0.000000 0.000000 0.352763 0.359336 1.363182
    27 -11.703224 -0.000001 0.000000 0.000000 0.000000 -1.503584
    28 -11.501109 0.000001 0.000002 -1.522666 -0.495809 0.660117
    29 -0.949224 -0.526692 0.818564 2.039112 0.416550 0.555242
    30 -1.978556 0.000000 -0.000001 -0.000001 0.000000 0.608066
    31 -1.087186 0.000000 -0.000001 0.000000 -0.000002 0.510662
    32 -3.863441 0.167450 1.277058 0.224973 0.188623 0.124260
    33 -1.666015 0.000001 0.000000 0.000000 -0.000001 0.375067
    34 -1.292520 0.000003 0.000001 0.000000 0.000001 0.566334
    35 -3.927893 0.566322 -0.452260 -0.108298 -0.034865 1.000384
    36 -1.705971 0.000003 0.000000 0.000000 -0.000001 1.560063
    37 -1.292521 0.000000 0.000000 0.000000 0.000001 0.259170
    38 -3.772597 0.311787 -1.300303 -0.160117 0.070998 1.138460
    39 -1.408095 0.000002 -0.000002 -0.000001 0.000000 1.377599
    40 -0.986795 0.000000 0.000001 0.000000 0.000000 0.512607
    41 -3.851022 0.476093 0.459796 0.014946 -0.075269 0.645161
    42 -2.007646 0.000000 0.000000 -0.000001 0.000000 1.777937
    43 -1.270733 0.000001 0.000000 -0.000001 0.000000 0.494879
    44 -5.679937 0.078274 0.132374 0.000000 -1.570796 1.619889
    45 0.000001 3.838816 0.000000 0.000000 0.000000 0.000000
    46 14.410445 -4.265446 -6.534623 1.571153 -0.005567 0.000037
  time 17
    0 14.398475 -4.262018 -6.510906 1.569016 0.000830 1.570856
    1 -0.006659 0.337219 4.384488 0.000000 0.000000 0.000000
    2 -0.006659 0.293999 2.752372 0.000000 0.000000 0.000000
    3 -0.006659 1.042511 2.142974 -0.872665 0.000000 0.000000
    4 15.132813 -15.000000 -12.078125 -1.919860 0.000000 -1.570796
    5 0.000000 0.000000 0.000000 0.741177 0.929936 0.958225
    6 11.703225 0.000001 0.000000 0.000000 0.000000 -0.941898
    7 11.501110 -0.000001 -0.000002 -2.241399 -0.351058 0.511735
    8 0.949223 0.526691 -0.818564 1.218653 0.700714 -0.024965
    9 1.978557 0.000000 0.000000 -0.000001 0.000000 0.259000
    10 1.087181 0.000001 -0.000001 0.000000 -0.000002 -0.318570
    11 3.863441 -0.167452 -1.277058 0.201233 -0.155209 1.099052
    12 1.666013 0.000000 0.000000 0.000000 -0.000001 1.555327
    13 1.292519 0.000000 -0.000001 0.000000 0.000001 0.270574
    14 3.927892 -0.566322 0.452259 0.056622 -0.078695 1.416164
    15 1.705974 -0.000003 0.000000 0.000000 -0.000001 1.471815
    16 1.292521 0.000000 0.000000 0.000000 0.000001 0.873163
    17 3.772599 -0.311787 1.300302 -0.090727 -0.047630 1.187230
    18 1.408095 -0.000002 0.000002 -0.000001 0.000000 2.038976
    19 0.986795 0.000001 0.000001 0.000000 0.000000 0.219433
    20 3.851021 -0.476093 -0.459795 0.124881 -0.135857 1.384537
    21 2.007647 0.000000 0.000000 -0.000001 0.000000 1.517032
    22 1.270734 0.000000 0.000000 -0.000001 0.000000 0.034546
    23 5.679938 -0.078274 -0.132372 0.000000 -1.570796 1.619889
    24 0.236208 -3.846334 -0.007084 0.040101 0.000000 0.000000
    25 -2.228744 -13.281197 2.113580 1.570796 0.000000 3.141548
    26 0.000000 0.000000 0.000000 0.354074 0.359427 1.363084
    27 -11.703224 -0.000001 0.000000 0.000000 0.000000 -1.506826
    28 -11.501109 0.000001 0.000002 -1.524577 -0.497507 0.668234
    29 -0.949224 -0.526692 0.818564 2.039112 0.416550 0.555242
    30 -1.978556 0.000000 -0.000001 -0.000001 0.000000 0.608066
    31 -1.087186 0.000000 -0.000001 0.000000 -0.000002 0.510662
    32 -3.863441 0.167450 1.277058 0.224973 0.188623 0.124260
    33 -1.666015 0.000001 0.000000 0.000000 -0.000001 0.375067
    34 -1.292520 0.000003 0.000001 0.000000 0.000001 0.566334
    35 -3.927893 0.566322 -0.452260 -0.108298 -0.034865 1.000384
    36 -1.705971 0.000003 0.000000 0.000000 -0.000001 1.560063
    37 -1.292521 0.000000 0.000000 0.000000 0.000001 0.259170
    38 -3.772597 0.311787 -1.300303 -0.160117 0.070998 1.138460
    39 -1.408095 0.000002 -0.000002 -0.000001 0.000000 1.377599
    40 -0.986795 0.000000 0.000001 0.000000 0.000000 0.512607
    41 -3.851022 0.476093 0.459796 0.014946 -0.075269 0.645161
    42 -2.007646 0.000000 0.000000 -0.000001 0.000000 1.777937
    43 -1.270733 0.000001 0.000000 -0.000001 0.000000 0.494879
    44 -5.679937 0.078274 0.132374 0.000000 -1.570796 1.619889
    45 0.000001 3.838816 0.000000 0.000000 0.000000 0.000000
    46 14.398726 -4.261540 -6.511185 1.569974 -0.001771 0.000099
  time 18
    0 14.414100 -4.265925 -6.499187 1.570796 0.000000 1.570787
    1 -0.006659 0.337219 4.384488 0.000000 0.000000 0.000000
    2 -0.006659 0.293999 2.752372 0.000000 0.000000 0.000000
    3 -0.006659 1.042511 2.142974 -0.872665 0.000000 0.000000
    4 15.132813 -15.000000 -12.078125 -1.919860 0.000000 -1.570796
    5 0.000000 0.000000 0.000000 0.739790 0.929949 0.957192
    6 11.703225 0.000001 0.000000 0.000000 0.000000 -0.940648
    7 11.501110 -0.000001 -0.000002 -2.242367 -0.351033 0.512734
    8 0.949223 0.526691 -0.818564 1.218653 0.700714 -0.024965
    9 1.978557 0.000000 0.000000 -0.000001 0.000000 0.259000
    10 1.087181 0.000001 -0.000001 0.000000 -0.000002 -0.318570
    11 3.863441 -0.167452 -1.277058 0.201233 -0.155209 1.099052
    12 1.666013 0.000000 0.000000 0.000000 -0.000001 1.555327
    13 1.292519 0.000000 -0.000001 0.000000 0.000001 0.270574
    14 3.927892 -0.566322 0.452259 0.056622 -0.078695 1.416164
    15 1.705974 -0.000003 0.000000 0.000000 -0.000001 1.471815
    16 1.292521 0.000000 0.000000 0.000000 0.000001 0.873163
    17 3.772599 -0.311787 1.300302 -0.090727 -0.047630 1.187230
    18 1.408095 -0.000002 0.000002 -0.000001 0.000000 2.038976
    19 0.986795 0.000001 0.000001 0.000000 0.000000 0.219433
    20 3.851021 -0.476093 -0.459795 0.124881 -0.135857 1.384537
    21 2.007647 0.000000 0.000000 -0.000001 0.000000 1.517032
    22 1.270734 0.000000 0.000000 -0.000001 0.000000 0.034546
    23 5.679938 -0.078274 -0.132372 0.000000 -1.570796 1.619889
    24 0.236208 -3.846334 -0.007084 0.040101 0.000000 0.000000
    25 -2.228744 -13.281197 2.113580 1.570796 0.000000 3.141548
    26 0.000000 0.000000 0.000000 0.353894 0.359366 1.361329
    27 -11.703224 -0.000001 0.000000 0.000000 0.000000 -1.506544
    28 -11.501109 0.000001 0.000002 -1.527213 -0.497209 0.671948
    29 -0.949224 -0.526692 0.818564 2.039112 0.416550 0.555242
    30 -1.978556 0.000000 -0.000001 -0.000001 0.000000 0.608066
    31 -1.087186 0.000000 -0.000001 0.000000 -0.000002 0.510662
    32 -3.863441 0.167450 1.277058 0.224973 0.188623 0.124260
    33 -1.666015 0.000001 0.000000 0.000000 -0.000001 0.375067
    34 -1.292520 0.000003 0.000001 0.000000 0.000001 0.566334
    35 -3.927893 0.566322 -0.452260 -0.108298 -0.034865 1.000384
    36 -1.705971 0.000003 0.000000 0.000000 -0.000001 1.560063
    37 -1.292521 0.000000 0.000000 0.000000 0.000001 0.259170
    38 -3.772597 0.311787 -1.300303 -0.160117 0.070998 1.138460
    39 -1.408095 0.000002 -0.000002 -0.000001 0.000000 1.377599
    40 -0.986795 0.000000 0.000001 0.000000 0.000000 0.512607
    41 -3.851022 0.476093 0.459796 0.014946 -0.075269 0.645161
    42 -2.007646 0.000000 0.000000 -0.000001 0.000000 1.777937
    43 -1.270733 0.000001 0.000000 -0.000001 0.000000 0.494879
    44 -5.679937 0.078274 0.132374 0.000000 -1.570796 1.619889
    45 0.000001 3.838816 0.000000 0.000000 0.000000 0.000000
    46 14.410445 -4.265446 -6.499466 1.570796 0.000000 -0.000026
end
