// Created by Crowbar 0.42.0.0

$ModelName "weapons\w_henryrifle.mdl"

$BodyGroup "studio"
{
	studio "w_henryrifle_reference.smd"
}


$SurfaceProp "weapon"

$Contents "solid"

$MaxEyeDeflection 90

$CDMaterials "models\Weapons\v_henryrifle\"

$Attachment "muzzle" "ValveBiped.Weapon_bone" 29 1.7 -2.8 rotate 0 0 0
$Attachment "1" "ValveBiped.Weapon_bone" 5.5 0 0 rotate 90 -90 0

$CBox 0 0 0 0 0 0

$BBox -29.07 -3.874 -12.833 16.272 1.895 6.053

$DefineBone "ValveBiped.Bip01_R_Hand" "" 1.783728 -5.776746 -3.330455 4.618727 90.659287 -171.248321 0 0 0 0 0 0
$DefineBone "ValveBiped.Weapon_bone" "ValveBiped.Bip01_R_Hand" 5 -1.5 -5 0 0 0 0 0 0 0 0 0


$Sequence "idle" {
	"w_henryrifle_anim_@idle.smd"
	fadein 0.2
	fadeout 0.2
	fps 30
}

$Sequence "attack1" {
	"w_henryrifle_anim_@attack1.smd"
	activity "ACT_RANGE_ATTACK_AR2" 1
	{ event AE_NPC_MUZZLEFLASH 0 "SHOTGUN MUZZLE" }
	{ event 6001 1 "1" }
	{ event 3004 0 "" }
	fadein 0.2
	fadeout 0.2
	fps 30
}

$CollisionModel "w_henryrifle_physics.smd"
{
	$mass 5
	$inertia 1
	$damping 0
	$rotdamping 0
	$rootbone " "

}
