// Created by Crowbar 0.29.0.0
version 1
nodes
  0 "body" -1
  1 "pump" 0
  2 "bolt" 1
  3 "flap" 0
  4 "muzzleflash" 0
  5 "killswitch" 0
  6 "shell" -1
  7 "stock" 0
  8 "L_Armdummy" -1
  9 "L_Upperarm" 8
  10 "L_Forearm" 9
  11 "L_Wrist" 10
  12 "L_Thumb1" 11
  13 "L_Thumb2" 12
  14 "L_Thumb3" 13
  15 "L_Index1" 11
  16 "L_Index2" 15
  17 "L_Index3" 16
  18 "L_Mid1" 11
  19 "L_Mid2" 18
  20 "L_Mid3" 19
  21 "L_Ring1" 11
  22 "L_Ring2" 21
  23 "L_Ring3" 22
  24 "L_Pinky1" 11
  25 "L_Pinky2" 24
  26 "L_Pinky3" 25
end
skeleton
  time 0
    0 -1.320593 -12.896350 -3.525481 0.087718 1.467795 -2.528909
    1 0.306466 -0.003179 6.007819 0.000000 0.000000 0.000000
    2 0.330043 0.779799 -9.737320 0.000000 0.000000 0.000000
    3 0.306469 -0.369967 -3.715791 0.000000 0.000000 0.000000
    4 0.311221 0.949065 14.047296 0.000000 1.570796 0.000000
    5 0.300573 -0.587445 -6.634350 0.000000 0.000000 0.000000
    6 13.112387 1.869331 -5.626522 3.039695 0.014202 -0.819584
    7 0.300572 0.831777 -8.343176 -3.141592 0.000000 0.000000
    8 -13.915428 -9.662042 -7.026770 -3.141592 -0.933752 3.141402
    9 0.023288 0.041601 0.000000 0.194999 -0.336711 -2.030140
    10 -11.072359 -0.043444 0.000000 0.000000 0.000000 2.930832
    11 -8.108979 0.000000 0.000000 0.660040 -0.598538 0.075250
    12 -0.758958 -0.993292 -0.533611 -0.176883 -0.312606 0.541102
    13 -1.920303 0.000000 0.000000 0.000000 0.000000 -0.398777
    14 -0.858252 0.000000 0.000000 0.000000 0.000000 0.069438
    15 -2.931402 -0.842322 0.160553 0.000037 -0.069845 0.014635
    16 -1.836086 -0.000001 0.000002 0.000000 -0.235767 0.000000
    17 -0.853995 -0.000001 0.000000 0.002756 -0.113413 -0.024347
    18 -2.964060 -0.072899 0.178523 0.000008 -0.078640 0.014657
    19 -1.814736 0.000000 0.000000 -0.006831 -0.296742 0.023010
    20 -0.982325 0.000002 0.000000 0.000000 -0.095961 -0.021736
    21 -2.910366 0.632510 0.212797 0.006140 -0.165743 -0.022425
    22 -1.751858 0.000000 0.000001 -0.000477 -0.375314 -6.246233
    23 -0.853992 0.000001 0.000000 0.000000 -0.043568 0.000000
    24 -2.899452 1.342927 0.078012 -0.000010 -0.279316 0.014633
    25 -1.152892 0.000000 0.000002 0.007513 -0.130710 -0.057574
    26 -0.748461 -0.000001 0.000000 0.000000 -0.314123 0.057080
  time 1
    0 -1.285436 -12.927601 -3.525481 0.631042 1.450593 -1.968657
    1 0.306466 -0.003179 6.007819 0.000000 0.000000 0.000000
    2 0.330043 0.779799 -9.737320 0.000000 0.000000 0.000000
    3 0.306469 -0.369967 -3.715791 0.000000 0.000000 0.000000
    4 0.311221 0.949065 14.047296 0.000000 1.570796 0.000000
    5 0.300573 -0.587445 -6.634350 0.000000 0.000000 0.000000
    6 12.924881 2.006053 -5.856998 3.031130 -0.047197 -0.799266
    7 0.300572 0.831777 -8.343176 -3.141592 0.000000 0.000000
    8 -13.915428 -9.662042 -7.026770 -3.141592 -0.933752 3.141402
    9 0.023288 0.041601 0.000000 0.256335 -0.728561 -1.534464
    10 -11.072359 -0.043444 0.000000 0.000000 0.000000 3.041540
    11 -8.108979 0.000000 0.000000 1.131389 -0.688639 -0.796269
    12 -0.758958 -0.993292 -0.533611 -0.178477 -0.301544 0.543751
    13 -1.920303 0.000000 0.000000 0.000000 0.000000 -0.374937
    14 -0.858252 0.000000 0.000000 0.000000 0.000000 0.076629
    15 -2.931402 -0.842322 0.160553 0.001107 -0.098577 -0.005582
    16 -1.836086 -0.000001 0.000002 0.000000 -0.298699 0.000000
    17 -0.853995 -0.000001 0.000000 0.002756 -0.113413 -0.024347
    18 -2.964060 -0.072899 0.178523 -0.003060 -0.112577 -0.004819
    19 -1.814736 0.000000 0.000000 -0.007018 -0.366927 0.023478
    20 -0.982325 0.000002 0.000000 0.000000 -0.080687 -0.021736
    21 -2.910366 0.632510 0.212797 -0.000984 -0.206984 -0.040164
    22 -1.751858 0.000000 0.000001 -0.000477 -0.440485 -6.246233
    23 -0.853992 0.000001 0.000000 0.000000 -0.026530 0.000000
    24 -2.899452 1.342927 0.078012 -0.012208 -0.332112 0.003056
    25 -1.152892 0.000000 0.000002 0.007573 -0.173391 -0.057898
    26 -0.748461 -0.000001 0.000000 0.000000 -0.301116 0.057080
  time 2
    0 -1.148713 -13.017447 -3.521575 1.262697 1.330405 -1.284572
    1 0.306466 -0.003179 6.007819 0.000000 0.000000 0.000000
    2 0.330043 0.779799 -9.737320 0.000000 0.000000 0.000000
    3 0.306469 -0.369967 -3.715791 0.000000 0.000000 0.000000
    4 0.311221 0.949065 14.047296 0.000000 1.570796 0.000000
    5 0.300573 -0.587445 -6.634350 0.000000 0.000000 0.000000
    6 12.385803 2.470911 -6.235916 3.017267 -0.206127 -0.736346
    7 0.300572 0.831777 -8.343176 -3.141592 0.000000 0.000000
    8 -13.915428 -9.662042 -7.026770 -3.141592 -0.933752 3.141402
    9 0.023288 0.041601 0.000000 0.517210 -0.750512 -0.788117
    10 -11.072359 -0.043444 0.000000 0.000000 0.000000 2.941224
    11 -8.108979 0.000000 0.000000 1.193434 0.019627 -1.220338
    12 -0.758958 -0.993292 -0.533611 -0.181677 -0.278534 0.549108
    13 -1.920303 0.000000 0.000000 0.000000 0.000000 -0.325324
    14 -0.858252 0.000000 0.000000 0.000000 0.000000 0.091622
    15 -2.931402 -0.842322 0.160553 0.005220 -0.158470 -0.048057
    16 -1.836086 -0.000001 0.000002 0.000000 -0.429783 0.000000
    17 -0.853995 -0.000001 0.000000 0.002756 -0.113413 -0.024347
    18 -2.964060 -0.072899 0.178523 -0.007278 -0.183463 -0.045356
    19 -1.814736 0.000000 0.000000 -0.007392 -0.512946 0.024601
    20 -0.982325 0.000002 0.000000 0.000000 -0.048836 -0.021736
    21 -2.910366 0.632510 0.212797 -0.013614 -0.293309 -0.076785
    22 -1.751858 0.000000 0.000001 -0.000381 -0.576324 -6.246233
    23 -0.853992 0.000001 0.000000 0.000000 0.009069 0.000000
    24 -2.899452 1.342927 0.078012 -0.036307 -0.442624 -0.019723
    25 -1.152892 0.000000 0.000002 0.007765 -0.262471 -0.058593
    26 -0.748461 -0.000001 0.000000 0.000000 -0.273954 0.057080
  time 3
    0 -0.937769 -13.126826 -3.513762 1.468277 1.110455 -0.997542
    1 0.306466 -0.003179 6.007819 0.000000 0.000000 0.000000
    2 0.330043 0.779799 -9.737320 0.000000 0.000000 0.000000
    3 0.306469 -0.369967 -3.715791 0.000000 0.000000 0.000000
    4 0.311221 0.949065 14.047296 0.000000 1.570796 0.000000
    5 0.300573 -0.587445 -6.634350 0.000000 0.000000 0.000000
    6 11.616248 3.049054 -6.892186 2.982501 -0.433791 -0.632790
    7 0.300572 0.831777 -8.343176 -3.141592 0.000000 0.000000
    8 -13.915428 -9.662042 -7.026770 -3.141592 -0.933752 3.141402
    9 0.023288 0.041601 0.000000 0.546613 -0.481952 -0.434614
    10 -11.072359 -0.043444 0.000000 0.000000 0.000000 2.641390
    11 -8.108979 0.000000 0.000000 0.756102 0.239193 2.566371
    12 -0.758958 -0.993292 -0.533611 -0.185896 -0.246715 0.556395
    13 -1.920303 0.000000 0.000000 0.000000 0.000000 -0.256896
    14 -0.858252 0.000000 0.000000 0.000000 0.000000 0.112271
    15 -2.931402 -0.842322 0.160553 0.015249 -0.240541 -0.107892
    16 -1.836086 -0.000001 0.000002 0.000000 -0.610526 0.000000
    17 -0.853995 -0.000001 0.000000 0.002756 -0.113413 -0.024347
    18 -2.964060 -0.072899 0.178523 -0.008393 -0.281327 -0.101832
    19 -1.814736 0.000000 0.000000 -0.008420 -0.714338 0.026754
    20 -0.982325 0.000002 0.000000 0.000000 -0.004952 -0.021736
    21 -2.910366 0.632510 0.212797 -0.026057 -0.412893 -0.127214
    22 -1.751858 0.000000 0.000001 -0.000381 -0.763489 -6.246233
    23 -0.853992 0.000001 0.000000 0.000000 0.058097 0.000000
    24 -2.899452 1.342927 0.078012 -0.067212 -0.595677 -0.048347
    25 -1.152892 0.000000 0.000002 0.008040 -0.385074 -0.059660
    26 -0.748461 -0.000001 0.000000 0.000000 -0.236480 0.057080
  time 4
    0 -0.660417 -13.259642 -3.505950 1.519114 0.838811 -0.841502
    1 0.306466 -0.003179 6.007819 0.000000 0.000000 0.000000
    2 0.330043 0.779799 -9.737320 0.000000 0.000000 0.000000
    3 0.306469 -0.369967 -3.715791 0.000000 0.000000 0.000000
    4 0.311221 0.949065 14.047296 0.000000 1.570796 0.000000
    5 0.300573 -0.587445 -6.634350 0.000000 0.000000 0.000000
    6 10.749034 3.498286 -7.923468 2.899105 -0.697769 -0.473977
    7 0.300572 0.831777 -8.343176 -3.141592 0.000000 0.000000
    8 -13.915428 -9.662042 -7.026770 -3.141592 -0.933752 3.141402
    9 0.023288 0.041601 0.000000 0.538412 -0.444448 -0.255591
    10 -11.072359 -0.043444 0.000000 0.000000 0.000000 2.315212
    11 -8.108979 0.000000 0.000000 0.514418 0.287908 -0.743923
    12 -0.758958 -0.993292 -0.533611 -0.190414 -0.209395 0.564580
    13 -1.920303 0.000000 0.000000 0.000000 0.000000 -0.176738
    14 -0.858252 0.000000 0.000000 0.000000 0.000000 0.136468
    15 -2.931402 -0.842322 0.160553 0.033887 -0.335676 -0.180951
    16 -1.836086 -0.000001 0.000002 0.000000 -0.822251 0.000000
    17 -0.853995 -0.000001 0.000000 0.002756 -0.113413 -0.024347
    18 -2.964060 -0.072899 0.178523 -0.002113 -0.395822 -0.170373
    19 -1.814736 0.000000 0.000000 -0.011130 -0.950280 0.030030
    20 -0.982325 0.000002 0.000000 0.000000 0.046464 -0.021736
    21 -2.910366 0.632510 0.212797 -0.032647 -0.553541 -0.188260
    22 -1.751858 0.000000 0.000001 -0.000477 -0.982776 -6.246233
    23 -0.853992 0.000001 0.000000 0.000000 0.115632 0.000000
    24 -2.899452 1.342927 0.078012 -0.100980 -0.775875 -0.078469
    25 -1.152892 0.000000 0.000002 0.008675 -0.528700 -0.060942
    26 -0.748461 -0.000001 0.000000 0.000000 -0.192655 0.057080
  time 5
    0 -0.355720 -13.404178 -3.502043 1.510299 0.549919 -0.722708
    1 0.306466 -0.003179 6.007819 0.000000 0.000000 0.000000
    2 0.330043 0.779799 -9.737320 0.000000 0.000000 0.000000
    3 0.306469 -0.369967 -3.715791 0.000000 0.000000 0.000000
    4 0.311221 0.949065 14.047296 0.000000 1.570796 0.000000
    5 0.300573 -0.587445 -6.634350 0.000000 0.000000 0.000000
    6 9.975573 3.638916 -9.271165 2.708361 -0.957219 -0.207812
    7 0.300572 0.831777 -8.343176 -3.141592 0.000000 0.000000
    8 -13.915428 -9.662042 -7.026770 -3.141592 -0.933752 3.141402
    9 0.023288 0.041601 0.000000 0.572087 -0.508404 -0.120203
    10 -11.072359 -0.043444 0.000000 0.000000 0.000000 2.016767
    11 -8.108979 0.000000 0.000000 0.337880 0.373397 -0.548643
    12 -0.758958 -0.993292 -0.533611 -0.194824 -0.169870 0.573053
    13 -1.920303 0.000000 0.000000 0.000000 0.000000 -0.091880
    14 -0.858252 0.000000 0.000000 0.000000 0.000000 0.162091
    15 -2.931402 -0.842322 0.160553 0.062724 -0.434629 -0.263561
    16 -1.836086 -0.000001 0.000002 0.000000 -1.046390 0.000000
    17 -0.853995 -0.000001 0.000000 0.002756 -0.113413 -0.024347
    18 -2.964060 -0.072899 0.178523 0.014690 -0.516238 -0.248223
    19 -1.814736 0.000000 0.000000 -0.017671 -1.199983 0.037518
    20 -0.982325 0.000002 0.000000 0.000000 0.100889 -0.021736
    21 -2.910366 0.632510 0.212797 -0.028225 -0.702516 -0.258848
    22 -1.751858 0.000000 0.000001 -0.000477 -1.214911 -6.246233
    23 -0.853992 0.000001 0.000000 0.000000 0.176424 0.000000
    24 -2.899452 1.342927 0.078012 -0.135346 -0.967247 -0.106681
    25 -1.152892 0.000000 0.000002 0.009586 -0.680802 -0.062680
    26 -0.748461 -0.000001 0.000000 0.000000 -0.146205 0.057080
  time 6
    0 -0.047117 -13.552620 -3.502043 1.471417 0.274288 -0.614750
    1 0.306466 -0.003179 6.007819 0.000000 0.000000 0.000000
    2 0.330043 0.779799 -9.737320 0.000000 0.000000 0.000000
    3 0.306469 -0.369967 -3.715791 0.000000 0.000000 0.000000
    4 0.311221 0.949065 14.047296 0.000000 1.570796 0.000000
    5 0.300573 -0.587445 -6.634350 0.000000 0.000000 0.000000
    6 9.452119 3.412346 -10.728241 2.291091 -1.147709 0.281000
    7 0.300572 0.831777 -8.343176 -3.141592 0.000000 0.000000
    8 -13.915428 -9.662042 -7.026770 -3.141592 -0.933752 3.141402
    9 0.023288 0.041601 0.000000 0.631965 -0.603037 -0.027641
    10 -11.072359 -0.043444 0.000000 0.000000 0.000000 1.795684
    11 -8.108979 0.000000 0.000000 0.175908 0.481632 -0.455215
    12 -0.758958 -0.993292 -0.533611 -0.198791 -0.131351 0.581083
    13 -1.920303 0.000000 0.000000 0.000000 0.000000 -0.009365
    14 -0.858252 0.000000 0.000000 0.000000 0.000000 0.186995
    15 -2.931402 -0.842322 0.160553 0.101132 -0.528241 -0.351096
    16 -1.836086 -0.000001 0.000002 0.000000 -1.264304 0.000000
    17 -0.853995 -0.000001 0.000000 0.002756 -0.113413 -0.024347
    18 -2.964060 -0.072899 0.178523 0.043381 -0.631769 -0.332261
    19 -1.814736 0.000000 0.000000 -0.049911 -1.442696 0.070558
    20 -0.982325 0.000002 0.000000 0.000000 0.153820 -0.021736
    21 -2.910366 0.632510 0.212797 -0.008109 -0.846711 -0.339011
    22 -1.751858 0.000000 0.000001 -0.000381 -1.440588 -6.246233
    23 -0.853992 0.000001 0.000000 0.000000 0.235576 0.000000
    24 -2.899452 1.342927 0.078012 -0.169563 -1.153921 -0.129797
    25 -1.152892 0.000000 0.000002 0.011024 -0.828704 -0.064717
    26 -0.748461 -0.000001 0.000000 0.000000 -0.101091 0.057080
  time 7
    0 0.257580 -13.689343 -3.502043 1.416656 0.040317 -0.512135
    1 0.306466 -0.003179 6.007819 0.000000 0.000000 0.000000
    2 0.330043 0.779799 -9.737320 0.000000 0.000000 0.000000
    3 0.306469 -0.369967 -3.715791 0.000000 0.000000 0.000000
    4 0.311221 0.949065 14.047296 0.000000 1.570796 0.000000
    5 0.300573 -0.587445 -6.634350 0.000000 0.000000 0.000000
    6 9.229456 2.939676 -12.044687 1.678796 -1.187600 0.958434
    7 0.300572 0.831777 -8.343176 -3.141592 0.000000 0.000000
    8 -13.915428 -9.662042 -7.026770 -3.141592 -0.933752 3.141402
    9 0.023288 0.041601 0.000000 0.719605 -0.689924 0.011451
    10 -11.072359 -0.043444 0.000000 0.000000 0.000000 1.686032
    11 -8.108979 0.000000 0.000000 0.020434 0.594195 -0.475377
    12 -0.758958 -0.993292 -0.533611 -0.202027 -0.097279 0.588010
    13 -1.920303 0.000000 0.000000 0.000000 0.000000 0.063721
    14 -0.858252 0.000000 0.000000 0.000000 0.000000 0.209059
    15 -2.931402 -0.842322 0.160553 0.145276 -0.608326 -0.436699
    16 -1.836086 -0.000001 0.000002 0.000000 -1.457350 0.000000
    17 -0.853995 -0.000001 0.000000 0.002756 -0.113413 -0.024347
    18 -2.964060 -0.072899 0.178523 0.081863 -0.731986 -0.417209
    19 -1.814736 0.000000 0.000000 -3.068760 -1.483366 3.089821
    20 -0.982325 0.000002 0.000000 0.000000 0.200713 -0.021736
    21 -2.910366 0.632510 0.212797 0.030115 -0.972947 -0.427775
    22 -1.751858 0.000000 0.000001 -3.141592 -1.500984 -3.105025
    23 -0.853992 0.000001 0.000000 0.000000 0.287979 0.000000
    24 -2.899452 1.342927 0.078012 -0.205728 -1.319514 -0.142536
    25 -1.152892 0.000000 0.000002 0.012978 -0.959681 -0.067222
    26 -0.748461 -0.000001 0.000000 0.000000 -0.061086 0.057080
  time 8
    0 0.523213 -13.806534 -3.505950 1.361351 -0.126684 -0.423178
    1 0.306466 -0.003179 6.007819 0.000000 0.000000 0.000000
    2 0.330043 0.779799 -9.737320 0.000000 0.000000 0.000000
    3 0.306469 -0.369967 -3.715791 0.000000 0.000000 0.000000
    4 0.311221 0.949065 14.047296 0.000000 1.570796 0.000000
    5 0.300573 -0.587445 -6.634350 0.000000 0.000000 0.000000
    6 9.194299 2.455286 -13.009560 1.278002 -1.117598 1.412306
    7 0.300572 0.831777 -8.343176 -3.141592 0.000000 0.000000
    8 -13.915428 -9.662042 -7.026770 -3.141592 -0.933752 3.141402
    9 0.023288 0.041601 0.000000 0.676473 -0.699629 0.052658
    10 -11.072359 -0.043444 0.000000 0.000000 0.000000 1.584716
    11 -8.108979 0.000000 0.000000 -0.068111 0.396649 -0.403626
    12 -0.758958 -0.993292 -0.533611 -0.202027 -0.097279 0.588010
    13 -1.920303 0.000000 0.000000 0.000000 0.000000 0.063721
    14 -0.858252 0.000000 0.000000 0.000000 0.000000 0.209059
    15 -2.931402 -0.842322 0.160553 0.145276 -0.608326 -0.436699
    16 -1.836086 -0.000001 0.000002 0.000000 -1.457350 0.000000
    17 -0.853995 -0.000001 0.000000 0.002756 -0.113413 -0.024347
    18 -2.964060 -0.072899 0.178523 0.081863 -0.731986 -0.417209
    19 -1.814736 0.000000 0.000000 -3.068760 -1.483366 3.089821
    20 -0.982325 0.000002 0.000000 0.000000 0.200713 -0.021736
    21 -2.910366 0.632510 0.212797 0.030115 -0.972947 -0.427775
    22 -1.751858 0.000000 0.000001 -3.141592 -1.500984 -3.105025
    23 -0.853992 0.000001 0.000000 0.000000 0.287979 0.000000
    24 -2.899452 1.342927 0.078012 -0.205728 -1.319514 -0.142536
    25 -1.152892 0.000000 0.000002 0.012978 -0.959681 -0.067222
    26 -0.748461 -0.000001 0.000000 0.000000 -0.061086 0.057080
  time 9
    0 0.765408 -13.943257 -3.521575 1.328205 -0.211618 -0.356952
    1 0.306466 -0.003179 6.007819 0.000000 0.000000 0.000000
    2 0.330043 0.779799 -9.737320 0.000000 0.000000 0.000000
    3 0.306469 -0.369967 -3.715791 0.000000 0.000000 0.000000
    4 0.311221 0.949065 14.047296 0.000000 1.570796 0.000000
    5 0.300573 -0.587445 -6.634350 0.000000 0.000000 0.000000
    6 9.104452 2.228716 -13.482231 1.127541 -1.059052 1.606271
    7 0.300572 0.831777 -8.343176 -3.141592 0.000000 0.000000
    8 -13.915428 -9.662042 -7.026770 -3.141592 -0.933752 3.141402
    9 0.023288 0.041601 0.000000 0.644499 -0.711049 0.086646
    10 -11.072359 -0.043444 0.000000 0.000000 0.000000 1.498628
    11 -8.108979 0.000000 0.000000 -0.121153 0.287055 -0.351564
    12 -0.758958 -0.993292 -0.533611 -0.202027 -0.097279 0.588010
    13 -1.920303 0.000000 0.000000 0.000000 0.000000 0.063721
    14 -0.858252 0.000000 0.000000 0.000000 0.000000 0.209059
    15 -2.931402 -0.842322 0.160553 0.145276 -0.608326 -0.436699
    16 -1.836086 -0.000001 0.000002 0.000000 -1.457350 0.000000
    17 -0.853995 -0.000001 0.000000 0.002756 -0.113413 -0.024347
    18 -2.964060 -0.072899 0.178523 0.081863 -0.731986 -0.417209
    19 -1.814736 0.000000 0.000000 -3.068760 -1.483366 3.089821
    20 -0.982325 0.000002 0.000000 0.000000 0.200713 -0.021736
    21 -2.910366 0.632510 0.212797 0.030115 -0.972947 -0.427775
    22 -1.751858 0.000000 0.000001 -3.141592 -1.500984 -3.105025
    23 -0.853992 0.000001 0.000000 0.000000 0.287979 0.000000
    24 -2.899452 1.342927 0.078012 -0.205728 -1.319514 -0.142536
    25 -1.152892 0.000000 0.000002 0.012978 -0.959681 -0.067222
    26 -0.748461 -0.000001 0.000000 0.000000 -0.061086 0.057080
  time 10
    0 1.042760 -14.095605 -3.548920 1.322469 -0.232762 -0.310382
    1 0.306466 -0.003179 6.007819 0.000000 0.000000 0.000000
    2 0.330043 0.779799 -9.737320 0.000000 0.000000 0.000000
    3 0.306469 -0.369967 -3.715791 0.000000 0.000000 0.000000
    4 0.311221 0.949065 14.047296 0.000000 1.570796 0.000000
    5 0.300573 -0.587445 -6.634350 0.000000 0.000000 0.000000
    6 8.823194 2.314657 -13.568171 1.092847 -1.045423 1.681635
    7 0.300572 0.831777 -8.343176 -3.141592 0.000000 0.000000
    8 -13.915428 -9.662042 -7.026770 -3.141592 -0.933752 3.141402
    9 0.023288 0.041601 0.000000 0.616393 -0.721764 0.115466
    10 -11.072359 -0.043444 0.000000 0.000000 0.000000 1.421766
    11 -8.108979 0.000000 0.000000 -0.150796 0.240646 -0.325533
    12 -0.758958 -0.993292 -0.533611 -0.202027 -0.097279 0.588010
    13 -1.920303 0.000000 0.000000 0.000000 0.000000 0.063721
    14 -0.858252 0.000000 0.000000 0.000000 0.000000 0.209059
    15 -2.931402 -0.842322 0.160553 0.145276 -0.608326 -0.436699
    16 -1.836086 -0.000001 0.000002 0.000000 -1.457350 0.000000
    17 -0.853995 -0.000001 0.000000 0.002756 -0.113413 -0.024347
    18 -2.964060 -0.072899 0.178523 0.081863 -0.731986 -0.417209
    19 -1.814736 0.000000 0.000000 -3.068760 -1.483366 3.089821
    20 -0.982325 0.000002 0.000000 0.000000 0.200713 -0.021736
    21 -2.910366 0.632510 0.212797 0.030115 -0.972947 -0.427775
    22 -1.751858 0.000000 0.000001 -3.141592 -1.500984 -3.105025
    23 -0.853992 0.000001 0.000000 0.000000 0.287979 0.000000
    24 -2.899452 1.342927 0.078012 -0.205728 -1.319514 -0.142536
    25 -1.152892 0.000000 0.000002 0.012978 -0.959681 -0.067222
    26 -0.748461 -0.000001 0.000000 0.000000 -0.061086 0.057080
  time 11
    0 1.308393 -14.232328 -3.580171 1.334846 -0.216411 -0.277975
    1 0.306466 -0.003179 6.007819 0.000000 0.000000 0.000000
    2 0.330043 0.779799 -9.737320 0.000000 0.000000 0.000000
    3 0.306469 -0.369967 -3.715791 0.000000 0.000000 0.000000
    4 0.311221 0.949065 14.047296 0.000000 1.570796 0.000000
    5 0.300573 -0.587445 -6.634350 0.000000 0.000000 0.000000
    6 8.389587 2.607634 -13.415823 1.113315 -1.063263 1.699140
    7 0.300572 0.831777 -8.343176 -3.141592 0.000000 0.000000
    8 -13.915428 -9.662042 -7.026770 -3.141592 -0.933752 3.141402
    9 0.023288 0.041601 0.000000 0.592215 -0.731653 0.138560
    10 -11.072359 -0.043444 0.000000 0.000000 0.000000 1.354852
    11 -8.108979 0.000000 0.000000 -0.164513 0.232148 -0.318907
    12 -0.758958 -0.993292 -0.533611 -0.202027 -0.097279 0.588010
    13 -1.920303 0.000000 0.000000 0.000000 0.000000 0.063721
    14 -0.858252 0.000000 0.000000 0.000000 0.000000 0.209059
    15 -2.931402 -0.842322 0.160553 0.145276 -0.608326 -0.436699
    16 -1.836086 -0.000001 0.000002 0.000000 -1.457350 0.000000
    17 -0.853995 -0.000001 0.000000 0.002756 -0.113413 -0.024347
    18 -2.964060 -0.072899 0.178523 0.081863 -0.731986 -0.417209
    19 -1.814736 0.000000 0.000000 -3.068760 -1.483366 3.089821
    20 -0.982325 0.000002 0.000000 0.000000 0.200713 -0.021736
    21 -2.910366 0.632510 0.212797 0.030115 -0.972947 -0.427775
    22 -1.751858 0.000000 0.000001 -3.141592 -1.500984 -3.105025
    23 -0.853992 0.000001 0.000000 0.000000 0.287979 0.000000
    24 -2.899452 1.342927 0.078012 -0.205728 -1.319514 -0.142536
    25 -1.152892 0.000000 0.000002 0.012978 -0.959681 -0.067222
    26 -0.748461 -0.000001 0.000000 0.000000 -0.061086 0.057080
  time 12
    0 1.550588 -14.318268 -3.599702 1.352476 -0.187293 -0.251212
    1 0.306466 -0.003179 5.749998 0.000000 0.000000 0.000000
    2 0.330043 0.779799 -9.737320 0.000000 0.000000 0.000000
    3 0.306469 -0.369967 -3.715791 0.000000 0.000000 0.000000
    4 0.311221 0.949065 14.047296 0.000000 1.570796 0.000000
    5 0.300573 -0.587445 -6.634350 0.000000 0.000000 0.000000
    6 7.889572 2.959208 -13.181440 1.156284 -1.090159 1.691548
    7 0.300572 0.831777 -8.343176 -3.141592 0.000000 0.000000
    8 -13.915428 -9.662042 -7.026770 -3.141592 -0.933752 3.141402
    9 0.023288 0.041601 0.000000 0.584641 -0.745001 0.120695
    10 -11.072359 -0.043444 0.000000 0.000000 0.000000 1.309724
    11 -8.108979 0.000000 0.000000 -0.147738 0.237392 -0.308968
    12 -0.758958 -0.993292 -0.533611 -0.202027 -0.097279 0.588010
    13 -1.920303 0.000000 0.000000 0.000000 0.000000 0.063721
    14 -0.858252 0.000000 0.000000 0.000000 0.000000 0.209059
    15 -2.931402 -0.842322 0.160553 0.145276 -0.608326 -0.436699
    16 -1.836086 -0.000001 0.000002 0.000000 -1.457350 0.000000
    17 -0.853995 -0.000001 0.000000 0.002756 -0.113413 -0.024347
    18 -2.964060 -0.072899 0.178523 0.081863 -0.731986 -0.417209
    19 -1.814736 0.000000 0.000000 -3.068760 -1.483366 3.089821
    20 -0.982325 0.000002 0.000000 0.000000 0.200713 -0.021736
    21 -2.910366 0.632510 0.212797 0.030115 -0.972947 -0.427775
    22 -1.751858 0.000000 0.000001 -3.141592 -1.500984 -3.105025
    23 -0.853992 0.000001 0.000000 0.000000 0.287979 0.000000
    24 -2.899452 1.342927 0.078012 -0.205728 -1.319514 -0.142536
    25 -1.152892 0.000000 0.000002 0.012978 -0.959681 -0.067222
    26 -0.748461 -0.000001 0.000000 0.000000 -0.061086 0.057080
  time 13
    0 1.757626 -14.318268 -3.599702 1.360144 -0.169375 -0.221980
    1 0.306466 -0.003179 5.207013 0.000000 0.000000 0.000000
    2 0.330043 0.779799 -9.737320 0.000000 0.000000 0.000000
    3 0.306469 -0.369967 -3.715791 0.000000 0.000000 0.000000
    4 0.311221 0.949065 14.047296 0.000000 1.570796 0.000000
    5 0.300573 -0.587445 -6.634350 0.000000 0.000000 0.000000
    6 7.405182 3.252185 -13.072062 1.187348 -1.103471 1.694571
    7 0.300572 0.831777 -8.343176 -3.141592 0.000000 0.000000
    8 -13.915428 -9.662042 -7.026770 -3.141592 -0.933752 3.141402
    9 0.023288 0.041601 0.000000 0.594645 -0.762177 0.060439
    10 -11.072359 -0.043444 0.000000 0.000000 0.000000 1.287438
    11 -8.108979 0.000000 0.000000 -0.105483 0.232432 -0.285114
    12 -0.758958 -0.993292 -0.533611 -0.202027 -0.097279 0.588010
    13 -1.920303 0.000000 0.000000 0.000000 0.000000 0.063721
    14 -0.858252 0.000000 0.000000 0.000000 0.000000 0.209059
    15 -2.931402 -0.842322 0.160553 0.145276 -0.608326 -0.436699
    16 -1.836086 -0.000001 0.000002 0.000000 -1.457350 0.000000
    17 -0.853995 -0.000001 0.000000 0.002756 -0.113413 -0.024347
    18 -2.964060 -0.072899 0.178523 0.081863 -0.731986 -0.417209
    19 -1.814736 0.000000 0.000000 -3.068760 -1.483366 3.089821
    20 -0.982325 0.000002 0.000000 0.000000 0.200713 -0.021736
    21 -2.910366 0.632510 0.212797 0.030115 -0.972947 -0.427775
    22 -1.751858 0.000000 0.000001 -3.141592 -1.500984 -3.105025
    23 -0.853992 0.000001 0.000000 0.000000 0.287979 0.000000
    24 -2.899452 1.342927 0.078012 -0.205728 -1.319514 -0.142536
    25 -1.152892 0.000000 0.000002 0.012978 -0.959681 -0.067222
    26 -0.748461 -0.000001 0.000000 0.000000 -0.061086 0.057080
  time 14
    0 1.929506 -14.208890 -3.568452 1.355012 -0.161401 -0.189572
    1 0.306466 -0.003179 4.386675 0.000000 0.000000 0.000000
    2 0.330043 0.779799 -9.737320 0.000000 0.000000 0.000000
    3 0.306469 -0.369967 -3.715791 0.000000 0.000000 0.000000
    4 0.311221 0.949065 14.047296 0.000000 1.570796 0.000000
    5 0.300573 -0.587445 -6.634350 0.000000 0.000000 0.000000
    6 6.940324 3.494380 -13.146283 1.207598 -1.101388 1.707998
    7 0.300572 0.831777 -8.343176 -3.141592 0.000000 0.000000
    8 -13.915428 -9.662042 -7.026770 -3.141592 -0.933752 3.141402
    9 0.023288 0.041601 0.000000 0.621597 -0.782291 -0.047498
    10 -11.072359 -0.043444 0.000000 0.000000 0.000000 1.285715
    11 -8.108979 0.000000 0.000000 -0.031249 0.210349 -0.245452
    12 -0.758958 -0.993292 -0.533611 -0.202027 -0.097279 0.588010
    13 -1.920303 0.000000 0.000000 0.000000 0.000000 0.063721
    14 -0.858252 0.000000 0.000000 0.000000 0.000000 0.209059
    15 -2.931402 -0.842322 0.160553 0.145276 -0.608326 -0.436699
    16 -1.836086 -0.000001 0.000002 0.000000 -1.457350 0.000000
    17 -0.853995 -0.000001 0.000000 0.002756 -0.113413 -0.024347
    18 -2.964060 -0.072899 0.178523 0.081863 -0.731986 -0.417209
    19 -1.814736 0.000000 0.000000 -3.068760 -1.483366 3.089821
    20 -0.982325 0.000002 0.000000 0.000000 0.200713 -0.021736
    21 -2.910366 0.632510 0.212797 0.030115 -0.972947 -0.427775
    22 -1.751858 0.000000 0.000001 -3.141592 -1.500984 -3.105025
    23 -0.853992 0.000001 0.000000 0.000000 0.287979 0.000000
    24 -2.899452 1.342927 0.078012 -0.205728 -1.319514 -0.142536
    25 -1.152892 0.000000 0.000002 0.012978 -0.959681 -0.067222
    26 -0.748461 -0.000001 0.000000 0.000000 -0.061086 0.057080
  time 15
    0 2.081854 -14.029197 -3.517669 1.346861 -0.147649 -0.158677
    1 0.306466 -0.003179 3.296798 0.000000 0.000000 0.000000
    2 0.330043 0.779799 -9.737320 0.000000 0.000000 0.000000
    3 0.306469 -0.369967 -3.715791 0.000000 0.000000 0.000000
    4 0.311221 0.949065 14.047296 0.000000 1.570796 0.000000
    5 0.300573 -0.587445 -6.634350 0.000000 0.000000 0.000000
    6 6.424683 3.763920 -13.259568 1.241784 -1.097947 1.707155
    7 0.300572 0.831777 -8.343176 -3.141592 0.000000 0.000000
    8 -13.915428 -9.662042 -7.026770 -3.141592 -0.933752 3.141402
    9 0.023288 0.041601 0.000000 0.659565 -0.801885 -0.207224
    10 -11.072359 -0.043444 0.000000 0.000000 0.000000 1.298998
    11 -8.108979 0.000000 0.000000 0.082182 0.175187 -0.191213
    12 -0.758958 -0.993292 -0.533611 -0.202027 -0.097279 0.588010
    13 -1.920303 0.000000 0.000000 0.000000 0.000000 0.063721
    14 -0.858252 0.000000 0.000000 0.000000 0.000000 0.209059
    15 -2.931402 -0.842322 0.160553 0.145276 -0.608326 -0.436699
    16 -1.836086 -0.000001 0.000002 0.000000 -1.457350 0.000000
    17 -0.853995 -0.000001 0.000000 0.002756 -0.113413 -0.024347
    18 -2.964060 -0.072899 0.178523 0.081863 -0.731986 -0.417209
    19 -1.814736 0.000000 0.000000 -3.068760 -1.483366 3.089821
    20 -0.982325 0.000002 0.000000 0.000000 0.200713 -0.021736
    21 -2.910366 0.632510 0.212797 0.030115 -0.972947 -0.427775
    22 -1.751858 0.000000 0.000001 -3.141592 -1.500984 -3.105025
    23 -0.853992 0.000001 0.000000 0.000000 0.287979 0.000000
    24 -2.899452 1.342927 0.078012 -0.205728 -1.319514 -0.142536
    25 -1.152892 0.000000 0.000002 0.012978 -0.959681 -0.067222
    26 -0.748461 -0.000001 0.000000 0.000000 -0.061086 0.057080
  time 16
    0 2.226390 -13.802627 -3.451260 1.339012 -0.130088 -0.130100
    1 0.306466 -0.003179 3.304611 0.000000 0.000000 0.000000
    2 0.330043 0.779799 -9.737320 0.000000 0.000000 0.000000
    3 0.306469 -0.369967 -3.715791 0.000000 0.000000 0.000000
    4 0.311221 0.949065 14.047296 0.000000 1.570796 0.000000
    5 0.300573 -0.587445 -6.634350 0.000000 0.000000 0.000000
    6 5.893417 4.049085 -13.357227 1.283736 -1.095366 1.697594
    7 0.300572 0.831777 -8.343176 -3.141592 0.000000 0.000000
    8 -13.915428 -9.662042 -7.026770 -3.141592 -0.933752 3.141402
    9 0.023288 0.041601 0.000000 0.667077 -0.812815 -0.226895
    10 -11.072359 -0.043444 0.000000 0.000000 0.000000 1.284937
    11 -8.108979 0.000000 0.000000 0.106983 0.174018 -0.201720
    12 -0.758958 -0.993292 -0.533611 -0.202027 -0.097279 0.588010
    13 -1.920303 0.000000 0.000000 0.000000 0.000000 0.063721
    14 -0.858252 0.000000 0.000000 0.000000 0.000000 0.209059
    15 -2.931402 -0.842322 0.160553 0.145276 -0.608326 -0.436699
    16 -1.836086 -0.000001 0.000002 0.000000 -1.457350 0.000000
    17 -0.853995 -0.000001 0.000000 0.002756 -0.113413 -0.024347
    18 -2.964060 -0.072899 0.178523 0.081863 -0.731986 -0.417209
    19 -1.814736 0.000000 0.000000 -3.068760 -1.483366 3.089821
    20 -0.982325 0.000002 0.000000 0.000000 0.200713 -0.021736
    21 -2.910366 0.632510 0.212797 0.030115 -0.972947 -0.427775
    22 -1.751858 0.000000 0.000001 -3.141592 -1.500984 -3.105025
    23 -0.853992 0.000001 0.000000 0.000000 0.287979 0.000000
    24 -2.899452 1.342927 0.078012 -0.205728 -1.319514 -0.142536
    25 -1.152892 0.000000 0.000002 0.012978 -0.959681 -0.067222
    26 -0.748461 -0.000001 0.000000 0.000000 -0.061086 0.057080
  time 17
    0 2.343581 -13.564339 -3.392665 1.334544 -0.110781 -0.104496
    1 0.306466 -0.003179 3.300705 0.000000 0.000000 0.000000
    2 0.330043 0.779799 -9.737320 0.000000 0.000000 0.000000
    3 0.306469 -0.369967 -3.715791 0.000000 0.000000 0.000000
    4 0.311221 0.949065 14.047296 0.000000 1.570796 0.000000
    5 0.300573 -0.587445 -6.634350 0.000000 0.000000 0.000000
    6 5.362151 4.345969 -13.396291 1.326995 -1.095502 1.684166
    7 0.300572 0.831777 -8.343176 -3.141592 0.000000 0.000000
    8 -13.915428 -9.662042 -7.026770 -3.141592 -0.933752 3.141402
    9 0.023288 0.041601 0.000000 0.676068 -0.822826 -0.249802
    10 -11.072359 -0.043444 0.000000 0.000000 0.000000 1.274822
    11 -8.108979 0.000000 0.000000 0.132464 0.177272 -0.212511
    12 -0.758958 -0.993292 -0.533611 -0.202027 -0.097279 0.588010
    13 -1.920303 0.000000 0.000000 0.000000 0.000000 0.063721
    14 -0.858252 0.000000 0.000000 0.000000 0.000000 0.209059
    15 -2.931402 -0.842322 0.160553 0.145276 -0.608326 -0.436699
    16 -1.836086 -0.000001 0.000002 0.000000 -1.457350 0.000000
    17 -0.853995 -0.000001 0.000000 0.002756 -0.113413 -0.024347
    18 -2.964060 -0.072899 0.178523 0.081863 -0.731986 -0.417209
    19 -1.814736 0.000000 0.000000 -3.068760 -1.483366 3.089821
    20 -0.982325 0.000002 0.000000 0.000000 0.200713 -0.021736
    21 -2.910366 0.632510 0.212797 0.030115 -0.972947 -0.427775
    22 -1.751858 0.000000 0.000001 -3.141592 -1.500984 -3.105025
    23 -0.853992 0.000001 0.000000 0.000000 0.287979 0.000000
    24 -2.899452 1.342927 0.078012 -0.205728 -1.319514 -0.142536
    25 -1.152892 0.000000 0.000002 0.012978 -0.959681 -0.067222
    26 -0.748461 -0.000001 0.000000 0.000000 -0.061086 0.057080
  time 18
    0 2.425615 -13.353395 -3.341882 1.336597 -0.092012 -0.082320
    1 0.306466 -0.003179 3.304611 0.000000 0.000000 0.000000
    2 0.330043 0.779799 -9.737320 0.000000 0.000000 0.000000
    3 0.306469 -0.369967 -3.715791 0.000000 0.000000 0.000000
    4 0.311221 0.949065 14.047296 0.000000 1.570796 0.000000
    5 0.300573 -0.587445 -6.634350 0.000000 0.000000 0.000000
    6 4.858229 4.658478 -13.333789 1.366261 -1.101162 1.671300
    7 0.300572 0.831777 -8.343176 -3.141592 0.000000 0.000000
    8 -13.915428 -9.662042 -7.026770 -3.141592 -0.933752 3.141402
    9 0.023288 0.041601 0.000000 0.685059 -0.830480 -0.272646
    10 -11.072359 -0.043444 0.000000 0.000000 0.000000 1.269987
    11 -8.108979 0.000000 0.000000 0.152466 0.185012 -0.225006
    12 -0.758958 -0.993292 -0.533611 -0.202027 -0.097279 0.588010
    13 -1.920303 0.000000 0.000000 0.000000 0.000000 0.063721
    14 -0.858252 0.000000 0.000000 0.000000 0.000000 0.209059
    15 -2.931402 -0.842322 0.160553 0.145276 -0.608326 -0.436699
    16 -1.836086 -0.000001 0.000002 0.000000 -1.457350 0.000000
    17 -0.853995 -0.000001 0.000000 0.002756 -0.113413 -0.024347
    18 -2.964060 -0.072899 0.178523 0.081863 -0.731986 -0.417209
    19 -1.814736 0.000000 0.000000 -3.068760 -1.483366 3.089821
    20 -0.982325 0.000002 0.000000 0.000000 0.200713 -0.021736
    21 -2.910366 0.632510 0.212797 0.030115 -0.972947 -0.427775
    22 -1.751858 0.000000 0.000001 -3.141592 -1.500984 -3.105025
    23 -0.853992 0.000001 0.000000 0.000000 0.287979 0.000000
    24 -2.899452 1.342927 0.078012 -0.205728 -1.319514 -0.142536
    25 -1.152892 0.000000 0.000002 0.012978 -0.959681 -0.067222
    26 -0.748461 -0.000001 0.000000 0.000000 -0.061086 0.057080
  time 19
    0 2.464679 -13.201047 -3.314538 1.347646 -0.076198 -0.064025
    1 0.306466 -0.003179 3.304611 0.000000 0.000000 0.000000
    2 0.330043 0.779799 -9.737320 0.000000 0.000000 0.000000
    3 0.306469 -0.369967 -3.715791 0.000000 0.000000 0.000000
    4 0.311221 0.949065 14.047296 0.000000 1.570796 0.000000
    5 0.300573 -0.587445 -6.634350 0.000000 0.000000 0.000000
    6 4.401184 4.970988 -13.126751 1.397108 -1.114791 1.663005
    7 0.300572 0.831777 -8.343176 -3.141592 0.000000 0.000000
    8 -13.915428 -9.662042 -7.026770 -3.141592 -0.933752 3.141402
    9 0.023288 0.041601 0.000000 0.691782 -0.834736 -0.291072
    10 -11.072359 -0.043444 0.000000 0.000000 0.000000 1.269709
    11 -8.108979 0.000000 0.000000 0.160790 0.197112 -0.240246
    12 -0.758958 -0.993292 -0.533611 -0.202027 -0.097279 0.588010
    13 -1.920303 0.000000 0.000000 0.000000 0.000000 0.063721
    14 -0.858252 0.000000 0.000000 0.000000 0.000000 0.209059
    15 -2.931402 -0.842322 0.160553 0.145276 -0.608326 -0.436699
    16 -1.836086 -0.000001 0.000002 0.000000 -1.457350 0.000000
    17 -0.853995 -0.000001 0.000000 0.002756 -0.113413 -0.024347
    18 -2.964060 -0.072899 0.178523 0.081863 -0.731986 -0.417209
    19 -1.814736 0.000000 0.000000 -3.068760 -1.483366 3.089821
    20 -0.982325 0.000002 0.000000 0.000000 0.200713 -0.021736
    21 -2.910366 0.632510 0.212797 0.030115 -0.972947 -0.427775
    22 -1.751858 0.000000 0.000001 -3.141592 -1.500984 -3.105025
    23 -0.853992 0.000001 0.000000 0.000000 0.287979 0.000000
    24 -2.899452 1.342927 0.078012 -0.205728 -1.319514 -0.142536
    25 -1.152892 0.000000 0.000002 0.012978 -0.959681 -0.067222
    26 -0.748461 -0.000001 0.000000 0.000000 -0.061086 0.057080
  time 20
    0 2.452959 -13.107294 -3.322350 1.369985 -0.062580 -0.049409
    1 0.306466 -0.003179 3.300705 0.000000 0.000000 0.000000
    2 0.330043 0.779799 -9.737320 0.000000 0.000000 0.000000
    3 0.306469 -0.369967 -3.715791 0.000000 0.000000 0.000000
    4 0.311221 0.949065 14.047296 0.000000 1.570796 0.000000
    5 0.300573 -0.587445 -6.634350 0.000000 0.000000 0.000000
    6 3.979296 5.314748 -12.732208 1.420842 -1.138834 1.657732
    7 0.300572 0.831777 -8.343176 -3.141592 0.000000 0.000000
    8 -13.915428 -9.662042 -7.026770 -3.141592 -0.933752 3.141402
    9 0.023288 0.041601 0.000000 0.697026 -0.834950 -0.306198
    10 -11.072359 -0.043444 0.000000 0.000000 0.000000 1.276267
    11 -8.108979 0.000000 0.000000 0.156203 0.215151 -0.259367
    12 -0.758958 -0.993292 -0.533611 -0.202027 -0.097279 0.588010
    13 -1.920303 0.000000 0.000000 0.000000 0.000000 0.063721
    14 -0.858252 0.000000 0.000000 0.000000 0.000000 0.209059
    15 -2.931402 -0.842322 0.160553 0.145276 -0.608326 -0.436699
    16 -1.836086 -0.000001 0.000002 0.000000 -1.457350 0.000000
    17 -0.853995 -0.000001 0.000000 0.002756 -0.113413 -0.024347
    18 -2.964060 -0.072899 0.178523 0.081863 -0.731986 -0.417209
    19 -1.814736 0.000000 0.000000 -3.068760 -1.483366 3.089821
    20 -0.982325 0.000002 0.000000 0.000000 0.200713 -0.021736
    21 -2.910366 0.632510 0.212797 0.030115 -0.972947 -0.427775
    22 -1.751858 0.000000 0.000001 -3.141592 -1.500984 -3.105025
    23 -0.853992 0.000001 0.000000 0.000000 0.287979 0.000000
    24 -2.899452 1.342927 0.078012 -0.205728 -1.319514 -0.142536
    25 -1.152892 0.000000 0.000002 0.012978 -0.959681 -0.067222
    26 -0.748461 -0.000001 0.000000 0.000000 -0.061086 0.057080
  time 21
    0 2.413896 -13.040885 -3.345788 1.401260 -0.049366 -0.037565
    1 0.306466 -0.003179 3.300705 0.000000 0.000000 0.000000
    2 0.330043 0.779799 -9.737320 0.000000 0.000000 0.000000
    3 0.306469 -0.369967 -3.715791 0.000000 0.000000 0.000000
    4 0.311221 0.949065 14.047296 0.000000 1.570796 0.000000
    5 0.300573 -0.587445 -6.634350 0.000000 0.000000 0.000000
    6 3.576940 5.689760 -12.181410 1.443705 -1.171390 1.650491
    7 0.300572 0.831777 -8.343176 -3.141592 0.000000 0.000000
    8 -13.915428 -9.662042 -7.026770 -3.141592 -0.933752 3.141402
    9 0.023288 0.041601 0.000000 0.703020 -0.832164 -0.321946
    10 -11.072359 -0.043444 0.000000 0.000000 0.000000 1.290828
    11 -8.108979 0.000000 0.000000 0.143548 0.239098 -0.283410
    12 -0.758958 -0.993292 -0.533611 -0.202027 -0.097279 0.588010
    13 -1.920303 0.000000 0.000000 0.000000 0.000000 0.063721
    14 -0.858252 0.000000 0.000000 0.000000 0.000000 0.209059
    15 -2.931402 -0.842322 0.160553 0.145276 -0.608326 -0.436699
    16 -1.836086 -0.000001 0.000002 0.000000 -1.457350 0.000000
    17 -0.853995 -0.000001 0.000000 0.002756 -0.113413 -0.024347
    18 -2.964060 -0.072899 0.178523 0.081863 -0.731986 -0.417209
    19 -1.814736 0.000000 0.000000 -3.068760 -1.483366 3.089821
    20 -0.982325 0.000002 0.000000 0.000000 0.200713 -0.021736
    21 -2.910366 0.632510 0.212797 0.030115 -0.972947 -0.427775
    22 -1.751858 0.000000 0.000001 -3.141592 -1.500984 -3.105025
    23 -0.853992 0.000001 0.000000 0.000000 0.287979 0.000000
    24 -2.899452 1.342927 0.078012 -0.205728 -1.319514 -0.142536
    25 -1.152892 0.000000 0.000002 0.012978 -0.959681 -0.067222
    26 -0.748461 -0.000001 0.000000 0.000000 -0.061086 0.057080
  time 22
    0 2.327956 -12.990103 -3.384852 1.438089 -0.036867 -0.027938
    1 0.306466 -0.003179 3.300705 0.000000 0.000000 0.000000
    2 0.330043 0.779799 -9.737320 0.000000 0.000000 0.000000
    3 0.306469 -0.369967 -3.715791 0.000000 0.000000 0.000000
    4 0.311221 0.949065 14.047296 0.000000 1.570796 0.000000
    5 0.300573 -0.587445 -6.634350 0.000000 0.000000 0.000000
    6 3.186303 6.064771 -11.517327 1.466423 -1.209334 1.640578
    7 0.300572 0.831777 -8.343176 -3.141592 0.000000 0.000000
    8 -13.915428 -9.662042 -7.026770 -3.141592 -0.933752 3.141402
    9 0.023288 0.041601 0.000000 0.708913 -0.827603 -0.337010
    10 -11.072359 -0.043444 0.000000 0.000000 0.000000 1.309335
    11 -8.108979 0.000000 0.000000 0.125244 0.266394 -0.310009
    12 -0.758958 -0.993292 -0.533611 -0.202027 -0.097279 0.588010
    13 -1.920303 0.000000 0.000000 0.000000 0.000000 0.063721
    14 -0.858252 0.000000 0.000000 0.000000 0.000000 0.209059
    15 -2.931402 -0.842322 0.160553 0.145276 -0.608326 -0.436699
    16 -1.836086 -0.000001 0.000002 0.000000 -1.457350 0.000000
    17 -0.853995 -0.000001 0.000000 0.002756 -0.113413 -0.024347
    18 -2.964060 -0.072899 0.178523 0.081863 -0.731986 -0.417209
    19 -1.814736 0.000000 0.000000 -3.068760 -1.483366 3.089821
    20 -0.982325 0.000002 0.000000 0.000000 0.200713 -0.021736
    21 -2.910366 0.632510 0.212797 0.030115 -0.972947 -0.427775
    22 -1.751858 0.000000 0.000001 -3.141592 -1.500984 -3.105025
    23 -0.853992 0.000001 0.000000 0.000000 0.287979 0.000000
    24 -2.899452 1.342927 0.078012 -0.205728 -1.319514 -0.142536
    25 -1.152892 0.000000 0.000002 0.012978 -0.959681 -0.067222
    26 -0.748461 -0.000001 0.000000 0.000000 -0.061086 0.057080
  time 23
    0 2.245922 -12.958852 -3.420009 1.476911 -0.025399 -0.019773
    1 0.306466 -0.003179 3.578057 0.000000 0.000000 0.000000
    2 0.330043 0.779799 -9.737320 0.000000 0.000000 0.000000
    3 0.306469 -0.369967 -3.715791 0.000000 0.000000 0.000000
    4 0.311221 0.949065 14.047296 0.000000 1.570796 0.000000
    5 0.300573 -0.587445 -6.634350 0.000000 0.000000 0.000000
    6 2.834730 6.400719 -10.821993 1.490520 -1.249044 1.627291
    7 0.300572 0.831777 -8.343176 -3.141592 0.000000 0.000000
    8 -13.915428 -9.662042 -7.026770 -3.141592 -0.933752 3.141402
    9 0.023288 0.041601 0.000000 0.703911 -0.820990 -0.309933
    10 -11.072359 -0.043444 0.000000 0.000000 0.000000 1.318005
    11 -8.108979 0.000000 0.000000 0.075727 0.300166 -0.354309
    12 -0.758958 -0.993292 -0.533611 -0.202027 -0.097279 0.588010
    13 -1.920303 0.000000 0.000000 0.000000 0.000000 0.063721
    14 -0.858252 0.000000 0.000000 0.000000 0.000000 0.209059
    15 -2.931402 -0.842322 0.160553 0.145276 -0.608326 -0.436699
    16 -1.836086 -0.000001 0.000002 0.000000 -1.457350 0.000000
    17 -0.853995 -0.000001 0.000000 0.002756 -0.113413 -0.024347
    18 -2.964060 -0.072899 0.178523 0.081863 -0.731986 -0.417209
    19 -1.814736 0.000000 0.000000 -3.068760 -1.483366 3.089821
    20 -0.982325 0.000002 0.000000 0.000000 0.200713 -0.021736
    21 -2.910366 0.632510 0.212797 0.030115 -0.972947 -0.427775
    22 -1.751858 0.000000 0.000001 -3.141592 -1.500984 -3.105025
    23 -0.853992 0.000001 0.000000 0.000000 0.287979 0.000000
    24 -2.899452 1.342927 0.078012 -0.205728 -1.319514 -0.142536
    25 -1.152892 0.000000 0.000002 0.012978 -0.959681 -0.067222
    26 -0.748461 -0.000001 0.000000 0.000000 -0.061086 0.057080
  time 24
    0 2.144356 -12.939320 -3.462980 1.514344 -0.015231 -0.012717
    1 0.306466 -0.003179 4.117136 0.000000 0.000000 0.000000
    2 0.330043 0.779799 -9.737320 0.000000 0.000000 0.000000
    3 0.306469 -0.369967 -3.715791 0.000000 0.000000 0.000000
    4 0.311221 0.949065 14.047296 0.000000 1.570796 0.000000
    5 0.300573 -0.587445 -6.634350 0.000000 0.000000 0.000000
    6 2.522220 6.697603 -10.134472 1.516359 -1.287033 1.610489
    7 0.300572 0.831777 -8.343176 -3.141592 0.000000 0.000000
    8 -13.915428 -9.662042 -7.026770 -3.141592 -0.933752 3.141402
    9 0.023288 0.041601 0.000000 0.684249 -0.811866 -0.240963
    10 -11.072359 -0.043444 0.000000 0.000000 0.000000 1.311725
    11 -8.108979 0.000000 0.000000 -0.001267 0.330842 -0.413660
    12 -0.758958 -0.993292 -0.533611 -0.202027 -0.097279 0.588010
    13 -1.920303 0.000000 0.000000 0.000000 0.000000 0.063721
    14 -0.858252 0.000000 0.000000 0.000000 0.000000 0.209059
    15 -2.931402 -0.842322 0.160553 0.145276 -0.608326 -0.436699
    16 -1.836086 -0.000001 0.000002 0.000000 -1.457350 0.000000
    17 -0.853995 -0.000001 0.000000 0.002756 -0.113413 -0.024347
    18 -2.964060 -0.072899 0.178523 0.081863 -0.731986 -0.417209
    19 -1.814736 0.000000 0.000000 -3.068760 -1.483366 3.089821
    20 -0.982325 0.000002 0.000000 0.000000 0.200713 -0.021736
    21 -2.910366 0.632510 0.212797 0.030115 -0.972947 -0.427775
    22 -1.751858 0.000000 0.000001 -3.141592 -1.500984 -3.105025
    23 -0.853992 0.000001 0.000000 0.000000 0.287979 0.000000
    24 -2.899452 1.342927 0.078012 -0.205728 -1.319514 -0.142536
    25 -1.152892 0.000000 0.000002 0.012978 -0.959681 -0.067222
    26 -0.748461 -0.000001 0.000000 0.000000 -0.061086 0.057080
  time 25
    0 2.074042 -12.919788 -3.502043 1.546766 -0.006540 -0.006266
    1 0.306466 -0.003179 4.937474 0.000000 0.000000 0.000000
    2 0.330043 0.779799 -9.737320 0.000000 0.000000 0.000000
    3 0.306469 -0.369967 -3.715791 0.000000 0.000000 0.000000
    4 0.311221 0.949065 14.047296 0.000000 1.570796 0.000000
    5 0.300573 -0.587445 -6.634350 0.000000 0.000000 0.000000
    6 2.264400 6.928079 -9.544611 1.543940 -1.319770 1.590734
    7 0.300572 0.831777 -8.343176 -3.141592 0.000000 0.000000
    8 -13.915428 -9.662042 -7.026770 -3.141592 -0.933752 3.141402
    9 0.023288 0.041601 0.000000 0.645714 -0.799895 -0.132839
    10 -11.072359 -0.043444 0.000000 0.000000 0.000000 1.282714
    11 -8.108979 0.000000 0.000000 -0.097159 0.346986 -0.479258
    12 -0.758958 -0.993292 -0.533611 -0.202027 -0.097279 0.588010
    13 -1.920303 0.000000 0.000000 0.000000 0.000000 0.063721
    14 -0.858252 0.000000 0.000000 0.000000 0.000000 0.209059
    15 -2.931402 -0.842322 0.160553 0.145276 -0.608326 -0.436699
    16 -1.836086 -0.000001 0.000002 0.000000 -1.457350 0.000000
    17 -0.853995 -0.000001 0.000000 0.002756 -0.113413 -0.024347
    18 -2.964060 -0.072899 0.178523 0.081863 -0.731986 -0.417209
    19 -1.814736 0.000000 0.000000 -3.068760 -1.483366 3.089821
    20 -0.982325 0.000002 0.000000 0.000000 0.200713 -0.021736
    21 -2.910366 0.632510 0.212797 0.030115 -0.972947 -0.427775
    22 -1.751858 0.000000 0.000001 -3.141592 -1.500984 -3.105025
    23 -0.853992 0.000001 0.000000 0.000000 0.287979 0.000000
    24 -2.899452 1.342927 0.078012 -0.205728 -1.319514 -0.142536
    25 -1.152892 0.000000 0.000002 0.012978 -0.959681 -0.067222
    26 -0.748461 -0.000001 0.000000 0.000000 -0.061086 0.057080
  time 26
    0 2.015446 -12.896350 -3.525481 1.570796 0.000000 -0.000218
    1 0.306466 -0.003179 6.007819 0.000000 0.000000 0.000000
    2 0.330043 0.779799 -9.737320 0.000000 0.000000 0.000000
    3 0.306469 -0.369967 -3.715791 0.000000 0.000000 0.000000
    4 0.311221 0.949065 14.047296 0.000000 1.570796 0.000000
    5 0.300573 -0.587445 -6.634350 0.000000 0.000000 0.000000
    6 2.041737 7.084333 -9.087566 1.570795 -1.343904 1.570557
    7 0.300572 0.831777 -8.343176 -3.141592 0.000000 0.000000
    8 -13.915428 -9.662042 -7.026770 -3.141592 -0.933752 3.141402
    9 0.023288 0.041601 0.000000 0.585917 -0.785506 0.009521
    10 -11.072359 -0.043444 0.000000 0.000000 0.000000 1.220468
    11 -8.108979 0.000000 0.000000 -0.198062 0.339688 -0.535201
    12 -0.758958 -0.993292 -0.533611 -0.202027 -0.097279 0.588010
    13 -1.920303 0.000000 0.000000 0.000000 0.000000 0.063721
    14 -0.858252 0.000000 0.000000 0.000000 0.000000 0.209059
    15 -2.931402 -0.842322 0.160553 0.145276 -0.608326 -0.436699
    16 -1.836086 -0.000001 0.000002 0.000000 -1.457350 0.000000
    17 -0.853995 -0.000001 0.000000 0.002756 -0.113413 -0.024347
    18 -2.964060 -0.072899 0.178523 0.081863 -0.731986 -0.417209
    19 -1.814736 0.000000 0.000000 -3.068760 -1.483366 3.089821
    20 -0.982325 0.000002 0.000000 0.000000 0.200713 -0.021736
    21 -2.910366 0.632510 0.212797 0.030115 -0.972947 -0.427775
    22 -1.751858 0.000000 0.000001 -3.141592 -1.500984 -3.105025
    23 -0.853992 0.000001 0.000000 0.000000 0.287979 0.000000
    24 -2.899452 1.342927 0.078012 -0.205728 -1.319514 -0.142536
    25 -1.152892 0.000000 0.000002 0.012978 -0.959681 -0.067222
    26 -0.748461 -0.000001 0.000000 0.000000 -0.061086 0.057080
  time 27
    0 1.992008 -12.880724 -3.533294 1.582690 0.003628 0.003663
    1 0.306466 -0.003179 6.007819 0.000000 0.000000 0.000000
    2 0.330043 0.779799 -9.737320 0.000000 0.000000 0.000000
    3 0.306469 -0.369967 -3.715791 0.000000 0.000000 0.000000
    4 0.311221 0.949065 14.047296 0.000000 1.570796 0.000000
    5 0.300573 -0.587445 -6.634350 0.000000 0.000000 0.000000
    6 1.916733 7.174180 -8.864902 1.587634 -1.355903 1.557762
    7 0.300572 0.831777 -8.343176 -3.141592 0.000000 0.000000
    8 -13.915428 -9.662042 -7.026770 -3.141592 -0.933752 3.141402
    9 0.023288 0.041601 0.000000 0.586484 -0.783087 0.003732
    10 -11.072359 -0.043444 0.000000 0.000000 0.000000 1.226804
    11 -8.108979 0.000000 0.000000 -0.204263 0.344743 -0.545614
    12 -0.758958 -0.993292 -0.533611 -0.202027 -0.097279 0.588010
    13 -1.920303 0.000000 0.000000 0.000000 0.000000 0.063721
    14 -0.858252 0.000000 0.000000 0.000000 0.000000 0.209059
    15 -2.931402 -0.842322 0.160553 0.145276 -0.608326 -0.436699
    16 -1.836086 -0.000001 0.000002 0.000000 -1.457350 0.000000
    17 -0.853995 -0.000001 0.000000 0.002756 -0.113413 -0.024347
    18 -2.964060 -0.072899 0.178523 0.081863 -0.731986 -0.417209
    19 -1.814736 0.000000 0.000000 -3.068760 -1.483366 3.089821
    20 -0.982325 0.000002 0.000000 0.000000 0.200713 -0.021736
    21 -2.910366 0.632510 0.212797 0.030115 -0.972947 -0.427775
    22 -1.751858 0.000000 0.000001 -3.141592 -1.500984 -3.105025
    23 -0.853992 0.000001 0.000000 0.000000 0.287979 0.000000
    24 -2.899452 1.342927 0.078012 -0.205728 -1.319514 -0.142536
    25 -1.152892 0.000000 0.000002 0.012978 -0.959681 -0.067222
    26 -0.748461 -0.000001 0.000000 0.000000 -0.061086 0.057080
  time 28
    0 1.980289 -12.865099 -3.537201 1.584260 0.004076 0.004116
    1 0.306466 -0.003179 6.007819 0.000000 0.000000 0.000000
    2 0.330043 0.779799 -9.737320 0.000000 0.000000 0.000000
    3 0.306469 -0.369967 -3.715791 0.000000 0.000000 0.000000
    4 0.311221 0.949065 14.047296 0.000000 1.570796 0.000000
    5 0.300573 -0.587445 -6.634350 0.000000 0.000000 0.000000
    6 1.893295 7.189805 -8.833652 1.589957 -1.357352 1.556005
    7 0.300572 0.831777 -8.343176 -3.141592 0.000000 0.000000
    8 -13.915428 -9.662042 -7.026770 -3.141592 -0.933752 3.141402
    9 0.023288 0.041601 0.000000 0.586970 -0.782444 0.002238
    10 -11.072359 -0.043444 0.000000 0.000000 0.000000 1.228916
    11 -8.108979 0.000000 0.000000 -0.204730 0.345280 -0.547507
    12 -0.758958 -0.993292 -0.533611 -0.202027 -0.097279 0.588010
    13 -1.920303 0.000000 0.000000 0.000000 0.000000 0.063721
    14 -0.858252 0.000000 0.000000 0.000000 0.000000 0.209059
    15 -2.931402 -0.842322 0.160553 0.145276 -0.608326 -0.436699
    16 -1.836086 -0.000001 0.000002 0.000000 -1.457350 0.000000
    17 -0.853995 -0.000001 0.000000 0.002756 -0.113413 -0.024347
    18 -2.964060 -0.072899 0.178523 0.081863 -0.731986 -0.417209
    19 -1.814736 0.000000 0.000000 -3.068760 -1.483366 3.089821
    20 -0.982325 0.000002 0.000000 0.000000 0.200713 -0.021736
    21 -2.910366 0.632510 0.212797 0.030115 -0.972947 -0.427775
    22 -1.751858 0.000000 0.000001 -3.141592 -1.500984 -3.105025
    23 -0.853992 0.000001 0.000000 0.000000 0.287979 0.000000
    24 -2.899452 1.342927 0.078012 -0.205728 -1.319514 -0.142536
    25 -1.152892 0.000000 0.000002 0.012978 -0.959681 -0.067222
    26 -0.748461 -0.000001 0.000000 0.000000 -0.061086 0.057080
  time 29
    0 1.980289 -12.876818 -3.533294 1.579611 0.002733 0.002655
    1 0.306466 -0.003179 6.007819 0.000000 0.000000 0.000000
    2 0.330043 0.779799 -9.737320 0.000000 0.000000 0.000000
    3 0.306469 -0.369967 -3.715791 0.000000 0.000000 0.000000
    4 0.311221 0.949065 14.047296 0.000000 1.570796 0.000000
    5 0.300573 -0.587445 -6.634350 0.000000 0.000000 0.000000
    6 1.936265 7.154648 -8.927404 1.583279 -1.352824 1.561137
    7 0.300572 0.831777 -8.343176 -3.141592 0.000000 0.000000
    8 -13.915428 -9.662042 -7.026770 -3.141592 -0.933752 3.141402
    9 0.023288 0.041601 0.000000 0.587092 -0.783087 0.003732
    10 -11.072359 -0.043444 0.000000 0.000000 0.000000 1.227749
    11 -8.108979 0.000000 0.000000 -0.202352 0.343353 -0.544194
    12 -0.758958 -0.993292 -0.533611 -0.202027 -0.097279 0.588010
    13 -1.920303 0.000000 0.000000 0.000000 0.000000 0.063721
    14 -0.858252 0.000000 0.000000 0.000000 0.000000 0.209059
    15 -2.931402 -0.842322 0.160553 0.145276 -0.608326 -0.436699
    16 -1.836086 -0.000001 0.000002 0.000000 -1.457350 0.000000
    17 -0.853995 -0.000001 0.000000 0.002756 -0.113413 -0.024347
    18 -2.964060 -0.072899 0.178523 0.081863 -0.731986 -0.417209
    19 -1.814736 0.000000 0.000000 -3.068760 -1.483366 3.089821
    20 -0.982325 0.000002 0.000000 0.000000 0.200713 -0.021736
    21 -2.910366 0.632510 0.212797 0.030115 -0.972947 -0.427775
    22 -1.751858 0.000000 0.000001 -3.141592 -1.500984 -3.105025
    23 -0.853992 0.000001 0.000000 0.000000 0.287979 0.000000
    24 -2.899452 1.342927 0.078012 -0.205728 -1.319514 -0.142536
    25 -1.152892 0.000000 0.000002 0.012978 -0.959681 -0.067222
    26 -0.748461 -0.000001 0.000000 0.000000 -0.061086 0.057080
  time 30
    0 1.999821 -12.884631 -3.533294 1.573634 0.000762 0.000740
    1 0.306466 -0.003179 6.007819 0.000000 0.000000 0.000000
    2 0.330043 0.779799 -9.737320 0.000000 0.000000 0.000000
    3 0.306469 -0.369967 -3.715791 0.000000 0.000000 0.000000
    4 0.311221 0.949065 14.047296 0.000000 1.570796 0.000000
    5 0.300573 -0.587445 -6.634350 0.000000 0.000000 0.000000
    6 1.998767 7.119491 -9.036783 1.574569 -1.346802 1.567534
    7 0.300572 0.831777 -8.343176 -3.141592 0.000000 0.000000
    8 -13.915428 -9.662042 -7.026770 -3.141592 -0.933752 3.141402
    9 0.023288 0.041601 0.000000 0.586788 -0.784281 0.006595
    10 -11.072359 -0.043444 0.000000 0.000000 0.000000 1.224581
    11 -8.108979 0.000000 0.000000 -0.199252 0.340794 -0.538988
    12 -0.758958 -0.993292 -0.533611 -0.202027 -0.097279 0.588010
    13 -1.920303 0.000000 0.000000 0.000000 0.000000 0.063721
    14 -0.858252 0.000000 0.000000 0.000000 0.000000 0.209059
    15 -2.931402 -0.842322 0.160553 0.145276 -0.608326 -0.436699
    16 -1.836086 -0.000001 0.000002 0.000000 -1.457350 0.000000
    17 -0.853995 -0.000001 0.000000 0.002756 -0.113413 -0.024347
    18 -2.964060 -0.072899 0.178523 0.081863 -0.731986 -0.417209
    19 -1.814736 0.000000 0.000000 -3.068760 -1.483366 3.089821
    20 -0.982325 0.000002 0.000000 0.000000 0.200713 -0.021736
    21 -2.910366 0.632510 0.212797 0.030115 -0.972947 -0.427775
    22 -1.751858 0.000000 0.000001 -3.141592 -1.500984 -3.105025
    23 -0.853992 0.000001 0.000000 0.000000 0.287979 0.000000
    24 -2.899452 1.342927 0.078012 -0.205728 -1.319514 -0.142536
    25 -1.152892 0.000000 0.000002 0.012978 -0.959681 -0.067222
    26 -0.748461 -0.000001 0.000000 0.000000 -0.061086 0.057080
  time 31
    0 2.015446 -12.896350 -3.525481 1.570796 0.000000 -0.000218
    1 0.306466 -0.003179 6.007819 0.000000 0.000000 0.000000
    2 0.330043 0.779799 -9.737320 0.000000 0.000000 0.000000
    3 0.306469 -0.369967 -3.715791 0.000000 0.000000 0.000000
    4 0.311221 0.949065 14.047296 0.000000 1.570796 0.000000
    5 0.300573 -0.587445 -6.634350 0.000000 0.000000 0.000000
    6 2.041737 7.084333 -9.087566 1.570795 -1.343904 1.570557
    7 0.300572 0.831777 -8.343176 -3.141592 0.000000 0.000000
    8 -13.915428 -9.662042 -7.026770 -3.141592 -0.933752 3.141402
    9 0.023288 0.041601 0.000000 0.585917 -0.785506 0.009521
    10 -11.072359 -0.043444 0.000000 0.000000 0.000000 1.220468
    11 -8.108979 0.000000 0.000000 -0.198062 0.339688 -0.535201
    12 -0.758958 -0.993292 -0.533611 -0.202027 -0.097279 0.588010
    13 -1.920303 0.000000 0.000000 0.000000 0.000000 0.063721
    14 -0.858252 0.000000 0.000000 0.000000 0.000000 0.209059
    15 -2.931402 -0.842322 0.160553 0.145276 -0.608326 -0.436699
    16 -1.836086 -0.000001 0.000002 0.000000 -1.457350 0.000000
    17 -0.853995 -0.000001 0.000000 0.002756 -0.113413 -0.024347
    18 -2.964060 -0.072899 0.178523 0.081863 -0.731986 -0.417209
    19 -1.814736 0.000000 0.000000 -3.068760 -1.483366 3.089821
    20 -0.982325 0.000002 0.000000 0.000000 0.200713 -0.021736
    21 -2.910366 0.632510 0.212797 0.030115 -0.972947 -0.427775
    22 -1.751858 0.000000 0.000001 -3.141592 -1.500984 -3.105025
    23 -0.853992 0.000001 0.000000 0.000000 0.287979 0.000000
    24 -2.899452 1.342927 0.078012 -0.205728 -1.319514 -0.142536
    25 -1.152892 0.000000 0.000002 0.012978 -0.959681 -0.067222
    26 -0.748461 -0.000001 0.000000 0.000000 -0.061086 0.057080
end
