// Created by Crowbar 0.29.0.0
version 1
nodes
  0 "body" -1
  1 "pump" 0
  2 "bolt" 1
  3 "flap" 0
  4 "muzzleflash" 0
  5 "killswitch" 0
  6 "shell" -1
  7 "stock" 0
  8 "L_Armdummy" -1
  9 "L_Upperarm" 8
  10 "L_Forearm" 9
  11 "L_Wrist" 10
  12 "L_Thumb1" 11
  13 "L_Thumb2" 12
  14 "L_Thumb3" 13
  15 "L_Index1" 11
  16 "L_Index2" 15
  17 "L_Index3" 16
  18 "L_Mid1" 11
  19 "L_Mid2" 18
  20 "L_Mid3" 19
  21 "L_Ring1" 11
  22 "L_Ring2" 21
  23 "L_Ring3" 22
  24 "L_Pinky1" 11
  25 "L_Pinky2" 24
  26 "L_Pinky3" 25
end
skeleton
  time 0
    0 2.015446 -12.896350 -8.943616 1.861205 0.060789 -0.200711
    1 0.306466 -0.003179 6.007819 0.000000 0.000000 0.000000
    2 0.330043 0.779799 -9.737320 0.000000 0.000000 0.000000
    3 0.306469 -0.369967 -3.715791 0.000000 0.000000 0.000000
    4 0.311221 0.949065 14.047296 0.000000 1.570796 0.000000
    5 0.300573 -0.587445 -6.634350 0.000000 0.000000 0.000000
    6 6.202020 7.424188 -8.564112 3.949065 -1.482685 -1.009752
    7 0.300572 0.831777 -8.343176 -3.141592 0.000000 0.000000
    8 -13.915428 -9.662042 -7.026770 -3.141592 -0.933752 3.141402
    9 0.023288 0.041601 0.000000 0.339318 -0.503444 -0.177781
    10 -11.072359 -0.043444 0.000000 0.000000 0.000000 1.321117
    11 -8.108979 0.000000 0.000000 -0.291874 0.246870 -0.303099
    12 -0.758958 -0.993292 -0.533611 -0.202027 -0.097279 0.588010
    13 -1.920303 0.000000 0.000000 0.000000 0.000000 0.063721
    14 -0.858252 0.000000 0.000000 0.000000 0.000000 0.209059
    15 -2.931402 -0.842322 0.160553 0.145276 -0.608326 -0.436699
    16 -1.836086 -0.000001 0.000002 0.000000 -1.457350 0.000000
    17 -0.853995 -0.000001 0.000000 0.002756 -0.113413 -0.024347
    18 -2.964060 -0.072899 0.178523 0.081863 -0.731986 -0.417209
    19 -1.814736 0.000000 0.000000 -3.068760 -1.483366 3.089821
    20 -0.982325 0.000002 0.000000 0.000000 0.200713 -0.021736
    21 -2.910366 0.632510 0.212797 0.030115 -0.972947 -0.427775
    22 -1.751858 0.000000 0.000001 -3.141592 -1.500984 -3.105025
    23 -0.853992 0.000001 0.000000 0.000000 0.287979 0.000000
    24 -2.899452 1.342927 0.078012 -0.205728 -1.319514 -0.142536
    25 -1.152892 0.000000 0.000002 0.012978 -0.959681 -0.067222
    26 -0.748461 -0.000001 0.000000 0.000000 -0.061086 0.057080
  time 1
    0 2.015446 -12.896350 -8.697514 1.830353 0.055458 -0.208019
    1 0.306466 -0.003179 6.007819 0.000000 0.000000 0.000000
    2 0.330043 0.779799 -9.737320 0.000000 0.000000 0.000000
    3 0.306469 -0.369967 -3.715791 0.000000 0.000000 0.000000
    4 0.311221 0.949065 14.047296 0.000000 1.570796 0.000000
    5 0.300573 -0.587445 -6.634350 0.000000 0.000000 0.000000
    6 6.307492 7.396843 -8.958655 3.674127 -1.506366 -0.741267
    7 0.300572 0.831777 -8.343176 -3.141592 0.000000 0.000000
    8 -13.915428 -9.662042 -7.026770 -3.141592 -0.933752 3.141402
    9 0.023288 0.041601 0.000000 0.353958 -0.516058 -0.175914
    10 -11.072359 -0.043444 0.000000 0.000000 0.000000 1.334122
    11 -8.108979 0.000000 0.000000 -0.268092 0.248766 -0.300070
    12 -0.758958 -0.993292 -0.533611 -0.202027 -0.097279 0.588010
    13 -1.920303 0.000000 0.000000 0.000000 0.000000 0.063721
    14 -0.858252 0.000000 0.000000 0.000000 0.000000 0.209059
    15 -2.931402 -0.842322 0.160553 0.145276 -0.608326 -0.436699
    16 -1.836086 -0.000001 0.000002 0.000000 -1.457350 0.000000
    17 -0.853995 -0.000001 0.000000 0.002756 -0.113413 -0.024347
    18 -2.964060 -0.072899 0.178523 0.081863 -0.731986 -0.417209
    19 -1.814736 0.000000 0.000000 -3.068760 -1.483366 3.089821
    20 -0.982325 0.000002 0.000000 0.000000 0.200713 -0.021736
    21 -2.910366 0.632510 0.212797 0.030115 -0.972947 -0.427775
    22 -1.751858 0.000000 0.000001 -3.141592 -1.500984 -3.105025
    23 -0.853992 0.000001 0.000000 0.000000 0.287979 0.000000
    24 -2.899452 1.342927 0.078012 -0.205728 -1.319514 -0.142536
    25 -1.152892 0.000000 0.000002 0.012978 -0.959681 -0.067222
    26 -0.748461 -0.000001 0.000000 0.000000 -0.061086 0.057080
  time 2
    0 2.015446 -12.896350 -8.033432 1.756332 0.041123 -0.218603
    1 0.306466 -0.003179 6.007819 0.000000 0.000000 0.000000
    2 0.330043 0.779799 -9.737320 0.000000 0.000000 0.000000
    3 0.306469 -0.369967 -3.715791 0.000000 0.000000 0.000000
    4 0.311221 0.949065 14.047296 0.000000 1.570796 0.000000
    5 0.300573 -0.587445 -6.634350 0.000000 0.000000 0.000000
    6 6.452028 7.299184 -9.814150 2.356197 -1.512524 0.567483
    7 0.300572 0.831777 -8.343176 -3.141592 0.000000 0.000000
    8 -13.915428 -9.662042 -7.026770 -3.141592 -0.933752 3.141402
    9 0.023288 0.041601 0.000000 0.393384 -0.550163 -0.168382
    10 -11.072359 -0.043444 0.000000 0.000000 0.000000 1.361132
    11 -8.108979 0.000000 0.000000 -0.211440 0.254357 -0.300922
    12 -0.758958 -0.993292 -0.533611 -0.202027 -0.097279 0.588010
    13 -1.920303 0.000000 0.000000 0.000000 0.000000 0.063721
    14 -0.858252 0.000000 0.000000 0.000000 0.000000 0.209059
    15 -2.931402 -0.842322 0.160553 0.145276 -0.608326 -0.436699
    16 -1.836086 -0.000001 0.000002 0.000000 -1.457350 0.000000
    17 -0.853995 -0.000001 0.000000 0.002756 -0.113413 -0.024347
    18 -2.964060 -0.072899 0.178523 0.081863 -0.731986 -0.417209
    19 -1.814736 0.000000 0.000000 -3.068760 -1.483366 3.089821
    20 -0.982325 0.000002 0.000000 0.000000 0.200713 -0.021736
    21 -2.910366 0.632510 0.212797 0.030115 -0.972947 -0.427775
    22 -1.751858 0.000000 0.000001 -3.141592 -1.500984 -3.105025
    23 -0.853992 0.000001 0.000000 0.000000 0.287979 0.000000
    24 -2.899452 1.342927 0.078012 -0.205728 -1.319514 -0.142536
    25 -1.152892 0.000000 0.000002 0.012978 -0.959681 -0.067222
    26 -0.748461 -0.000001 0.000000 0.000000 -0.061086 0.057080
  time 3
    0 2.015446 -12.896350 -7.119341 1.657677 0.020472 -0.227373
    1 0.306466 -0.003179 6.007819 0.000000 0.000000 0.000000
    2 0.330043 0.779799 -9.737320 0.000000 0.000000 0.000000
    3 0.306469 -0.369967 -3.715791 0.000000 0.000000 0.000000
    4 0.311221 0.949065 14.047296 0.000000 1.570796 0.000000
    5 0.300573 -0.587445 -6.634350 0.000000 0.000000 0.000000
    6 6.561406 6.990581 -10.923559 1.716756 -1.429346 1.198798
    7 0.300572 0.831777 -8.343176 -3.141592 0.000000 0.000000
    8 -13.915428 -9.662042 -7.026770 -3.141592 -0.933752 3.141402
    9 0.023288 0.041601 0.000000 0.448888 -0.598322 -0.151389
    10 -11.072359 -0.043444 0.000000 0.000000 0.000000 1.383196
    11 -8.108979 0.000000 0.000000 -0.139627 0.261876 -0.303951
    12 -0.758958 -0.993292 -0.533611 -0.202027 -0.097279 0.588010
    13 -1.920303 0.000000 0.000000 0.000000 0.000000 0.063721
    14 -0.858252 0.000000 0.000000 0.000000 0.000000 0.209059
    15 -2.931402 -0.842322 0.160553 0.145276 -0.608326 -0.436699
    16 -1.836086 -0.000001 0.000002 0.000000 -1.457350 0.000000
    17 -0.853995 -0.000001 0.000000 0.002756 -0.113413 -0.024347
    18 -2.964060 -0.072899 0.178523 0.081863 -0.731986 -0.417209
    19 -1.814736 0.000000 0.000000 -3.068760 -1.483366 3.089821
    20 -0.982325 0.000002 0.000000 0.000000 0.200713 -0.021736
    21 -2.910366 0.632510 0.212797 0.030115 -0.972947 -0.427775
    22 -1.751858 0.000000 0.000001 -3.141592 -1.500984 -3.105025
    23 -0.853992 0.000001 0.000000 0.000000 0.287979 0.000000
    24 -2.899452 1.342927 0.078012 -0.205728 -1.319514 -0.142536
    25 -1.152892 0.000000 0.000002 0.012978 -0.959681 -0.067222
    26 -0.748461 -0.000001 0.000000 0.000000 -0.061086 0.057080
  time 4
    0 2.015446 -12.896350 -6.127123 1.552381 -0.002509 -0.229893
    1 0.306466 -0.003179 6.007819 0.000000 0.000000 0.000000
    2 0.330043 0.779799 -9.737320 0.000000 0.000000 0.000000
    3 0.306469 -0.369967 -3.715791 0.000000 0.000000 0.000000
    4 0.311221 0.949065 14.047296 0.000000 1.570796 0.000000
    5 0.300573 -0.587445 -6.634350 0.000000 0.000000 0.000000
    6 6.584844 6.455408 -12.060313 1.559690 -1.325475 1.351776
    7 0.300572 0.831777 -8.343176 -3.141592 0.000000 0.000000
    8 -13.915428 -9.662042 -7.026770 -3.141592 -0.933752 3.141402
    9 0.023288 0.041601 0.000000 0.510244 -0.652144 -0.123751
    10 -11.072359 -0.043444 0.000000 0.000000 0.000000 1.389143
    11 -8.108979 0.000000 0.000000 -0.070914 0.269774 -0.310009
    12 -0.758958 -0.993292 -0.533611 -0.202027 -0.097279 0.588010
    13 -1.920303 0.000000 0.000000 0.000000 0.000000 0.063721
    14 -0.858252 0.000000 0.000000 0.000000 0.000000 0.209059
    15 -2.931402 -0.842322 0.160553 0.145276 -0.608326 -0.436699
    16 -1.836086 -0.000001 0.000002 0.000000 -1.457350 0.000000
    17 -0.853995 -0.000001 0.000000 0.002756 -0.113413 -0.024347
    18 -2.964060 -0.072899 0.178523 0.081863 -0.731986 -0.417209
    19 -1.814736 0.000000 0.000000 -3.068760 -1.483366 3.089821
    20 -0.982325 0.000002 0.000000 0.000000 0.200713 -0.021736
    21 -2.910366 0.632510 0.212797 0.030115 -0.972947 -0.427775
    22 -1.751858 0.000000 0.000001 -3.141592 -1.500984 -3.105025
    23 -0.853992 0.000001 0.000000 0.000000 0.287979 0.000000
    24 -2.899452 1.342927 0.078012 -0.205728 -1.319514 -0.142536
    25 -1.152892 0.000000 0.000002 0.012978 -0.959681 -0.067222
    26 -0.748461 -0.000001 0.000000 0.000000 -0.061086 0.057080
  time 5
    0 2.015446 -12.896350 -5.213033 1.457772 -0.023787 -0.223240
    1 0.306466 -0.003179 6.007819 0.000000 0.000000 0.000000
    2 0.330043 0.779799 -9.737320 0.000000 0.000000 0.000000
    3 0.306469 -0.369967 -3.715791 0.000000 0.000000 0.000000
    4 0.311221 0.949065 14.047296 0.000000 1.570796 0.000000
    5 0.300573 -0.587445 -6.634350 0.000000 0.000000 0.000000
    6 6.475466 5.814763 -13.001747 1.499738 -1.229981 1.414697
    7 0.300572 0.831777 -8.343176 -3.141592 0.000000 0.000000
    8 -13.915428 -9.662042 -7.026770 -3.141592 -0.933752 3.141402
    9 0.023288 0.041601 0.000000 0.564959 -0.702293 -0.087709
    10 -11.072359 -0.043444 0.000000 0.000000 0.000000 1.375860
    11 -8.108979 0.000000 0.000000 -0.021227 0.276124 -0.319949
    12 -0.758958 -0.993292 -0.533611 -0.202027 -0.097279 0.588010
    13 -1.920303 0.000000 0.000000 0.000000 0.000000 0.063721
    14 -0.858252 0.000000 0.000000 0.000000 0.000000 0.209059
    15 -2.931402 -0.842322 0.160553 0.145276 -0.608326 -0.436699
    16 -1.836086 -0.000001 0.000002 0.000000 -1.457350 0.000000
    17 -0.853995 -0.000001 0.000000 0.002756 -0.113413 -0.024347
    18 -2.964060 -0.072899 0.178523 0.081863 -0.731986 -0.417209
    19 -1.814736 0.000000 0.000000 -3.068760 -1.483366 3.089821
    20 -0.982325 0.000002 0.000000 0.000000 0.200713 -0.021736
    21 -2.910366 0.632510 0.212797 0.030115 -0.972947 -0.427775
    22 -1.751858 0.000000 0.000001 -3.141592 -1.500984 -3.105025
    23 -0.853992 0.000001 0.000000 0.000000 0.287979 0.000000
    24 -2.899452 1.342927 0.078012 -0.205728 -1.319514 -0.142536
    25 -1.152892 0.000000 0.000002 0.012978 -0.959681 -0.067222
    26 -0.748461 -0.000001 0.000000 0.000000 -0.061086 0.057080
  time 6
    0 2.015446 -12.896350 -4.556763 1.391539 -0.037853 -0.206205
    1 0.306466 -0.003179 6.007819 0.000000 0.000000 0.000000
    2 0.330043 0.779799 -9.737320 0.000000 0.000000 0.000000
    3 0.306469 -0.369967 -3.715791 0.000000 0.000000 0.000000
    4 0.311221 0.949065 14.047296 0.000000 1.570796 0.000000
    5 0.300573 -0.587445 -6.634350 0.000000 0.000000 0.000000
    6 6.202020 5.310842 -13.591609 1.475278 -1.162968 1.452379
    7 0.300572 0.831777 -8.343176 -3.141592 0.000000 0.000000
    8 -13.915428 -9.662042 -7.026770 -3.141592 -0.933752 3.141402
    9 0.023288 0.041601 0.000000 0.600557 -0.739736 -0.051730
    10 -11.072359 -0.043444 0.000000 0.000000 0.000000 1.350128
    11 -8.108979 0.000000 0.000000 0.001451 0.277609 -0.333579
    12 -0.758958 -0.993292 -0.533611 -0.202027 -0.097279 0.588010
    13 -1.920303 0.000000 0.000000 0.000000 0.000000 0.063721
    14 -0.858252 0.000000 0.000000 0.000000 0.000000 0.209059
    15 -2.931402 -0.842322 0.160553 0.145276 -0.608326 -0.436699
    16 -1.836086 -0.000001 0.000002 0.000000 -1.457350 0.000000
    17 -0.853995 -0.000001 0.000000 0.002756 -0.113413 -0.024347
    18 -2.964060 -0.072899 0.178523 0.081863 -0.731986 -0.417209
    19 -1.814736 0.000000 0.000000 -3.068760 -1.483366 3.089821
    20 -0.982325 0.000002 0.000000 0.000000 0.200713 -0.021736
    21 -2.910366 0.632510 0.212797 0.030115 -0.972947 -0.427775
    22 -1.751858 0.000000 0.000001 -3.141592 -1.500984 -3.105025
    23 -0.853992 0.000001 0.000000 0.000000 0.287979 0.000000
    24 -2.899452 1.342927 0.078012 -0.205728 -1.319514 -0.142536
    25 -1.152892 0.000000 0.000002 0.012978 -0.959681 -0.067222
    26 -0.748461 -0.000001 0.000000 0.000000 -0.061086 0.057080
  time 7
    0 2.015446 -12.908069 -4.173939 1.358091 -0.043587 -0.171680
    1 0.306466 -0.003179 6.007819 0.000000 0.000000 0.000000
    2 0.330043 0.779799 -9.737320 0.000000 0.000000 0.000000
    3 0.306469 -0.369967 -3.715791 0.000000 0.000000 0.000000
    4 0.311221 0.949065 14.047296 0.000000 1.570796 0.000000
    5 0.300573 -0.587445 -6.634350 0.000000 0.000000 0.000000
    6 5.588720 5.107711 -13.825991 1.468673 -1.129235 1.491467
    7 0.300572 0.831777 -8.343176 -3.141592 0.000000 0.000000
    8 -13.915428 -9.662042 -7.026770 -3.141592 -0.933752 3.141402
    9 0.023288 0.041601 0.000000 0.613396 -0.763371 -0.018926
    10 -11.072359 -0.043444 0.000000 0.000000 0.000000 1.316060
    11 -8.108979 0.000000 0.000000 -0.002711 0.270185 -0.356865
    12 -0.758958 -0.993292 -0.533611 -0.202027 -0.097279 0.588010
    13 -1.920303 0.000000 0.000000 0.000000 0.000000 0.063721
    14 -0.858252 0.000000 0.000000 0.000000 0.000000 0.209059
    15 -2.931402 -0.842322 0.160553 0.145276 -0.608326 -0.436699
    16 -1.836086 -0.000001 0.000002 0.000000 -1.457350 0.000000
    17 -0.853995 -0.000001 0.000000 0.002756 -0.113413 -0.024347
    18 -2.964060 -0.072899 0.178523 0.081863 -0.731986 -0.417209
    19 -1.814736 0.000000 0.000000 -3.068760 -1.483366 3.089821
    20 -0.982325 0.000002 0.000000 0.000000 0.200713 -0.021736
    21 -2.910366 0.632510 0.212797 0.030115 -0.972947 -0.427775
    22 -1.751858 0.000000 0.000001 -3.141592 -1.500984 -3.105025
    23 -0.853992 0.000001 0.000000 0.000000 0.287979 0.000000
    24 -2.899452 1.342927 0.078012 -0.205728 -1.319514 -0.142536
    25 -1.152892 0.000000 0.000002 0.012978 -0.959681 -0.067222
    26 -0.748461 -0.000001 0.000000 0.000000 -0.061086 0.057080
  time 8
    0 2.015446 -12.927601 -3.955182 1.344929 -0.043766 -0.120473
    1 0.306466 -0.003179 6.007819 0.000000 0.000000 0.000000
    2 0.330043 0.779799 -9.737320 0.000000 0.000000 0.000000
    3 0.306469 -0.369967 -3.715791 0.000000 0.000000 0.000000
    4 0.311221 0.949065 14.047296 0.000000 1.570796 0.000000
    5 0.300573 -0.587445 -6.634350 0.000000 0.000000 0.000000
    6 4.659004 5.115523 -13.833804 1.471141 -1.116104 1.540046
    7 0.300572 0.831777 -8.343176 -3.141592 0.000000 0.000000
    8 -13.915428 -9.662042 -7.026770 -3.141592 -0.933752 3.141402
    9 0.023288 0.041601 0.000000 0.610844 -0.780210 0.013318
    10 -11.072359 -0.043444 0.000000 0.000000 0.000000 1.272988
    11 -8.108979 0.000000 0.000000 -0.023138 0.253978 -0.388102
    12 -0.758958 -0.993292 -0.533611 -0.202027 -0.097279 0.588010
    13 -1.920303 0.000000 0.000000 0.000000 0.000000 0.063721
    14 -0.858252 0.000000 0.000000 0.000000 0.000000 0.209059
    15 -2.931402 -0.842322 0.160553 0.145276 -0.608326 -0.436699
    16 -1.836086 -0.000001 0.000002 0.000000 -1.457350 0.000000
    17 -0.853995 -0.000001 0.000000 0.002756 -0.113413 -0.024347
    18 -2.964060 -0.072899 0.178523 0.081863 -0.731986 -0.417209
    19 -1.814736 0.000000 0.000000 -3.068760 -1.483366 3.089821
    20 -0.982325 0.000002 0.000000 0.000000 0.200713 -0.021736
    21 -2.910366 0.632510 0.212797 0.030115 -0.972947 -0.427775
    22 -1.751858 0.000000 0.000001 -3.141592 -1.500984 -3.105025
    23 -0.853992 0.000001 0.000000 0.000000 0.287979 0.000000
    24 -2.899452 1.342927 0.078012 -0.205728 -1.319514 -0.142536
    25 -1.152892 0.000000 0.000002 0.012978 -0.959681 -0.067222
    26 -0.748461 -0.000001 0.000000 0.000000 -0.061086 0.057080
  time 9
    0 2.015446 -12.951039 -3.830178 1.345291 -0.041257 -0.063773
    1 0.306466 -0.003179 6.007819 0.000000 0.000000 0.000000
    2 0.330043 0.779799 -9.737320 0.000000 0.000000 0.000000
    3 0.306469 -0.369967 -3.715791 0.000000 0.000000 0.000000
    4 0.311221 0.949065 14.047296 0.000000 1.570796 0.000000
    5 0.300573 -0.587445 -6.634350 0.000000 0.000000 0.000000
    6 3.608191 5.220995 -13.704894 1.476657 -1.116602 1.591648
    7 0.300572 0.831777 -8.343176 -3.141592 0.000000 0.000000
    8 -13.915428 -9.662042 -7.026770 -3.141592 -0.933752 3.141402
    9 0.023288 0.041601 0.000000 0.600375 -0.791905 0.039773
    10 -11.072359 -0.043444 0.000000 0.000000 0.000000 1.229861
    11 -8.108979 0.000000 0.000000 -0.048024 0.233064 -0.420002
    12 -0.758958 -0.993292 -0.533611 -0.202027 -0.097279 0.588010
    13 -1.920303 0.000000 0.000000 0.000000 0.000000 0.063721
    14 -0.858252 0.000000 0.000000 0.000000 0.000000 0.209059
    15 -2.931402 -0.842322 0.160553 0.145276 -0.608326 -0.436699
    16 -1.836086 -0.000001 0.000002 0.000000 -1.457350 0.000000
    17 -0.853995 -0.000001 0.000000 0.002756 -0.113413 -0.024347
    18 -2.964060 -0.072899 0.178523 0.081863 -0.731986 -0.417209
    19 -1.814736 0.000000 0.000000 -3.068760 -1.483366 3.089821
    20 -0.982325 0.000002 0.000000 0.000000 0.200713 -0.021736
    21 -2.910366 0.632510 0.212797 0.030115 -0.972947 -0.427775
    22 -1.751858 0.000000 0.000001 -3.141592 -1.500984 -3.105025
    23 -0.853992 0.000001 0.000000 0.000000 0.287979 0.000000
    24 -2.899452 1.342927 0.078012 -0.205728 -1.319514 -0.142536
    25 -1.152892 0.000000 0.000002 0.012978 -0.959681 -0.067222
    26 -0.748461 -0.000001 0.000000 0.000000 -0.061086 0.057080
  time 10
    0 2.015446 -12.947133 -3.771583 1.351691 -0.038480 -0.012616
    1 0.306466 -0.003179 6.007819 0.000000 0.000000 0.000000
    2 0.330043 0.779799 -9.737320 0.000000 0.000000 0.000000
    3 0.306469 -0.369967 -3.715791 0.000000 0.000000 0.000000
    4 0.311221 0.949065 14.047296 0.000000 1.570796 0.000000
    5 0.300573 -0.587445 -6.634350 0.000000 0.000000 0.000000
    6 2.647224 5.345999 -13.529107 1.481956 -1.123258 1.638469
    7 0.300572 0.831777 -8.343176 -3.141592 0.000000 0.000000
    8 -13.915428 -9.662042 -7.026770 -3.141592 -0.933752 3.141402
    9 0.023288 0.041601 0.000000 0.588894 -0.800232 0.057078
    10 -11.072359 -0.043444 0.000000 0.000000 0.000000 1.193402
    11 -8.108979 0.000000 0.000000 -0.068578 0.213003 -0.446033
    12 -0.758958 -0.993292 -0.533611 -0.202027 -0.097279 0.588010
    13 -1.920303 0.000000 0.000000 0.000000 0.000000 0.063721
    14 -0.858252 0.000000 0.000000 0.000000 0.000000 0.209059
    15 -2.931402 -0.842322 0.160553 0.145276 -0.608326 -0.436699
    16 -1.836086 -0.000001 0.000002 0.000000 -1.457350 0.000000
    17 -0.853995 -0.000001 0.000000 0.002756 -0.113413 -0.024347
    18 -2.964060 -0.072899 0.178523 0.081863 -0.731986 -0.417209
    19 -1.814736 0.000000 0.000000 -3.068760 -1.483366 3.089821
    20 -0.982325 0.000002 0.000000 0.000000 0.200713 -0.021736
    21 -2.910366 0.632510 0.212797 0.030115 -0.972947 -0.427775
    22 -1.751858 0.000000 0.000001 -3.141592 -1.500984 -3.105025
    23 -0.853992 0.000001 0.000000 0.000000 0.287979 0.000000
    24 -2.899452 1.342927 0.078012 -0.205728 -1.319514 -0.142536
    25 -1.152892 0.000000 0.000002 0.012978 -0.959681 -0.067222
    26 -0.748461 -0.000001 0.000000 0.000000 -0.061086 0.057080
  time 11
    0 2.015446 -12.896350 -3.732519 1.356642 -0.037136 0.021958
    1 0.306466 -0.003179 6.007819 0.000000 0.000000 0.000000
    2 0.330043 0.779799 -9.737320 0.000000 0.000000 0.000000
    3 0.306469 -0.369967 -3.715791 0.000000 0.000000 0.000000
    4 0.311221 0.949065 14.047296 0.000000 1.570796 0.000000
    5 0.300573 -0.587445 -6.634350 0.000000 0.000000 0.000000
    6 1.990954 5.451471 -13.400197 1.484133 -1.128284 1.671230
    7 0.300572 0.831777 -8.343176 -3.141592 0.000000 0.000000
    8 -13.915428 -9.662042 -7.026770 -3.141592 -0.933752 3.141402
    9 0.023288 0.041601 0.000000 0.583750 -0.806294 0.062182
    10 -11.072359 -0.043444 0.000000 0.000000 0.000000 1.172061
    11 -8.108979 0.000000 0.000000 -0.078898 0.199987 -0.462125
    12 -0.758958 -0.993292 -0.533611 -0.202027 -0.097279 0.588010
    13 -1.920303 0.000000 0.000000 0.000000 0.000000 0.063721
    14 -0.858252 0.000000 0.000000 0.000000 0.000000 0.209059
    15 -2.931402 -0.842322 0.160553 0.145276 -0.608326 -0.436699
    16 -1.836086 -0.000001 0.000002 0.000000 -1.457350 0.000000
    17 -0.853995 -0.000001 0.000000 0.002756 -0.113413 -0.024347
    18 -2.964060 -0.072899 0.178523 0.081863 -0.731986 -0.417209
    19 -1.814736 0.000000 0.000000 -3.068760 -1.483366 3.089821
    20 -0.982325 0.000002 0.000000 0.000000 0.200713 -0.021736
    21 -2.910366 0.632510 0.212797 0.030115 -0.972947 -0.427775
    22 -1.751858 0.000000 0.000001 -3.141592 -1.500984 -3.105025
    23 -0.853992 0.000001 0.000000 0.000000 0.287979 0.000000
    24 -2.899452 1.342927 0.078012 -0.205728 -1.319514 -0.142536
    25 -1.152892 0.000000 0.000002 0.012978 -0.959681 -0.067222
    26 -0.748461 -0.000001 0.000000 0.000000 -0.061086 0.057080
  time 12
    0 2.015446 -12.771346 -3.736425 1.360385 -0.036957 0.036322
    1 0.306466 -0.003179 5.640620 0.000000 0.000000 0.000000
    2 0.330043 0.779799 -9.737320 0.000000 0.000000 0.000000
    3 0.306469 -0.369967 -3.715791 0.000000 0.000000 0.000000
    4 0.311221 0.949065 14.047296 0.000000 1.570796 0.000000
    5 0.300573 -0.587445 -6.634350 0.000000 0.000000 0.000000
    6 1.725321 5.607726 -13.337695 1.483770 -1.132042 1.685994
    7 0.300572 0.831777 -8.343176 -3.141592 0.000000 0.000000
    8 -13.915428 -9.662042 -7.026770 -3.141592 -0.933752 3.141402
    9 0.023288 0.041601 0.000000 0.606835 -0.808039 -0.006228
    10 -11.072359 -0.043444 0.000000 0.000000 0.000000 1.204851
    11 -8.108979 0.000000 0.000000 -0.046962 0.198597 -0.462882
    12 -0.758958 -0.993292 -0.533611 -0.202027 -0.097279 0.588010
    13 -1.920303 0.000000 0.000000 0.000000 0.000000 0.063721
    14 -0.858252 0.000000 0.000000 0.000000 0.000000 0.209059
    15 -2.931402 -0.842322 0.160553 0.145276 -0.608326 -0.436699
    16 -1.836086 -0.000001 0.000002 0.000000 -1.457350 0.000000
    17 -0.853995 -0.000001 0.000000 0.002756 -0.113413 -0.024347
    18 -2.964060 -0.072899 0.178523 0.081863 -0.731986 -0.417209
    19 -1.814736 0.000000 0.000000 -3.068760 -1.483366 3.089821
    20 -0.982325 0.000002 0.000000 0.000000 0.200713 -0.021736
    21 -2.910366 0.632510 0.212797 0.030115 -0.972947 -0.427775
    22 -1.751858 0.000000 0.000001 -3.141592 -1.500984 -3.105025
    23 -0.853992 0.000001 0.000000 0.000000 0.287979 0.000000
    24 -2.899452 1.342927 0.078012 -0.205728 -1.319514 -0.142536
    25 -1.152892 0.000000 0.000002 0.012978 -0.959681 -0.067222
    26 -0.748461 -0.000001 0.000000 0.000000 -0.061086 0.057080
  time 13
    0 2.015446 -12.595559 -3.822366 1.368174 -0.037091 0.037834
    1 0.306466 -0.003179 4.937474 0.000000 0.000000 0.000000
    2 0.330043 0.779799 -9.737320 0.000000 0.000000 0.000000
    3 0.306469 -0.369967 -3.715791 0.000000 0.000000 0.000000
    4 0.311221 0.949065 14.047296 0.000000 1.570796 0.000000
    5 0.300573 -0.587445 -6.634350 0.000000 0.000000 0.000000
    6 1.694070 5.861640 -13.279100 1.482028 -1.139649 1.689438
    7 0.300572 0.831777 -8.343176 -3.141592 0.000000 0.000000
    8 -13.915428 -9.662042 -7.026770 -3.141592 -0.933752 3.141402
    9 0.023288 0.041601 0.000000 0.646463 -0.804212 -0.138815
    10 -11.072359 -0.043444 0.000000 0.000000 0.000000 1.273933
    11 -8.108979 0.000000 0.000000 0.023534 0.198755 -0.443572
    12 -0.758958 -0.993292 -0.533611 -0.202027 -0.097279 0.588010
    13 -1.920303 0.000000 0.000000 0.000000 0.000000 0.063721
    14 -0.858252 0.000000 0.000000 0.000000 0.000000 0.209059
    15 -2.931402 -0.842322 0.160553 0.145276 -0.608326 -0.436699
    16 -1.836086 -0.000001 0.000002 0.000000 -1.457350 0.000000
    17 -0.853995 -0.000001 0.000000 0.002756 -0.113413 -0.024347
    18 -2.964060 -0.072899 0.178523 0.081863 -0.731986 -0.417209
    19 -1.814736 0.000000 0.000000 -3.068760 -1.483366 3.089821
    20 -0.982325 0.000002 0.000000 0.000000 0.200713 -0.021736
    21 -2.910366 0.632510 0.212797 0.030115 -0.972947 -0.427775
    22 -1.751858 0.000000 0.000001 -3.141592 -1.500984 -3.105025
    23 -0.853992 0.000001 0.000000 0.000000 0.287979 0.000000
    24 -2.899452 1.342927 0.078012 -0.205728 -1.319514 -0.142536
    25 -1.152892 0.000000 0.000002 0.012978 -0.959681 -0.067222
    26 -0.748461 -0.000001 0.000000 0.000000 -0.061086 0.057080
  time 14
    0 2.015446 -12.396335 -3.947369 1.379162 -0.037405 0.031938
    1 0.306466 -0.003179 4.078072 0.000000 0.000000 0.000000
    2 0.330043 0.779799 -9.737320 0.000000 0.000000 0.000000
    3 0.306469 -0.369967 -3.715791 0.000000 0.000000 0.000000
    4 0.311221 0.949065 14.047296 0.000000 1.570796 0.000000
    5 0.300573 -0.587445 -6.634350 0.000000 0.000000 0.000000
    6 1.787823 6.154618 -13.200972 1.479125 -1.150652 1.686626
    7 0.300572 0.831777 -8.343176 -3.141592 0.000000 0.000000
    8 -13.915428 -9.662042 -7.026770 -3.141592 -0.933752 3.141402
    9 0.023288 0.041601 0.000000 0.685140 -0.797752 -0.301280
    10 -11.072359 -0.043444 0.000000 0.000000 0.000000 1.346349
    11 -8.108979 0.000000 0.000000 0.117855 0.188140 -0.400597
    12 -0.758958 -0.993292 -0.533611 -0.202027 -0.097279 0.588010
    13 -1.920303 0.000000 0.000000 0.000000 0.000000 0.063721
    14 -0.858252 0.000000 0.000000 0.000000 0.000000 0.209059
    15 -2.931402 -0.842322 0.160553 0.145276 -0.608326 -0.436699
    16 -1.836086 -0.000001 0.000002 0.000000 -1.457350 0.000000
    17 -0.853995 -0.000001 0.000000 0.002756 -0.113413 -0.024347
    18 -2.964060 -0.072899 0.178523 0.081863 -0.731986 -0.417209
    19 -1.814736 0.000000 0.000000 -3.068760 -1.483366 3.089821
    20 -0.982325 0.000002 0.000000 0.000000 0.200713 -0.021736
    21 -2.910366 0.632510 0.212797 0.030115 -0.972947 -0.427775
    22 -1.751858 0.000000 0.000001 -3.141592 -1.500984 -3.105025
    23 -0.853992 0.000001 0.000000 0.000000 0.287979 0.000000
    24 -2.899452 1.342927 0.078012 -0.205728 -1.319514 -0.142536
    25 -1.152892 0.000000 0.000002 0.012978 -0.959681 -0.067222
    26 -0.748461 -0.000001 0.000000 0.000000 -0.061086 0.057080
  time 15
    0 2.015446 -12.232267 -4.048935 1.392928 -0.037808 0.024176
    1 0.306466 -0.003179 3.101480 0.000000 0.000000 0.000000
    2 0.330043 0.779799 -9.737320 0.000000 0.000000 0.000000
    3 0.306469 -0.369967 -3.715791 0.000000 0.000000 0.000000
    4 0.311221 0.949065 14.047296 0.000000 1.570796 0.000000
    5 0.300573 -0.587445 -6.634350 0.000000 0.000000 0.000000
    6 1.924546 6.455408 -13.056437 1.475060 -1.164281 1.682900
    7 0.300572 0.831777 -8.343176 -3.141592 0.000000 0.000000
    8 -13.915428 -9.662042 -7.026770 -3.141592 -0.933752 3.141402
    9 0.023288 0.041601 0.000000 0.714603 -0.790711 -0.474951
    10 -11.072359 -0.043444 0.000000 0.000000 0.000000 1.405760
    11 -8.108979 0.000000 0.000000 0.223217 0.158475 -0.337176
    12 -0.758958 -0.993292 -0.533611 -0.202027 -0.097279 0.588010
    13 -1.920303 0.000000 0.000000 0.000000 0.000000 0.063721
    14 -0.858252 0.000000 0.000000 0.000000 0.000000 0.209059
    15 -2.931402 -0.842322 0.160553 0.145276 -0.608326 -0.436699
    16 -1.836086 -0.000001 0.000002 0.000000 -1.457350 0.000000
    17 -0.853995 -0.000001 0.000000 0.002756 -0.113413 -0.024347
    18 -2.964060 -0.072899 0.178523 0.081863 -0.731986 -0.417209
    19 -1.814736 0.000000 0.000000 -3.068760 -1.483366 3.089821
    20 -0.982325 0.000002 0.000000 0.000000 0.200713 -0.021736
    21 -2.910366 0.632510 0.212797 0.030115 -0.972947 -0.427775
    22 -1.751858 0.000000 0.000001 -3.141592 -1.500984 -3.105025
    23 -0.853992 0.000001 0.000000 0.000000 0.287979 0.000000
    24 -2.899452 1.342927 0.078012 -0.205728 -1.319514 -0.142536
    25 -1.152892 0.000000 0.000002 0.012978 -0.959681 -0.067222
    26 -0.748461 -0.000001 0.000000 0.000000 -0.061086 0.057080
  time 16
    0 2.015446 -12.142421 -4.111437 1.408988 -0.038211 0.019993
    1 0.306466 -0.003179 3.101480 0.000000 0.000000 0.000000
    2 0.330043 0.779799 -9.737320 0.000000 0.000000 0.000000
    3 0.306469 -0.369967 -3.715791 0.000000 0.000000 0.000000
    4 0.311221 0.949065 14.047296 0.000000 1.570796 0.000000
    5 0.300573 -0.587445 -6.634350 0.000000 0.000000 0.000000
    6 1.990954 6.689790 -12.818148 1.470270 -1.180310 1.683885
    7 0.300572 0.831777 -8.343176 -3.141592 0.000000 0.000000
    8 -13.915428 -9.662042 -7.026770 -3.141592 -0.933752 3.141402
    9 0.023288 0.041601 0.000000 0.714097 -0.788170 -0.492442
    10 -11.072359 -0.043444 0.000000 0.000000 0.000000 1.411429
    11 -8.108979 0.000000 0.000000 0.223557 0.161539 -0.327805
    12 -0.758958 -0.993292 -0.533611 -0.202027 -0.097279 0.588010
    13 -1.920303 0.000000 0.000000 0.000000 0.000000 0.063721
    14 -0.858252 0.000000 0.000000 0.000000 0.000000 0.209059
    15 -2.931402 -0.842322 0.160553 0.145276 -0.608326 -0.436699
    16 -1.836086 -0.000001 0.000002 0.000000 -1.457350 0.000000
    17 -0.853995 -0.000001 0.000000 0.002756 -0.113413 -0.024347
    18 -2.964060 -0.072899 0.178523 0.081863 -0.731986 -0.417209
    19 -1.814736 0.000000 0.000000 -3.068760 -1.483366 3.089821
    20 -0.982325 0.000002 0.000000 0.000000 0.200713 -0.021736
    21 -2.910366 0.632510 0.212797 0.030115 -0.972947 -0.427775
    22 -1.751858 0.000000 0.000001 -3.141592 -1.500984 -3.105025
    23 -0.853992 0.000001 0.000000 0.000000 0.287979 0.000000
    24 -2.899452 1.342927 0.078012 -0.205728 -1.319514 -0.142536
    25 -1.152892 0.000000 0.000002 0.012978 -0.959681 -0.067222
    26 -0.748461 -0.000001 0.000000 0.000000 -0.061086 0.057080
  time 17
    0 2.015446 -12.161952 -4.111437 1.429999 -0.039018 0.019337
    1 0.306466 -0.003179 3.101480 0.000000 0.000000 0.000000
    2 0.330043 0.779799 -9.737320 0.000000 0.000000 0.000000
    3 0.306469 -0.369967 -3.715791 0.000000 0.000000 0.000000
    4 0.311221 0.949065 14.047296 0.000000 1.570796 0.000000
    5 0.300573 -0.587445 -6.634350 0.000000 0.000000 0.000000
    6 1.990954 6.842139 -12.415792 1.462794 -1.201139 1.691055
    7 0.300572 0.831777 -8.343176 -3.141592 0.000000 0.000000
    8 -13.915428 -9.662042 -7.026770 -3.141592 -0.933752 3.141402
    9 0.023288 0.041601 0.000000 0.713793 -0.787925 -0.493127
    10 -11.072359 -0.043444 0.000000 0.000000 0.000000 1.411540
    11 -8.108979 0.000000 0.000000 0.208056 0.174713 -0.329414
    12 -0.758958 -0.993292 -0.533611 -0.202027 -0.097279 0.588010
    13 -1.920303 0.000000 0.000000 0.000000 0.000000 0.063721
    14 -0.858252 0.000000 0.000000 0.000000 0.000000 0.209059
    15 -2.931402 -0.842322 0.160553 0.145276 -0.608326 -0.436699
    16 -1.836086 -0.000001 0.000002 0.000000 -1.457350 0.000000
    17 -0.853995 -0.000001 0.000000 0.002756 -0.113413 -0.024347
    18 -2.964060 -0.072899 0.178523 0.081863 -0.731986 -0.417209
    19 -1.814736 0.000000 0.000000 -3.068760 -1.483366 3.089821
    20 -0.982325 0.000002 0.000000 0.000000 0.200713 -0.021736
    21 -2.910366 0.632510 0.212797 0.030115 -0.972947 -0.427775
    22 -1.751858 0.000000 0.000001 -3.141592 -1.500984 -3.105025
    23 -0.853992 0.000001 0.000000 0.000000 0.287979 0.000000
    24 -2.899452 1.342927 0.078012 -0.205728 -1.319514 -0.142536
    25 -1.152892 0.000000 0.000002 0.012978 -0.959681 -0.067222
    26 -0.748461 -0.000001 0.000000 0.000000 -0.061086 0.057080
  time 18
    0 2.015446 -12.271331 -4.060654 1.456323 -0.040093 0.018531
    1 0.306466 -0.003179 3.101480 0.000000 0.000000 0.000000
    2 0.330043 0.779799 -9.737320 0.000000 0.000000 0.000000
    3 0.306469 -0.369967 -3.715791 0.000000 0.000000 0.000000
    4 0.311221 0.949065 14.047296 0.000000 1.570796 0.000000
    5 0.300573 -0.587445 -6.634350 0.000000 0.000000 0.000000
    6 1.990954 6.951517 -11.868900 1.451544 -1.227174 1.701741
    7 0.300572 0.831777 -8.343176 -3.141592 0.000000 0.000000
    8 -13.915428 -9.662042 -7.026770 -3.141592 -0.933752 3.141402
    9 0.023288 0.041601 0.000000 0.713368 -0.788966 -0.482047
    10 -11.072359 -0.043444 0.000000 0.000000 0.000000 1.408261
    11 -8.108979 0.000000 0.000000 0.180325 0.196354 -0.336892
    12 -0.758958 -0.993292 -0.533611 -0.202027 -0.097279 0.588010
    13 -1.920303 0.000000 0.000000 0.000000 0.000000 0.063721
    14 -0.858252 0.000000 0.000000 0.000000 0.000000 0.209059
    15 -2.931402 -0.842322 0.160553 0.145276 -0.608326 -0.436699
    16 -1.836086 -0.000001 0.000002 0.000000 -1.457350 0.000000
    17 -0.853995 -0.000001 0.000000 0.002756 -0.113413 -0.024347
    18 -2.964060 -0.072899 0.178523 0.081863 -0.731986 -0.417209
    19 -1.814736 0.000000 0.000000 -3.068760 -1.483366 3.089821
    20 -0.982325 0.000002 0.000000 0.000000 0.200713 -0.021736
    21 -2.910366 0.632510 0.212797 0.030115 -0.972947 -0.427775
    22 -1.751858 0.000000 0.000001 -3.141592 -1.500984 -3.105025
    23 -0.853992 0.000001 0.000000 0.000000 0.287979 0.000000
    24 -2.899452 1.342927 0.078012 -0.205728 -1.319514 -0.142536
    25 -1.152892 0.000000 0.000002 0.012978 -0.959681 -0.067222
    26 -0.748461 -0.000001 0.000000 0.000000 -0.061086 0.057080
  time 19
    0 2.015446 -12.415866 -4.009871 1.484458 -0.041123 0.017573
    1 0.306466 -0.003179 3.101480 0.000000 0.000000 0.000000
    2 0.330043 0.779799 -9.737320 0.000000 0.000000 0.000000
    3 0.306469 -0.369967 -3.715791 0.000000 0.000000 0.000000
    4 0.311221 0.949065 14.047296 0.000000 1.570796 0.000000
    5 0.300573 -0.587445 -6.634350 0.000000 0.000000 0.000000
    6 1.990954 7.017925 -11.259507 1.438334 -1.254885 1.714677
    7 0.300572 0.831777 -8.343176 -3.141592 0.000000 0.000000
    8 -13.915428 -9.662042 -7.026770 -3.141592 -0.933752 3.141402
    9 0.023288 0.041601 0.000000 0.712882 -0.790649 -0.466360
    10 -11.072359 -0.043444 0.000000 0.000000 0.000000 1.403537
    11 -8.108979 0.000000 0.000000 0.147837 0.220996 -0.347115
    12 -0.758958 -0.993292 -0.533611 -0.202027 -0.097279 0.588010
    13 -1.920303 0.000000 0.000000 0.000000 0.000000 0.063721
    14 -0.858252 0.000000 0.000000 0.000000 0.000000 0.209059
    15 -2.931402 -0.842322 0.160553 0.145276 -0.608326 -0.436699
    16 -1.836086 -0.000001 0.000002 0.000000 -1.457350 0.000000
    17 -0.853995 -0.000001 0.000000 0.002756 -0.113413 -0.024347
    18 -2.964060 -0.072899 0.178523 0.081863 -0.731986 -0.417209
    19 -1.814736 0.000000 0.000000 -3.068760 -1.483366 3.089821
    20 -0.982325 0.000002 0.000000 0.000000 0.200713 -0.021736
    21 -2.910366 0.632510 0.212797 0.030115 -0.972947 -0.427775
    22 -1.751858 0.000000 0.000001 -3.141592 -1.500984 -3.105025
    23 -0.853992 0.000001 0.000000 0.000000 0.287979 0.000000
    24 -2.899452 1.342927 0.078012 -0.205728 -1.319514 -0.142536
    25 -1.152892 0.000000 0.000002 0.012978 -0.959681 -0.067222
    26 -0.748461 -0.000001 0.000000 0.000000 -0.061086 0.057080
  time 20
    0 2.015446 -12.536964 -3.955182 1.510963 -0.041705 0.016565
    1 0.306466 -0.003179 3.101480 0.000000 0.000000 0.000000
    2 0.330043 0.779799 -9.737320 0.000000 0.000000 0.000000
    3 0.306469 -0.369967 -3.715791 0.000000 0.000000 0.000000
    4 0.311221 0.949065 14.047296 0.000000 1.570796 0.000000
    5 0.300573 -0.587445 -6.634350 0.000000 0.000000 0.000000
    6 1.990954 7.080427 -10.689177 1.424326 -1.281011 1.727824
    7 0.300572 0.831777 -8.343176 -3.141592 0.000000 0.000000
    8 -13.915428 -9.662042 -7.026770 -3.141592 -0.933752 3.141402
    9 0.023288 0.041601 0.000000 0.712578 -0.792088 -0.453475
    10 -11.072359 -0.043444 0.000000 0.000000 0.000000 1.399480
    11 -8.108979 0.000000 0.000000 0.118492 0.243742 -0.356865
    12 -0.758958 -0.993292 -0.533611 -0.202027 -0.097279 0.588010
    13 -1.920303 0.000000 0.000000 0.000000 0.000000 0.063721
    14 -0.858252 0.000000 0.000000 0.000000 0.000000 0.209059
    15 -2.931402 -0.842322 0.160553 0.145276 -0.608326 -0.436699
    16 -1.836086 -0.000001 0.000002 0.000000 -1.457350 0.000000
    17 -0.853995 -0.000001 0.000000 0.002756 -0.113413 -0.024347
    18 -2.964060 -0.072899 0.178523 0.081863 -0.731986 -0.417209
    19 -1.814736 0.000000 0.000000 -3.068760 -1.483366 3.089821
    20 -0.982325 0.000002 0.000000 0.000000 0.200713 -0.021736
    21 -2.910366 0.632510 0.212797 0.030115 -0.972947 -0.427775
    22 -1.751858 0.000000 0.000001 -3.141592 -1.500984 -3.105025
    23 -0.853992 0.000001 0.000000 0.000000 0.287979 0.000000
    24 -2.899452 1.342927 0.078012 -0.205728 -1.319514 -0.142536
    25 -1.152892 0.000000 0.000002 0.012978 -0.959681 -0.067222
    26 -0.748461 -0.000001 0.000000 0.000000 -0.061086 0.057080
  time 21
    0 2.015446 -12.607278 -3.904399 1.531189 -0.039690 0.015003
    1 0.306466 -0.003179 3.101480 0.000000 0.000000 0.000000
    2 0.330043 0.779799 -9.737320 0.000000 0.000000 0.000000
    3 0.306469 -0.369967 -3.715791 0.000000 0.000000 0.000000
    4 0.311221 0.949065 14.047296 0.000000 1.570796 0.000000
    5 0.300573 -0.587445 -6.634350 0.000000 0.000000 0.000000
    6 1.990954 7.142929 -10.236038 1.421205 -1.301432 1.730144
    7 0.300572 0.831777 -8.343176 -3.141592 0.000000 0.000000
    8 -13.915428 -9.662042 -7.026770 -3.141592 -0.933752 3.141402
    9 0.023288 0.041601 0.000000 0.714016 -0.793680 -0.447188
    10 -11.072359 -0.043444 0.000000 0.000000 0.000000 1.397479
    11 -8.108979 0.000000 0.000000 0.099806 0.263108 -0.363775
    12 -0.758958 -0.993292 -0.533611 -0.202027 -0.097279 0.588010
    13 -1.920303 0.000000 0.000000 0.000000 0.000000 0.063721
    14 -0.858252 0.000000 0.000000 0.000000 0.000000 0.209059
    15 -2.931402 -0.842322 0.160553 0.145276 -0.608326 -0.436699
    16 -1.836086 -0.000001 0.000002 0.000000 -1.457350 0.000000
    17 -0.853995 -0.000001 0.000000 0.002756 -0.113413 -0.024347
    18 -2.964060 -0.072899 0.178523 0.081863 -0.731986 -0.417209
    19 -1.814736 0.000000 0.000000 -3.068760 -1.483366 3.089821
    20 -0.982325 0.000002 0.000000 0.000000 0.200713 -0.021736
    21 -2.910366 0.632510 0.212797 0.030115 -0.972947 -0.427775
    22 -1.751858 0.000000 0.000001 -3.141592 -1.500984 -3.105025
    23 -0.853992 0.000001 0.000000 0.000000 0.287979 0.000000
    24 -2.899452 1.342927 0.078012 -0.205728 -1.319514 -0.142536
    25 -1.152892 0.000000 0.000002 0.012978 -0.959681 -0.067222
    26 -0.748461 -0.000001 0.000000 0.000000 -0.061086 0.057080
  time 22
    0 2.015446 -12.661968 -3.841897 1.539702 -0.033015 0.012281
    1 0.306466 -0.003179 3.390551 0.000000 0.000000 0.000000
    2 0.330043 0.779799 -9.737320 0.000000 0.000000 0.000000
    3 0.306469 -0.369967 -3.715791 0.000000 0.000000 0.000000
    4 0.311221 0.949065 14.047296 0.000000 1.570796 0.000000
    5 0.300573 -0.587445 -6.634350 0.000000 0.000000 0.000000
    6 1.998767 7.142929 -10.013375 1.442181 -1.310669 1.707576
    7 0.300572 0.831777 -8.343176 -3.141592 0.000000 0.000000
    8 -13.915428 -9.662042 -7.026770 -3.141592 -0.933752 3.141402
    9 0.023288 0.041601 0.000000 0.706807 -0.795027 -0.397826
    10 -11.072359 -0.043444 0.000000 0.000000 0.000000 1.384085
    11 -8.108979 0.000000 0.000000 0.063751 0.286455 -0.387061
    12 -0.758958 -0.993292 -0.533611 -0.202027 -0.097279 0.588010
    13 -1.920303 0.000000 0.000000 0.000000 0.000000 0.063721
    14 -0.858252 0.000000 0.000000 0.000000 0.000000 0.209059
    15 -2.931402 -0.842322 0.160553 0.145276 -0.608326 -0.436699
    16 -1.836086 -0.000001 0.000002 0.000000 -1.457350 0.000000
    17 -0.853995 -0.000001 0.000000 0.002756 -0.113413 -0.024347
    18 -2.964060 -0.072899 0.178523 0.081863 -0.731986 -0.417209
    19 -1.814736 0.000000 0.000000 -3.068760 -1.483366 3.089821
    20 -0.982325 0.000002 0.000000 0.000000 0.200713 -0.021736
    21 -2.910366 0.632510 0.212797 0.030115 -0.972947 -0.427775
    22 -1.751858 0.000000 0.000001 -3.141592 -1.500984 -3.105025
    23 -0.853992 0.000001 0.000000 0.000000 0.287979 0.000000
    24 -2.899452 1.342927 0.078012 -0.205728 -1.319514 -0.142536
    25 -1.152892 0.000000 0.000002 0.012978 -0.959681 -0.067222
    26 -0.748461 -0.000001 0.000000 0.000000 -0.061086 0.057080
  time 23
    0 2.015446 -12.716657 -3.767676 1.547732 -0.025489 0.009308
    1 0.306466 -0.003179 3.976507 0.000000 0.000000 0.000000
    2 0.330043 0.779799 -9.737320 0.000000 0.000000 0.000000
    3 0.306469 -0.369967 -3.715791 0.000000 0.000000 0.000000
    4 0.311221 0.949065 14.047296 0.000000 1.570796 0.000000
    5 0.300573 -0.587445 -6.634350 0.000000 0.000000 0.000000
    6 2.002673 7.135116 -9.786806 1.468020 -1.319453 1.679666
    7 0.300572 0.831777 -8.343176 -3.141592 0.000000 0.000000
    8 -13.915428 -9.662042 -7.026770 -3.141592 -0.933752 3.141402
    9 0.023288 0.041601 0.000000 0.685707 -0.794538 -0.304517
    10 -11.072359 -0.043444 0.000000 0.000000 0.000000 1.354741
    11 -8.108979 0.000000 0.000000 -0.000630 0.310844 -0.427196
    12 -0.758958 -0.993292 -0.533611 -0.202027 -0.097279 0.588010
    13 -1.920303 0.000000 0.000000 0.000000 0.000000 0.063721
    14 -0.858252 0.000000 0.000000 0.000000 0.000000 0.209059
    15 -2.931402 -0.842322 0.160553 0.145276 -0.608326 -0.436699
    16 -1.836086 -0.000001 0.000002 0.000000 -1.457350 0.000000
    17 -0.853995 -0.000001 0.000000 0.002756 -0.113413 -0.024347
    18 -2.964060 -0.072899 0.178523 0.081863 -0.731986 -0.417209
    19 -1.814736 0.000000 0.000000 -3.068760 -1.483366 3.089821
    20 -0.982325 0.000002 0.000000 0.000000 0.200713 -0.021736
    21 -2.910366 0.632510 0.212797 0.030115 -0.972947 -0.427775
    22 -1.751858 0.000000 0.000001 -3.141592 -1.500984 -3.105025
    23 -0.853992 0.000001 0.000000 0.000000 0.287979 0.000000
    24 -2.899452 1.342927 0.078012 -0.205728 -1.319514 -0.142536
    25 -1.152892 0.000000 0.000002 0.012978 -0.959681 -0.067222
    26 -0.748461 -0.000001 0.000000 0.000000 -0.061086 0.057080
  time 24
    0 2.015446 -12.771346 -3.693455 1.554917 -0.017739 0.006384
    1 0.306466 -0.003179 4.855440 0.000000 0.000000 0.000000
    2 0.330043 0.779799 -9.737320 0.000000 0.000000 0.000000
    3 0.306469 -0.369967 -3.715791 0.000000 0.000000 0.000000
    4 0.311221 0.949065 14.047296 0.000000 1.570796 0.000000
    5 0.300573 -0.587445 -6.634350 0.000000 0.000000 0.000000
    6 2.022205 7.123397 -9.579768 1.497125 -1.327377 1.648733
    7 0.300572 0.831777 -8.343176 -3.141592 0.000000 0.000000
    8 -13.915428 -9.662042 -7.026770 -3.141592 -0.933752 3.141402
    9 0.023288 0.041601 0.000000 0.646362 -0.790864 -0.170498
    10 -11.072359 -0.043444 0.000000 0.000000 0.000000 1.304500
    11 -8.108979 0.000000 0.000000 -0.088241 0.325945 -0.477744
    12 -0.758958 -0.993292 -0.533611 -0.202027 -0.097279 0.588010
    13 -1.920303 0.000000 0.000000 0.000000 0.000000 0.063721
    14 -0.858252 0.000000 0.000000 0.000000 0.000000 0.209059
    15 -2.931402 -0.842322 0.160553 0.145276 -0.608326 -0.436699
    16 -1.836086 -0.000001 0.000002 0.000000 -1.457350 0.000000
    17 -0.853995 -0.000001 0.000000 0.002756 -0.113413 -0.024347
    18 -2.964060 -0.072899 0.178523 0.081863 -0.731986 -0.417209
    19 -1.814736 0.000000 0.000000 -3.068760 -1.483366 3.089821
    20 -0.982325 0.000002 0.000000 0.000000 0.200713 -0.021736
    21 -2.910366 0.632510 0.212797 0.030115 -0.972947 -0.427775
    22 -1.751858 0.000000 0.000001 -3.141592 -1.500984 -3.105025
    23 -0.853992 0.000001 0.000000 0.000000 0.287979 0.000000
    24 -2.899452 1.342927 0.078012 -0.205728 -1.319514 -0.142536
    25 -1.152892 0.000000 0.000002 0.012978 -0.959681 -0.067222
    26 -0.748461 -0.000001 0.000000 0.000000 -0.061086 0.057080
  time 25
    0 2.015446 -12.822129 -3.627047 1.561317 -0.010348 0.003663
    1 0.306466 -0.003179 6.007819 0.000000 0.000000 0.000000
    2 0.330043 0.779799 -9.737320 0.000000 0.000000 0.000000
    3 0.306469 -0.369967 -3.715791 0.000000 0.000000 0.000000
    4 0.311221 0.949065 14.047296 0.000000 1.570796 0.000000
    5 0.300573 -0.587445 -6.634350 0.000000 0.000000 0.000000
    6 2.022205 7.111678 -9.384450 1.526593 -1.334214 1.617449
    7 0.300572 0.831777 -8.343176 -3.141592 0.000000 0.000000
    8 -13.915428 -9.662042 -7.026770 -3.141592 -0.933752 3.141402
    9 0.023288 0.041601 0.000000 0.584236 -0.783240 -0.000625
    10 -11.072359 -0.043444 0.000000 0.000000 0.000000 1.222636
    11 -8.108979 0.000000 0.000000 -0.188125 0.321554 -0.523274
    12 -0.758958 -0.993292 -0.533611 -0.202027 -0.097279 0.588010
    13 -1.920303 0.000000 0.000000 0.000000 0.000000 0.063721
    14 -0.858252 0.000000 0.000000 0.000000 0.000000 0.209059
    15 -2.931402 -0.842322 0.160553 0.145276 -0.608326 -0.436699
    16 -1.836086 -0.000001 0.000002 0.000000 -1.457350 0.000000
    17 -0.853995 -0.000001 0.000000 0.002756 -0.113413 -0.024347
    18 -2.964060 -0.072899 0.178523 0.081863 -0.731986 -0.417209
    19 -1.814736 0.000000 0.000000 -3.068760 -1.483366 3.089821
    20 -0.982325 0.000002 0.000000 0.000000 0.200713 -0.021736
    21 -2.910366 0.632510 0.212797 0.030115 -0.972947 -0.427775
    22 -1.751858 0.000000 0.000001 -3.141592 -1.500984 -3.105025
    23 -0.853992 0.000001 0.000000 0.000000 0.287979 0.000000
    24 -2.899452 1.342927 0.078012 -0.205728 -1.319514 -0.142536
    25 -1.152892 0.000000 0.000002 0.012978 -0.959681 -0.067222
    26 -0.748461 -0.000001 0.000000 0.000000 -0.061086 0.057080
  time 26
    0 2.015446 -12.865099 -3.564545 1.566751 -0.003852 0.001344
    1 0.306466 -0.003179 6.007819 0.000000 0.000000 0.000000
    2 0.330043 0.779799 -9.737320 0.000000 0.000000 0.000000
    3 0.306469 -0.369967 -3.715791 0.000000 0.000000 0.000000
    4 0.311221 0.949065 14.047296 0.000000 1.570796 0.000000
    5 0.300573 -0.587445 -6.634350 0.000000 0.000000 0.000000
    6 2.030018 7.092146 -9.212569 1.553448 -1.339693 1.589117
    7 0.300572 0.831777 -8.343176 -3.141592 0.000000 0.000000
    8 -13.915428 -9.662042 -7.026770 -3.141592 -0.933752 3.141402
    9 0.023288 0.041601 0.000000 0.585370 -0.784618 0.005226
    10 -11.072359 -0.043444 0.000000 0.000000 0.000000 1.221580
    11 -8.108979 0.000000 0.000000 -0.193518 0.332295 -0.530279
    12 -0.758958 -0.993292 -0.533611 -0.202027 -0.097279 0.588010
    13 -1.920303 0.000000 0.000000 0.000000 0.000000 0.063721
    14 -0.858252 0.000000 0.000000 0.000000 0.000000 0.209059
    15 -2.931402 -0.842322 0.160553 0.145276 -0.608326 -0.436699
    16 -1.836086 -0.000001 0.000002 0.000000 -1.457350 0.000000
    17 -0.853995 -0.000001 0.000000 0.002756 -0.113413 -0.024347
    18 -2.964060 -0.072899 0.178523 0.081863 -0.731986 -0.417209
    19 -1.814736 0.000000 0.000000 -3.068760 -1.483366 3.089821
    20 -0.982325 0.000002 0.000000 0.000000 0.200713 -0.021736
    21 -2.910366 0.632510 0.212797 0.030115 -0.972947 -0.427775
    22 -1.751858 0.000000 0.000001 -3.141592 -1.500984 -3.105025
    23 -0.853992 0.000001 0.000000 0.000000 0.287979 0.000000
    24 -2.899452 1.342927 0.078012 -0.205728 -1.319514 -0.142536
    25 -1.152892 0.000000 0.000002 0.012978 -0.959681 -0.067222
    26 -0.748461 -0.000001 0.000000 0.000000 -0.061086 0.057080
  time 27
    0 2.015446 -12.896350 -3.525481 1.570796 0.000717 -0.000369
    1 0.306466 -0.003179 6.007819 0.000000 0.000000 0.000000
    2 0.330043 0.779799 -9.737320 0.000000 0.000000 0.000000
    3 0.306469 -0.369967 -3.715791 0.000000 0.000000 0.000000
    4 0.311221 0.949065 14.047296 0.000000 1.570796 0.000000
    5 0.300573 -0.587445 -6.634350 0.000000 0.000000 0.000000
    6 2.041737 7.084333 -9.087566 1.573989 -1.343904 1.567253
    7 0.300572 0.831777 -8.343176 -3.141592 0.000000 0.000000
    8 -13.915428 -9.662042 -7.026770 -3.141592 -0.933752 3.141402
    9 0.023288 0.041601 0.000000 0.586039 -0.785506 0.009521
    10 -11.072359 -0.043444 0.000000 0.000000 0.000000 1.220635
    11 -8.108979 0.000000 0.000000 -0.197765 0.340257 -0.535580
    12 -0.758958 -0.993292 -0.533611 -0.202027 -0.097279 0.588010
    13 -1.920303 0.000000 0.000000 0.000000 0.000000 0.063721
    14 -0.858252 0.000000 0.000000 0.000000 0.000000 0.209059
    15 -2.931402 -0.842322 0.160553 0.145276 -0.608326 -0.436699
    16 -1.836086 -0.000001 0.000002 0.000000 -1.457350 0.000000
    17 -0.853995 -0.000001 0.000000 0.002756 -0.113413 -0.024347
    18 -2.964060 -0.072899 0.178523 0.081863 -0.731986 -0.417209
    19 -1.814736 0.000000 0.000000 -3.068760 -1.483366 3.089821
    20 -0.982325 0.000002 0.000000 0.000000 0.200713 -0.021736
    21 -2.910366 0.632510 0.212797 0.030115 -0.972947 -0.427775
    22 -1.751858 0.000000 0.000001 -3.141592 -1.500984 -3.105025
    23 -0.853992 0.000001 0.000000 0.000000 0.287979 0.000000
    24 -2.899452 1.342927 0.078012 -0.205728 -1.319514 -0.142536
    25 -1.152892 0.000000 0.000002 0.012978 -0.959681 -0.067222
    26 -0.748461 -0.000001 0.000000 0.000000 -0.061086 0.057080
  time 28
    0 2.015446 -12.915882 -3.502043 1.572909 0.002957 -0.001226
    1 0.306466 -0.003179 6.007819 0.000000 0.000000 0.000000
    2 0.330043 0.779799 -9.737320 0.000000 0.000000 0.000000
    3 0.306469 -0.369967 -3.715791 0.000000 0.000000 0.000000
    4 0.311221 0.949065 14.047296 0.000000 1.570796 0.000000
    5 0.300573 -0.587445 -6.634350 0.000000 0.000000 0.000000
    6 2.041737 7.080427 -9.021157 1.584585 -1.346168 1.556005
    7 0.300572 0.831777 -8.343176 -3.141592 0.000000 0.000000
    8 -13.915428 -9.662042 -7.026770 -3.141592 -0.933752 3.141402
    9 0.023288 0.041601 0.000000 0.586322 -0.785996 0.011949
    10 -11.072359 -0.043444 0.000000 0.000000 0.000000 1.220079
    11 -8.108979 0.000000 0.000000 -0.200143 0.344427 -0.538420
    12 -0.758958 -0.993292 -0.533611 -0.202027 -0.097279 0.588010
    13 -1.920303 0.000000 0.000000 0.000000 0.000000 0.063721
    14 -0.858252 0.000000 0.000000 0.000000 0.000000 0.209059
    15 -2.931402 -0.842322 0.160553 0.145276 -0.608326 -0.436699
    16 -1.836086 -0.000001 0.000002 0.000000 -1.457350 0.000000
    17 -0.853995 -0.000001 0.000000 0.002756 -0.113413 -0.024347
    18 -2.964060 -0.072899 0.178523 0.081863 -0.731986 -0.417209
    19 -1.814736 0.000000 0.000000 -3.068760 -1.483366 3.089821
    20 -0.982325 0.000002 0.000000 0.000000 0.200713 -0.021736
    21 -2.910366 0.632510 0.212797 0.030115 -0.972947 -0.427775
    22 -1.751858 0.000000 0.000001 -3.141592 -1.500984 -3.105025
    23 -0.853992 0.000001 0.000000 0.000000 0.287979 0.000000
    24 -2.899452 1.342927 0.078012 -0.205728 -1.319514 -0.142536
    25 -1.152892 0.000000 0.000002 0.012978 -0.959681 -0.067222
    26 -0.748461 -0.000001 0.000000 0.000000 -0.061086 0.057080
  time 29
    0 2.015446 -12.923694 -3.490324 1.573332 0.003181 -0.001327
    1 0.306466 -0.003179 6.007819 0.000000 0.000000 0.000000
    2 0.330043 0.779799 -9.737320 0.000000 0.000000 0.000000
    3 0.306469 -0.369967 -3.715791 0.000000 0.000000 0.000000
    4 0.311221 0.949065 14.047296 0.000000 1.570796 0.000000
    5 0.300573 -0.587445 -6.634350 0.000000 0.000000 0.000000
    6 2.041737 7.080427 -9.009438 1.585892 -1.346440 1.554598
    7 0.300572 0.831777 -8.343176 -3.141592 0.000000 0.000000
    8 -13.915428 -9.662042 -7.026770 -3.141592 -0.933752 3.141402
    9 0.023288 0.041601 0.000000 0.586403 -0.786241 0.013069
    10 -11.072359 -0.043444 0.000000 0.000000 0.000000 1.219523
    11 -8.108979 0.000000 0.000000 -0.201163 0.345217 -0.539177
    12 -0.758958 -0.993292 -0.533611 -0.202027 -0.097279 0.588010
    13 -1.920303 0.000000 0.000000 0.000000 0.000000 0.063721
    14 -0.858252 0.000000 0.000000 0.000000 0.000000 0.209059
    15 -2.931402 -0.842322 0.160553 0.145276 -0.608326 -0.436699
    16 -1.836086 -0.000001 0.000002 0.000000 -1.457350 0.000000
    17 -0.853995 -0.000001 0.000000 0.002756 -0.113413 -0.024347
    18 -2.964060 -0.072899 0.178523 0.081863 -0.731986 -0.417209
    19 -1.814736 0.000000 0.000000 -3.068760 -1.483366 3.089821
    20 -0.982325 0.000002 0.000000 0.000000 0.200713 -0.021736
    21 -2.910366 0.632510 0.212797 0.030115 -0.972947 -0.427775
    22 -1.751858 0.000000 0.000001 -3.141592 -1.500984 -3.105025
    23 -0.853992 0.000001 0.000000 0.000000 0.287979 0.000000
    24 -2.899452 1.342927 0.078012 -0.205728 -1.319514 -0.142536
    25 -1.152892 0.000000 0.000002 0.012978 -0.959681 -0.067222
    26 -0.748461 -0.000001 0.000000 0.000000 -0.061086 0.057080
  time 30
    0 2.015446 -12.919788 -3.494231 1.572487 0.002285 -0.001024
    1 0.306466 -0.003179 6.007819 0.000000 0.000000 0.000000
    2 0.330043 0.779799 -9.737320 0.000000 0.000000 0.000000
    3 0.306469 -0.369967 -3.715791 0.000000 0.000000 0.000000
    4 0.311221 0.949065 14.047296 0.000000 1.570796 0.000000
    5 0.300573 -0.587445 -6.634350 0.000000 0.000000 0.000000
    6 2.041737 7.076521 -9.025064 1.581900 -1.345534 1.558887
    7 0.300572 0.831777 -8.343176 -3.141592 0.000000 0.000000
    8 -13.915428 -9.662042 -7.026770 -3.141592 -0.933752 3.141402
    9 0.023288 0.041601 0.000000 0.586241 -0.786241 0.012820
    10 -11.072359 -0.043444 0.000000 0.000000 0.000000 1.219412
    11 -8.108979 0.000000 0.000000 -0.200611 0.343890 -0.538136
    12 -0.758958 -0.993292 -0.533611 -0.202027 -0.097279 0.588010
    13 -1.920303 0.000000 0.000000 0.000000 0.000000 0.063721
    14 -0.858252 0.000000 0.000000 0.000000 0.000000 0.209059
    15 -2.931402 -0.842322 0.160553 0.145276 -0.608326 -0.436699
    16 -1.836086 -0.000001 0.000002 0.000000 -1.457350 0.000000
    17 -0.853995 -0.000001 0.000000 0.002756 -0.113413 -0.024347
    18 -2.964060 -0.072899 0.178523 0.081863 -0.731986 -0.417209
    19 -1.814736 0.000000 0.000000 -3.068760 -1.483366 3.089821
    20 -0.982325 0.000002 0.000000 0.000000 0.200713 -0.021736
    21 -2.910366 0.632510 0.212797 0.030115 -0.972947 -0.427775
    22 -1.751858 0.000000 0.000001 -3.141592 -1.500984 -3.105025
    23 -0.853992 0.000001 0.000000 0.000000 0.287979 0.000000
    24 -2.899452 1.342927 0.078012 -0.205728 -1.319514 -0.142536
    25 -1.152892 0.000000 0.000002 0.012978 -0.959681 -0.067222
    26 -0.748461 -0.000001 0.000000 0.000000 -0.061086 0.057080
  time 31
    0 2.015446 -12.908069 -3.505950 1.571279 0.001209 -0.000571
    1 0.306466 -0.003179 6.007819 0.000000 0.000000 0.000000
    2 0.330043 0.779799 -9.737320 0.000000 0.000000 0.000000
    3 0.306469 -0.369967 -3.715791 0.000000 0.000000 0.000000
    4 0.311221 0.949065 14.047296 0.000000 1.570796 0.000000
    5 0.300573 -0.587445 -6.634350 0.000000 0.000000 0.000000
    6 2.041737 7.080427 -9.060221 1.576529 -1.344357 1.564511
    7 0.300572 0.831777 -8.343176 -3.141592 0.000000 0.000000
    8 -13.915428 -9.662042 -7.026770 -3.141592 -0.933752 3.141402
    9 0.023288 0.041601 0.000000 0.586079 -0.785996 0.011451
    10 -11.072359 -0.043444 0.000000 0.000000 0.000000 1.219690
    11 -8.108979 0.000000 0.000000 -0.199252 0.341741 -0.536811
    12 -0.758958 -0.993292 -0.533611 -0.202027 -0.097279 0.588010
    13 -1.920303 0.000000 0.000000 0.000000 0.000000 0.063721
    14 -0.858252 0.000000 0.000000 0.000000 0.000000 0.209059
    15 -2.931402 -0.842322 0.160553 0.145276 -0.608326 -0.436699
    16 -1.836086 -0.000001 0.000002 0.000000 -1.457350 0.000000
    17 -0.853995 -0.000001 0.000000 0.002756 -0.113413 -0.024347
    18 -2.964060 -0.072899 0.178523 0.081863 -0.731986 -0.417209
    19 -1.814736 0.000000 0.000000 -3.068760 -1.483366 3.089821
    20 -0.982325 0.000002 0.000000 0.000000 0.200713 -0.021736
    21 -2.910366 0.632510 0.212797 0.030115 -0.972947 -0.427775
    22 -1.751858 0.000000 0.000001 -3.141592 -1.500984 -3.105025
    23 -0.853992 0.000001 0.000000 0.000000 0.287979 0.000000
    24 -2.899452 1.342927 0.078012 -0.205728 -1.319514 -0.142536
    25 -1.152892 0.000000 0.000002 0.012978 -0.959681 -0.067222
    26 -0.748461 -0.000001 0.000000 0.000000 -0.061086 0.057080
  time 32
    0 2.015446 -12.896350 -3.525481 1.570796 0.000717 -0.000369
    1 0.306466 -0.003179 6.007819 0.000000 0.000000 0.000000
    2 0.330043 0.779799 -9.737320 0.000000 0.000000 0.000000
    3 0.306469 -0.369967 -3.715791 0.000000 0.000000 0.000000
    4 0.311221 0.949065 14.047296 0.000000 1.570796 0.000000
    5 0.300573 -0.587445 -6.634350 0.000000 0.000000 0.000000
    6 2.041737 7.084333 -9.087566 1.573989 -1.343904 1.567253
    7 0.300572 0.831777 -8.343176 -3.141592 0.000000 0.000000
    8 -13.915428 -9.662042 -7.026770 -3.141592 -0.933752 3.141402
    9 0.023288 0.041601 0.000000 0.586039 -0.785506 0.009521
    10 -11.072359 -0.043444 0.000000 0.000000 0.000000 1.220635
    11 -8.108979 0.000000 0.000000 -0.197765 0.340257 -0.535580
    12 -0.758958 -0.993292 -0.533611 -0.202027 -0.097279 0.588010
    13 -1.920303 0.000000 0.000000 0.000000 0.000000 0.063721
    14 -0.858252 0.000000 0.000000 0.000000 0.000000 0.209059
    15 -2.931402 -0.842322 0.160553 0.145276 -0.608326 -0.436699
    16 -1.836086 -0.000001 0.000002 0.000000 -1.457350 0.000000
    17 -0.853995 -0.000001 0.000000 0.002756 -0.113413 -0.024347
    18 -2.964060 -0.072899 0.178523 0.081863 -0.731986 -0.417209
    19 -1.814736 0.000000 0.000000 -3.068760 -1.483366 3.089821
    20 -0.982325 0.000002 0.000000 0.000000 0.200713 -0.021736
    21 -2.910366 0.632510 0.212797 0.030115 -0.972947 -0.427775
    22 -1.751858 0.000000 0.000001 -3.141592 -1.500984 -3.105025
    23 -0.853992 0.000001 0.000000 0.000000 0.287979 0.000000
    24 -2.899452 1.342927 0.078012 -0.205728 -1.319514 -0.142536
    25 -1.152892 0.000000 0.000002 0.012978 -0.959681 -0.067222
    26 -0.748461 -0.000001 0.000000 0.000000 -0.061086 0.057080
end
