// Created by Crowbar 0.29.0.0
version 1
nodes
  0 "body" -1
  1 "pump" 0
  2 "bolt" 1
  3 "flap" 0
  4 "muzzleflash" 0
  5 "killswitch" 0
  6 "shell" -1
  7 "stock" 0
  8 "L_Armdummy" -1
  9 "L_Upperarm" 8
  10 "L_Forearm" 9
  11 "L_Wrist" 10
  12 "L_Thumb1" 11
  13 "L_Thumb2" 12
  14 "L_Thumb3" 13
  15 "L_Index1" 11
  16 "L_Index2" 15
  17 "L_Index3" 16
  18 "L_Mid1" 11
  19 "L_Mid2" 18
  20 "L_Mid3" 19
  21 "L_Ring1" 11
  22 "L_Ring2" 21
  23 "L_Ring3" 22
  24 "L_Pinky1" 11
  25 "L_Pinky2" 24
  26 "L_Pinky3" 25
end
skeleton
  time 0
    0 2.015446 -12.896350 -3.525481 1.570796 0.000000 -0.000218
    1 0.306466 -0.003179 6.007819 0.000000 0.000000 0.000000
    2 0.330043 0.779799 -9.737320 0.000000 0.000000 0.000000
    3 0.306469 -0.369967 -3.715791 0.000000 0.000000 0.000000
    4 0.311221 0.949065 14.047296 0.000000 1.570796 0.000000
    5 0.300573 -0.587445 -6.634350 0.000000 0.000000 0.000000
    6 2.041737 7.084333 -9.087566 1.570795 -1.343904 1.570557
    7 0.300572 0.831777 -8.343176 -3.141592 0.000000 0.000000
    8 -13.915428 -9.662042 -7.026770 -3.141592 -0.933752 3.141402
    9 0.023288 0.041601 0.000000 0.585917 -0.785506 0.009521
    10 -11.072359 -0.043444 0.000000 0.000000 0.000000 1.220468
    11 -8.108979 0.000000 0.000000 -0.198105 0.339688 -0.535296
    12 -0.758958 -0.993292 -0.533611 -0.202027 -0.097279 0.588010
    13 -1.920303 0.000000 0.000000 0.000000 0.000000 0.063721
    14 -0.858252 0.000000 0.000000 0.000000 0.000000 0.209059
    15 -2.931402 -0.842322 0.160553 0.145276 -0.608326 -0.436699
    16 -1.836086 -0.000001 0.000002 0.000000 -1.457350 0.000000
    17 -0.853995 -0.000001 0.000000 0.002756 -0.113413 -0.024347
    18 -2.964060 -0.072899 0.178523 0.081863 -0.731986 -0.417209
    19 -1.814736 0.000000 0.000000 -3.068760 -1.483366 3.089821
    20 -0.982325 0.000002 0.000000 0.000000 0.200713 -0.021736
    21 -2.910366 0.632510 0.212797 0.030115 -0.972947 -0.427775
    22 -1.751858 0.000000 0.000001 -3.141592 -1.500984 -3.105025
    23 -0.853992 0.000001 0.000000 0.000000 0.287979 0.000000
    24 -2.899452 1.342927 0.078012 -0.205728 -1.319514 -0.142536
    25 -1.152892 0.000000 0.000002 0.012978 -0.959681 -0.067222
    26 -0.748461 -0.000001 0.000000 0.000000 -0.061086 0.057080
  time 1
    0 2.015446 -12.896350 -3.525481 1.570796 0.000000 -0.000218
    1 0.306466 -0.003179 6.007819 0.000000 0.000000 0.000000
    2 0.330043 0.779799 -9.737320 0.000000 0.000000 0.000000
    3 0.306469 -0.369967 -3.715791 0.000000 0.000000 0.000000
    4 0.311221 0.949065 14.047296 0.000000 1.570796 0.000000
    5 0.300573 -0.587445 -6.634350 0.000000 0.000000 0.000000
    6 2.041737 7.084333 -9.087566 1.570795 -1.343904 1.570557
    7 0.300572 0.831777 -8.343176 -3.141592 0.000000 0.000000
    8 -13.915428 -9.662042 -7.026770 -3.141592 -0.933752 3.141402
    9 0.023288 0.041601 0.000000 0.585917 -0.785506 0.009521
    10 -11.072359 -0.043444 0.000000 0.000000 0.000000 1.220468
    11 -8.108979 0.000000 0.000000 -0.198105 0.339688 -0.535296
    12 -0.758958 -0.993292 -0.533611 -0.202027 -0.097279 0.588010
    13 -1.920303 0.000000 0.000000 0.000000 0.000000 0.063721
    14 -0.858252 0.000000 0.000000 0.000000 0.000000 0.209059
    15 -2.931402 -0.842322 0.160553 0.145276 -0.608326 -0.436699
    16 -1.836086 -0.000001 0.000002 0.000000 -1.457350 0.000000
    17 -0.853995 -0.000001 0.000000 0.002756 -0.113413 -0.024347
    18 -2.964060 -0.072899 0.178523 0.081863 -0.731986 -0.417209
    19 -1.814736 0.000000 0.000000 -3.068760 -1.483366 3.089821
    20 -0.982325 0.000002 0.000000 0.000000 0.200713 -0.021736
    21 -2.910366 0.632510 0.212797 0.030115 -0.972947 -0.427775
    22 -1.751858 0.000000 0.000001 -3.141592 -1.500984 -3.105025
    23 -0.853992 0.000001 0.000000 0.000000 0.287979 0.000000
    24 -2.899452 1.342927 0.078012 -0.205728 -1.319514 -0.142536
    25 -1.152892 0.000000 0.000002 0.012978 -0.959681 -0.067222
    26 -0.748461 -0.000001 0.000000 0.000000 -0.061086 0.057080
  time 2
    0 2.015446 -12.896350 -3.525481 1.570796 0.000000 -0.000218
    1 0.306466 -0.003179 6.007819 0.000000 0.000000 0.000000
    2 0.330043 0.779799 -9.737320 0.000000 0.000000 0.000000
    3 0.306469 -0.369967 -3.715791 0.000000 0.000000 0.000000
    4 0.311221 0.949065 14.047296 0.000000 1.570796 0.000000
    5 0.300573 -0.587445 -6.634350 0.000000 0.000000 0.000000
    6 2.041737 7.084333 -9.087566 1.570795 -1.343904 1.570557
    7 0.300572 0.831777 -8.343176 -3.141592 0.000000 0.000000
    8 -13.915428 -9.662042 -7.026770 -3.141592 -0.933752 3.141402
    9 0.023288 0.041601 0.000000 0.585917 -0.785506 0.009521
    10 -11.072359 -0.043444 0.000000 0.000000 0.000000 1.220468
    11 -8.108979 0.000000 0.000000 -0.198105 0.339688 -0.535296
    12 -0.758958 -0.993292 -0.533611 -0.202027 -0.097279 0.588010
    13 -1.920303 0.000000 0.000000 0.000000 0.000000 0.063721
    14 -0.858252 0.000000 0.000000 0.000000 0.000000 0.209059
    15 -2.931402 -0.842322 0.160553 0.145276 -0.608326 -0.436699
    16 -1.836086 -0.000001 0.000002 0.000000 -1.457350 0.000000
    17 -0.853995 -0.000001 0.000000 0.002756 -0.113413 -0.024347
    18 -2.964060 -0.072899 0.178523 0.081863 -0.731986 -0.417209
    19 -1.814736 0.000000 0.000000 -3.068760 -1.483366 3.089821
    20 -0.982325 0.000002 0.000000 0.000000 0.200713 -0.021736
    21 -2.910366 0.632510 0.212797 0.030115 -0.972947 -0.427775
    22 -1.751858 0.000000 0.000001 -3.141592 -1.500984 -3.105025
    23 -0.853992 0.000001 0.000000 0.000000 0.287979 0.000000
    24 -2.899452 1.342927 0.078012 -0.205728 -1.319514 -0.142536
    25 -1.152892 0.000000 0.000002 0.012978 -0.959681 -0.067222
    26 -0.748461 -0.000001 0.000000 0.000000 -0.061086 0.057080
  time 3
    0 2.015446 -12.896350 -3.525481 1.570796 0.000000 -0.000218
    1 0.306466 -0.003179 6.007819 0.000000 0.000000 0.000000
    2 0.330043 0.779799 -9.737320 0.000000 0.000000 0.000000
    3 0.306469 -0.369967 -3.715791 0.000000 0.000000 0.000000
    4 0.311221 0.949065 14.047296 0.000000 1.570796 0.000000
    5 0.300573 -0.587445 -6.634350 0.000000 0.000000 0.000000
    6 2.041737 7.084333 -9.087566 1.570795 -1.343904 1.570557
    7 0.300572 0.831777 -8.343176 -3.141592 0.000000 0.000000
    8 -13.915428 -9.662042 -7.026770 -3.141592 -0.933752 3.141402
    9 0.023288 0.041601 0.000000 0.585917 -0.785506 0.009521
    10 -11.072359 -0.043444 0.000000 0.000000 0.000000 1.220468
    11 -8.108979 0.000000 0.000000 -0.198105 0.339688 -0.535296
    12 -0.758958 -0.993292 -0.533611 -0.202027 -0.097279 0.588010
    13 -1.920303 0.000000 0.000000 0.000000 0.000000 0.063721
    14 -0.858252 0.000000 0.000000 0.000000 0.000000 0.209059
    15 -2.931402 -0.842322 0.160553 0.145276 -0.608326 -0.436699
    16 -1.836086 -0.000001 0.000002 0.000000 -1.457350 0.000000
    17 -0.853995 -0.000001 0.000000 0.002756 -0.113413 -0.024347
    18 -2.964060 -0.072899 0.178523 0.081863 -0.731986 -0.417209
    19 -1.814736 0.000000 0.000000 -3.068760 -1.483366 3.089821
    20 -0.982325 0.000002 0.000000 0.000000 0.200713 -0.021736
    21 -2.910366 0.632510 0.212797 0.030115 -0.972947 -0.427775
    22 -1.751858 0.000000 0.000001 -3.141592 -1.500984 -3.105025
    23 -0.853992 0.000001 0.000000 0.000000 0.287979 0.000000
    24 -2.899452 1.342927 0.078012 -0.205728 -1.319514 -0.142536
    25 -1.152892 0.000000 0.000002 0.012978 -0.959681 -0.067222
    26 -0.748461 -0.000001 0.000000 0.000000 -0.061086 0.057080
  time 4
    0 2.015446 -12.896350 -3.525481 1.570796 0.000000 -0.000218
    1 0.306466 -0.003179 6.007819 0.000000 0.000000 0.000000
    2 0.330043 0.779799 -9.737320 0.000000 0.000000 0.000000
    3 0.306469 -0.369967 -3.715791 0.000000 0.000000 0.000000
    4 0.311221 0.949065 14.047296 0.000000 1.570796 0.000000
    5 0.300573 -0.587445 -6.634350 0.000000 0.000000 0.000000
    6 2.041737 7.084333 -9.087566 1.570795 -1.343904 1.570557
    7 0.300572 0.831777 -8.343176 -3.141592 0.000000 0.000000
    8 -13.915428 -9.662042 -7.026770 -3.141592 -0.933752 3.141402
    9 0.023288 0.041601 0.000000 0.585917 -0.785506 0.009521
    10 -11.072359 -0.043444 0.000000 0.000000 0.000000 1.220468
    11 -8.108979 0.000000 0.000000 -0.198105 0.339688 -0.535296
    12 -0.758958 -0.993292 -0.533611 -0.202027 -0.097279 0.588010
    13 -1.920303 0.000000 0.000000 0.000000 0.000000 0.063721
    14 -0.858252 0.000000 0.000000 0.000000 0.000000 0.209059
    15 -2.931402 -0.842322 0.160553 0.145276 -0.608326 -0.436699
    16 -1.836086 -0.000001 0.000002 0.000000 -1.457350 0.000000
    17 -0.853995 -0.000001 0.000000 0.002756 -0.113413 -0.024347
    18 -2.964060 -0.072899 0.178523 0.081863 -0.731986 -0.417209
    19 -1.814736 0.000000 0.000000 -3.068760 -1.483366 3.089821
    20 -0.982325 0.000002 0.000000 0.000000 0.200713 -0.021736
    21 -2.910366 0.632510 0.212797 0.030115 -0.972947 -0.427775
    22 -1.751858 0.000000 0.000001 -3.141592 -1.500984 -3.105025
    23 -0.853992 0.000001 0.000000 0.000000 0.287979 0.000000
    24 -2.899452 1.342927 0.078012 -0.205728 -1.319514 -0.142536
    25 -1.152892 0.000000 0.000002 0.012978 -0.959681 -0.067222
    26 -0.748461 -0.000001 0.000000 0.000000 -0.061086 0.057080
  time 5
    0 2.015446 -12.896350 -3.525481 1.570796 0.000000 -0.000218
    1 0.306466 -0.003179 6.007819 0.000000 0.000000 0.000000
    2 0.330043 0.779799 -9.737320 0.000000 0.000000 0.000000
    3 0.306469 -0.369967 -3.715791 0.000000 0.000000 0.000000
    4 0.311221 0.949065 14.047296 0.000000 1.570796 0.000000
    5 0.300573 -0.587445 -6.634350 0.000000 0.000000 0.000000
    6 2.041737 7.084333 -9.087566 1.570795 -1.343904 1.570557
    7 0.300572 0.831777 -8.343176 -3.141592 0.000000 0.000000
    8 -13.915428 -9.662042 -7.026770 -3.141592 -0.933752 3.141402
    9 0.023288 0.041601 0.000000 0.585917 -0.785506 0.009521
    10 -11.072359 -0.043444 0.000000 0.000000 0.000000 1.220468
    11 -8.108979 0.000000 0.000000 -0.198105 0.339688 -0.535296
    12 -0.758958 -0.993292 -0.533611 -0.202027 -0.097279 0.588010
    13 -1.920303 0.000000 0.000000 0.000000 0.000000 0.063721
    14 -0.858252 0.000000 0.000000 0.000000 0.000000 0.209059
    15 -2.931402 -0.842322 0.160553 0.145276 -0.608326 -0.436699
    16 -1.836086 -0.000001 0.000002 0.000000 -1.457350 0.000000
    17 -0.853995 -0.000001 0.000000 0.002756 -0.113413 -0.024347
    18 -2.964060 -0.072899 0.178523 0.081863 -0.731986 -0.417209
    19 -1.814736 0.000000 0.000000 -3.068760 -1.483366 3.089821
    20 -0.982325 0.000002 0.000000 0.000000 0.200713 -0.021736
    21 -2.910366 0.632510 0.212797 0.030115 -0.972947 -0.427775
    22 -1.751858 0.000000 0.000001 -3.141592 -1.500984 -3.105025
    23 -0.853992 0.000001 0.000000 0.000000 0.287979 0.000000
    24 -2.899452 1.342927 0.078012 -0.205728 -1.319514 -0.142536
    25 -1.152892 0.000000 0.000002 0.012978 -0.959681 -0.067222
    26 -0.748461 -0.000001 0.000000 0.000000 -0.061086 0.057080
  time 6
    0 2.015446 -12.896350 -3.525481 1.570796 0.000000 -0.000218
    1 0.306466 -0.003179 6.007819 0.000000 0.000000 0.000000
    2 0.330043 0.779799 -9.737320 0.000000 0.000000 0.000000
    3 0.306469 -0.369967 -3.715791 0.000000 0.000000 0.000000
    4 0.311221 0.949065 14.047296 0.000000 1.570796 0.000000
    5 0.300573 -0.587445 -6.634350 0.000000 0.000000 0.000000
    6 2.041737 7.084333 -9.087566 1.570795 -1.343904 1.570557
    7 0.300572 0.831777 -8.343176 -3.141592 0.000000 0.000000
    8 -13.915428 -9.662042 -7.026770 -3.141592 -0.933752 3.141402
    9 0.023288 0.041601 0.000000 0.585917 -0.785506 0.009521
    10 -11.072359 -0.043444 0.000000 0.000000 0.000000 1.220468
    11 -8.108979 0.000000 0.000000 -0.198105 0.339688 -0.535296
    12 -0.758958 -0.993292 -0.533611 -0.202027 -0.097279 0.588010
    13 -1.920303 0.000000 0.000000 0.000000 0.000000 0.063721
    14 -0.858252 0.000000 0.000000 0.000000 0.000000 0.209059
    15 -2.931402 -0.842322 0.160553 0.145276 -0.608326 -0.436699
    16 -1.836086 -0.000001 0.000002 0.000000 -1.457350 0.000000
    17 -0.853995 -0.000001 0.000000 0.002756 -0.113413 -0.024347
    18 -2.964060 -0.072899 0.178523 0.081863 -0.731986 -0.417209
    19 -1.814736 0.000000 0.000000 -3.068760 -1.483366 3.089821
    20 -0.982325 0.000002 0.000000 0.000000 0.200713 -0.021736
    21 -2.910366 0.632510 0.212797 0.030115 -0.972947 -0.427775
    22 -1.751858 0.000000 0.000001 -3.141592 -1.500984 -3.105025
    23 -0.853992 0.000001 0.000000 0.000000 0.287979 0.000000
    24 -2.899452 1.342927 0.078012 -0.205728 -1.319514 -0.142536
    25 -1.152892 0.000000 0.000002 0.012978 -0.959681 -0.067222
    26 -0.748461 -0.000001 0.000000 0.000000 -0.061086 0.057080
  time 7
    0 2.015446 -12.896350 -3.525481 1.570796 0.000000 -0.000218
    1 0.306466 -0.003179 6.007819 0.000000 0.000000 0.000000
    2 0.330043 0.779799 -9.737320 0.000000 0.000000 0.000000
    3 0.306469 -0.369967 -3.715791 0.000000 0.000000 0.000000
    4 0.311221 0.949065 14.047296 0.000000 1.570796 0.000000
    5 0.300573 -0.587445 -6.634350 0.000000 0.000000 0.000000
    6 2.041737 7.084333 -9.087566 1.570795 -1.343904 1.570557
    7 0.300572 0.831777 -8.343176 -3.141592 0.000000 0.000000
    8 -13.915428 -9.662042 -7.026770 -3.141592 -0.933752 3.141402
    9 0.023288 0.041601 0.000000 0.585917 -0.785506 0.009521
    10 -11.072359 -0.043444 0.000000 0.000000 0.000000 1.220468
    11 -8.108979 0.000000 0.000000 -0.198105 0.339688 -0.535296
    12 -0.758958 -0.993292 -0.533611 -0.202027 -0.097279 0.588010
    13 -1.920303 0.000000 0.000000 0.000000 0.000000 0.063721
    14 -0.858252 0.000000 0.000000 0.000000 0.000000 0.209059
    15 -2.931402 -0.842322 0.160553 0.145276 -0.608326 -0.436699
    16 -1.836086 -0.000001 0.000002 0.000000 -1.457350 0.000000
    17 -0.853995 -0.000001 0.000000 0.002756 -0.113413 -0.024347
    18 -2.964060 -0.072899 0.178523 0.081863 -0.731986 -0.417209
    19 -1.814736 0.000000 0.000000 -3.068760 -1.483366 3.089821
    20 -0.982325 0.000002 0.000000 0.000000 0.200713 -0.021736
    21 -2.910366 0.632510 0.212797 0.030115 -0.972947 -0.427775
    22 -1.751858 0.000000 0.000001 -3.141592 -1.500984 -3.105025
    23 -0.853992 0.000001 0.000000 0.000000 0.287979 0.000000
    24 -2.899452 1.342927 0.078012 -0.205728 -1.319514 -0.142536
    25 -1.152892 0.000000 0.000002 0.012978 -0.959681 -0.067222
    26 -0.748461 -0.000001 0.000000 0.000000 -0.061086 0.057080
  time 8
    0 2.015446 -12.896350 -3.525481 1.570796 0.000000 -0.000218
    1 0.306466 -0.003179 6.007819 0.000000 0.000000 0.000000
    2 0.330043 0.779799 -9.737320 0.000000 0.000000 0.000000
    3 0.306469 -0.369967 -3.715791 0.000000 0.000000 0.000000
    4 0.311221 0.949065 14.047296 0.000000 1.570796 0.000000
    5 0.300573 -0.587445 -6.634350 0.000000 0.000000 0.000000
    6 2.041737 7.084333 -9.087566 1.570795 -1.343904 1.570557
    7 0.300572 0.831777 -8.343176 -3.141592 0.000000 0.000000
    8 -13.915428 -9.662042 -7.026770 -3.141592 -0.933752 3.141402
    9 0.023288 0.041601 0.000000 0.585917 -0.785506 0.009521
    10 -11.072359 -0.043444 0.000000 0.000000 0.000000 1.220468
    11 -8.108979 0.000000 0.000000 -0.198105 0.339688 -0.535296
    12 -0.758958 -0.993292 -0.533611 -0.202027 -0.097279 0.588010
    13 -1.920303 0.000000 0.000000 0.000000 0.000000 0.063721
    14 -0.858252 0.000000 0.000000 0.000000 0.000000 0.209059
    15 -2.931402 -0.842322 0.160553 0.145276 -0.608326 -0.436699
    16 -1.836086 -0.000001 0.000002 0.000000 -1.457350 0.000000
    17 -0.853995 -0.000001 0.000000 0.002756 -0.113413 -0.024347
    18 -2.964060 -0.072899 0.178523 0.081863 -0.731986 -0.417209
    19 -1.814736 0.000000 0.000000 -3.068760 -1.483366 3.089821
    20 -0.982325 0.000002 0.000000 0.000000 0.200713 -0.021736
    21 -2.910366 0.632510 0.212797 0.030115 -0.972947 -0.427775
    22 -1.751858 0.000000 0.000001 -3.141592 -1.500984 -3.105025
    23 -0.853992 0.000001 0.000000 0.000000 0.287979 0.000000
    24 -2.899452 1.342927 0.078012 -0.205728 -1.319514 -0.142536
    25 -1.152892 0.000000 0.000002 0.012978 -0.959681 -0.067222
    26 -0.748461 -0.000001 0.000000 0.000000 -0.061086 0.057080
  time 9
    0 2.015446 -12.896350 -3.525481 1.570796 0.000000 -0.000218
    1 0.306466 -0.003179 6.007819 0.000000 0.000000 0.000000
    2 0.330043 0.779799 -9.737320 0.000000 0.000000 0.000000
    3 0.306469 -0.369967 -3.715791 0.000000 0.000000 0.000000
    4 0.311221 0.949065 14.047296 0.000000 1.570796 0.000000
    5 0.300573 -0.587445 -6.634350 0.000000 0.000000 0.000000
    6 2.041737 7.084333 -9.087566 1.570795 -1.343904 1.570557
    7 0.300572 0.831777 -8.343176 -3.141592 0.000000 0.000000
    8 -13.915428 -9.662042 -7.026770 -3.141592 -0.933752 3.141402
    9 0.023288 0.041601 0.000000 0.585917 -0.785506 0.009521
    10 -11.072359 -0.043444 0.000000 0.000000 0.000000 1.220468
    11 -8.108979 0.000000 0.000000 -0.198105 0.339688 -0.535296
    12 -0.758958 -0.993292 -0.533611 -0.202027 -0.097279 0.588010
    13 -1.920303 0.000000 0.000000 0.000000 0.000000 0.063721
    14 -0.858252 0.000000 0.000000 0.000000 0.000000 0.209059
    15 -2.931402 -0.842322 0.160553 0.145276 -0.608326 -0.436699
    16 -1.836086 -0.000001 0.000002 0.000000 -1.457350 0.000000
    17 -0.853995 -0.000001 0.000000 0.002756 -0.113413 -0.024347
    18 -2.964060 -0.072899 0.178523 0.081863 -0.731986 -0.417209
    19 -1.814736 0.000000 0.000000 -3.068760 -1.483366 3.089821
    20 -0.982325 0.000002 0.000000 0.000000 0.200713 -0.021736
    21 -2.910366 0.632510 0.212797 0.030115 -0.972947 -0.427775
    22 -1.751858 0.000000 0.000001 -3.141592 -1.500984 -3.105025
    23 -0.853992 0.000001 0.000000 0.000000 0.287979 0.000000
    24 -2.899452 1.342927 0.078012 -0.205728 -1.319514 -0.142536
    25 -1.152892 0.000000 0.000002 0.012978 -0.959681 -0.067222
    26 -0.748461 -0.000001 0.000000 0.000000 -0.061086 0.057080
  time 10
    0 2.015446 -12.896350 -3.525481 1.570796 0.000000 -0.000218
    1 0.306466 -0.003179 6.007819 0.000000 0.000000 0.000000
    2 0.330043 0.779799 -9.737320 0.000000 0.000000 0.000000
    3 0.306469 -0.369967 -3.715791 0.000000 0.000000 0.000000
    4 0.311221 0.949065 14.047296 0.000000 1.570796 0.000000
    5 0.300573 -0.587445 -6.634350 0.000000 0.000000 0.000000
    6 2.041737 7.084333 -9.087566 1.570795 -1.343904 1.570557
    7 0.300572 0.831777 -8.343176 -3.141592 0.000000 0.000000
    8 -13.915428 -9.662042 -7.026770 -3.141592 -0.933752 3.141402
    9 0.023288 0.041601 0.000000 0.585917 -0.785506 0.009521
    10 -11.072359 -0.043444 0.000000 0.000000 0.000000 1.220468
    11 -8.108979 0.000000 0.000000 -0.198105 0.339688 -0.535296
    12 -0.758958 -0.993292 -0.533611 -0.202027 -0.097279 0.588010
    13 -1.920303 0.000000 0.000000 0.000000 0.000000 0.063721
    14 -0.858252 0.000000 0.000000 0.000000 0.000000 0.209059
    15 -2.931402 -0.842322 0.160553 0.145276 -0.608326 -0.436699
    16 -1.836086 -0.000001 0.000002 0.000000 -1.457350 0.000000
    17 -0.853995 -0.000001 0.000000 0.002756 -0.113413 -0.024347
    18 -2.964060 -0.072899 0.178523 0.081863 -0.731986 -0.417209
    19 -1.814736 0.000000 0.000000 -3.068760 -1.483366 3.089821
    20 -0.982325 0.000002 0.000000 0.000000 0.200713 -0.021736
    21 -2.910366 0.632510 0.212797 0.030115 -0.972947 -0.427775
    22 -1.751858 0.000000 0.000001 -3.141592 -1.500984 -3.105025
    23 -0.853992 0.000001 0.000000 0.000000 0.287979 0.000000
    24 -2.899452 1.342927 0.078012 -0.205728 -1.319514 -0.142536
    25 -1.152892 0.000000 0.000002 0.012978 -0.959681 -0.067222
    26 -0.748461 -0.000001 0.000000 0.000000 -0.061086 0.057080
  time 11
    0 2.015446 -12.896350 -3.525481 1.570796 0.000000 -0.000218
    1 0.306466 -0.003179 6.007819 0.000000 0.000000 0.000000
    2 0.330043 0.779799 -9.737320 0.000000 0.000000 0.000000
    3 0.306469 -0.369967 -3.715791 0.000000 0.000000 0.000000
    4 0.311221 0.949065 14.047296 0.000000 1.570796 0.000000
    5 0.300573 -0.587445 -6.634350 0.000000 0.000000 0.000000
    6 2.041737 7.084333 -9.087566 1.570795 -1.343904 1.570557
    7 0.300572 0.831777 -8.343176 -3.141592 0.000000 0.000000
    8 -13.915428 -9.662042 -7.026770 -3.141592 -0.933752 3.141402
    9 0.023288 0.041601 0.000000 0.585917 -0.785506 0.009521
    10 -11.072359 -0.043444 0.000000 0.000000 0.000000 1.220468
    11 -8.108979 0.000000 0.000000 -0.198105 0.339688 -0.535296
    12 -0.758958 -0.993292 -0.533611 -0.202027 -0.097279 0.588010
    13 -1.920303 0.000000 0.000000 0.000000 0.000000 0.063721
    14 -0.858252 0.000000 0.000000 0.000000 0.000000 0.209059
    15 -2.931402 -0.842322 0.160553 0.145276 -0.608326 -0.436699
    16 -1.836086 -0.000001 0.000002 0.000000 -1.457350 0.000000
    17 -0.853995 -0.000001 0.000000 0.002756 -0.113413 -0.024347
    18 -2.964060 -0.072899 0.178523 0.081863 -0.731986 -0.417209
    19 -1.814736 0.000000 0.000000 -3.068760 -1.483366 3.089821
    20 -0.982325 0.000002 0.000000 0.000000 0.200713 -0.021736
    21 -2.910366 0.632510 0.212797 0.030115 -0.972947 -0.427775
    22 -1.751858 0.000000 0.000001 -3.141592 -1.500984 -3.105025
    23 -0.853992 0.000001 0.000000 0.000000 0.287979 0.000000
    24 -2.899452 1.342927 0.078012 -0.205728 -1.319514 -0.142536
    25 -1.152892 0.000000 0.000002 0.012978 -0.959681 -0.067222
    26 -0.748461 -0.000001 0.000000 0.000000 -0.061086 0.057080
  time 12
    0 2.015446 -12.896350 -3.525481 1.570796 0.000000 -0.000218
    1 0.306466 -0.003179 6.007819 0.000000 0.000000 0.000000
    2 0.330043 0.779799 -9.737320 0.000000 0.000000 0.000000
    3 0.306469 -0.369967 -3.715791 0.000000 0.000000 0.000000
    4 0.311221 0.949065 14.047296 0.000000 1.570796 0.000000
    5 0.300573 -0.587445 -6.634350 0.000000 0.000000 0.000000
    6 2.041737 7.084333 -9.087566 1.570795 -1.343904 1.570557
    7 0.300572 0.831777 -8.343176 -3.141592 0.000000 0.000000
    8 -13.915428 -9.662042 -7.026770 -3.141592 -0.933752 3.141402
    9 0.023288 0.041601 0.000000 0.585917 -0.785506 0.009521
    10 -11.072359 -0.043444 0.000000 0.000000 0.000000 1.220468
    11 -8.108979 0.000000 0.000000 -0.198105 0.339688 -0.535296
    12 -0.758958 -0.993292 -0.533611 -0.202027 -0.097279 0.588010
    13 -1.920303 0.000000 0.000000 0.000000 0.000000 0.063721
    14 -0.858252 0.000000 0.000000 0.000000 0.000000 0.209059
    15 -2.931402 -0.842322 0.160553 0.145276 -0.608326 -0.436699
    16 -1.836086 -0.000001 0.000002 0.000000 -1.457350 0.000000
    17 -0.853995 -0.000001 0.000000 0.002756 -0.113413 -0.024347
    18 -2.964060 -0.072899 0.178523 0.081863 -0.731986 -0.417209
    19 -1.814736 0.000000 0.000000 -3.068760 -1.483366 3.089821
    20 -0.982325 0.000002 0.000000 0.000000 0.200713 -0.021736
    21 -2.910366 0.632510 0.212797 0.030115 -0.972947 -0.427775
    22 -1.751858 0.000000 0.000001 -3.141592 -1.500984 -3.105025
    23 -0.853992 0.000001 0.000000 0.000000 0.287979 0.000000
    24 -2.899452 1.342927 0.078012 -0.205728 -1.319514 -0.142536
    25 -1.152892 0.000000 0.000002 0.012978 -0.959681 -0.067222
    26 -0.748461 -0.000001 0.000000 0.000000 -0.061086 0.057080
  time 13
    0 2.015446 -12.896350 -3.525481 1.570796 0.000000 -0.000218
    1 0.306466 -0.003179 6.007819 0.000000 0.000000 0.000000
    2 0.330043 0.779799 -9.737320 0.000000 0.000000 0.000000
    3 0.306469 -0.369967 -3.715791 0.000000 0.000000 0.000000
    4 0.311221 0.949065 14.047296 0.000000 1.570796 0.000000
    5 0.300573 -0.587445 -6.634350 0.000000 0.000000 0.000000
    6 2.041737 7.084333 -9.087566 1.570795 -1.343904 1.570557
    7 0.300572 0.831777 -8.343176 -3.141592 0.000000 0.000000
    8 -13.915428 -9.662042 -7.026770 -3.141592 -0.933752 3.141402
    9 0.023288 0.041601 0.000000 0.585917 -0.785506 0.009521
    10 -11.072359 -0.043444 0.000000 0.000000 0.000000 1.220468
    11 -8.108979 0.000000 0.000000 -0.198105 0.339688 -0.535296
    12 -0.758958 -0.993292 -0.533611 -0.202027 -0.097279 0.588010
    13 -1.920303 0.000000 0.000000 0.000000 0.000000 0.063721
    14 -0.858252 0.000000 0.000000 0.000000 0.000000 0.209059
    15 -2.931402 -0.842322 0.160553 0.145276 -0.608326 -0.436699
    16 -1.836086 -0.000001 0.000002 0.000000 -1.457350 0.000000
    17 -0.853995 -0.000001 0.000000 0.002756 -0.113413 -0.024347
    18 -2.964060 -0.072899 0.178523 0.081863 -0.731986 -0.417209
    19 -1.814736 0.000000 0.000000 -3.068760 -1.483366 3.089821
    20 -0.982325 0.000002 0.000000 0.000000 0.200713 -0.021736
    21 -2.910366 0.632510 0.212797 0.030115 -0.972947 -0.427775
    22 -1.751858 0.000000 0.000001 -3.141592 -1.500984 -3.105025
    23 -0.853992 0.000001 0.000000 0.000000 0.287979 0.000000
    24 -2.899452 1.342927 0.078012 -0.205728 -1.319514 -0.142536
    25 -1.152892 0.000000 0.000002 0.012978 -0.959681 -0.067222
    26 -0.748461 -0.000001 0.000000 0.000000 -0.061086 0.057080
  time 14
    0 2.015446 -12.896350 -3.525481 1.570796 0.000000 -0.000218
    1 0.306466 -0.003179 6.007819 0.000000 0.000000 0.000000
    2 0.330043 0.779799 -9.737320 0.000000 0.000000 0.000000
    3 0.306469 -0.369967 -3.715791 0.000000 0.000000 0.000000
    4 0.311221 0.949065 14.047296 0.000000 1.570796 0.000000
    5 0.300573 -0.587445 -6.634350 0.000000 0.000000 0.000000
    6 2.041737 7.084333 -9.087566 1.570795 -1.343904 1.570557
    7 0.300572 0.831777 -8.343176 -3.141592 0.000000 0.000000
    8 -13.915428 -9.662042 -7.026770 -3.141592 -0.933752 3.141402
    9 0.023288 0.041601 0.000000 0.585917 -0.785506 0.009521
    10 -11.072359 -0.043444 0.000000 0.000000 0.000000 1.220468
    11 -8.108979 0.000000 0.000000 -0.198105 0.339688 -0.535296
    12 -0.758958 -0.993292 -0.533611 -0.202027 -0.097279 0.588010
    13 -1.920303 0.000000 0.000000 0.000000 0.000000 0.063721
    14 -0.858252 0.000000 0.000000 0.000000 0.000000 0.209059
    15 -2.931402 -0.842322 0.160553 0.145276 -0.608326 -0.436699
    16 -1.836086 -0.000001 0.000002 0.000000 -1.457350 0.000000
    17 -0.853995 -0.000001 0.000000 0.002756 -0.113413 -0.024347
    18 -2.964060 -0.072899 0.178523 0.081863 -0.731986 -0.417209
    19 -1.814736 0.000000 0.000000 -3.068760 -1.483366 3.089821
    20 -0.982325 0.000002 0.000000 0.000000 0.200713 -0.021736
    21 -2.910366 0.632510 0.212797 0.030115 -0.972947 -0.427775
    22 -1.751858 0.000000 0.000001 -3.141592 -1.500984 -3.105025
    23 -0.853992 0.000001 0.000000 0.000000 0.287979 0.000000
    24 -2.899452 1.342927 0.078012 -0.205728 -1.319514 -0.142536
    25 -1.152892 0.000000 0.000002 0.012978 -0.959681 -0.067222
    26 -0.748461 -0.000001 0.000000 0.000000 -0.061086 0.057080
  time 15
    0 2.015446 -12.896350 -3.525481 1.570796 0.000000 -0.000218
    1 0.306466 -0.003179 6.007819 0.000000 0.000000 0.000000
    2 0.330043 0.779799 -9.737320 0.000000 0.000000 0.000000
    3 0.306469 -0.369967 -3.715791 0.000000 0.000000 0.000000
    4 0.311221 0.949065 14.047296 0.000000 1.570796 0.000000
    5 0.300573 -0.587445 -6.634350 0.000000 0.000000 0.000000
    6 2.041737 7.084333 -9.087566 1.570795 -1.343904 1.570557
    7 0.300572 0.831777 -8.343176 -3.141592 0.000000 0.000000
    8 -13.915428 -9.662042 -7.026770 -3.141592 -0.933752 3.141402
    9 0.023288 0.041601 0.000000 0.585917 -0.785506 0.009521
    10 -11.072359 -0.043444 0.000000 0.000000 0.000000 1.220468
    11 -8.108979 0.000000 0.000000 -0.198105 0.339688 -0.535296
    12 -0.758958 -0.993292 -0.533611 -0.202027 -0.097279 0.588010
    13 -1.920303 0.000000 0.000000 0.000000 0.000000 0.063721
    14 -0.858252 0.000000 0.000000 0.000000 0.000000 0.209059
    15 -2.931402 -0.842322 0.160553 0.145276 -0.608326 -0.436699
    16 -1.836086 -0.000001 0.000002 0.000000 -1.457350 0.000000
    17 -0.853995 -0.000001 0.000000 0.002756 -0.113413 -0.024347
    18 -2.964060 -0.072899 0.178523 0.081863 -0.731986 -0.417209
    19 -1.814736 0.000000 0.000000 -3.068760 -1.483366 3.089821
    20 -0.982325 0.000002 0.000000 0.000000 0.200713 -0.021736
    21 -2.910366 0.632510 0.212797 0.030115 -0.972947 -0.427775
    22 -1.751858 0.000000 0.000001 -3.141592 -1.500984 -3.105025
    23 -0.853992 0.000001 0.000000 0.000000 0.287979 0.000000
    24 -2.899452 1.342927 0.078012 -0.205728 -1.319514 -0.142536
    25 -1.152892 0.000000 0.000002 0.012978 -0.959681 -0.067222
    26 -0.748461 -0.000001 0.000000 0.000000 -0.061086 0.057080
  time 16
    0 2.015446 -12.896350 -3.525481 1.570796 0.000000 -0.000218
    1 0.306466 -0.003179 6.007819 0.000000 0.000000 0.000000
    2 0.330043 0.779799 -9.737320 0.000000 0.000000 0.000000
    3 0.306469 -0.369967 -3.715791 0.000000 0.000000 0.000000
    4 0.311221 0.949065 14.047296 0.000000 1.570796 0.000000
    5 0.300573 -0.587445 -6.634350 0.000000 0.000000 0.000000
    6 2.041737 7.084333 -9.087566 1.570795 -1.343904 1.570557
    7 0.300572 0.831777 -8.343176 -3.141592 0.000000 0.000000
    8 -13.915428 -9.662042 -7.026770 -3.141592 -0.933752 3.141402
    9 0.023288 0.041601 0.000000 0.585917 -0.785506 0.009521
    10 -11.072359 -0.043444 0.000000 0.000000 0.000000 1.220468
    11 -8.108979 0.000000 0.000000 -0.198105 0.339688 -0.535296
    12 -0.758958 -0.993292 -0.533611 -0.202027 -0.097279 0.588010
    13 -1.920303 0.000000 0.000000 0.000000 0.000000 0.063721
    14 -0.858252 0.000000 0.000000 0.000000 0.000000 0.209059
    15 -2.931402 -0.842322 0.160553 0.145276 -0.608326 -0.436699
    16 -1.836086 -0.000001 0.000002 0.000000 -1.457350 0.000000
    17 -0.853995 -0.000001 0.000000 0.002756 -0.113413 -0.024347
    18 -2.964060 -0.072899 0.178523 0.081863 -0.731986 -0.417209
    19 -1.814736 0.000000 0.000000 -3.068760 -1.483366 3.089821
    20 -0.982325 0.000002 0.000000 0.000000 0.200713 -0.021736
    21 -2.910366 0.632510 0.212797 0.030115 -0.972947 -0.427775
    22 -1.751858 0.000000 0.000001 -3.141592 -1.500984 -3.105025
    23 -0.853992 0.000001 0.000000 0.000000 0.287979 0.000000
    24 -2.899452 1.342927 0.078012 -0.205728 -1.319514 -0.142536
    25 -1.152892 0.000000 0.000002 0.012978 -0.959681 -0.067222
    26 -0.748461 -0.000001 0.000000 0.000000 -0.061086 0.057080
  time 17
    0 2.015446 -12.896350 -3.525481 1.570796 0.000000 -0.000218
    1 0.306466 -0.003179 6.007819 0.000000 0.000000 0.000000
    2 0.330043 0.779799 -9.737320 0.000000 0.000000 0.000000
    3 0.306469 -0.369967 -3.715791 0.000000 0.000000 0.000000
    4 0.311221 0.949065 14.047296 0.000000 1.570796 0.000000
    5 0.300573 -0.587445 -6.634350 0.000000 0.000000 0.000000
    6 2.041737 7.084333 -9.087566 1.570795 -1.343904 1.570557
    7 0.300572 0.831777 -8.343176 -3.141592 0.000000 0.000000
    8 -13.915428 -9.662042 -7.026770 -3.141592 -0.933752 3.141402
    9 0.023288 0.041601 0.000000 0.585917 -0.785506 0.009521
    10 -11.072359 -0.043444 0.000000 0.000000 0.000000 1.220468
    11 -8.108979 0.000000 0.000000 -0.198105 0.339688 -0.535296
    12 -0.758958 -0.993292 -0.533611 -0.202027 -0.097279 0.588010
    13 -1.920303 0.000000 0.000000 0.000000 0.000000 0.063721
    14 -0.858252 0.000000 0.000000 0.000000 0.000000 0.209059
    15 -2.931402 -0.842322 0.160553 0.145276 -0.608326 -0.436699
    16 -1.836086 -0.000001 0.000002 0.000000 -1.457350 0.000000
    17 -0.853995 -0.000001 0.000000 0.002756 -0.113413 -0.024347
    18 -2.964060 -0.072899 0.178523 0.081863 -0.731986 -0.417209
    19 -1.814736 0.000000 0.000000 -3.068760 -1.483366 3.089821
    20 -0.982325 0.000002 0.000000 0.000000 0.200713 -0.021736
    21 -2.910366 0.632510 0.212797 0.030115 -0.972947 -0.427775
    22 -1.751858 0.000000 0.000001 -3.141592 -1.500984 -3.105025
    23 -0.853992 0.000001 0.000000 0.000000 0.287979 0.000000
    24 -2.899452 1.342927 0.078012 -0.205728 -1.319514 -0.142536
    25 -1.152892 0.000000 0.000002 0.012978 -0.959681 -0.067222
    26 -0.748461 -0.000001 0.000000 0.000000 -0.061086 0.057080
  time 18
    0 2.015446 -12.896350 -3.525481 1.570796 0.000000 -0.000218
    1 0.306466 -0.003179 6.007819 0.000000 0.000000 0.000000
    2 0.330043 0.779799 -9.737320 0.000000 0.000000 0.000000
    3 0.306469 -0.369967 -3.715791 0.000000 0.000000 0.000000
    4 0.311221 0.949065 14.047296 0.000000 1.570796 0.000000
    5 0.300573 -0.587445 -6.634350 0.000000 0.000000 0.000000
    6 2.041737 7.084333 -9.087566 1.570795 -1.343904 1.570557
    7 0.300572 0.831777 -8.343176 -3.141592 0.000000 0.000000
    8 -13.915428 -9.662042 -7.026770 -3.141592 -0.933752 3.141402
    9 0.023288 0.041601 0.000000 0.585917 -0.785506 0.009521
    10 -11.072359 -0.043444 0.000000 0.000000 0.000000 1.220468
    11 -8.108979 0.000000 0.000000 -0.198105 0.339688 -0.535296
    12 -0.758958 -0.993292 -0.533611 -0.202027 -0.097279 0.588010
    13 -1.920303 0.000000 0.000000 0.000000 0.000000 0.063721
    14 -0.858252 0.000000 0.000000 0.000000 0.000000 0.209059
    15 -2.931402 -0.842322 0.160553 0.145276 -0.608326 -0.436699
    16 -1.836086 -0.000001 0.000002 0.000000 -1.457350 0.000000
    17 -0.853995 -0.000001 0.000000 0.002756 -0.113413 -0.024347
    18 -2.964060 -0.072899 0.178523 0.081863 -0.731986 -0.417209
    19 -1.814736 0.000000 0.000000 -3.068760 -1.483366 3.089821
    20 -0.982325 0.000002 0.000000 0.000000 0.200713 -0.021736
    21 -2.910366 0.632510 0.212797 0.030115 -0.972947 -0.427775
    22 -1.751858 0.000000 0.000001 -3.141592 -1.500984 -3.105025
    23 -0.853992 0.000001 0.000000 0.000000 0.287979 0.000000
    24 -2.899452 1.342927 0.078012 -0.205728 -1.319514 -0.142536
    25 -1.152892 0.000000 0.000002 0.012978 -0.959681 -0.067222
    26 -0.748461 -0.000001 0.000000 0.000000 -0.061086 0.057080
  time 19
    0 2.015446 -12.896350 -3.525481 1.570796 0.000000 -0.000218
    1 0.306466 -0.003179 6.007819 0.000000 0.000000 0.000000
    2 0.330043 0.779799 -9.737320 0.000000 0.000000 0.000000
    3 0.306469 -0.369967 -3.715791 0.000000 0.000000 0.000000
    4 0.311221 0.949065 14.047296 0.000000 1.570796 0.000000
    5 0.300573 -0.587445 -6.634350 0.000000 0.000000 0.000000
    6 2.041737 7.084333 -9.087566 1.570795 -1.343904 1.570557
    7 0.300572 0.831777 -8.343176 -3.141592 0.000000 0.000000
    8 -13.915428 -9.662042 -7.026770 -3.141592 -0.933752 3.141402
    9 0.023288 0.041601 0.000000 0.585917 -0.785506 0.009521
    10 -11.072359 -0.043444 0.000000 0.000000 0.000000 1.220468
    11 -8.108979 0.000000 0.000000 -0.198105 0.339688 -0.535296
    12 -0.758958 -0.993292 -0.533611 -0.202027 -0.097279 0.588010
    13 -1.920303 0.000000 0.000000 0.000000 0.000000 0.063721
    14 -0.858252 0.000000 0.000000 0.000000 0.000000 0.209059
    15 -2.931402 -0.842322 0.160553 0.145276 -0.608326 -0.436699
    16 -1.836086 -0.000001 0.000002 0.000000 -1.457350 0.000000
    17 -0.853995 -0.000001 0.000000 0.002756 -0.113413 -0.024347
    18 -2.964060 -0.072899 0.178523 0.081863 -0.731986 -0.417209
    19 -1.814736 0.000000 0.000000 -3.068760 -1.483366 3.089821
    20 -0.982325 0.000002 0.000000 0.000000 0.200713 -0.021736
    21 -2.910366 0.632510 0.212797 0.030115 -0.972947 -0.427775
    22 -1.751858 0.000000 0.000001 -3.141592 -1.500984 -3.105025
    23 -0.853992 0.000001 0.000000 0.000000 0.287979 0.000000
    24 -2.899452 1.342927 0.078012 -0.205728 -1.319514 -0.142536
    25 -1.152892 0.000000 0.000002 0.012978 -0.959681 -0.067222
    26 -0.748461 -0.000001 0.000000 0.000000 -0.061086 0.057080
  time 20
    0 2.015446 -12.896350 -3.525481 1.570796 0.000000 -0.000218
    1 0.306466 -0.003179 6.007819 0.000000 0.000000 0.000000
    2 0.330043 0.779799 -9.737320 0.000000 0.000000 0.000000
    3 0.306469 -0.369967 -3.715791 0.000000 0.000000 0.000000
    4 0.311221 0.949065 14.047296 0.000000 1.570796 0.000000
    5 0.300573 -0.587445 -6.634350 0.000000 0.000000 0.000000
    6 2.041737 7.084333 -9.087566 1.570795 -1.343904 1.570557
    7 0.300572 0.831777 -8.343176 -3.141592 0.000000 0.000000
    8 -13.915428 -9.662042 -7.026770 -3.141592 -0.933752 3.141402
    9 0.023288 0.041601 0.000000 0.585917 -0.785506 0.009521
    10 -11.072359 -0.043444 0.000000 0.000000 0.000000 1.220468
    11 -8.108979 0.000000 0.000000 -0.198105 0.339688 -0.535296
    12 -0.758958 -0.993292 -0.533611 -0.202027 -0.097279 0.588010
    13 -1.920303 0.000000 0.000000 0.000000 0.000000 0.063721
    14 -0.858252 0.000000 0.000000 0.000000 0.000000 0.209059
    15 -2.931402 -0.842322 0.160553 0.145276 -0.608326 -0.436699
    16 -1.836086 -0.000001 0.000002 0.000000 -1.457350 0.000000
    17 -0.853995 -0.000001 0.000000 0.002756 -0.113413 -0.024347
    18 -2.964060 -0.072899 0.178523 0.081863 -0.731986 -0.417209
    19 -1.814736 0.000000 0.000000 -3.068760 -1.483366 3.089821
    20 -0.982325 0.000002 0.000000 0.000000 0.200713 -0.021736
    21 -2.910366 0.632510 0.212797 0.030115 -0.972947 -0.427775
    22 -1.751858 0.000000 0.000001 -3.141592 -1.500984 -3.105025
    23 -0.853992 0.000001 0.000000 0.000000 0.287979 0.000000
    24 -2.899452 1.342927 0.078012 -0.205728 -1.319514 -0.142536
    25 -1.152892 0.000000 0.000002 0.012978 -0.959681 -0.067222
    26 -0.748461 -0.000001 0.000000 0.000000 -0.061086 0.057080
  time 21
    0 2.015446 -12.896350 -3.525481 1.570796 0.000000 -0.000218
    1 0.306466 -0.003179 6.007819 0.000000 0.000000 0.000000
    2 0.330043 0.779799 -9.737320 0.000000 0.000000 0.000000
    3 0.306469 -0.369967 -3.715791 0.000000 0.000000 0.000000
    4 0.311221 0.949065 14.047296 0.000000 1.570796 0.000000
    5 0.300573 -0.587445 -6.634350 0.000000 0.000000 0.000000
    6 2.041737 7.084333 -9.087566 1.570795 -1.343904 1.570557
    7 0.300572 0.831777 -8.343176 -3.141592 0.000000 0.000000
    8 -13.915428 -9.662042 -7.026770 -3.141592 -0.933752 3.141402
    9 0.023288 0.041601 0.000000 0.585917 -0.785506 0.009521
    10 -11.072359 -0.043444 0.000000 0.000000 0.000000 1.220468
    11 -8.108979 0.000000 0.000000 -0.198105 0.339688 -0.535296
    12 -0.758958 -0.993292 -0.533611 -0.202027 -0.097279 0.588010
    13 -1.920303 0.000000 0.000000 0.000000 0.000000 0.063721
    14 -0.858252 0.000000 0.000000 0.000000 0.000000 0.209059
    15 -2.931402 -0.842322 0.160553 0.145276 -0.608326 -0.436699
    16 -1.836086 -0.000001 0.000002 0.000000 -1.457350 0.000000
    17 -0.853995 -0.000001 0.000000 0.002756 -0.113413 -0.024347
    18 -2.964060 -0.072899 0.178523 0.081863 -0.731986 -0.417209
    19 -1.814736 0.000000 0.000000 -3.068760 -1.483366 3.089821
    20 -0.982325 0.000002 0.000000 0.000000 0.200713 -0.021736
    21 -2.910366 0.632510 0.212797 0.030115 -0.972947 -0.427775
    22 -1.751858 0.000000 0.000001 -3.141592 -1.500984 -3.105025
    23 -0.853992 0.000001 0.000000 0.000000 0.287979 0.000000
    24 -2.899452 1.342927 0.078012 -0.205728 -1.319514 -0.142536
    25 -1.152892 0.000000 0.000002 0.012978 -0.959681 -0.067222
    26 -0.748461 -0.000001 0.000000 0.000000 -0.061086 0.057080
  time 22
    0 2.015446 -12.896350 -3.525481 1.570796 0.000000 -0.000218
    1 0.306466 -0.003179 6.007819 0.000000 0.000000 0.000000
    2 0.330043 0.779799 -9.737320 0.000000 0.000000 0.000000
    3 0.306469 -0.369967 -3.715791 0.000000 0.000000 0.000000
    4 0.311221 0.949065 14.047296 0.000000 1.570796 0.000000
    5 0.300573 -0.587445 -6.634350 0.000000 0.000000 0.000000
    6 2.041737 7.084333 -9.087566 1.570795 -1.343904 1.570557
    7 0.300572 0.831777 -8.343176 -3.141592 0.000000 0.000000
    8 -13.915428 -9.662042 -7.026770 -3.141592 -0.933752 3.141402
    9 0.023288 0.041601 0.000000 0.585917 -0.785506 0.009521
    10 -11.072359 -0.043444 0.000000 0.000000 0.000000 1.220468
    11 -8.108979 0.000000 0.000000 -0.198105 0.339688 -0.535296
    12 -0.758958 -0.993292 -0.533611 -0.202027 -0.097279 0.588010
    13 -1.920303 0.000000 0.000000 0.000000 0.000000 0.063721
    14 -0.858252 0.000000 0.000000 0.000000 0.000000 0.209059
    15 -2.931402 -0.842322 0.160553 0.145276 -0.608326 -0.436699
    16 -1.836086 -0.000001 0.000002 0.000000 -1.457350 0.000000
    17 -0.853995 -0.000001 0.000000 0.002756 -0.113413 -0.024347
    18 -2.964060 -0.072899 0.178523 0.081863 -0.731986 -0.417209
    19 -1.814736 0.000000 0.000000 -3.068760 -1.483366 3.089821
    20 -0.982325 0.000002 0.000000 0.000000 0.200713 -0.021736
    21 -2.910366 0.632510 0.212797 0.030115 -0.972947 -0.427775
    22 -1.751858 0.000000 0.000001 -3.141592 -1.500984 -3.105025
    23 -0.853992 0.000001 0.000000 0.000000 0.287979 0.000000
    24 -2.899452 1.342927 0.078012 -0.205728 -1.319514 -0.142536
    25 -1.152892 0.000000 0.000002 0.012978 -0.959681 -0.067222
    26 -0.748461 -0.000001 0.000000 0.000000 -0.061086 0.057080
  time 23
    0 2.015446 -12.896350 -3.525481 1.570796 0.000000 -0.000218
    1 0.306466 -0.003179 6.007819 0.000000 0.000000 0.000000
    2 0.330043 0.779799 -9.737320 0.000000 0.000000 0.000000
    3 0.306469 -0.369967 -3.715791 0.000000 0.000000 0.000000
    4 0.311221 0.949065 14.047296 0.000000 1.570796 0.000000
    5 0.300573 -0.587445 -6.634350 0.000000 0.000000 0.000000
    6 2.041737 7.084333 -9.087566 1.570795 -1.343904 1.570557
    7 0.300572 0.831777 -8.343176 -3.141592 0.000000 0.000000
    8 -13.915428 -9.662042 -7.026770 -3.141592 -0.933752 3.141402
    9 0.023288 0.041601 0.000000 0.585917 -0.785506 0.009521
    10 -11.072359 -0.043444 0.000000 0.000000 0.000000 1.220468
    11 -8.108979 0.000000 0.000000 -0.198105 0.339688 -0.535296
    12 -0.758958 -0.993292 -0.533611 -0.202027 -0.097279 0.588010
    13 -1.920303 0.000000 0.000000 0.000000 0.000000 0.063721
    14 -0.858252 0.000000 0.000000 0.000000 0.000000 0.209059
    15 -2.931402 -0.842322 0.160553 0.145276 -0.608326 -0.436699
    16 -1.836086 -0.000001 0.000002 0.000000 -1.457350 0.000000
    17 -0.853995 -0.000001 0.000000 0.002756 -0.113413 -0.024347
    18 -2.964060 -0.072899 0.178523 0.081863 -0.731986 -0.417209
    19 -1.814736 0.000000 0.000000 -3.068760 -1.483366 3.089821
    20 -0.982325 0.000002 0.000000 0.000000 0.200713 -0.021736
    21 -2.910366 0.632510 0.212797 0.030115 -0.972947 -0.427775
    22 -1.751858 0.000000 0.000001 -3.141592 -1.500984 -3.105025
    23 -0.853992 0.000001 0.000000 0.000000 0.287979 0.000000
    24 -2.899452 1.342927 0.078012 -0.205728 -1.319514 -0.142536
    25 -1.152892 0.000000 0.000002 0.012978 -0.959681 -0.067222
    26 -0.748461 -0.000001 0.000000 0.000000 -0.061086 0.057080
  time 24
    0 2.015446 -12.896350 -3.525481 1.570796 0.000000 -0.000218
    1 0.306466 -0.003179 6.007819 0.000000 0.000000 0.000000
    2 0.330043 0.779799 -9.737320 0.000000 0.000000 0.000000
    3 0.306469 -0.369967 -3.715791 0.000000 0.000000 0.000000
    4 0.311221 0.949065 14.047296 0.000000 1.570796 0.000000
    5 0.300573 -0.587445 -6.634350 0.000000 0.000000 0.000000
    6 2.041737 7.084333 -9.087566 1.570795 -1.343904 1.570557
    7 0.300572 0.831777 -8.343176 -3.141592 0.000000 0.000000
    8 -13.915428 -9.662042 -7.026770 -3.141592 -0.933752 3.141402
    9 0.023288 0.041601 0.000000 0.585917 -0.785506 0.009521
    10 -11.072359 -0.043444 0.000000 0.000000 0.000000 1.220468
    11 -8.108979 0.000000 0.000000 -0.198105 0.339688 -0.535296
    12 -0.758958 -0.993292 -0.533611 -0.202027 -0.097279 0.588010
    13 -1.920303 0.000000 0.000000 0.000000 0.000000 0.063721
    14 -0.858252 0.000000 0.000000 0.000000 0.000000 0.209059
    15 -2.931402 -0.842322 0.160553 0.145276 -0.608326 -0.436699
    16 -1.836086 -0.000001 0.000002 0.000000 -1.457350 0.000000
    17 -0.853995 -0.000001 0.000000 0.002756 -0.113413 -0.024347
    18 -2.964060 -0.072899 0.178523 0.081863 -0.731986 -0.417209
    19 -1.814736 0.000000 0.000000 -3.068760 -1.483366 3.089821
    20 -0.982325 0.000002 0.000000 0.000000 0.200713 -0.021736
    21 -2.910366 0.632510 0.212797 0.030115 -0.972947 -0.427775
    22 -1.751858 0.000000 0.000001 -3.141592 -1.500984 -3.105025
    23 -0.853992 0.000001 0.000000 0.000000 0.287979 0.000000
    24 -2.899452 1.342927 0.078012 -0.205728 -1.319514 -0.142536
    25 -1.152892 0.000000 0.000002 0.012978 -0.959681 -0.067222
    26 -0.748461 -0.000001 0.000000 0.000000 -0.061086 0.057080
  time 25
    0 2.015446 -12.896350 -3.525481 1.570796 0.000000 -0.000218
    1 0.306466 -0.003179 6.007819 0.000000 0.000000 0.000000
    2 0.330043 0.779799 -9.737320 0.000000 0.000000 0.000000
    3 0.306469 -0.369967 -3.715791 0.000000 0.000000 0.000000
    4 0.311221 0.949065 14.047296 0.000000 1.570796 0.000000
    5 0.300573 -0.587445 -6.634350 0.000000 0.000000 0.000000
    6 2.041737 7.084333 -9.087566 1.570795 -1.343904 1.570557
    7 0.300572 0.831777 -8.343176 -3.141592 0.000000 0.000000
    8 -13.915428 -9.662042 -7.026770 -3.141592 -0.933752 3.141402
    9 0.023288 0.041601 0.000000 0.585917 -0.785506 0.009521
    10 -11.072359 -0.043444 0.000000 0.000000 0.000000 1.220468
    11 -8.108979 0.000000 0.000000 -0.198105 0.339688 -0.535296
    12 -0.758958 -0.993292 -0.533611 -0.202027 -0.097279 0.588010
    13 -1.920303 0.000000 0.000000 0.000000 0.000000 0.063721
    14 -0.858252 0.000000 0.000000 0.000000 0.000000 0.209059
    15 -2.931402 -0.842322 0.160553 0.145276 -0.608326 -0.436699
    16 -1.836086 -0.000001 0.000002 0.000000 -1.457350 0.000000
    17 -0.853995 -0.000001 0.000000 0.002756 -0.113413 -0.024347
    18 -2.964060 -0.072899 0.178523 0.081863 -0.731986 -0.417209
    19 -1.814736 0.000000 0.000000 -3.068760 -1.483366 3.089821
    20 -0.982325 0.000002 0.000000 0.000000 0.200713 -0.021736
    21 -2.910366 0.632510 0.212797 0.030115 -0.972947 -0.427775
    22 -1.751858 0.000000 0.000001 -3.141592 -1.500984 -3.105025
    23 -0.853992 0.000001 0.000000 0.000000 0.287979 0.000000
    24 -2.899452 1.342927 0.078012 -0.205728 -1.319514 -0.142536
    25 -1.152892 0.000000 0.000002 0.012978 -0.959681 -0.067222
    26 -0.748461 -0.000001 0.000000 0.000000 -0.061086 0.057080
  time 26
    0 2.015446 -12.896350 -3.525481 1.570796 0.000000 -0.000218
    1 0.306466 -0.003179 6.007819 0.000000 0.000000 0.000000
    2 0.330043 0.779799 -9.737320 0.000000 0.000000 0.000000
    3 0.306469 -0.369967 -3.715791 0.000000 0.000000 0.000000
    4 0.311221 0.949065 14.047296 0.000000 1.570796 0.000000
    5 0.300573 -0.587445 -6.634350 0.000000 0.000000 0.000000
    6 2.041737 7.084333 -9.087566 1.570795 -1.343904 1.570557
    7 0.300572 0.831777 -8.343176 -3.141592 0.000000 0.000000
    8 -13.915428 -9.662042 -7.026770 -3.141592 -0.933752 3.141402
    9 0.023288 0.041601 0.000000 0.585917 -0.785506 0.009521
    10 -11.072359 -0.043444 0.000000 0.000000 0.000000 1.220468
    11 -8.108979 0.000000 0.000000 -0.198105 0.339688 -0.535296
    12 -0.758958 -0.993292 -0.533611 -0.202027 -0.097279 0.588010
    13 -1.920303 0.000000 0.000000 0.000000 0.000000 0.063721
    14 -0.858252 0.000000 0.000000 0.000000 0.000000 0.209059
    15 -2.931402 -0.842322 0.160553 0.145276 -0.608326 -0.436699
    16 -1.836086 -0.000001 0.000002 0.000000 -1.457350 0.000000
    17 -0.853995 -0.000001 0.000000 0.002756 -0.113413 -0.024347
    18 -2.964060 -0.072899 0.178523 0.081863 -0.731986 -0.417209
    19 -1.814736 0.000000 0.000000 -3.068760 -1.483366 3.089821
    20 -0.982325 0.000002 0.000000 0.000000 0.200713 -0.021736
    21 -2.910366 0.632510 0.212797 0.030115 -0.972947 -0.427775
    22 -1.751858 0.000000 0.000001 -3.141592 -1.500984 -3.105025
    23 -0.853992 0.000001 0.000000 0.000000 0.287979 0.000000
    24 -2.899452 1.342927 0.078012 -0.205728 -1.319514 -0.142536
    25 -1.152892 0.000000 0.000002 0.012978 -0.959681 -0.067222
    26 -0.748461 -0.000001 0.000000 0.000000 -0.061086 0.057080
  time 27
    0 2.015446 -12.896350 -3.525481 1.570796 0.000000 -0.000218
    1 0.306466 -0.003179 6.007819 0.000000 0.000000 0.000000
    2 0.330043 0.779799 -9.737320 0.000000 0.000000 0.000000
    3 0.306469 -0.369967 -3.715791 0.000000 0.000000 0.000000
    4 0.311221 0.949065 14.047296 0.000000 1.570796 0.000000
    5 0.300573 -0.587445 -6.634350 0.000000 0.000000 0.000000
    6 2.041737 7.084333 -9.087566 1.570795 -1.343904 1.570557
    7 0.300572 0.831777 -8.343176 -3.141592 0.000000 0.000000
    8 -13.915428 -9.662042 -7.026770 -3.141592 -0.933752 3.141402
    9 0.023288 0.041601 0.000000 0.585917 -0.785506 0.009521
    10 -11.072359 -0.043444 0.000000 0.000000 0.000000 1.220468
    11 -8.108979 0.000000 0.000000 -0.198105 0.339688 -0.535296
    12 -0.758958 -0.993292 -0.533611 -0.202027 -0.097279 0.588010
    13 -1.920303 0.000000 0.000000 0.000000 0.000000 0.063721
    14 -0.858252 0.000000 0.000000 0.000000 0.000000 0.209059
    15 -2.931402 -0.842322 0.160553 0.145276 -0.608326 -0.436699
    16 -1.836086 -0.000001 0.000002 0.000000 -1.457350 0.000000
    17 -0.853995 -0.000001 0.000000 0.002756 -0.113413 -0.024347
    18 -2.964060 -0.072899 0.178523 0.081863 -0.731986 -0.417209
    19 -1.814736 0.000000 0.000000 -3.068760 -1.483366 3.089821
    20 -0.982325 0.000002 0.000000 0.000000 0.200713 -0.021736
    21 -2.910366 0.632510 0.212797 0.030115 -0.972947 -0.427775
    22 -1.751858 0.000000 0.000001 -3.141592 -1.500984 -3.105025
    23 -0.853992 0.000001 0.000000 0.000000 0.287979 0.000000
    24 -2.899452 1.342927 0.078012 -0.205728 -1.319514 -0.142536
    25 -1.152892 0.000000 0.000002 0.012978 -0.959681 -0.067222
    26 -0.748461 -0.000001 0.000000 0.000000 -0.061086 0.057080
  time 28
    0 2.015446 -12.896350 -3.525481 1.570796 0.000000 -0.000218
    1 0.306466 -0.003179 6.007819 0.000000 0.000000 0.000000
    2 0.330043 0.779799 -9.737320 0.000000 0.000000 0.000000
    3 0.306469 -0.369967 -3.715791 0.000000 0.000000 0.000000
    4 0.311221 0.949065 14.047296 0.000000 1.570796 0.000000
    5 0.300573 -0.587445 -6.634350 0.000000 0.000000 0.000000
    6 2.041737 7.084333 -9.087566 1.570795 -1.343904 1.570557
    7 0.300572 0.831777 -8.343176 -3.141592 0.000000 0.000000
    8 -13.915428 -9.662042 -7.026770 -3.141592 -0.933752 3.141402
    9 0.023288 0.041601 0.000000 0.585917 -0.785506 0.009521
    10 -11.072359 -0.043444 0.000000 0.000000 0.000000 1.220468
    11 -8.108979 0.000000 0.000000 -0.198105 0.339688 -0.535296
    12 -0.758958 -0.993292 -0.533611 -0.202027 -0.097279 0.588010
    13 -1.920303 0.000000 0.000000 0.000000 0.000000 0.063721
    14 -0.858252 0.000000 0.000000 0.000000 0.000000 0.209059
    15 -2.931402 -0.842322 0.160553 0.145276 -0.608326 -0.436699
    16 -1.836086 -0.000001 0.000002 0.000000 -1.457350 0.000000
    17 -0.853995 -0.000001 0.000000 0.002756 -0.113413 -0.024347
    18 -2.964060 -0.072899 0.178523 0.081863 -0.731986 -0.417209
    19 -1.814736 0.000000 0.000000 -3.068760 -1.483366 3.089821
    20 -0.982325 0.000002 0.000000 0.000000 0.200713 -0.021736
    21 -2.910366 0.632510 0.212797 0.030115 -0.972947 -0.427775
    22 -1.751858 0.000000 0.000001 -3.141592 -1.500984 -3.105025
    23 -0.853992 0.000001 0.000000 0.000000 0.287979 0.000000
    24 -2.899452 1.342927 0.078012 -0.205728 -1.319514 -0.142536
    25 -1.152892 0.000000 0.000002 0.012978 -0.959681 -0.067222
    26 -0.748461 -0.000001 0.000000 0.000000 -0.061086 0.057080
  time 29
    0 2.015446 -12.896350 -3.525481 1.570796 0.000000 -0.000218
    1 0.306466 -0.003179 6.007819 0.000000 0.000000 0.000000
    2 0.330043 0.779799 -9.737320 0.000000 0.000000 0.000000
    3 0.306469 -0.369967 -3.715791 0.000000 0.000000 0.000000
    4 0.311221 0.949065 14.047296 0.000000 1.570796 0.000000
    5 0.300573 -0.587445 -6.634350 0.000000 0.000000 0.000000
    6 2.041737 7.084333 -9.087566 1.570795 -1.343904 1.570557
    7 0.300572 0.831777 -8.343176 -3.141592 0.000000 0.000000
    8 -13.915428 -9.662042 -7.026770 -3.141592 -0.933752 3.141402
    9 0.023288 0.041601 0.000000 0.585917 -0.785506 0.009521
    10 -11.072359 -0.043444 0.000000 0.000000 0.000000 1.220468
    11 -8.108979 0.000000 0.000000 -0.198105 0.339688 -0.535296
    12 -0.758958 -0.993292 -0.533611 -0.202027 -0.097279 0.588010
    13 -1.920303 0.000000 0.000000 0.000000 0.000000 0.063721
    14 -0.858252 0.000000 0.000000 0.000000 0.000000 0.209059
    15 -2.931402 -0.842322 0.160553 0.145276 -0.608326 -0.436699
    16 -1.836086 -0.000001 0.000002 0.000000 -1.457350 0.000000
    17 -0.853995 -0.000001 0.000000 0.002756 -0.113413 -0.024347
    18 -2.964060 -0.072899 0.178523 0.081863 -0.731986 -0.417209
    19 -1.814736 0.000000 0.000000 -3.068760 -1.483366 3.089821
    20 -0.982325 0.000002 0.000000 0.000000 0.200713 -0.021736
    21 -2.910366 0.632510 0.212797 0.030115 -0.972947 -0.427775
    22 -1.751858 0.000000 0.000001 -3.141592 -1.500984 -3.105025
    23 -0.853992 0.000001 0.000000 0.000000 0.287979 0.000000
    24 -2.899452 1.342927 0.078012 -0.205728 -1.319514 -0.142536
    25 -1.152892 0.000000 0.000002 0.012978 -0.959681 -0.067222
    26 -0.748461 -0.000001 0.000000 0.000000 -0.061086 0.057080
  time 30
    0 2.015446 -12.896350 -3.525481 1.570796 0.000000 -0.000218
    1 0.306466 -0.003179 6.007819 0.000000 0.000000 0.000000
    2 0.330043 0.779799 -9.737320 0.000000 0.000000 0.000000
    3 0.306469 -0.369967 -3.715791 0.000000 0.000000 0.000000
    4 0.311221 0.949065 14.047296 0.000000 1.570796 0.000000
    5 0.300573 -0.587445 -6.634350 0.000000 0.000000 0.000000
    6 2.041737 7.084333 -9.087566 1.570795 -1.343904 1.570557
    7 0.300572 0.831777 -8.343176 -3.141592 0.000000 0.000000
    8 -13.915428 -9.662042 -7.026770 -3.141592 -0.933752 3.141402
    9 0.023288 0.041601 0.000000 0.585917 -0.785506 0.009521
    10 -11.072359 -0.043444 0.000000 0.000000 0.000000 1.220468
    11 -8.108979 0.000000 0.000000 -0.198105 0.339688 -0.535296
    12 -0.758958 -0.993292 -0.533611 -0.202027 -0.097279 0.588010
    13 -1.920303 0.000000 0.000000 0.000000 0.000000 0.063721
    14 -0.858252 0.000000 0.000000 0.000000 0.000000 0.209059
    15 -2.931402 -0.842322 0.160553 0.145276 -0.608326 -0.436699
    16 -1.836086 -0.000001 0.000002 0.000000 -1.457350 0.000000
    17 -0.853995 -0.000001 0.000000 0.002756 -0.113413 -0.024347
    18 -2.964060 -0.072899 0.178523 0.081863 -0.731986 -0.417209
    19 -1.814736 0.000000 0.000000 -3.068760 -1.483366 3.089821
    20 -0.982325 0.000002 0.000000 0.000000 0.200713 -0.021736
    21 -2.910366 0.632510 0.212797 0.030115 -0.972947 -0.427775
    22 -1.751858 0.000000 0.000001 -3.141592 -1.500984 -3.105025
    23 -0.853992 0.000001 0.000000 0.000000 0.287979 0.000000
    24 -2.899452 1.342927 0.078012 -0.205728 -1.319514 -0.142536
    25 -1.152892 0.000000 0.000002 0.012978 -0.959681 -0.067222
    26 -0.748461 -0.000001 0.000000 0.000000 -0.061086 0.057080
  time 31
    0 2.015446 -12.896350 -3.525481 1.570796 0.000000 -0.000218
    1 0.306466 -0.003179 6.007819 0.000000 0.000000 0.000000
    2 0.330043 0.779799 -9.737320 0.000000 0.000000 0.000000
    3 0.306469 -0.369967 -3.715791 0.000000 0.000000 0.000000
    4 0.311221 0.949065 14.047296 0.000000 1.570796 0.000000
    5 0.300573 -0.587445 -6.634350 0.000000 0.000000 0.000000
    6 2.041737 7.084333 -9.087566 1.570795 -1.343904 1.570557
    7 0.300572 0.831777 -8.343176 -3.141592 0.000000 0.000000
    8 -13.915428 -9.662042 -7.026770 -3.141592 -0.933752 3.141402
    9 0.023288 0.041601 0.000000 0.585917 -0.785506 0.009521
    10 -11.072359 -0.043444 0.000000 0.000000 0.000000 1.220468
    11 -8.108979 0.000000 0.000000 -0.198105 0.339688 -0.535296
    12 -0.758958 -0.993292 -0.533611 -0.202027 -0.097279 0.588010
    13 -1.920303 0.000000 0.000000 0.000000 0.000000 0.063721
    14 -0.858252 0.000000 0.000000 0.000000 0.000000 0.209059
    15 -2.931402 -0.842322 0.160553 0.145276 -0.608326 -0.436699
    16 -1.836086 -0.000001 0.000002 0.000000 -1.457350 0.000000
    17 -0.853995 -0.000001 0.000000 0.002756 -0.113413 -0.024347
    18 -2.964060 -0.072899 0.178523 0.081863 -0.731986 -0.417209
    19 -1.814736 0.000000 0.000000 -3.068760 -1.483366 3.089821
    20 -0.982325 0.000002 0.000000 0.000000 0.200713 -0.021736
    21 -2.910366 0.632510 0.212797 0.030115 -0.972947 -0.427775
    22 -1.751858 0.000000 0.000001 -3.141592 -1.500984 -3.105025
    23 -0.853992 0.000001 0.000000 0.000000 0.287979 0.000000
    24 -2.899452 1.342927 0.078012 -0.205728 -1.319514 -0.142536
    25 -1.152892 0.000000 0.000002 0.012978 -0.959681 -0.067222
    26 -0.748461 -0.000001 0.000000 0.000000 -0.061086 0.057080
  time 32
    0 2.015446 -12.896350 -3.525481 1.570796 0.000000 -0.000218
    1 0.306466 -0.003179 6.007819 0.000000 0.000000 0.000000
    2 0.330043 0.779799 -9.737320 0.000000 0.000000 0.000000
    3 0.306469 -0.369967 -3.715791 0.000000 0.000000 0.000000
    4 0.311221 0.949065 14.047296 0.000000 1.570796 0.000000
    5 0.300573 -0.587445 -6.634350 0.000000 0.000000 0.000000
    6 2.041737 7.084333 -9.087566 1.570795 -1.343904 1.570557
    7 0.300572 0.831777 -8.343176 -3.141592 0.000000 0.000000
    8 -13.915428 -9.662042 -7.026770 -3.141592 -0.933752 3.141402
    9 0.023288 0.041601 0.000000 0.585917 -0.785506 0.009521
    10 -11.072359 -0.043444 0.000000 0.000000 0.000000 1.220468
    11 -8.108979 0.000000 0.000000 -0.198105 0.339688 -0.535296
    12 -0.758958 -0.993292 -0.533611 -0.202027 -0.097279 0.588010
    13 -1.920303 0.000000 0.000000 0.000000 0.000000 0.063721
    14 -0.858252 0.000000 0.000000 0.000000 0.000000 0.209059
    15 -2.931402 -0.842322 0.160553 0.145276 -0.608326 -0.436699
    16 -1.836086 -0.000001 0.000002 0.000000 -1.457350 0.000000
    17 -0.853995 -0.000001 0.000000 0.002756 -0.113413 -0.024347
    18 -2.964060 -0.072899 0.178523 0.081863 -0.731986 -0.417209
    19 -1.814736 0.000000 0.000000 -3.068760 -1.483366 3.089821
    20 -0.982325 0.000002 0.000000 0.000000 0.200713 -0.021736
    21 -2.910366 0.632510 0.212797 0.030115 -0.972947 -0.427775
    22 -1.751858 0.000000 0.000001 -3.141592 -1.500984 -3.105025
    23 -0.853992 0.000001 0.000000 0.000000 0.287979 0.000000
    24 -2.899452 1.342927 0.078012 -0.205728 -1.319514 -0.142536
    25 -1.152892 0.000000 0.000002 0.012978 -0.959681 -0.067222
    26 -0.748461 -0.000001 0.000000 0.000000 -0.061086 0.057080
  time 33
    0 2.015446 -12.896350 -3.525481 1.570796 0.000000 -0.000218
    1 0.306466 -0.003179 6.007819 0.000000 0.000000 0.000000
    2 0.330043 0.779799 -9.737320 0.000000 0.000000 0.000000
    3 0.306469 -0.369967 -3.715791 0.000000 0.000000 0.000000
    4 0.311221 0.949065 14.047296 0.000000 1.570796 0.000000
    5 0.300573 -0.587445 -6.634350 0.000000 0.000000 0.000000
    6 2.041737 7.084333 -9.087566 1.570795 -1.343904 1.570557
    7 0.300572 0.831777 -8.343176 -3.141592 0.000000 0.000000
    8 -13.915428 -9.662042 -7.026770 -3.141592 -0.933752 3.141402
    9 0.023288 0.041601 0.000000 0.585917 -0.785506 0.009521
    10 -11.072359 -0.043444 0.000000 0.000000 0.000000 1.220468
    11 -8.108979 0.000000 0.000000 -0.198105 0.339688 -0.535296
    12 -0.758958 -0.993292 -0.533611 -0.202027 -0.097279 0.588010
    13 -1.920303 0.000000 0.000000 0.000000 0.000000 0.063721
    14 -0.858252 0.000000 0.000000 0.000000 0.000000 0.209059
    15 -2.931402 -0.842322 0.160553 0.145276 -0.608326 -0.436699
    16 -1.836086 -0.000001 0.000002 0.000000 -1.457350 0.000000
    17 -0.853995 -0.000001 0.000000 0.002756 -0.113413 -0.024347
    18 -2.964060 -0.072899 0.178523 0.081863 -0.731986 -0.417209
    19 -1.814736 0.000000 0.000000 -3.068760 -1.483366 3.089821
    20 -0.982325 0.000002 0.000000 0.000000 0.200713 -0.021736
    21 -2.910366 0.632510 0.212797 0.030115 -0.972947 -0.427775
    22 -1.751858 0.000000 0.000001 -3.141592 -1.500984 -3.105025
    23 -0.853992 0.000001 0.000000 0.000000 0.287979 0.000000
    24 -2.899452 1.342927 0.078012 -0.205728 -1.319514 -0.142536
    25 -1.152892 0.000000 0.000002 0.012978 -0.959681 -0.067222
    26 -0.748461 -0.000001 0.000000 0.000000 -0.061086 0.057080
end
