
VertexLitGeneric
{

	$basetexture				models/jessev92/css/weapons/heat/mp5a3/mag_d
	$bumpmap					dev/bump_normal
	$lightwarptexture			dev/identitylightwarp
	
	$halflambert				1
	$ambientocclusion			1

	$phong						1
 	$phongexponenttexture		models/jessev92/css/weapons/heat/mp5a3/mag_x
	
}
