
VertexLitGeneric
{

	$baseTexture					models/jessev92/hl2/weapons/fasthawk/fasthawk_d
	$bumpmap						models/jessev92/hl2/weapons/fasthawk/fasthawk_b

	$phong							1
	$phongboost						1
	$phongexponent					1
	$phongfresnelranges				"[ 0.1 0.6 0.65 ]"

	$detail							detail/metal_detail_01
	$detailscale					1.75
	$detailblendfactor				0.001
	$detailblendmode				0

}
