
//	Action Half-Life 2, Weapons, MP5k, World Model
//	Texture @ AHL2 Team
//	Shaders @ Reverend V92
//	Update: 2017/04/05

VertexLitGeneric
{

	$basetexture models/jessev92/ahl2/weapons/mp5k/w_mp5k_d
	$bumpmap models/jessev92/ahl2/weapons/mp5k/w_mp5k_b
	$lightwarptexture dev/identitylightwarp

	$nocull 0
	$halflambert 1
	$ambientocclusion 1
	$alphatest 0

	$phong 1
	$phongexponent 140
	$phongboost 0.5
	$phongfresnelranges "[ 0.2 0.2 0.2 ]"
	
	$rimlight 1
	$rimlightexponent 6
	$rimlightboost 0.25

	$detail detail/metal_detail_01
	$detailscale 8
	$detailblendfactor 1
	$detailblendmode 0

}
