
VertexLitGeneric
{

	$baseTexture				models/jessev92/hl2/weapons/spas12/barrels_d
	$bumpmap					models/jessev92/hl2/weapons/spas12/barrels_b

	$halflambert				1
	$ambientocclusion			1
	$selfillum					1

	$phong						1
	$phongboost					1
	$phongexponent				10
	$phongalbedotint			1
	$phongtint					"[ 0.4 0.4 0.4 ]"
 	$phongfresnelranges			"[ 0.1 5 1 ]"
	
	$rimlight					1
	$rimlightexponent			34.5
	$rimlightboost				0.2
	
	$detail						detail/metal_detail_01
	$detailscale				4
	$detailblendfactor			0.75
	$detailblendmode			0
	
}
