
VertexLitGeneric
{

	$basetexture				models/jessev92/hl2/weapons/kimber1911nw/1911_d
	$bumpmap					models/jessev92/hl2/weapons/kimber1911nw/1911_b
	
	$halflambert				1
	$ambientocclusion			1
	
	$phong						1
	$phongfresnelranges			"[ 1 3 6 ]"
	$phongexponent				65
	$phongboost 				0.1
	$phongalbedotint			1
	$phongalbedoboost			14
	
	$rimlight					1
	$rimlightexponent			65
	$rimlightboost				0.3
	
	$detail						detail/metal_detail_01
	$detailscale				12
	$detailblendfactor			0.95
	$detailblendmode			0
	
}