
VertexLitGeneric
{

	$baseTexture				models/jessev92/hl2/weapons/mp5k/mp5k_d
	$bumpmap					models/jessev92/hl2/weapons/mp5k/mp5k_b

	$halflambert				1
	$ambientocclusion			1

	$phong						1
	$phongexponent				1.77
	$phongalbedotint			1
	$phongalbedoboost			1
	$phongboost					0.75
 	//$phongtint					"[ 0.7 0.9 1 ]"
 	$phongfresnelranges			"[ 1 1 1 ]"
 	$phongexponenttexture		models/jessev92/hl2/weapons/mp5k/mp5k_x
	
	$rimlight					1
	$rimlightexponent			34.5
	$rimlightboost				0.2
	
	$detail						detail/metal_detail_01
	$detailscale				24
	$detailblendfactor			0.95
	$detailblendmode			0
	
}
