version 1
nodes
  0 "ValveBiped.Bip01_R_Hand"  -1
  1 "knife"  -1
end
skeleton
time 0
  0 -2.061918 2.550701 2.795734 -1.616052 1.052212 0.170016
  1 1.978545 -1.352921 0.556073 0.454369 2.263142 0.914512
end
triangles
w_knife
  1 1.482931 -1.178421 0.327859 0.745790 -0.268787 0.609550 0.110108 0.642291 1 0 1.000000
  1 1.153121 -1.116293 -0.293007 0.679423 -0.672247 0.294055 0.091058 0.503141 1 0 1.000000
  1 1.417273 -1.303496 -0.511293 0.744773 -0.344493 0.571522 0.118490 0.476901 1 0 1.000000
w_knife
  1 3.415239 -4.254777 1.235782 0.787548 0.198433 -0.583431 0.467625 0.893652 1 0 1.000000
  1 2.979473 -3.685916 1.289454 0.874111 0.170486 -0.454824 0.397267 0.888556 1 0 1.000000
  1 5.044796 -8.977914 0.819114 0.907089 -0.111874 0.405801 0.985819 0.786398 1 0 1.000000
w_knife
  1 2.979473 -3.685916 1.289454 0.874111 0.170486 -0.454824 0.397267 0.888556 1 0 1.000000
  1 4.429831 -7.956770 0.676421 0.874417 -0.152106 0.460716 0.865495 0.745811 1 0 1.000000
  1 5.044796 -8.977914 0.819114 0.907089 -0.111874 0.405801 0.985819 0.786398 1 0 1.000000
w_knife
  1 4.429831 -7.956770 0.676421 0.874417 -0.152106 0.460716 0.865495 0.745811 1 0 1.000000
  1 4.063195 -7.369330 0.416333 0.767564 -0.158076 0.621175 0.795571 0.654399 1 0 1.000000
  1 5.044796 -8.977914 0.819114 0.907089 -0.111874 0.405801 0.985819 0.786398 1 0 1.000000
w_knife
  1 4.063195 -7.369330 0.416333 0.767564 -0.158076 0.621175 0.795571 0.654399 1 0 1.000000
  1 4.387617 -8.262717 0.041260 0.829629 -0.154353 0.536555 0.892207 0.580255 1 0 1.000000
  1 5.044796 -8.977914 0.819114 0.907089 -0.111874 0.405801 0.985819 0.786398 1 0 1.000000
w_knife
  1 4.063195 -7.369330 0.416333 0.767564 -0.158076 0.621175 0.795571 0.654399 1 0 1.000000
  1 3.649925 -6.474413 0.320224 0.788580 -0.120690 0.602972 0.694870 0.634008 1 0 1.000000
  1 4.387617 -8.262717 0.041260 0.829629 -0.154353 0.536555 0.892207 0.580255 1 0 1.000000
w_knife
  1 3.649925 -6.474413 0.320224 0.788580 -0.120690 0.602972 0.694870 0.634008 1 0 1.000000
  1 3.569016 -6.735883 -0.421971 0.789791 -0.124128 0.600685 0.715768 0.480943 1 0 1.000000
  1 4.387617 -8.262717 0.041260 0.829629 -0.154353 0.536555 0.892207 0.580255 1 0 1.000000
w_knife
  1 3.649925 -6.474413 0.320224 0.788580 -0.120690 0.602972 0.694870 0.634008 1 0 1.000000
  1 1.482931 -1.178421 0.327859 0.745790 -0.268787 0.609550 0.124602 0.642291 1 0 1.000000
  1 3.569016 -6.735883 -0.421971 0.789791 -0.124128 0.600685 0.715768 0.480943 1 0 1.000000
w_knife
  1 1.482931 -1.178421 0.327859 0.745790 -0.268787 0.609550 0.124602 0.642291 1 0 1.000000
  1 1.417273 -1.303496 -0.511293 0.744773 -0.344493 0.571522 0.118490 0.476901 1 0 1.000000
  1 3.569016 -6.735883 -0.421971 0.789791 -0.124128 0.600685 0.715768 0.480943 1 0 1.000000
w_knife
  1 1.562784 0.138835 0.933720 0.785802 0.216571 -0.579321 0.708107 0.416052 1 0 1.000000
  1 0.533240 3.041572 1.132317 0.872247 0.261848 -0.413062 0.427398 0.447658 1 0 1.000000
  1 1.121319 -0.035413 0.926103 0.986025 0.124094 -0.111156 0.707799 0.329612 1 0 1.000000
w_knife
  1 -1.327734 5.210307 0.393010 0.893899 -0.154424 0.420829 0.172586 0.216962 1 0 1.000000
  1 -0.936956 5.371462 0.926485 0.987385 0.055661 -0.148232 0.172668 0.331405 1 0 1.000000
  1 -1.467103 5.696267 0.364715 0.870103 0.072754 0.487471 0.129729 0.217912 1 0 1.000000
w_knife
  1 -0.936956 5.371462 0.926485 0.987385 0.055661 -0.148232 0.172668 0.331405 1 0 1.000000
  1 -1.327734 5.210307 0.393010 0.893899 -0.154424 0.420829 0.172586 0.216962 1 0 1.000000
  1 -0.699429 4.936666 0.735930 0.990610 0.091451 -0.101626 0.222579 0.323207 1 0 1.000000
w_knife
  1 -0.497398 5.545976 1.011932 0.876438 0.153852 -0.456275 0.173686 0.414679 1 0 1.000000
  1 -0.936956 5.371462 0.926485 0.987385 0.055661 -0.148232 0.172668 0.331405 1 0 1.000000
  1 -0.699429 4.936666 0.735930 0.990610 0.091451 -0.101626 0.222579 0.323207 1 0 1.000000
w_knife
  1 -0.412604 5.050540 0.791730 0.875141 0.181693 -0.448460 0.222286 0.388224 1 0 1.000000
  1 -0.497398 5.545976 1.011932 0.876438 0.153852 -0.456275 0.173686 0.414679 1 0 1.000000
  1 -0.699429 4.936666 0.735930 0.990610 0.091451 -0.101626 0.222579 0.323207 1 0 1.000000
w_knife
  1 -0.412604 5.050540 0.791730 0.875141 0.181693 -0.448460 0.222286 0.388224 1 0 1.000000
  1 -0.699429 4.936666 0.735930 0.990610 0.091451 -0.101626 0.222579 0.323207 1 0 1.000000
  1 -0.079301 4.447609 0.995241 0.825524 0.409094 -0.388783 0.288261 0.421106 1 0 1.000000
w_knife
  1 -0.699429 4.936666 0.735930 0.990610 0.091451 -0.101626 0.222579 0.323207 1 0 1.000000
  1 -0.490617 4.285660 0.926223 0.942950 0.324295 -0.075351 0.291832 0.338127 1 0 1.000000
  1 -0.079301 4.447609 0.995241 0.825524 0.409094 -0.388783 0.288261 0.421106 1 0 1.000000
w_knife
  1 0.533240 3.041572 1.132317 0.872247 0.261848 -0.413062 0.427398 0.447658 1 0 1.000000
  1 -0.079301 4.447609 0.995241 0.825524 0.409094 -0.388783 0.288261 0.421106 1 0 1.000000
  1 -0.490617 4.285660 0.926223 0.942950 0.324295 -0.075351 0.291832 0.338127 1 0 1.000000
w_knife
  1 0.034102 2.856353 1.021687 0.977369 0.179963 -0.111193 0.426734 0.347202 1 0 1.000000
  1 0.533240 3.041572 1.132317 0.872247 0.261848 -0.413062 0.427398 0.447658 1 0 1.000000
  1 -0.490617 4.285660 0.926223 0.942950 0.324295 -0.075351 0.291832 0.338127 1 0 1.000000
w_knife
  1 0.533240 3.041572 1.132317 0.872247 0.261848 -0.413062 0.427398 0.447658 1 0 1.000000
  1 0.034102 2.856353 1.021687 0.977369 0.179963 -0.111193 0.426734 0.347202 1 0 1.000000
  1 1.121319 -0.035413 0.926103 0.986025 0.124094 -0.111156 0.707799 0.329612 1 0 1.000000
w_knife
  1 1.121319 -0.035413 0.926103 0.986025 0.124094 -0.111156 0.707799 0.329612 1 0 1.000000
  1 0.034102 2.856353 1.021687 0.977369 0.179963 -0.111193 0.426734 0.347202 1 0 1.000000
  1 0.882094 -0.135315 0.504312 0.896081 -0.049008 0.441176 0.708069 0.238022 1 0 1.000000
w_knife
  1 0.034102 2.856353 1.021687 0.977369 0.179963 -0.111193 0.426734 0.347202 1 0 1.000000
  1 -0.341287 2.713058 0.577604 0.882880 -0.018831 0.469221 0.426551 0.240827 1 0 1.000000
  1 0.882094 -0.135315 0.504312 0.896081 -0.049008 0.441176 0.708069 0.238022 1 0 1.000000
w_knife
  1 0.882094 -0.135315 0.504312 0.896081 -0.049008 0.441176 0.708069 0.238022 1 0 1.000000
  1 -0.341287 2.713058 0.577604 0.882880 -0.018831 0.469221 0.426551 0.240827 1 0 1.000000
  1 0.746758 -0.194903 0.031818 0.448059 -0.230045 0.863900 0.708598 0.146455 1 0 1.000000
w_knife
  1 -0.341287 2.713058 0.577604 0.882880 -0.018831 0.469221 0.426551 0.240827 1 0 1.000000
  1 0.034102 2.856353 1.021687 0.977369 0.179963 -0.111193 0.426734 0.347202 1 0 1.000000
  1 -0.828256 4.140897 0.496145 0.864754 0.106642 0.490743 0.292754 0.236160 1 0 1.000000
w_knife
  1 0.034102 2.856353 1.021687 0.977369 0.179963 -0.111193 0.426734 0.347202 1 0 1.000000
  1 -0.490617 4.285660 0.926223 0.942950 0.324295 -0.075351 0.291832 0.338127 1 0 1.000000
  1 -0.828256 4.140897 0.496145 0.864754 0.106642 0.490743 0.292754 0.236160 1 0 1.000000
w_knife
  1 -0.954481 4.831484 0.387744 0.901205 -0.095711 0.422692 0.223252 0.229868 1 0 1.000000
  1 -0.828256 4.140897 0.496145 0.864754 0.106642 0.490743 0.292754 0.236160 1 0 1.000000
  1 -0.490617 4.285660 0.926223 0.942950 0.324295 -0.075351 0.291832 0.338127 1 0 1.000000
w_knife
  1 -0.699429 4.936666 0.735930 0.990610 0.091451 -0.101626 0.222579 0.323207 1 0 1.000000
  1 -0.954481 4.831484 0.387744 0.901205 -0.095711 0.422692 0.223252 0.229868 1 0 1.000000
  1 -0.490617 4.285660 0.926223 0.942950 0.324295 -0.075351 0.291832 0.338127 1 0 1.000000
w_knife
  1 -1.327734 5.210307 0.393010 0.893899 -0.154424 0.420829 0.172586 0.216962 1 0 1.000000
  1 -0.954481 4.831484 0.387744 0.901205 -0.095711 0.422692 0.223252 0.229868 1 0 1.000000
  1 -0.699429 4.936666 0.735930 0.990610 0.091451 -0.101626 0.222579 0.323207 1 0 1.000000
w_knife
  1 -0.936956 5.371462 0.926485 0.987385 0.055661 -0.148232 0.172668 0.331405 1 0 1.000000
  1 -1.113710 5.842003 0.847154 0.957614 0.284869 -0.042726 0.129709 0.325742 1 0 1.000000
  1 -1.467103 5.696267 0.364715 0.870103 0.072754 0.487471 0.129729 0.217912 1 0 1.000000
w_knife
  1 -0.936956 5.371462 0.926485 0.987385 0.055661 -0.148232 0.172668 0.331405 1 0 1.000000
  1 -0.497398 5.545976 1.011932 0.876438 0.153852 -0.456275 0.173686 0.414679 1 0 1.000000
  1 -1.113710 5.842003 0.847154 0.957614 0.284869 -0.042726 0.129709 0.325742 1 0 1.000000
w_knife
  1 -0.497398 5.545976 1.011932 0.876438 0.153852 -0.456275 0.173686 0.414679 1 0 1.000000
  1 -0.716224 5.999816 0.924436 0.839629 0.391573 -0.376422 0.128434 0.406448 1 0 1.000000
  1 -1.113710 5.842003 0.847154 0.957614 0.284869 -0.042726 0.129709 0.325742 1 0 1.000000
w_knife
  1 -1.327734 5.210307 0.393010 0.893899 -0.154424 0.420829 0.172586 0.216962 1 0 1.000000
  1 -1.440638 5.156990 -0.276083 0.469794 -0.395089 0.789429 0.170872 0.105236 1 0 1.000000
  1 -0.954481 4.831484 0.387744 0.901205 -0.095711 0.422692 0.223252 0.229868 1 0 1.000000
w_knife
  1 -1.440638 5.156990 -0.276083 0.469794 -0.395089 0.789429 0.170872 0.105236 1 0 1.000000
  1 -1.028171 4.796685 -0.048957 0.522305 -0.358429 0.773774 0.223536 0.136389 1 0 1.000000
  1 -0.954481 4.831484 0.387744 0.901205 -0.095711 0.422692 0.223252 0.229868 1 0 1.000000
w_knife
  1 -0.954481 4.831484 0.387744 0.901205 -0.095711 0.422692 0.223252 0.229868 1 0 1.000000
  1 -1.028171 4.796685 -0.048957 0.522305 -0.358429 0.773774 0.223536 0.136389 1 0 1.000000
  1 -0.828256 4.140897 0.496145 0.864754 0.106642 0.490743 0.292754 0.236160 1 0 1.000000
w_knife
  1 -1.028171 4.796685 -0.048957 0.522305 -0.358429 0.773774 0.223536 0.136389 1 0 1.000000
  1 -0.900989 4.097778 -0.061208 0.423058 -0.126880 0.897175 0.292441 0.134479 1 0 1.000000
  1 -0.828256 4.140897 0.496145 0.864754 0.106642 0.490743 0.292754 0.236160 1 0 1.000000
w_knife
  1 -0.341287 2.713058 0.577604 0.882880 -0.018831 0.469221 0.426551 0.240827 1 0 1.000000
  1 -0.828256 4.140897 0.496145 0.864754 0.106642 0.490743 0.292754 0.236160 1 0 1.000000
  1 -0.900989 4.097778 -0.061208 0.423058 -0.126880 0.897175 0.292441 0.134479 1 0 1.000000
w_knife
  1 -0.373873 2.695665 0.057985 0.389734 -0.238583 0.889486 0.426747 0.146175 1 0 1.000000
  1 -0.341287 2.713058 0.577604 0.882880 -0.018831 0.469221 0.426551 0.240827 1 0 1.000000
  1 -0.900989 4.097778 -0.061208 0.423058 -0.126880 0.897175 0.292441 0.134479 1 0 1.000000
w_knife
  1 -0.341287 2.713058 0.577604 0.882880 -0.018831 0.469221 0.426551 0.240827 1 0 1.000000
  1 -0.373873 2.695665 0.057985 0.389734 -0.238583 0.889486 0.426747 0.146175 1 0 1.000000
  1 0.746758 -0.194903 0.031818 0.448059 -0.230045 0.863900 0.708598 0.146455 1 0 1.000000
w_knife
  1 1.033073 -0.086719 -0.330991 -0.013932 -0.295483 0.955246 0.709615 0.059639 1 0 1.000000
  1 0.746758 -0.194903 0.031818 0.448059 -0.230045 0.863900 0.708598 0.146455 1 0 1.000000
  1 -0.373873 2.695665 0.057985 0.389734 -0.238583 0.889486 0.426747 0.146175 1 0 1.000000
w_knife
  1 -0.090139 2.802434 -0.335122 0.030047 -0.326105 0.944856 0.426738 0.053541 1 0 1.000000
  1 1.033073 -0.086719 -0.330991 -0.013932 -0.295483 0.955246 0.709615 0.059639 1 0 1.000000
  1 -0.373873 2.695665 0.057985 0.389734 -0.238583 0.889486 0.426747 0.146175 1 0 1.000000
w_knife
  1 -0.090139 2.802434 -0.335122 0.030047 -0.326105 0.944856 0.426738 0.053541 1 0 1.000000
  1 -0.373873 2.695665 0.057985 0.389734 -0.238583 0.889486 0.426747 0.146175 1 0 1.000000
  1 -0.673266 4.181765 -0.433161 0.092824 -0.229009 0.968989 0.290520 0.052932 1 0 1.000000
w_knife
  1 -0.373873 2.695665 0.057985 0.389734 -0.238583 0.889486 0.426747 0.146175 1 0 1.000000
  1 -0.900989 4.097778 -0.061208 0.423058 -0.126880 0.897175 0.292441 0.134479 1 0 1.000000
  1 -0.673266 4.181765 -0.433161 0.092824 -0.229009 0.968989 0.290520 0.052932 1 0 1.000000
w_knife
  1 -0.900989 4.097778 -0.061208 0.423058 -0.126880 0.897175 0.292441 0.134479 1 0 1.000000
  1 -1.028171 4.796685 -0.048957 0.522305 -0.358429 0.773774 0.223536 0.136389 1 0 1.000000
  1 -0.673266 4.181765 -0.433161 0.092824 -0.229009 0.968989 0.290520 0.052932 1 0 1.000000
w_knife
  1 -1.028171 4.796685 -0.048957 0.522305 -0.358429 0.773774 0.223536 0.136389 1 0 1.000000
  1 -0.877516 4.852580 -0.318268 0.172006 -0.509042 0.843380 0.224619 0.071792 1 0 1.000000
  1 -0.673266 4.181765 -0.433161 0.092824 -0.229009 0.968989 0.290520 0.052932 1 0 1.000000
w_knife
  1 -1.209714 5.242667 -0.688757 0.166099 -0.457176 0.873729 0.173359 0.025373 1 0 1.000000
  1 -0.877516 4.852580 -0.318268 0.172006 -0.509042 0.843380 0.224619 0.071792 1 0 1.000000
  1 -1.028171 4.796685 -0.048957 0.522305 -0.358429 0.773774 0.223536 0.136389 1 0 1.000000
w_knife
  1 -1.440638 5.156990 -0.276083 0.469794 -0.395089 0.789429 0.170872 0.105236 1 0 1.000000
  1 -1.209714 5.242667 -0.688757 0.166099 -0.457176 0.873729 0.173359 0.025373 1 0 1.000000
  1 -1.028171 4.796685 -0.048957 0.522305 -0.358429 0.773774 0.223536 0.136389 1 0 1.000000
w_knife
  1 -1.209714 5.242667 -0.688757 0.166099 -0.457176 0.873729 0.173359 0.025373 1 0 1.000000
  1 -1.440638 5.156990 -0.276083 0.469794 -0.395089 0.789429 0.170872 0.105236 1 0 1.000000
  1 -1.569208 5.648052 -0.240365 0.472794 -0.082139 0.877337 0.129009 0.110793 1 0 1.000000
w_knife
  1 -1.569208 5.648052 -0.240365 0.472794 -0.082139 0.877337 0.129009 0.110793 1 0 1.000000
  1 -1.440638 5.156990 -0.276083 0.469794 -0.395089 0.789429 0.170872 0.105236 1 0 1.000000
  1 -1.467103 5.696267 0.364715 0.870103 0.072754 0.487471 0.129729 0.217912 1 0 1.000000
w_knife
  1 -1.440638 5.156990 -0.276083 0.469794 -0.395089 0.789429 0.170872 0.105236 1 0 1.000000
  1 -1.327734 5.210307 0.393010 0.893899 -0.154424 0.420829 0.172586 0.216962 1 0 1.000000
  1 -1.467103 5.696267 0.364715 0.870103 0.072754 0.487471 0.129729 0.217912 1 0 1.000000
w_knife
  1 -1.360393 5.725525 -0.613550 0.124438 -0.149679 0.980873 0.128443 0.030554 1 0 1.000000
  1 -1.209714 5.242667 -0.688757 0.166099 -0.457176 0.873729 0.173359 0.025373 1 0 1.000000
  1 -1.569208 5.648052 -0.240365 0.472794 -0.082139 0.877337 0.129009 0.110793 1 0 1.000000
w_knife
  1 1.562784 0.138835 0.933720 0.025926 0.239636 -0.970517 1.708107 0.416052 1 0 1.000000
  1 1.849100 0.247018 0.570910 -0.475346 0.168423 -0.863528 1.707799 0.329612 1 0 1.000000
  1 0.533240 3.041572 1.132317 -0.157219 0.293050 -0.943082 1.427398 0.447658 1 0 1.000000
w_knife
  1 -1.360393 5.725525 -0.613550 -0.877107 -0.119294 0.465245 1.128443 0.030554 1 0 1.000000
  1 -0.962906 5.883338 -0.536270 -0.991639 -0.037657 0.123425 1.129009 0.110793 1 0 1.000000
  1 -1.209714 5.242667 -0.688757 -0.828861 -0.426952 0.361528 1.173359 0.025373 1 0 1.000000
w_knife
  1 -0.962906 5.883338 -0.536270 -0.991639 -0.037657 0.123425 1.129009 0.110793 1 0 1.000000
  1 -0.770159 5.417184 -0.603311 -0.933374 -0.352588 0.067044 1.170872 0.105236 1 0 1.000000
  1 -1.209714 5.242667 -0.688757 -0.828861 -0.426952 0.361528 1.173359 0.025373 1 0 1.000000
w_knife
  1 -0.770159 5.417184 -0.603311 -0.933374 -0.352588 0.067044 1.170872 0.105236 1 0 1.000000
  1 -0.962906 5.883338 -0.536270 -0.991639 -0.037657 0.123425 1.129009 0.110793 1 0 1.000000
  1 -0.609514 6.029074 -0.053831 -0.897520 0.126385 -0.422474 1.129729 0.217912 1 0 1.000000
w_knife
  1 -0.379380 5.578336 -0.069833 -0.867972 -0.101039 -0.486225 1.172586 0.216962 1 0 1.000000
  1 -0.770159 5.417184 -0.603311 -0.933374 -0.352588 0.067044 1.170872 0.105236 1 0 1.000000
  1 -0.609514 6.029074 -0.053831 -0.897520 0.126385 -0.422474 1.129729 0.217912 1 0 1.000000
w_knife
  1 -0.379380 5.578336 -0.069833 -0.867972 -0.101039 -0.486225 1.172586 0.216962 1 0 1.000000
  1 -0.609514 6.029074 -0.053831 -0.897520 0.126385 -0.422474 1.129729 0.217912 1 0 1.000000
  1 -0.266475 5.631654 0.599259 -0.449309 0.099341 -0.887836 1.172668 0.331405 1 0 1.000000
w_knife
  1 -0.266475 5.631654 0.599259 -0.449309 0.099341 -0.887836 1.172668 0.331405 1 0 1.000000
  1 -0.261950 5.106438 0.522419 -0.487299 0.136278 -0.862536 1.222579 0.323207 1 0 1.000000
  1 -0.379380 5.578336 -0.069833 -0.867972 -0.101039 -0.486225 1.172586 0.216962 1 0 1.000000
w_knife
  1 -0.266475 5.631654 0.599259 -0.449309 0.099341 -0.887836 1.172668 0.331405 1 0 1.000000
  1 -0.497398 5.545976 1.011932 -0.129741 0.184398 -0.974251 1.173686 0.414679 1 0 1.000000
  1 -0.261950 5.106438 0.522419 -0.487299 0.136278 -0.862536 1.222579 0.323207 1 0 1.000000
w_knife
  1 -0.497398 5.545976 1.011932 -0.129741 0.184398 -0.974251 1.173686 0.414679 1 0 1.000000
  1 -0.412604 5.050540 0.791730 -0.133970 0.212297 -0.967978 1.222286 0.388224 1 0 1.000000
  1 -0.261950 5.106438 0.522419 -0.487299 0.136278 -0.862536 1.222579 0.323207 1 0 1.000000
w_knife
  1 -0.412604 5.050540 0.791730 -0.133970 0.212297 -0.967978 1.222286 0.388224 1 0 1.000000
  1 -0.079301 4.447609 0.995241 -0.142891 0.438417 -0.887340 1.288261 0.421106 1 0 1.000000
  1 -0.261950 5.106438 0.522419 -0.487299 0.136278 -0.862536 1.222579 0.323207 1 0 1.000000
w_knife
  1 -0.079301 4.447609 0.995241 -0.142891 0.438417 -0.887340 1.288261 0.421106 1 0 1.000000
  1 0.143719 4.531827 0.616636 -0.469963 0.367181 -0.802691 1.291832 0.338127 1 0 1.000000
  1 -0.261950 5.106438 0.522419 -0.487299 0.136278 -0.862536 1.222579 0.323207 1 0 1.000000
w_knife
  1 0.143719 4.531827 0.616636 -0.469963 0.367181 -0.802691 1.291832 0.338127 1 0 1.000000
  1 -0.079301 4.447609 0.995241 -0.142891 0.438417 -0.887340 1.288261 0.421106 1 0 1.000000
  1 0.533240 3.041572 1.132317 -0.157219 0.293050 -0.943082 1.427398 0.447658 1 0 1.000000
w_knife
  1 0.778669 3.145299 0.658302 -0.467612 0.223755 -0.855145 1.426734 0.347202 1 0 1.000000
  1 0.143719 4.531827 0.616636 -0.469963 0.367181 -0.802691 1.291832 0.338127 1 0 1.000000
  1 0.533240 3.041572 1.132317 -0.157219 0.293050 -0.943082 1.427398 0.447658 1 0 1.000000
w_knife
  1 1.849100 0.247018 0.570910 -0.475346 0.168423 -0.863528 1.707799 0.329612 1 0 1.000000
  1 0.778669 3.145299 0.658302 -0.467612 0.223755 -0.855145 1.426734 0.347202 1 0 1.000000
  1 0.533240 3.041572 1.132317 -0.157219 0.293050 -0.943082 1.427398 0.447658 1 0 1.000000
w_knife
  1 1.849100 0.247018 0.570910 -0.475346 0.168423 -0.863528 1.707799 0.329612 1 0 1.000000
  1 1.713763 0.187431 0.098416 -0.880764 0.004862 -0.473531 1.708069 0.238022 1 0 1.000000
  1 0.778669 3.145299 0.658302 -0.467612 0.223755 -0.855145 1.426734 0.347202 1 0 1.000000
w_knife
  1 1.713763 0.187431 0.098416 -0.880764 0.004862 -0.473531 1.708069 0.238022 1 0 1.000000
  1 0.711841 3.121747 0.063625 -0.894479 0.035103 -0.445731 1.426551 0.240827 1 0 1.000000
  1 0.778669 3.145299 0.658302 -0.467612 0.223755 -0.855145 1.426734 0.347202 1 0 1.000000
w_knife
  1 1.713763 0.187431 0.098416 -0.880764 0.004862 -0.473531 1.708069 0.238022 1 0 1.000000
  1 1.474537 0.087527 -0.323375 -0.973457 -0.186917 0.132076 1.708598 0.146455 1 0 1.000000
  1 0.711841 3.121747 0.063625 -0.894479 0.035103 -0.445731 1.426551 0.240827 1 0 1.000000
w_knife
  1 1.474537 0.087527 -0.323375 -0.973457 -0.186917 0.132076 1.708598 0.146455 1 0 1.000000
  1 0.370694 2.984610 -0.305401 -0.960856 -0.197622 0.194170 1.426746 0.146175 1 0 1.000000
  1 0.711841 3.121747 0.063625 -0.894479 0.035103 -0.445731 1.426551 0.240827 1 0 1.000000
w_knife
  1 1.474537 0.087527 -0.323375 -0.973457 -0.186917 0.132076 1.708598 0.146455 1 0 1.000000
  1 1.033073 -0.086719 -0.330991 -0.783006 -0.272171 0.559308 1.709615 0.059639 1 0 1.000000
  1 0.370694 2.984610 -0.305401 -0.960856 -0.197622 0.194170 1.426746 0.146175 1 0 1.000000
w_knife
  1 0.143719 4.531827 0.616636 -0.469963 0.367181 -0.802691 1.291832 0.338127 1 0 1.000000
  1 0.778669 3.145299 0.658302 -0.467612 0.223755 -0.855145 1.426734 0.347202 1 0 1.000000
  1 0.070941 4.489848 0.057293 -0.895440 0.159986 -0.415442 1.292754 0.236160 1 0 1.000000
w_knife
  1 0.778669 3.145299 0.658302 -0.467612 0.223755 -0.855145 1.426734 0.347202 1 0 1.000000
  1 0.711841 3.121747 0.063625 -0.894479 0.035103 -0.445731 1.426551 0.240827 1 0 1.000000
  1 0.070941 4.489848 0.057293 -0.895440 0.159986 -0.415442 1.292754 0.236160 1 0 1.000000
w_knife
  1 0.070941 4.489848 0.057293 -0.895440 0.159986 -0.415442 1.292754 0.236160 1 0 1.000000
  1 0.711841 3.121747 0.063625 -0.894479 0.035103 -0.445731 1.426551 0.240827 1 0 1.000000
  1 -0.264683 4.344709 -0.371758 -0.981080 -0.084206 0.174331 1.292441 0.134479 1 0 1.000000
w_knife
  1 0.711841 3.121747 0.063625 -0.894479 0.035103 -0.445731 1.426551 0.240827 1 0 1.000000
  1 0.370694 2.984610 -0.305401 -0.960856 -0.197622 0.194170 1.426746 0.146175 1 0 1.000000
  1 -0.264683 4.344709 -0.371758 -0.981080 -0.084206 0.174331 1.292441 0.134479 1 0 1.000000
w_knife
  1 -0.507410 6.077291 0.551249 -0.506813 0.329274 -0.796693 1.129709 0.325742 1 0 1.000000
  1 -0.716224 5.999816 0.924436 -0.161972 0.422022 -0.891999 1.128435 0.406448 1 0 1.000000
  1 -0.497398 5.545976 1.011932 -0.129741 0.184398 -0.974251 1.173686 0.414679 1 0 1.000000
w_knife
  1 -0.266475 5.631654 0.599259 -0.449309 0.099341 -0.887836 1.172668 0.331405 1 0 1.000000
  1 -0.507410 6.077291 0.551249 -0.506813 0.329274 -0.796693 1.129709 0.325742 1 0 1.000000
  1 -0.497398 5.545976 1.011932 -0.129741 0.184398 -0.974251 1.173686 0.414679 1 0 1.000000
w_knife
  1 -0.609514 6.029074 -0.053831 -0.897520 0.126385 -0.422474 1.129729 0.217912 1 0 1.000000
  1 -0.507410 6.077291 0.551249 -0.506813 0.329274 -0.796693 1.129709 0.325742 1 0 1.000000
  1 -0.266475 5.631654 0.599259 -0.449309 0.099341 -0.887836 1.172668 0.331405 1 0 1.000000
w_knife
  1 1.033073 -0.086719 -0.330991 -0.783006 -0.272171 0.559308 1.709615 0.059639 1 0 1.000000
  1 -0.090139 2.802434 -0.335122 -0.801514 -0.300982 0.516706 1.426738 0.053541 1 0 1.000000
  1 0.370694 2.984610 -0.305401 -0.960856 -0.197622 0.194170 1.426746 0.146175 1 0 1.000000
w_knife
  1 -0.090139 2.802434 -0.335122 -0.801514 -0.300982 0.516706 1.426738 0.053541 1 0 1.000000
  1 -0.673266 4.181765 -0.433161 -0.852914 -0.200340 0.482081 1.290520 0.052932 1 0 1.000000
  1 0.370694 2.984610 -0.305401 -0.960856 -0.197622 0.194170 1.426746 0.146175 1 0 1.000000
w_knife
  1 -0.673266 4.181765 -0.433161 -0.852914 -0.200340 0.482081 1.290520 0.052932 1 0 1.000000
  1 -0.264683 4.344709 -0.371758 -0.981080 -0.084206 0.174331 1.292441 0.134479 1 0 1.000000
  1 0.370694 2.984610 -0.305401 -0.960856 -0.197622 0.194170 1.426746 0.146175 1 0 1.000000
w_knife
  1 -0.264683 4.344709 -0.371758 -0.981080 -0.084206 0.174331 1.292441 0.134479 1 0 1.000000
  1 -0.673266 4.181765 -0.433161 -0.852914 -0.200340 0.482081 1.290520 0.052932 1 0 1.000000
  1 -0.590691 4.966457 -0.262467 -0.949380 -0.313711 0.016241 1.223536 0.136389 1 0 1.000000
w_knife
  1 0.070941 4.489848 0.057293 -0.895440 0.159986 -0.415442 1.292754 0.236160 1 0 1.000000
  1 -0.264683 4.344709 -0.371758 -0.981080 -0.084206 0.174331 1.292441 0.134479 1 0 1.000000
  1 -0.590691 4.966457 -0.262467 -0.949380 -0.313711 0.016241 1.223536 0.136389 1 0 1.000000
w_knife
  1 -0.335640 5.071638 0.085719 -0.870896 -0.042066 -0.489665 1.223252 0.229868 1 0 1.000000
  1 0.070941 4.489848 0.057293 -0.895440 0.159986 -0.415442 1.292754 0.236160 1 0 1.000000
  1 -0.590691 4.966457 -0.262467 -0.949380 -0.313711 0.016241 1.223536 0.136389 1 0 1.000000
w_knife
  1 0.143719 4.531827 0.616636 -0.469963 0.367181 -0.802691 1.291832 0.338127 1 0 1.000000
  1 0.070941 4.489848 0.057293 -0.895440 0.159986 -0.415442 1.292754 0.236160 1 0 1.000000
  1 -0.335640 5.071638 0.085719 -0.870896 -0.042066 -0.489665 1.223252 0.229868 1 0 1.000000
w_knife
  1 -0.261950 5.106438 0.522419 -0.487299 0.136278 -0.862536 1.222579 0.323207 1 0 1.000000
  1 0.143719 4.531827 0.616636 -0.469963 0.367181 -0.802691 1.291832 0.338127 1 0 1.000000
  1 -0.335640 5.071638 0.085719 -0.870896 -0.042066 -0.489665 1.223252 0.229868 1 0 1.000000
w_knife
  1 -0.261950 5.106438 0.522419 -0.487299 0.136278 -0.862536 1.222579 0.323207 1 0 1.000000
  1 -0.335640 5.071638 0.085719 -0.870896 -0.042066 -0.489665 1.223252 0.229868 1 0 1.000000
  1 -0.379380 5.578336 -0.069833 -0.867972 -0.101039 -0.486225 1.172586 0.216962 1 0 1.000000
w_knife
  1 -0.379380 5.578336 -0.069833 -0.867972 -0.101039 -0.486225 1.172586 0.216962 1 0 1.000000
  1 -0.335640 5.071638 0.085719 -0.870896 -0.042066 -0.489665 1.223252 0.229868 1 0 1.000000
  1 -0.770159 5.417184 -0.603311 -0.933374 -0.352588 0.067044 1.170872 0.105236 1 0 1.000000
w_knife
  1 -0.335640 5.071638 0.085719 -0.870896 -0.042066 -0.489665 1.223252 0.229868 1 0 1.000000
  1 -0.590691 4.966457 -0.262467 -0.949380 -0.313711 0.016241 1.223536 0.136389 1 0 1.000000
  1 -0.770159 5.417184 -0.603311 -0.933374 -0.352588 0.067044 1.170872 0.105236 1 0 1.000000
w_knife
  1 -0.770159 5.417184 -0.603311 -0.933374 -0.352588 0.067044 1.170872 0.105236 1 0 1.000000
  1 -0.590691 4.966457 -0.262467 -0.949380 -0.313711 0.016241 1.223536 0.136389 1 0 1.000000
  1 -1.209714 5.242667 -0.688757 -0.828861 -0.426952 0.361528 1.173359 0.025373 1 0 1.000000
w_knife
  1 -0.590691 4.966457 -0.262467 -0.949380 -0.313711 0.016241 1.223536 0.136389 1 0 1.000000
  1 -0.877516 4.852580 -0.318268 -0.810055 -0.479280 0.337789 1.224619 0.071792 1 0 1.000000
  1 -1.209714 5.242667 -0.688757 -0.828861 -0.426952 0.361528 1.173359 0.025373 1 0 1.000000
w_knife
  1 -0.673266 4.181765 -0.433161 -0.852914 -0.200340 0.482081 1.290520 0.052932 1 0 1.000000
  1 -0.877516 4.852580 -0.318268 -0.810055 -0.479280 0.337789 1.224619 0.071792 1 0 1.000000
  1 -0.590691 4.966457 -0.262467 -0.949380 -0.313711 0.016241 1.223536 0.136389 1 0 1.000000
w_knife
  1 1.335852 -0.306584 -0.513949 -0.887256 0.016884 -0.460968 1.013992 0.531084 1 0 1.000000
  1 1.938175 -0.049844 0.924997 -0.886138 0.015575 -0.463159 1.013969 0.837819 1 0 1.000000
  1 1.582325 -0.949731 -0.502481 -0.887224 0.016790 -0.461034 1.080815 0.531084 1 0 1.000000
w_knife
  1 1.938175 -0.049844 0.924997 -0.886138 0.015575 -0.463159 1.013969 0.837819 1 0 1.000000
  1 1.908266 -1.013361 0.120274 -0.886323 0.015124 -0.462821 1.098897 0.663159 1 0 1.000000
  1 1.582325 -0.949731 -0.502481 -0.887224 0.016790 -0.461034 1.080815 0.531084 1 0 1.000000
w_knife
  1 3.326829 -3.551118 1.119928 -0.887685 0.010203 -0.460339 1.379578 0.864682 1 0 1.000000
  1 1.908266 -1.013361 0.120274 -0.886323 0.015124 -0.462821 1.112654 0.663159 1 0 1.000000
  1 1.938175 -0.049844 0.924997 -0.886138 0.015575 -0.463159 1.013969 0.837819 1 0 1.000000
w_knife
  1 1.908266 -1.013361 0.120274 -0.886323 0.015124 -0.462821 1.112654 0.663159 1 0 1.000000
  1 3.326829 -3.551118 1.119928 -0.887685 0.010203 -0.460339 1.379578 0.864682 1 0 1.000000
  1 3.908928 -6.373900 0.193817 -0.888410 0.009649 -0.458949 1.653923 0.655297 1 0 1.000000
w_knife
  1 3.908928 -6.373900 0.193817 -0.888410 0.009649 -0.458949 1.653923 0.655297 1 0 1.000000
  1 3.326829 -3.551118 1.119928 -0.887685 0.010203 -0.460339 1.379578 0.864682 1 0 1.000000
  1 4.644473 -7.873473 0.571664 -0.888659 0.009472 -0.458471 1.815871 0.729196 1 0 1.000000
w_knife
  1 4.294732 -7.279477 0.303331 -0.889085 0.008879 -0.457657 1.749503 0.674651 1 0 1.000000
  1 3.908928 -6.373900 0.193817 -0.888410 0.009649 -0.458949 1.653923 0.655297 1 0 1.000000
  1 4.644473 -7.873473 0.571664 -0.888659 0.009472 -0.458471 1.815871 0.729196 1 0 1.000000
w_knife
  1 3.649925 -6.474413 0.320224 0.888871 -0.044199 0.456021 0.653923 0.655297 1 0 1.000000
  1 4.063195 -7.369330 0.416333 0.888206 -0.045031 0.457235 0.749503 0.674651 1 0 1.000000
  1 4.429831 -7.956770 0.676421 0.888641 -0.044451 0.456444 0.815871 0.729196 1 0 1.000000
w_knife
  1 2.979473 -3.685916 1.289454 0.889620 -0.043682 0.454607 0.379577 0.864682 1 0 1.000000
  1 3.649925 -6.474413 0.320224 0.888871 -0.044199 0.456021 0.653923 0.655297 1 0 1.000000
  1 4.429831 -7.956770 0.676421 0.888641 -0.044451 0.456444 0.815871 0.729196 1 0 1.000000
w_knife
  1 2.979473 -3.685916 1.289454 0.889620 -0.043682 0.454607 0.379577 0.864682 1 0 1.000000
  1 1.482931 -1.178421 0.327859 0.891076 -0.038785 0.452194 0.112654 0.663159 1 0 1.000000
  1 3.649925 -6.474413 0.320224 0.888871 -0.044199 0.456021 0.653923 0.655297 1 0 1.000000
w_knife
  1 2.979473 -3.685916 1.289454 0.889620 -0.043682 0.454607 0.379577 0.864682 1 0 1.000000
  1 1.496889 -0.221095 1.140367 0.891272 -0.038310 0.451848 0.013969 0.837819 1 0 1.000000
  1 1.482931 -1.178421 0.327859 0.891076 -0.038785 0.452194 0.112654 0.663159 1 0 1.000000
w_knife
  1 1.482931 -1.178421 0.327859 0.891076 -0.038785 0.452194 0.098897 0.663159 1 0 1.000000
  1 1.496889 -0.221095 1.140367 0.891272 -0.038310 0.451848 0.013969 0.837819 1 0 1.000000
  1 1.153121 -1.116293 -0.293007 0.890234 -0.037109 0.453990 0.080815 0.531084 1 0 1.000000
w_knife
  1 1.496889 -0.221095 1.140367 0.891272 -0.038310 0.451848 0.013969 0.837819 1 0 1.000000
  1 0.894103 -0.478014 -0.298354 0.890203 -0.037015 0.454058 0.013992 0.531084 1 0 1.000000
  1 1.153121 -1.116293 -0.293007 0.890234 -0.037109 0.453990 0.080815 0.531084 1 0 1.000000
w_knife
  1 1.938175 -0.049844 0.924997 0.434532 0.367119 -0.822439 0.012483 0.878080 1 0 1.000000
  1 1.496889 -0.221095 1.140367 0.434532 0.367119 -0.822439 0.012485 0.978974 1 0 1.000000
  1 3.326829 -3.551118 1.119928 0.434566 0.366923 -0.822508 0.378316 0.888789 1 0 1.000000
w_knife
  1 1.496889 -0.221095 1.140367 0.434532 0.367119 -0.822439 0.012485 0.978974 1 0 1.000000
  1 2.979473 -3.685916 1.289454 0.434566 0.366923 -0.822508 0.378317 0.968207 1 0 1.000000
  1 3.326829 -3.551118 1.119928 0.434566 0.366923 -0.822508 0.378316 0.888789 1 0 1.000000
w_knife
  1 2.979473 -3.685916 1.289454 0.434566 0.366923 -0.822508 0.378317 0.968207 1 0 1.000000
  1 3.415239 -4.254777 1.235782 0.434605 0.366646 -0.822612 0.445136 0.928493 1 0 1.000000
  1 3.326829 -3.551118 1.119928 0.434566 0.366923 -0.822508 0.378316 0.888789 1 0 1.000000
w_knife
  1 0.894103 -0.478014 -0.298354 -0.439591 -0.332739 0.834293 0.527712 0.901702 1 0 1.000000
  1 1.335852 -0.306584 -0.513949 -0.439591 -0.332739 0.834293 0.527712 0.968337 1 0 1.000000
  1 1.153121 -1.116293 -0.293007 -0.454457 -0.181379 0.872107 0.571796 0.902648 1 0 1.000000
w_knife
  1 1.335852 -0.306584 -0.513949 -0.439591 -0.332739 0.834293 0.527712 0.968337 1 0 1.000000
  1 1.582325 -0.949731 -0.502481 -0.454457 -0.181379 0.872107 0.571796 0.967390 1 0 1.000000
  1 1.153121 -1.116293 -0.293007 -0.454457 -0.181379 0.872107 0.571796 0.902648 1 0 1.000000
w_knife
  1 1.153121 -1.116293 -0.293007 -0.454457 -0.181379 0.872107 0.571796 0.902648 1 0 1.000000
  1 1.582325 -0.949731 -0.502481 -0.454457 -0.181379 0.872107 0.571796 0.967390 1 0 1.000000
  1 1.417273 -1.303496 -0.511293 -0.452556 0.106526 0.885351 0.590836 0.935019 1 0 1.000000
w_knife
  1 -1.360393 5.725525 -0.613550 -0.333311 0.647285 0.685512 0.060026 0.406909 1 0 1.000000
  1 -1.569208 5.648052 -0.240365 0.154403 0.614977 0.773281 0.023333 0.355934 1 0 1.000000
  1 -1.474396 5.829821 -0.134979 0.109913 0.789741 0.603513 0.036994 0.319433 1 0 1.000000
w_knife
  1 -1.474396 5.829821 -0.134979 0.109913 0.789741 0.603513 0.036994 0.319433 1 0 1.000000
  1 -1.569208 5.648052 -0.240365 0.154403 0.614977 0.773281 0.023333 0.355934 1 0 1.000000
  1 -1.399904 5.865000 0.306477 0.259397 0.842271 0.472540 0.028306 0.235248 1 0 1.000000
w_knife
  1 -1.569208 5.648052 -0.240365 0.154403 0.614977 0.773281 0.023333 0.355934 1 0 1.000000
  1 -1.467103 5.696267 0.364715 0.526754 0.656834 0.539537 0.009221 0.233842 1 0 1.000000
  1 -1.399904 5.865000 0.306477 0.259397 0.842271 0.472540 0.028306 0.235248 1 0 1.000000
w_knife
  1 -1.467103 5.696267 0.364715 0.526754 0.656834 0.539537 0.009221 0.233842 1 0 1.000000
  1 -1.113710 5.842003 0.847154 0.482011 0.862975 0.151460 0.027818 0.114189 1 0 1.000000
  1 -1.399904 5.865000 0.306477 0.259397 0.842271 0.472540 0.028306 0.235248 1 0 1.000000
w_knife
  1 -0.852306 6.086373 0.714954 0.031792 0.999493 -0.002025 0.065336 0.120092 1 0 1.000000
  1 -0.716224 5.999816 0.924436 0.108954 0.982058 -0.153919 0.066241 0.068584 1 0 1.000000
  1 -0.699826 6.142950 0.442618 -0.347579 0.936788 -0.040214 0.089326 0.156071 1 0 1.000000
w_knife
  1 -0.716224 5.999816 0.924436 0.108954 0.982058 -0.153919 0.066241 0.068584 1 0 1.000000
  1 -0.507410 6.077291 0.551249 -0.361375 0.888506 -0.282781 0.102986 0.119556 1 0 1.000000
  1 -0.699826 6.142950 0.442618 -0.347579 0.936788 -0.040214 0.089326 0.156071 1 0 1.000000
w_knife
  1 -0.774318 6.107771 0.001161 -0.494387 0.865121 0.084539 0.098067 0.240266 1 0 1.000000
  1 -0.699826 6.142950 0.442618 -0.347579 0.936788 -0.040214 0.089326 0.156071 1 0 1.000000
  1 -0.507410 6.077291 0.551249 -0.361375 0.888506 -0.282781 0.102986 0.119556 1 0 1.000000
w_knife
  1 -0.609514 6.029074 -0.053831 -0.712777 0.694420 -0.098636 0.117147 0.241674 1 0 1.000000
  1 -0.774318 6.107771 0.001161 -0.494387 0.865121 0.084539 0.098067 0.240266 1 0 1.000000
  1 -0.507410 6.077291 0.551249 -0.361375 0.888506 -0.282781 0.102986 0.119556 1 0 1.000000
w_knife
  1 -0.609514 6.029074 -0.053831 -0.712777 0.694420 -0.098636 0.117147 0.241674 1 0 1.000000
  1 -0.962906 5.883338 -0.536270 -0.688966 0.640585 0.339083 0.098495 0.361324 1 0 1.000000
  1 -0.774318 6.107771 0.001161 -0.494387 0.865121 0.084539 0.098067 0.240266 1 0 1.000000
w_knife
  1 -0.962906 5.883338 -0.536270 -0.688966 0.640585 0.339083 0.098495 0.361324 1 0 1.000000
  1 -1.032149 6.001447 -0.350820 -0.516747 0.808743 0.280905 0.086219 0.322866 1 0 1.000000
  1 -0.774318 6.107771 0.001161 -0.494387 0.865121 0.084539 0.098067 0.240266 1 0 1.000000
w_knife
  1 -0.962906 5.883338 -0.536270 -0.688966 0.640585 0.339083 0.098495 0.361324 1 0 1.000000
  1 -1.360393 5.725525 -0.613550 -0.333311 0.647285 0.685512 0.060026 0.406909 1 0 1.000000
  1 -1.032149 6.001447 -0.350820 -0.516747 0.808743 0.280905 0.086219 0.322866 1 0 1.000000
w_knife
  1 -1.360393 5.725525 -0.613550 -0.333311 0.647285 0.685512 0.060026 0.406909 1 0 1.000000
  1 -1.322281 5.886256 -0.407137 -0.274344 0.767756 0.579039 0.060939 0.355406 1 0 1.000000
  1 -1.032149 6.001447 -0.350820 -0.516747 0.808743 0.280905 0.086219 0.322866 1 0 1.000000
w_knife
  1 -1.322281 5.886256 -0.407137 -0.274344 0.767756 0.579039 0.060939 0.355406 1 0 1.000000
  1 -1.360393 5.725525 -0.613550 -0.333311 0.647285 0.685512 0.060026 0.406909 1 0 1.000000
  1 -1.474396 5.829821 -0.134979 0.109913 0.789741 0.603513 0.036994 0.319433 1 0 1.000000
w_knife
  1 -1.322281 5.886256 -0.407137 -0.274344 0.767756 0.579039 0.060939 0.355406 1 0 1.000000
  1 -1.474396 5.829821 -0.134979 0.109913 0.789741 0.603513 0.036994 0.319433 1 0 1.000000
  1 -1.032149 6.001447 -0.350820 -0.516747 0.808743 0.280905 0.086219 0.322866 1 0 1.000000
w_knife
  1 -1.474396 5.829821 -0.134979 0.109913 0.789741 0.603513 0.036994 0.319433 1 0 1.000000
  1 -0.774318 6.107771 0.001161 -0.494387 0.865121 0.084539 0.098067 0.240266 1 0 1.000000
  1 -1.032149 6.001447 -0.350820 -0.516747 0.808743 0.280905 0.086219 0.322866 1 0 1.000000
w_knife
  1 -1.399904 5.865000 0.306477 0.259397 0.842271 0.472540 0.028306 0.235248 1 0 1.000000
  1 -0.774318 6.107771 0.001161 -0.494387 0.865121 0.084539 0.098067 0.240266 1 0 1.000000
  1 -1.474396 5.829821 -0.134979 0.109913 0.789741 0.603513 0.036994 0.319433 1 0 1.000000
w_knife
  1 -0.774318 6.107771 0.001161 -0.494387 0.865121 0.084539 0.098067 0.240266 1 0 1.000000
  1 -1.399904 5.865000 0.306477 0.259397 0.842271 0.472540 0.028306 0.235248 1 0 1.000000
  1 -1.142074 5.971328 0.658457 0.279084 0.917775 0.282490 0.040099 0.152637 1 0 1.000000
w_knife
  1 -1.113710 5.842003 0.847154 0.482011 0.862975 0.151460 0.027818 0.114189 1 0 1.000000
  1 -1.142074 5.971328 0.658457 0.279084 0.917775 0.282490 0.040099 0.152637 1 0 1.000000
  1 -1.399904 5.865000 0.306477 0.259397 0.842271 0.472540 0.028306 0.235248 1 0 1.000000
w_knife
  1 -1.113710 5.842003 0.847154 0.482011 0.862975 0.151460 0.027818 0.114189 1 0 1.000000
  1 -0.716224 5.999816 0.924436 0.108954 0.982058 -0.153919 0.066241 0.068584 1 0 1.000000
  1 -1.142074 5.971328 0.658457 0.279084 0.917775 0.282490 0.040099 0.152637 1 0 1.000000
w_knife
  1 -0.716224 5.999816 0.924436 0.108954 0.982058 -0.153919 0.066241 0.068584 1 0 1.000000
  1 -0.852306 6.086373 0.714954 0.031792 0.999493 -0.002025 0.065336 0.120092 1 0 1.000000
  1 -1.142074 5.971328 0.658457 0.279084 0.917775 0.282490 0.040099 0.152637 1 0 1.000000
w_knife
  1 -1.142074 5.971328 0.658457 0.279084 0.917775 0.282490 0.040099 0.152637 1 0 1.000000
  1 -0.852306 6.086373 0.714954 0.031792 0.999493 -0.002025 0.065336 0.120092 1 0 1.000000
  1 -0.699826 6.142950 0.442618 -0.347579 0.936788 -0.040214 0.089326 0.156071 1 0 1.000000
w_knife
  1 -0.774318 6.107771 0.001161 -0.494387 0.865121 0.084539 0.098067 0.240266 1 0 1.000000
  1 -1.142074 5.971328 0.658457 0.279084 0.917775 0.282490 0.040099 0.152637 1 0 1.000000
  1 -0.699826 6.142950 0.442618 -0.347579 0.936788 -0.040214 0.089326 0.156071 1 0 1.000000
w_knife
  1 0.486381 -0.275649 -0.654131 -0.129775 0.942632 0.307576 0.971209 0.473579 1 0 1.000000
  1 1.152143 -0.017287 -0.979055 -0.129775 0.942632 0.307576 0.905908 0.473578 1 0 1.000000
  1 0.761970 -0.170863 -0.953382 -0.129775 0.942632 0.307576 0.938558 0.498597 1 0 1.000000
w_knife
  1 1.152143 -0.017287 -0.979055 -0.129775 0.942632 0.307576 0.905908 0.473578 1 0 1.000000
  1 0.486381 -0.275649 -0.654131 -0.129775 0.942632 0.307576 0.971209 0.473579 1 0 1.000000
  1 1.430689 0.096059 -0.714969 -0.129775 0.942632 0.307576 0.892231 0.412831 1 0 1.000000
w_knife
  1 0.486381 -0.275649 -0.654131 -0.129775 0.942632 0.307576 0.971209 0.473579 1 0 1.000000
  1 0.486059 -0.270525 -0.253943 -0.129775 0.942632 0.307576 0.984886 0.412831 1 0 1.000000
  1 1.430689 0.096059 -0.714969 -0.129775 0.942632 0.307576 0.892231 0.412831 1 0 1.000000
w_knife
  1 2.135861 0.396324 0.968665 -0.129775 0.942632 0.307576 0.892231 0.104895 1 0 1.000000
  1 1.430689 0.096059 -0.714969 -0.129775 0.942632 0.307576 0.892231 0.412831 1 0 1.000000
  1 0.486059 -0.270525 -0.253943 -0.129775 0.942632 0.307576 0.984886 0.412831 1 0 1.000000
w_knife
  1 1.191231 0.029741 1.429690 -0.129775 0.942632 0.307576 0.984886 0.104895 1 0 1.000000
  1 2.135861 0.396324 0.968665 -0.129775 0.942632 0.307576 0.892231 0.104895 1 0 1.000000
  1 0.486059 -0.270525 -0.253943 -0.129775 0.942632 0.307576 0.984886 0.412831 1 0 1.000000
w_knife
  1 2.135538 0.401448 1.368853 -0.129775 0.942632 0.307576 0.905908 0.044148 1 0 1.000000
  1 2.135861 0.396324 0.968665 -0.129775 0.942632 0.307576 0.892231 0.104895 1 0 1.000000
  1 1.191231 0.029741 1.429690 -0.129775 0.942632 0.307576 0.984886 0.104895 1 0 1.000000
w_knife
  1 1.469779 0.143086 1.693778 -0.129775 0.942632 0.307576 0.971209 0.044148 1 0 1.000000
  1 2.135538 0.401448 1.368853 -0.129775 0.942632 0.307576 0.905908 0.044148 1 0 1.000000
  1 1.191231 0.029741 1.429690 -0.129775 0.942632 0.307576 0.984886 0.104895 1 0 1.000000
w_knife
  1 1.859951 0.296662 1.668103 -0.129775 0.942632 0.307576 0.938558 0.019129 1 0 1.000000
  1 2.135538 0.401448 1.368853 -0.129775 0.942632 0.307576 0.905908 0.044148 1 0 1.000000
  1 1.469779 0.143086 1.693778 -0.129775 0.942632 0.307576 0.971209 0.044148 1 0 1.000000
w_knife
  1 1.908266 -1.013361 0.120274 -0.941082 -0.217625 -0.258851 1.124602 0.642291 1 0 1.000000
  1 1.417273 -1.303496 -0.511293 -0.913165 -0.294239 -0.282052 1.118490 0.476901 1 0 1.000000
  1 1.582325 -0.949731 -0.502481 -0.665323 -0.631466 -0.398243 1.091058 0.503141 1 0 1.000000
w_knife
  1 1.417273 -1.303496 -0.511293 -0.913165 -0.294239 -0.282052 1.118490 0.476901 1 0 1.000000
  1 1.908266 -1.013361 0.120274 -0.941082 -0.217625 -0.258851 1.124602 0.642291 1 0 1.000000
  1 3.569016 -6.735883 -0.421971 -0.952455 -0.071283 -0.296224 1.715768 0.480943 1 0 1.000000
w_knife
  1 1.908266 -1.013361 0.120274 -0.941082 -0.217625 -0.258851 1.124602 0.642291 1 0 1.000000
  1 3.908928 -6.373900 0.193817 -0.953446 -0.067862 -0.293828 1.694870 0.634008 1 0 1.000000
  1 3.569016 -6.735883 -0.421971 -0.952455 -0.071283 -0.296224 1.715768 0.480943 1 0 1.000000
w_knife
  1 3.569016 -6.735883 -0.421971 -0.952455 -0.071283 -0.296224 1.715768 0.480943 1 0 1.000000
  1 3.908928 -6.373900 0.193817 -0.953446 -0.067862 -0.293828 1.694870 0.634008 1 0 1.000000
  1 4.387617 -8.262717 0.041260 -0.924857 -0.101105 -0.366630 1.892207 0.580255 1 0 1.000000
w_knife
  1 3.908928 -6.373900 0.193817 -0.953446 -0.067862 -0.293828 1.694870 0.634008 1 0 1.000000
  1 4.294732 -7.279477 0.303331 -0.957860 -0.105720 -0.267073 1.795571 0.654399 1 0 1.000000
  1 4.387617 -8.262717 0.041260 -0.924857 -0.101105 -0.366630 1.892207 0.580255 1 0 1.000000
w_knife
  1 5.044796 -8.977914 0.819114 -0.861379 -0.058262 -0.504611 1.985819 0.786398 1 0 1.000000
  1 4.387617 -8.262717 0.041260 -0.924857 -0.101105 -0.366630 1.892207 0.580255 1 0 1.000000
  1 4.294732 -7.279477 0.303331 -0.957860 -0.105720 -0.267073 1.795571 0.654399 1 0 1.000000
w_knife
  1 4.644473 -7.873473 0.571664 -0.889034 -0.098615 -0.447094 1.865495 0.745811 1 0 1.000000
  1 5.044796 -8.977914 0.819114 -0.861379 -0.058262 -0.504611 1.985819 0.786398 1 0 1.000000
  1 4.294732 -7.279477 0.303331 -0.957860 -0.105720 -0.267073 1.795571 0.654399 1 0 1.000000
w_knife
  1 4.644473 -7.873473 0.571664 -0.889034 -0.098615 -0.447094 1.865495 0.745811 1 0 1.000000
  1 3.326829 -3.551118 1.119928 -0.128741 0.200921 -0.971111 1.397267 0.888556 1 0 1.000000
  1 5.044796 -8.977914 0.819114 -0.861379 -0.058262 -0.504611 1.985819 0.786398 1 0 1.000000
w_knife
  1 3.326829 -3.551118 1.119928 -0.128741 0.200921 -0.971111 1.397267 0.888556 1 0 1.000000
  1 3.415239 -4.254777 1.235782 0.027375 0.221480 -0.974781 1.467625 0.893652 1 0 1.000000
  1 5.044796 -8.977914 0.819114 -0.861379 -0.058262 -0.504611 1.985819 0.786398 1 0 1.000000
w_knife
  1 0.921762 -0.575940 -0.948066 -0.728463 -0.301097 0.615371 1.640095 0.968300 1 0 1.000000
  1 0.761970 -0.170863 -0.953382 -0.728463 -0.301097 0.615371 1.640095 0.881055 1 0 1.000000
  1 1.152143 -0.017287 -0.979055 -0.929839 -0.223406 0.292386 1.682780 0.881055 1 0 1.000000
w_knife
  1 1.311935 -0.422363 -0.973740 -0.929839 -0.223406 0.292386 1.682780 0.968300 1 0 1.000000
  1 0.921762 -0.575940 -0.948066 -0.728463 -0.301097 0.615371 1.640095 0.968300 1 0 1.000000
  1 1.152143 -0.017287 -0.979055 -0.929839 -0.223406 0.292386 1.682780 0.881055 1 0 1.000000
w_knife
  1 1.311935 -0.422363 -0.973740 -0.929839 -0.223406 0.292386 1.682780 0.968300 1 0 1.000000
  1 1.152143 -0.017287 -0.979055 -0.929839 -0.223406 0.292386 1.682780 0.881055 1 0 1.000000
  1 1.590481 -0.309018 -0.709654 -0.961248 -0.043522 -0.272228 1.723813 0.968300 1 0 1.000000
w_knife
  1 1.152143 -0.017287 -0.979055 -0.929839 -0.223406 0.292386 1.682780 0.881055 1 0 1.000000
  1 1.430689 0.096059 -0.714969 -0.961248 -0.043522 -0.272228 1.723813 0.881055 1 0 1.000000
  1 1.590481 -0.309018 -0.709654 -0.961248 -0.043522 -0.272228 1.723813 0.968300 1 0 1.000000
w_knife
  1 1.430689 0.096059 -0.714969 -0.961248 -0.043522 -0.272228 1.723813 0.881055 1 0 1.000000
  1 2.135861 0.396324 0.968665 -0.776669 0.096193 -0.622522 1.903394 0.881055 1 0 1.000000
  1 1.590481 -0.309018 -0.709654 -0.961248 -0.043522 -0.272228 1.723813 0.968300 1 0 1.000000
w_knife
  1 2.135861 0.396324 0.968665 -0.776669 0.096193 -0.622522 1.903394 0.881055 1 0 1.000000
  1 2.295653 -0.008753 0.973980 -0.776669 0.096193 -0.622522 1.903394 0.968300 1 0 1.000000
  1 1.590481 -0.309018 -0.709654 -0.961248 -0.043522 -0.272228 1.723813 0.968300 1 0 1.000000
w_knife
  1 2.135861 0.396324 0.968665 -0.776669 0.096193 -0.622522 1.903394 0.881055 1 0 1.000000
  1 2.135538 0.401448 1.368853 -0.290638 0.260435 -0.920708 1.944425 0.881055 1 0 1.000000
  1 2.295653 -0.008753 0.973980 -0.776669 0.096193 -0.622522 1.903394 0.968300 1 0 1.000000
w_knife
  1 2.135538 0.401448 1.368853 -0.290638 0.260435 -0.920708 1.944425 0.881055 1 0 1.000000
  1 2.295332 -0.003628 1.374169 -0.290638 0.260435 -0.920708 1.944425 0.968300 1 0 1.000000
  1 2.295653 -0.008753 0.973980 -0.776669 0.096193 -0.622522 1.903394 0.968300 1 0 1.000000
w_knife
  1 2.295332 -0.003628 1.374169 -0.290638 0.260435 -0.920708 1.944425 0.968300 1 0 1.000000
  1 2.135538 0.401448 1.368853 -0.290638 0.260435 -0.920708 1.944425 0.881055 1 0 1.000000
  1 2.019744 -0.108415 1.673418 0.092554 0.320395 -0.942752 1.987111 0.968300 1 0 1.000000
w_knife
  1 2.135538 0.401448 1.368853 -0.290638 0.260435 -0.920708 1.944425 0.881055 1 0 1.000000
  1 1.859951 0.296662 1.668103 0.092554 0.320395 -0.942752 1.987111 0.881055 1 0 1.000000
  1 2.019744 -0.108415 1.673418 0.092554 0.320395 -0.942752 1.987111 0.968300 1 0 1.000000
w_knife
  1 2.019744 -0.108415 1.673418 0.129775 -0.942632 -0.307576 0.831963 0.019583 1 0 1.000000
  1 1.629571 -0.261991 1.699093 0.129775 -0.942632 -0.307576 0.799307 0.044579 1 0 1.000000
  1 2.295332 -0.003628 1.374169 0.129775 -0.942632 -0.307576 0.864609 0.044624 1 0 1.000000
w_knife
  1 1.629571 -0.261991 1.699093 0.129775 -0.942632 -0.307576 0.799307 0.044579 1 0 1.000000
  1 1.351024 -0.375336 1.435006 0.129775 -0.942632 -0.307576 0.785620 0.105318 1 0 1.000000
  1 2.295332 -0.003628 1.374169 0.129775 -0.942632 -0.307576 0.864609 0.044624 1 0 1.000000
w_knife
  1 1.351024 -0.375336 1.435006 0.129775 -0.942632 -0.307576 0.785620 0.105318 1 0 1.000000
  1 2.295653 -0.008753 0.973980 0.129775 -0.942632 -0.307576 0.878275 0.105382 1 0 1.000000
  1 2.295332 -0.003628 1.374169 0.129775 -0.942632 -0.307576 0.864609 0.044624 1 0 1.000000
w_knife
  1 1.351024 -0.375336 1.435006 0.129775 -0.942632 -0.307576 0.785620 0.105318 1 0 1.000000
  1 0.645852 -0.675602 -0.248627 0.129775 -0.942632 -0.307576 0.785567 0.413253 1 0 1.000000
  1 2.295653 -0.008753 0.973980 0.129775 -0.942632 -0.307576 0.878275 0.105382 1 0 1.000000
w_knife
  1 0.645852 -0.675602 -0.248627 0.129775 -0.942632 -0.307576 0.785567 0.413253 1 0 1.000000
  1 1.590481 -0.309018 -0.709654 0.129775 -0.942632 -0.307576 0.878222 0.413317 1 0 1.000000
  1 2.295653 -0.008753 0.973980 0.129775 -0.942632 -0.307576 0.878275 0.105382 1 0 1.000000
w_knife
  1 1.311935 -0.422363 -0.973740 0.129775 -0.942632 -0.307576 0.864535 0.474056 1 0 1.000000
  1 1.590481 -0.309018 -0.709654 0.129775 -0.942632 -0.307576 0.878222 0.413317 1 0 1.000000
  1 0.645852 -0.675602 -0.248627 0.129775 -0.942632 -0.307576 0.785567 0.413253 1 0 1.000000
w_knife
  1 0.646174 -0.680725 -0.648816 0.129775 -0.942632 -0.307576 0.799233 0.474011 1 0 1.000000
  1 1.311935 -0.422363 -0.973740 0.129775 -0.942632 -0.307576 0.864535 0.474056 1 0 1.000000
  1 0.645852 -0.675602 -0.248627 0.129775 -0.942632 -0.307576 0.785567 0.413253 1 0 1.000000
w_knife
  1 1.311935 -0.422363 -0.973740 0.129775 -0.942632 -0.307576 0.864535 0.474056 1 0 1.000000
  1 0.646174 -0.680725 -0.648816 0.129775 -0.942632 -0.307576 0.799233 0.474011 1 0 1.000000
  1 0.921762 -0.575940 -0.948066 0.129775 -0.942632 -0.307576 0.831880 0.499051 1 0 1.000000
w_knife
  1 2.019744 -0.108415 1.673418 0.728453 0.301113 -0.615375 0.987111 0.968300 1 0 1.000000
  1 1.859951 0.296662 1.668103 0.728453 0.301113 -0.615375 0.987111 0.881055 1 0 1.000000
  1 1.629571 -0.261991 1.699093 0.929839 0.223406 -0.292386 0.944425 0.968300 1 0 1.000000
w_knife
  1 1.859951 0.296662 1.668103 0.728453 0.301113 -0.615375 0.987111 0.881055 1 0 1.000000
  1 1.469779 0.143086 1.693778 0.929839 0.223406 -0.292386 0.944425 0.881055 1 0 1.000000
  1 1.629571 -0.261991 1.699093 0.929839 0.223406 -0.292386 0.944425 0.968300 1 0 1.000000
w_knife
  1 1.351024 -0.375336 1.435006 0.961248 0.043520 0.272231 0.903394 0.968300 1 0 1.000000
  1 1.629571 -0.261991 1.699093 0.929839 0.223406 -0.292386 0.944425 0.968300 1 0 1.000000
  1 1.469779 0.143086 1.693778 0.929839 0.223406 -0.292386 0.944425 0.881055 1 0 1.000000
w_knife
  1 1.191231 0.029741 1.429690 0.961248 0.043520 0.272231 0.903394 0.881055 1 0 1.000000
  1 1.351024 -0.375336 1.435006 0.961248 0.043520 0.272231 0.903394 0.968300 1 0 1.000000
  1 1.469779 0.143086 1.693778 0.929839 0.223406 -0.292386 0.944425 0.881055 1 0 1.000000
w_knife
  1 1.191231 0.029741 1.429690 0.961248 0.043520 0.272231 0.903394 0.881055 1 0 1.000000
  1 0.486059 -0.270525 -0.253943 0.776661 -0.096201 0.622530 0.723813 0.881055 1 0 1.000000
  1 1.351024 -0.375336 1.435006 0.961248 0.043520 0.272231 0.903394 0.968300 1 0 1.000000
w_knife
  1 0.486059 -0.270525 -0.253943 0.776661 -0.096201 0.622530 0.723813 0.881055 1 0 1.000000
  1 0.645852 -0.675602 -0.248627 0.776661 -0.096201 0.622530 0.723813 0.968300 1 0 1.000000
  1 1.351024 -0.375336 1.435006 0.961248 0.043520 0.272231 0.903394 0.968300 1 0 1.000000
w_knife
  1 0.486059 -0.270525 -0.253943 0.776661 -0.096201 0.622530 0.723813 0.881055 1 0 1.000000
  1 0.486381 -0.275649 -0.654131 0.290633 -0.260436 0.920709 0.682780 0.881055 1 0 1.000000
  1 0.645852 -0.675602 -0.248627 0.776661 -0.096201 0.622530 0.723813 0.968300 1 0 1.000000
w_knife
  1 0.486381 -0.275649 -0.654131 0.290633 -0.260436 0.920709 0.682780 0.881055 1 0 1.000000
  1 0.646174 -0.680725 -0.648816 0.290633 -0.260436 0.920709 0.682780 0.968300 1 0 1.000000
  1 0.645852 -0.675602 -0.248627 0.776661 -0.096201 0.622530 0.723813 0.968300 1 0 1.000000
w_knife
  1 0.486381 -0.275649 -0.654131 0.290633 -0.260436 0.920709 0.682780 0.881055 1 0 1.000000
  1 0.761970 -0.170863 -0.953382 -0.092554 -0.320370 0.942760 0.640095 0.881055 1 0 1.000000
  1 0.646174 -0.680725 -0.648816 0.290633 -0.260436 0.920709 0.682780 0.968300 1 0 1.000000
w_knife
  1 0.761970 -0.170863 -0.953382 -0.092554 -0.320370 0.942760 0.640095 0.881055 1 0 1.000000
  1 0.921762 -0.575940 -0.948066 -0.092525 -0.320367 0.942764 0.640095 0.968300 1 0 1.000000
  1 0.646174 -0.680725 -0.648816 0.290633 -0.260436 0.920709 0.682780 0.968300 1 0 1.000000
end
