
VertexLitGeneric
{

	$baseTexture				models/jessev92/hl2/weapons/hk53/dot_d
	$bumpmap					dev/bump_normal

	$halflambert				1
	$ambientocclusion			1
	$additive					1
	$selfillum					1
	$nocull						1

}
