
VertexLitGeneric
{

	$baseTexture				models/jessev92/hl2/weapons/mk23socom/frame_d
	$bumpmap					models/jessev92/hl2/weapons/mk23socom/frame_b

	$halflambert				1
	$ambientocclusion			1
	$nocull						1

	$phong						1
	$phongexponent				40
	$phongboost					0.75
 	$phongtint					"[ 0.7 0.9 1 ]"
 	$phongfresnelranges			"[ 1 3 6 ]"
	
	$rimlight					1
	$rimlightexponent			28
	$rimlightboost				0.2
	
	$detail						detail/metal_detail_01
	$detailscale				4
	$detailblendfactor			0.95
	$detailblendmode			0
	
}

