  VertexLitGeneric
    {
            "$baseTexture" "models/jessev92/haloreach/weapons/dmr/dmr_scope"
          //  "$bumpmap" "models/jessev92/haloreach/weapons/dmr/storm_dmr_normal"
	"$blendtintbybasealpha"	1

	$halflambert 1
	$nocull 1
    "$translucent" 1
	$ambientocclusion 0
	$Normalmapalphaenvmapmask 1	

    $phong 1
	// $phongexponent 7
	$phongexponenttexture "models/jessev92/haloreach/common/HaloSP"
	$phongboost	15
	$phongalbedotint 1
	$phongfresnelranges	"[0.3 0.3 0.3]"

	$rimlight 1
	$rimlightexponent 50
	$rimlightboost 0.05
}