VertexLitGeneric
{
	"$baseTexture" "models/jessev92/haloreach/weapons/dmr/DMR_diffuse"
	"$bumpmap" "models/jessev92/haloreach/weapons/dmr/DMR_normal"


	"$phong" "1"
	"$phongboost" "0.05"
	"$phongexponent" "10"
	"$phongexponenttexture" "models/jessev92/haloreach/common/halosp"
	"$phongalbedotint" "1"
	"$phongfresnelranges"	"[1 1 1]"

	"$rimlight" "1"
	"$rimlightexponent" "50"
	"$rimlightboost" "0.05"
}