"UnlitGeneric"
{
	"$baseTexture" 	"models/jessev92/haloreach/weapons/dmr/scope_rt"
	"$envmap" 	"env_cubemap"
	"$envmapmask" 	"models/jessev92/haloreach/weapons/dmr/scope_rt"
	"$envmaptint" 				"[.25 .25 .25]"
}